# MagicaVoxel @ ephtracy

# material
mtllib 62x32aspalt.mtl
usemtl palette

# normals
vn -1 0 0
vn 1 0 0
vn 0 0 1
vn 0 0 -1
vn 0 -1 0
vn 0 1 0

# texcoords
vt 0.970703 0.5
vt 0.974609 0.5
vt 0.978516 0.5

# verts
v -31 0 16
v -31 0 8
v -31 0 7
v -31 0 -15
v -31 0 -16
v -31 1 16
v -31 1 8
v -31 1 7
v -31 1 -15
v -31 1 -16
v 31 0 16
v 31 0 -16
v 31 1 16
v 31 1 -16
v -31 0 16
v -31 1 16
v -24 0 16
v -24 1 16
v -23 0 16
v -23 1 16
v 31 0 16
v 31 1 16
v -31 0 -16
v -31 1 -16
v -30 0 -16
v -30 1 -16
v -26 0 -16
v -26 1 -16
v -25 0 -16
v -25 1 -16
v 6 0 -16
v 6 1 -16
v 7 0 -16
v 7 1 -16
v 13 0 -16
v 13 1 -16
v 14 0 -16
v 14 1 -16
v 31 0 -16
v 31 1 -16
v -31 0 16
v -24 0 16
v -23 0 16
v 31 0 16
v -24 0 15
v -23 0 15
v 4 0 15
v 5 0 15
v 6 0 15
v 7 0 15
v 26 0 15
v 27 0 15
v -19 0 14
v -18 0 14
v 4 0 14
v 5 0 14
v 6 0 14
v 7 0 14
v 26 0 14
v 27 0 14
v -29 0 13
v -28 0 13
v -19 0 13
v -18 0 13
v -12 0 13
v -11 0 13
v -3 0 13
v -2 0 13
v -29 0 12
v -28 0 12
v -12 0 12
v -11 0 12
v -3 0 12
v -2 0 12
v -22 0 10
v -21 0 10
v 8 0 10
v 9 0 10
v 20 0 10
v 21 0 10
v -23 0 9
v -22 0 9
v -21 0 9
v 8 0 9
v 9 0 9
v 17 0 9
v 18 0 9
v 20 0 9
v 21 0 9
v -31 0 8
v -30 0 8
v -23 0 8
v -22 0 8
v 5 0 8
v 6 0 8
v 10 0 8
v 11 0 8
v 17 0 8
v 18 0 8
v 26 0 8
v 27 0 8
v -31 0 7
v -30 0 7
v -7 0 7
v -5 0 7
v 5 0 7
v 6 0 7
v 10 0 7
v 11 0 7
v 26 0 7
v 27 0 7
v -10 0 5
v -9 0 5
v -7 0 5
v -5 0 5
v 0 0 5
v 1 0 5
v 28 0 5
v 29 0 5
v -25 0 4
v -24 0 4
v -10 0 4
v -9 0 4
v 0 0 4
v 1 0 4
v -25 0 3
v -24 0 3
v -11 0 3
v -10 0 3
v 22 0 3
v 23 0 3
v 28 0 3
v 29 0 3
v -11 0 2
v -10 0 2
v -5 0 2
v -4 0 2
v 22 0 2
v 23 0 2
v -5 0 1
v -4 0 1
v 7 0 1
v 8 0 1
v 0 0 -0
v 1 0 -0
v 7 0 -0
v 8 0 -0
v 24 0 -0
v 25 0 -0
v -23 0 -1
v -22 0 -1
v 0 0 -1
v 1 0 -1
v 22 0 -1
v 23 0 -1
v 24 0 -1
v 25 0 -1
v -23 0 -2
v -22 0 -2
v 13 0 -2
v 14 0 -2
v 22 0 -2
v 23 0 -2
v -15 0 -3
v -14 0 -3
v -9 0 -3
v -8 0 -3
v 13 0 -3
v 14 0 -3
v -23 0 -4
v -22 0 -4
v -15 0 -4
v -14 0 -4
v -9 0 -4
v -8 0 -4
v -23 0 -5
v -22 0 -5
v 7 0 -5
v 8 0 -5
v 2 0 -6
v 3 0 -6
v 6 0 -6
v 7 0 -6
v 8 0 -6
v 2 0 -7
v 3 0 -7
v 6 0 -7
v 7 0 -7
v 18 0 -7
v 19 0 -7
v 23 0 -7
v 24 0 -7
v -30 0 -8
v -29 0 -8
v -16 0 -8
v -15 0 -8
v -5 0 -8
v -4 0 -8
v 15 0 -8
v 16 0 -8
v 18 0 -8
v 19 0 -8
v 23 0 -8
v 24 0 -8
v -30 0 -9
v -29 0 -9
v -16 0 -9
v -15 0 -9
v -5 0 -9
v -4 0 -9
v 15 0 -9
v 16 0 -9
v 5 0 -10
v 6 0 -10
v -24 0 -11
v -23 0 -11
v 5 0 -11
v 6 0 -11
v 11 0 -11
v 12 0 -11
v 25 0 -11
v 26 0 -11
v -24 0 -12
v -23 0 -12
v -15 0 -12
v -14 0 -12
v 11 0 -12
v 12 0 -12
v 25 0 -12
v 26 0 -12
v -15 0 -13
v -14 0 -13
v -6 0 -13
v -5 0 -13
v 0 0 -13
v 1 0 -13
v 27 0 -13
v 28 0 -13
v -7 0 -14
v -6 0 -14
v -5 0 -14
v 0 0 -14
v 1 0 -14
v 27 0 -14
v 28 0 -14
v -31 0 -15
v -30 0 -15
v -26 0 -15
v -25 0 -15
v -7 0 -15
v -6 0 -15
v 6 0 -15
v 7 0 -15
v 13 0 -15
v 14 0 -15
v -31 0 -16
v -30 0 -16
v -26 0 -16
v -25 0 -16
v 6 0 -16
v 7 0 -16
v 13 0 -16
v 14 0 -16
v 31 0 -16
v -31 1 16
v -24 1 16
v -23 1 16
v 31 1 16
v -24 1 15
v -23 1 15
v 4 1 15
v 5 1 15
v 6 1 15
v 7 1 15
v 26 1 15
v 27 1 15
v -19 1 14
v -18 1 14
v 4 1 14
v 5 1 14
v 6 1 14
v 7 1 14
v 26 1 14
v 27 1 14
v -29 1 13
v -28 1 13
v -19 1 13
v -18 1 13
v -12 1 13
v -11 1 13
v -3 1 13
v -2 1 13
v -29 1 12
v -28 1 12
v -12 1 12
v -11 1 12
v -3 1 12
v -2 1 12
v -22 1 10
v -21 1 10
v 8 1 10
v 9 1 10
v 20 1 10
v 21 1 10
v -23 1 9
v -22 1 9
v -21 1 9
v 8 1 9
v 9 1 9
v 17 1 9
v 18 1 9
v 20 1 9
v 21 1 9
v -31 1 8
v -30 1 8
v -23 1 8
v -22 1 8
v 5 1 8
v 6 1 8
v 10 1 8
v 11 1 8
v 17 1 8
v 18 1 8
v 26 1 8
v 27 1 8
v -31 1 7
v -30 1 7
v -7 1 7
v -5 1 7
v 5 1 7
v 6 1 7
v 10 1 7
v 11 1 7
v 26 1 7
v 27 1 7
v -10 1 5
v -9 1 5
v -7 1 5
v -5 1 5
v 0 1 5
v 1 1 5
v 28 1 5
v 29 1 5
v -25 1 4
v -24 1 4
v -10 1 4
v -9 1 4
v 0 1 4
v 1 1 4
v -25 1 3
v -24 1 3
v -11 1 3
v -10 1 3
v 22 1 3
v 23 1 3
v 28 1 3
v 29 1 3
v -11 1 2
v -10 1 2
v -5 1 2
v -4 1 2
v 22 1 2
v 23 1 2
v -5 1 1
v -4 1 1
v 7 1 1
v 8 1 1
v 0 1 -0
v 1 1 -0
v 7 1 -0
v 8 1 -0
v 24 1 -0
v 25 1 -0
v -23 1 -1
v -22 1 -1
v 0 1 -1
v 1 1 -1
v 22 1 -1
v 23 1 -1
v 24 1 -1
v 25 1 -1
v -23 1 -2
v -22 1 -2
v 13 1 -2
v 14 1 -2
v 22 1 -2
v 23 1 -2
v -15 1 -3
v -14 1 -3
v -9 1 -3
v -8 1 -3
v 13 1 -3
v 14 1 -3
v -23 1 -4
v -22 1 -4
v -15 1 -4
v -14 1 -4
v -9 1 -4
v -8 1 -4
v -23 1 -5
v -22 1 -5
v 7 1 -5
v 8 1 -5
v 2 1 -6
v 3 1 -6
v 6 1 -6
v 7 1 -6
v 8 1 -6
v 2 1 -7
v 3 1 -7
v 6 1 -7
v 7 1 -7
v 18 1 -7
v 19 1 -7
v 23 1 -7
v 24 1 -7
v -30 1 -8
v -29 1 -8
v -16 1 -8
v -15 1 -8
v -5 1 -8
v -4 1 -8
v 15 1 -8
v 16 1 -8
v 18 1 -8
v 19 1 -8
v 23 1 -8
v 24 1 -8
v -30 1 -9
v -29 1 -9
v -16 1 -9
v -15 1 -9
v -5 1 -9
v -4 1 -9
v 15 1 -9
v 16 1 -9
v 5 1 -10
v 6 1 -10
v -24 1 -11
v -23 1 -11
v 5 1 -11
v 6 1 -11
v 11 1 -11
v 12 1 -11
v 25 1 -11
v 26 1 -11
v -24 1 -12
v -23 1 -12
v -15 1 -12
v -14 1 -12
v 11 1 -12
v 12 1 -12
v 25 1 -12
v 26 1 -12
v -15 1 -13
v -14 1 -13
v -6 1 -13
v -5 1 -13
v 0 1 -13
v 1 1 -13
v 27 1 -13
v 28 1 -13
v -7 1 -14
v -6 1 -14
v -5 1 -14
v 0 1 -14
v 1 1 -14
v 27 1 -14
v 28 1 -14
v -31 1 -15
v -30 1 -15
v -26 1 -15
v -25 1 -15
v -7 1 -15
v -6 1 -15
v 6 1 -15
v 7 1 -15
v 13 1 -15
v 14 1 -15
v -31 1 -16
v -30 1 -16
v -26 1 -16
v -25 1 -16
v 6 1 -16
v 7 1 -16
v 13 1 -16
v 14 1 -16
v 31 1 -16

# faces
f 6/1/1 2/1/1 1/1/1
f 7/3/1 3/3/1 2/3/1
f 7/1/1 2/1/1 6/1/1
f 8/1/1 4/1/1 3/1/1
f 8/3/1 3/3/1 7/3/1
f 9/2/1 5/2/1 4/2/1
f 9/1/1 4/1/1 8/1/1
f 10/2/1 5/2/1 9/2/1
f 11/1/2 12/1/2 13/1/2
f 13/1/2 12/1/2 14/1/2
f 17/1/3 16/1/3 15/1/3
f 18/1/3 16/1/3 17/1/3
f 19/3/3 18/3/3 17/3/3
f 20/3/3 18/3/3 19/3/3
f 21/1/3 20/1/3 19/1/3
f 22/1/3 20/1/3 21/1/3
f 23/2/4 24/2/4 25/2/4
f 25/2/4 24/2/4 26/2/4
f 25/1/4 26/1/4 27/1/4
f 27/1/4 26/1/4 28/1/4
f 27/2/4 28/2/4 29/2/4
f 29/2/4 28/2/4 30/2/4
f 29/1/4 30/1/4 31/1/4
f 31/1/4 30/1/4 32/1/4
f 31/2/4 32/2/4 33/2/4
f 33/2/4 32/2/4 34/2/4
f 33/1/4 34/1/4 35/1/4
f 35/1/4 34/1/4 36/1/4
f 35/3/4 36/3/4 37/3/4
f 37/3/4 36/3/4 38/3/4
f 37/1/4 38/1/4 39/1/4
f 39/1/4 38/1/4 40/1/4
f 45/1/5 42/1/5 41/1/5
f 45/3/5 43/3/5 42/3/5
f 46/1/5 44/1/5 43/1/5
f 46/3/5 43/3/5 45/3/5
f 47/1/5 44/1/5 46/1/5
f 48/1/5 44/1/5 47/1/5
f 49/1/5 44/1/5 48/1/5
f 50/1/5 44/1/5 49/1/5
f 51/1/5 44/1/5 50/1/5
f 52/1/5 44/1/5 51/1/5
f 53/1/5 46/1/5 45/1/5
f 53/1/5 47/1/5 46/1/5
f 54/1/5 47/1/5 53/1/5
f 55/3/5 48/3/5 47/3/5
f 55/1/5 47/1/5 54/1/5
f 56/1/5 49/1/5 48/1/5
f 56/3/5 48/3/5 55/3/5
f 57/2/5 50/2/5 49/2/5
f 57/1/5 49/1/5 56/1/5
f 58/1/5 51/1/5 50/1/5
f 58/2/5 50/2/5 57/2/5
f 59/3/5 52/3/5 51/3/5
f 59/1/5 51/1/5 58/1/5
f 60/1/5 44/1/5 52/1/5
f 60/3/5 52/3/5 59/3/5
f 61/1/5 45/1/5 41/1/5
f 61/1/5 53/1/5 45/1/5
f 62/1/5 53/1/5 61/1/5
f 63/2/5 54/2/5 53/2/5
f 63/1/5 53/1/5 62/1/5
f 64/1/5 59/1/5 58/1/5
f 64/2/5 54/2/5 63/2/5
f 64/1/5 58/1/5 57/1/5
f 64/1/5 55/1/5 54/1/5
f 64/1/5 60/1/5 59/1/5
f 64/1/5 57/1/5 56/1/5
f 64/1/5 56/1/5 55/1/5
f 65/1/5 60/1/5 64/1/5
f 66/1/5 60/1/5 65/1/5
f 67/1/5 60/1/5 66/1/5
f 68/1/5 60/1/5 67/1/5
f 69/1/5 61/1/5 41/1/5
f 69/2/5 62/2/5 61/2/5
f 70/1/5 63/1/5 62/1/5
f 70/2/5 62/2/5 69/2/5
f 70/1/5 64/1/5 63/1/5
f 70/1/5 65/1/5 64/1/5
f 71/2/5 66/2/5 65/2/5
f 71/1/5 65/1/5 70/1/5
f 72/1/5 67/1/5 66/1/5
f 72/2/5 66/2/5 71/2/5
f 73/2/5 68/2/5 67/2/5
f 73/1/5 67/1/5 72/1/5
f 74/1/5 60/1/5 68/1/5
f 74/2/5 68/2/5 73/2/5
f 75/1/5 73/1/5 72/1/5
f 75/1/5 72/1/5 71/1/5
f 75/1/5 74/1/5 73/1/5
f 75/1/5 70/1/5 69/1/5
f 75/1/5 71/1/5 70/1/5
f 76/1/5 74/1/5 75/1/5
f 77/1/5 60/1/5 74/1/5
f 77/1/5 74/1/5 76/1/5
f 78/1/5 60/1/5 77/1/5
f 79/1/5 60/1/5 78/1/5
f 80/1/5 60/1/5 79/1/5
f 81/1/5 75/1/5 69/1/5
f 82/2/5 76/2/5 75/2/5
f 82/1/5 75/1/5 81/1/5
f 83/1/5 77/1/5 76/1/5
f 83/2/5 76/2/5 82/2/5
f 84/3/5 78/3/5 77/3/5
f 84/1/5 77/1/5 83/1/5
f 85/1/5 79/1/5 78/1/5
f 85/3/5 78/3/5 84/3/5
f 86/1/5 79/1/5 85/1/5
f 87/1/5 79/1/5 86/1/5
f 88/3/5 80/3/5 79/3/5
f 88/1/5 79/1/5 87/1/5
f 89/1/5 60/1/5 80/1/5
f 89/3/5 80/3/5 88/3/5
f 90/1/5 69/1/5 41/1/5
f 90/1/5 81/1/5 69/1/5
f 91/1/5 81/1/5 90/1/5
f 92/3/5 82/3/5 81/3/5
f 92/1/5 81/1/5 91/1/5
f 93/1/5 83/1/5 82/1/5
f 93/3/5 82/3/5 92/3/5
f 93/1/5 84/1/5 83/1/5
f 93/1/5 85/1/5 84/1/5
f 93/1/5 86/1/5 85/1/5
f 94/1/5 86/1/5 93/1/5
f 95/1/5 86/1/5 94/1/5
f 96/1/5 86/1/5 95/1/5
f 97/1/5 86/1/5 96/1/5
f 98/2/5 87/2/5 86/2/5
f 98/1/5 86/1/5 97/1/5
f 99/1/5 89/1/5 88/1/5
f 99/2/5 87/2/5 98/2/5
f 99/1/5 88/1/5 87/1/5
f 100/1/5 60/1/5 89/1/5
f 100/1/5 89/1/5 99/1/5
f 101/1/5 44/1/5 60/1/5
f 101/1/5 60/1/5 100/1/5
f 102/3/5 91/3/5 90/3/5
f 103/1/5 92/1/5 91/1/5
f 103/3/5 91/3/5 102/3/5
f 103/1/5 93/1/5 92/1/5
f 103/1/5 94/1/5 93/1/5
f 104/1/5 94/1/5 103/1/5
f 105/1/5 94/1/5 104/1/5
f 106/2/5 95/2/5 94/2/5
f 106/1/5 94/1/5 105/1/5
f 107/1/5 96/1/5 95/1/5
f 107/2/5 95/2/5 106/2/5
f 108/2/5 97/2/5 96/2/5
f 108/1/5 96/1/5 107/1/5
f 109/1/5 100/1/5 99/1/5
f 109/2/5 97/2/5 108/2/5
f 109/1/5 99/1/5 98/1/5
f 109/1/5 98/1/5 97/1/5
f 110/3/5 101/3/5 100/3/5
f 110/1/5 100/1/5 109/1/5
f 111/1/5 44/1/5 101/1/5
f 111/3/5 101/3/5 110/3/5
f 112/1/5 104/1/5 103/1/5
f 112/1/5 103/1/5 102/1/5
f 113/1/5 104/1/5 112/1/5
f 114/2/5 105/2/5 104/2/5
f 114/1/5 104/1/5 113/1/5
f 115/1/5 108/1/5 107/1/5
f 115/2/5 105/2/5 114/2/5
f 115/1/5 111/1/5 110/1/5
f 115/1/5 106/1/5 105/1/5
f 115/1/5 110/1/5 109/1/5
f 115/1/5 109/1/5 108/1/5
f 115/1/5 107/1/5 106/1/5
f 116/1/5 111/1/5 115/1/5
f 117/1/5 111/1/5 116/1/5
f 118/1/5 44/1/5 111/1/5
f 118/1/5 111/1/5 117/1/5
f 119/1/5 44/1/5 118/1/5
f 120/1/5 112/1/5 102/1/5
f 121/1/5 112/1/5 120/1/5
f 122/3/5 113/3/5 112/3/5
f 122/1/5 112/1/5 121/1/5
f 123/1/5 114/1/5 113/1/5
f 123/3/5 113/3/5 122/3/5
f 123/1/5 115/1/5 114/1/5
f 123/1/5 116/1/5 115/1/5
f 124/3/5 117/3/5 116/3/5
f 124/1/5 116/1/5 123/1/5
f 125/1/5 118/1/5 117/1/5
f 125/3/5 117/3/5 124/3/5
f 126/2/5 121/2/5 120/2/5
f 126/1/5 120/1/5 102/1/5
f 127/1/5 122/1/5 121/1/5
f 127/2/5 121/2/5 126/2/5
f 127/1/5 123/1/5 122/1/5
f 127/1/5 124/1/5 123/1/5
f 127/1/5 125/1/5 124/1/5
f 128/1/5 125/1/5 127/1/5
f 129/1/5 125/1/5 128/1/5
f 130/1/5 118/1/5 125/1/5
f 130/1/5 125/1/5 129/1/5
f 131/1/5 118/1/5 130/1/5
f 132/3/5 119/3/5 118/3/5
f 132/1/5 118/1/5 131/1/5
f 133/1/5 44/1/5 119/1/5
f 133/3/5 119/3/5 132/3/5
f 134/2/5 129/2/5 128/2/5
f 134/1/5 127/1/5 126/1/5
f 134/1/5 128/1/5 127/1/5
f 135/1/5 130/1/5 129/1/5
f 135/2/5 129/2/5 134/2/5
f 136/1/5 130/1/5 135/1/5
f 137/1/5 130/1/5 136/1/5
f 138/2/5 131/2/5 130/2/5
f 138/1/5 130/1/5 137/1/5
f 139/1/5 132/1/5 131/1/5
f 139/2/5 131/2/5 138/2/5
f 139/1/5 133/1/5 132/1/5
f 140/3/5 137/3/5 136/3/5
f 140/1/5 136/1/5 135/1/5
f 140/1/5 135/1/5 134/1/5
f 141/1/5 138/1/5 137/1/5
f 141/3/5 137/3/5 140/3/5
f 141/1/5 139/1/5 138/1/5
f 142/1/5 139/1/5 141/1/5
f 143/1/5 139/1/5 142/1/5
f 144/1/5 141/1/5 140/1/5
f 144/1/5 142/1/5 141/1/5
f 145/1/5 142/1/5 144/1/5
f 146/3/5 143/3/5 142/3/5
f 146/1/5 142/1/5 145/1/5
f 147/1/5 139/1/5 143/1/5
f 147/3/5 143/3/5 146/3/5
f 148/1/5 133/1/5 139/1/5
f 148/1/5 139/1/5 147/1/5
f 149/1/5 133/1/5 148/1/5
f 150/1/5 140/1/5 134/1/5
f 150/1/5 134/1/5 126/1/5
f 150/1/5 144/1/5 140/1/5
f 151/1/5 144/1/5 150/1/5
f 152/2/5 145/2/5 144/2/5
f 152/1/5 144/1/5 151/1/5
f 153/1/5 147/1/5 146/1/5
f 153/2/5 145/2/5 152/2/5
f 153/1/5 146/1/5 145/1/5
f 153/1/5 148/1/5 147/1/5
f 154/1/5 148/1/5 153/1/5
f 155/1/5 148/1/5 154/1/5
f 156/3/5 149/3/5 148/3/5
f 156/1/5 148/1/5 155/1/5
f 157/1/5 133/1/5 149/1/5
f 157/3/5 149/3/5 156/3/5
f 158/1/5 150/1/5 126/1/5
f 158/3/5 151/3/5 150/3/5
f 159/1/5 152/1/5 151/1/5
f 159/3/5 151/3/5 158/3/5
f 159/1/5 153/1/5 152/1/5
f 159/1/5 154/1/5 153/1/5
f 160/1/5 154/1/5 159/1/5
f 161/1/5 154/1/5 160/1/5
f 162/2/5 155/2/5 154/2/5
f 162/1/5 154/1/5 161/1/5
f 163/1/5 156/1/5 155/1/5
f 163/2/5 155/2/5 162/2/5
f 163/1/5 157/1/5 156/1/5
f 164/1/5 160/1/5 159/1/5
f 164/1/5 159/1/5 158/1/5
f 165/1/5 160/1/5 164/1/5
f 166/1/5 160/1/5 165/1/5
f 167/1/5 160/1/5 166/1/5
f 168/3/5 161/3/5 160/3/5
f 168/1/5 160/1/5 167/1/5
f 169/1/5 162/1/5 161/1/5
f 169/3/5 161/3/5 168/3/5
f 169/1/5 163/1/5 162/1/5
f 170/1/5 158/1/5 126/1/5
f 170/1/5 164/1/5 158/1/5
f 171/1/5 164/1/5 170/1/5
f 172/3/5 165/3/5 164/3/5
f 172/1/5 164/1/5 171/1/5
f 173/1/5 166/1/5 165/1/5
f 173/3/5 165/3/5 172/3/5
f 174/2/5 167/2/5 166/2/5
f 174/1/5 166/1/5 173/1/5
f 175/1/5 168/1/5 167/1/5
f 175/2/5 167/2/5 174/2/5
f 175/1/5 169/1/5 168/1/5
f 176/1/5 170/1/5 126/1/5
f 176/2/5 171/2/5 170/2/5
f 177/1/5 174/1/5 173/1/5
f 177/2/5 171/2/5 176/2/5
f 177/1/5 173/1/5 172/1/5
f 177/1/5 175/1/5 174/1/5
f 177/1/5 172/1/5 171/1/5
f 178/1/5 169/1/5 175/1/5
f 178/1/5 175/1/5 177/1/5
f 179/1/5 169/1/5 178/1/5
f 180/1/5 177/1/5 176/1/5
f 180/1/5 178/1/5 177/1/5
f 181/1/5 178/1/5 180/1/5
f 182/1/5 178/1/5 181/1/5
f 183/2/5 179/2/5 178/2/5
f 183/1/5 178/1/5 182/1/5
f 184/1/5 169/1/5 179/1/5
f 184/2/5 179/2/5 183/2/5
f 185/1/5 180/1/5 176/1/5
f 185/3/5 181/3/5 180/3/5
f 186/1/5 182/1/5 181/1/5
f 186/3/5 181/3/5 185/3/5
f 187/2/5 183/2/5 182/2/5
f 187/1/5 182/1/5 186/1/5
f 188/1/5 184/1/5 183/1/5
f 188/2/5 183/2/5 187/2/5
f 189/1/5 163/1/5 169/1/5
f 189/1/5 184/1/5 188/1/5
f 189/1/5 169/1/5 184/1/5
f 190/1/5 163/1/5 189/1/5
f 191/1/5 157/1/5 163/1/5
f 191/1/5 163/1/5 190/1/5
f 192/1/5 157/1/5 191/1/5
f 193/1/5 126/1/5 102/1/5
f 193/1/5 188/1/5 187/1/5
f 193/1/5 176/1/5 126/1/5
f 193/1/5 186/1/5 185/1/5
f 193/1/5 189/1/5 188/1/5
f 193/1/5 187/1/5 186/1/5
f 193/1/5 185/1/5 176/1/5
f 194/1/5 189/1/5 193/1/5
f 195/1/5 189/1/5 194/1/5
f 196/1/5 189/1/5 195/1/5
f 197/1/5 189/1/5 196/1/5
f 198/1/5 189/1/5 197/1/5
f 199/1/5 189/1/5 198/1/5
f 200/1/5 189/1/5 199/1/5
f 201/3/5 190/3/5 189/3/5
f 201/1/5 189/1/5 200/1/5
f 202/1/5 191/1/5 190/1/5
f 202/3/5 190/3/5 201/3/5
f 203/2/5 192/2/5 191/2/5
f 203/1/5 191/1/5 202/1/5
f 204/1/5 157/1/5 192/1/5
f 204/2/5 192/2/5 203/2/5
f 205/1/5 193/1/5 102/1/5
f 205/3/5 194/3/5 193/3/5
f 206/1/5 195/1/5 194/1/5
f 206/3/5 194/3/5 205/3/5
f 207/2/5 196/2/5 195/2/5
f 207/1/5 195/1/5 206/1/5
f 208/1/5 197/1/5 196/1/5
f 208/2/5 196/2/5 207/2/5
f 209/2/5 198/2/5 197/2/5
f 209/1/5 197/1/5 208/1/5
f 210/1/5 199/1/5 198/1/5
f 210/2/5 198/2/5 209/2/5
f 211/2/5 200/2/5 199/2/5
f 211/1/5 199/1/5 210/1/5
f 212/1/5 203/1/5 202/1/5
f 212/2/5 200/2/5 211/2/5
f 212/1/5 202/1/5 201/1/5
f 212/1/5 201/1/5 200/1/5
f 212/1/5 204/1/5 203/1/5
f 213/1/5 211/1/5 210/1/5
f 213/1/5 209/1/5 208/1/5
f 213/1/5 212/1/5 211/1/5
f 213/1/5 206/1/5 205/1/5
f 213/1/5 208/1/5 207/1/5
f 213/1/5 207/1/5 206/1/5
f 213/1/5 210/1/5 209/1/5
f 214/1/5 212/1/5 213/1/5
f 215/1/5 213/1/5 205/1/5
f 216/1/5 213/1/5 215/1/5
f 217/3/5 214/3/5 213/3/5
f 217/1/5 213/1/5 216/1/5
f 218/1/5 212/1/5 214/1/5
f 218/3/5 214/3/5 217/3/5
f 219/1/5 212/1/5 218/1/5
f 220/1/5 212/1/5 219/1/5
f 221/1/5 204/1/5 212/1/5
f 221/1/5 212/1/5 220/1/5
f 221/1/5 157/1/5 204/1/5
f 221/1/5 133/1/5 157/1/5
f 222/1/5 133/1/5 221/1/5
f 223/3/5 216/3/5 215/3/5
f 223/1/5 215/1/5 205/1/5
f 224/1/5 219/1/5 218/1/5
f 224/3/5 216/3/5 223/3/5
f 224/1/5 218/1/5 217/1/5
f 224/1/5 217/1/5 216/1/5
f 225/1/5 219/1/5 224/1/5
f 226/1/5 219/1/5 225/1/5
f 227/2/5 220/2/5 219/2/5
f 227/1/5 219/1/5 226/1/5
f 228/1/5 221/1/5 220/1/5
f 228/2/5 220/2/5 227/2/5
f 229/3/5 222/3/5 221/3/5
f 229/1/5 221/1/5 228/1/5
f 230/1/5 133/1/5 222/1/5
f 230/3/5 222/3/5 229/3/5
f 231/3/5 226/3/5 225/3/5
f 231/1/5 224/1/5 223/1/5
f 231/1/5 225/1/5 224/1/5
f 232/1/5 227/1/5 226/1/5
f 232/3/5 226/3/5 231/3/5
f 232/1/5 228/1/5 227/1/5
f 232/1/5 230/1/5 229/1/5
f 232/1/5 229/1/5 228/1/5
f 233/1/5 230/1/5 232/1/5
f 234/1/5 230/1/5 233/1/5
f 235/1/5 230/1/5 234/1/5
f 236/1/5 230/1/5 235/1/5
f 237/1/5 133/1/5 230/1/5
f 237/1/5 230/1/5 236/1/5
f 238/1/5 133/1/5 237/1/5
f 239/1/5 232/1/5 231/1/5
f 239/1/5 233/1/5 232/1/5
f 240/2/5 234/2/5 233/2/5
f 240/1/5 233/1/5 239/1/5
f 241/1/5 235/1/5 234/1/5
f 241/2/5 234/2/5 240/2/5
f 242/2/5 236/2/5 235/2/5
f 242/1/5 235/1/5 241/1/5
f 243/1/5 237/1/5 236/1/5
f 243/2/5 236/2/5 242/2/5
f 244/3/5 238/3/5 237/3/5
f 244/1/5 237/1/5 243/1/5
f 245/1/5 133/1/5 238/1/5
f 245/3/5 238/3/5 244/3/5
f 246/1/5 205/1/5 102/1/5
f 246/1/5 223/1/5 205/1/5
f 246/1/5 231/1/5 223/1/5
f 246/1/5 239/1/5 231/1/5
f 247/1/5 239/1/5 246/1/5
f 248/1/5 239/1/5 247/1/5
f 249/1/5 239/1/5 248/1/5
f 250/2/5 240/2/5 239/2/5
f 250/1/5 239/1/5 249/1/5
f 251/1/5 241/1/5 240/1/5
f 251/2/5 240/2/5 250/2/5
f 251/1/5 245/1/5 244/1/5
f 251/1/5 242/1/5 241/1/5
f 251/1/5 244/1/5 243/1/5
f 251/1/5 243/1/5 242/1/5
f 252/1/5 245/1/5 251/1/5
f 253/1/5 245/1/5 252/1/5
f 254/1/5 245/1/5 253/1/5
f 255/1/5 245/1/5 254/1/5
f 256/2/5 247/2/5 246/2/5
f 257/1/5 248/1/5 247/1/5
f 257/2/5 247/2/5 256/2/5
f 258/2/5 249/2/5 248/2/5
f 258/1/5 248/1/5 257/1/5
f 259/1/5 250/1/5 249/1/5
f 259/2/5 249/2/5 258/2/5
f 259/1/5 251/1/5 250/1/5
f 259/1/5 252/1/5 251/1/5
f 260/2/5 253/2/5 252/2/5
f 260/1/5 252/1/5 259/1/5
f 261/1/5 254/1/5 253/1/5
f 261/2/5 253/2/5 260/2/5
f 262/3/5 255/3/5 254/3/5
f 262/1/5 254/1/5 261/1/5
f 263/1/5 245/1/5 255/1/5
f 263/3/5 255/3/5 262/3/5
f 264/1/5 133/1/5 245/1/5
f 264/1/5 245/1/5 263/1/5
f 264/1/5 44/1/5 133/1/5
f 265/1/6 266/1/6 269/1/6
f 266/3/6 267/3/6 269/3/6
f 267/1/6 268/1/6 270/1/6
f 269/3/6 267/3/6 270/3/6
f 270/1/6 268/1/6 271/1/6
f 271/1/6 268/1/6 272/1/6
f 272/1/6 268/1/6 273/1/6
f 273/1/6 268/1/6 274/1/6
f 274/1/6 268/1/6 275/1/6
f 275/1/6 268/1/6 276/1/6
f 269/1/6 270/1/6 277/1/6
f 270/1/6 271/1/6 277/1/6
f 277/1/6 271/1/6 278/1/6
f 271/3/6 272/3/6 279/3/6
f 278/1/6 271/1/6 279/1/6
f 272/1/6 273/1/6 280/1/6
f 279/3/6 272/3/6 280/3/6
f 273/2/6 274/2/6 281/2/6
f 280/1/6 273/1/6 281/1/6
f 274/1/6 275/1/6 282/1/6
f 281/2/6 274/2/6 282/2/6
f 275/3/6 276/3/6 283/3/6
f 282/1/6 275/1/6 283/1/6
f 276/1/6 268/1/6 284/1/6
f 283/3/6 276/3/6 284/3/6
f 265/1/6 269/1/6 285/1/6
f 269/1/6 277/1/6 285/1/6
f 285/1/6 277/1/6 286/1/6
f 277/2/6 278/2/6 287/2/6
f 286/1/6 277/1/6 287/1/6
f 282/1/6 283/1/6 288/1/6
f 287/2/6 278/2/6 288/2/6
f 281/1/6 282/1/6 288/1/6
f 278/1/6 279/1/6 288/1/6
f 283/1/6 284/1/6 288/1/6
f 280/1/6 281/1/6 288/1/6
f 279/1/6 280/1/6 288/1/6
f 288/1/6 284/1/6 289/1/6
f 289/1/6 284/1/6 290/1/6
f 290/1/6 284/1/6 291/1/6
f 291/1/6 284/1/6 292/1/6
f 265/1/6 285/1/6 293/1/6
f 285/2/6 286/2/6 293/2/6
f 286/1/6 287/1/6 294/1/6
f 293/2/6 286/2/6 294/2/6
f 287/1/6 288/1/6 294/1/6
f 288/1/6 289/1/6 294/1/6
f 289/2/6 290/2/6 295/2/6
f 294/1/6 289/1/6 295/1/6
f 290/1/6 291/1/6 296/1/6
f 295/2/6 290/2/6 296/2/6
f 291/2/6 292/2/6 297/2/6
f 296/1/6 291/1/6 297/1/6
f 292/1/6 284/1/6 298/1/6
f 297/2/6 292/2/6 298/2/6
f 296/1/6 297/1/6 299/1/6
f 295/1/6 296/1/6 299/1/6
f 297/1/6 298/1/6 299/1/6
f 293/1/6 294/1/6 299/1/6
f 294/1/6 295/1/6 299/1/6
f 299/1/6 298/1/6 300/1/6
f 298/1/6 284/1/6 301/1/6
f 300/1/6 298/1/6 301/1/6
f 301/1/6 284/1/6 302/1/6
f 302/1/6 284/1/6 303/1/6
f 303/1/6 284/1/6 304/1/6
f 293/1/6 299/1/6 305/1/6
f 299/2/6 300/2/6 306/2/6
f 305/1/6 299/1/6 306/1/6
f 300/1/6 301/1/6 307/1/6
f 306/2/6 300/2/6 307/2/6
f 301/3/6 302/3/6 308/3/6
f 307/1/6 301/1/6 308/1/6
f 302/1/6 303/1/6 309/1/6
f 308/3/6 302/3/6 309/3/6
f 309/1/6 303/1/6 310/1/6
f 310/1/6 303/1/6 311/1/6
f 303/3/6 304/3/6 312/3/6
f 311/1/6 303/1/6 312/1/6
f 304/1/6 284/1/6 313/1/6
f 312/3/6 304/3/6 313/3/6
f 265/1/6 293/1/6 314/1/6
f 293/1/6 305/1/6 314/1/6
f 314/1/6 305/1/6 315/1/6
f 305/3/6 306/3/6 316/3/6
f 315/1/6 305/1/6 316/1/6
f 306/1/6 307/1/6 317/1/6
f 316/3/6 306/3/6 317/3/6
f 307/1/6 308/1/6 317/1/6
f 308/1/6 309/1/6 317/1/6
f 309/1/6 310/1/6 317/1/6
f 317/1/6 310/1/6 318/1/6
f 318/1/6 310/1/6 319/1/6
f 319/1/6 310/1/6 320/1/6
f 320/1/6 310/1/6 321/1/6
f 310/2/6 311/2/6 322/2/6
f 321/1/6 310/1/6 322/1/6
f 312/1/6 313/1/6 323/1/6
f 322/2/6 311/2/6 323/2/6
f 311/1/6 312/1/6 323/1/6
f 313/1/6 284/1/6 324/1/6
f 323/1/6 313/1/6 324/1/6
f 284/1/6 268/1/6 325/1/6
f 324/1/6 284/1/6 325/1/6
f 314/3/6 315/3/6 326/3/6
f 315/1/6 316/1/6 327/1/6
f 326/3/6 315/3/6 327/3/6
f 316/1/6 317/1/6 327/1/6
f 317/1/6 318/1/6 327/1/6
f 327/1/6 318/1/6 328/1/6
f 328/1/6 318/1/6 329/1/6
f 318/2/6 319/2/6 330/2/6
f 329/1/6 318/1/6 330/1/6
f 319/1/6 320/1/6 331/1/6
f 330/2/6 319/2/6 331/2/6
f 320/2/6 321/2/6 332/2/6
f 331/1/6 320/1/6 332/1/6
f 323/1/6 324/1/6 333/1/6
f 332/2/6 321/2/6 333/2/6
f 322/1/6 323/1/6 333/1/6
f 321/1/6 322/1/6 333/1/6
f 324/3/6 325/3/6 334/3/6
f 333/1/6 324/1/6 334/1/6
f 325/1/6 268/1/6 335/1/6
f 334/3/6 325/3/6 335/3/6
f 327/1/6 328/1/6 336/1/6
f 326/1/6 327/1/6 336/1/6
f 336/1/6 328/1/6 337/1/6
f 328/2/6 329/2/6 338/2/6
f 337/1/6 328/1/6 338/1/6
f 331/1/6 332/1/6 339/1/6
f 338/2/6 329/2/6 339/2/6
f 334/1/6 335/1/6 339/1/6
f 329/1/6 330/1/6 339/1/6
f 333/1/6 334/1/6 339/1/6
f 332/1/6 333/1/6 339/1/6
f 330/1/6 331/1/6 339/1/6
f 339/1/6 335/1/6 340/1/6
f 340/1/6 335/1/6 341/1/6
f 335/1/6 268/1/6 342/1/6
f 341/1/6 335/1/6 342/1/6
f 342/1/6 268/1/6 343/1/6
f 326/1/6 336/1/6 344/1/6
f 344/1/6 336/1/6 345/1/6
f 336/3/6 337/3/6 346/3/6
f 345/1/6 336/1/6 346/1/6
f 337/1/6 338/1/6 347/1/6
f 346/3/6 337/3/6 347/3/6
f 338/1/6 339/1/6 347/1/6
f 339/1/6 340/1/6 347/1/6
f 340/3/6 341/3/6 348/3/6
f 347/1/6 340/1/6 348/1/6
f 341/1/6 342/1/6 349/1/6
f 348/3/6 341/3/6 349/3/6
f 344/2/6 345/2/6 350/2/6
f 326/1/6 344/1/6 350/1/6
f 345/1/6 346/1/6 351/1/6
f 350/2/6 345/2/6 351/2/6
f 346/1/6 347/1/6 351/1/6
f 347/1/6 348/1/6 351/1/6
f 348/1/6 349/1/6 351/1/6
f 351/1/6 349/1/6 352/1/6
f 352/1/6 349/1/6 353/1/6
f 349/1/6 342/1/6 354/1/6
f 353/1/6 349/1/6 354/1/6
f 354/1/6 342/1/6 355/1/6
f 342/3/6 343/3/6 356/3/6
f 355/1/6 342/1/6 356/1/6
f 343/1/6 268/1/6 357/1/6
f 356/3/6 343/3/6 357/3/6
f 352/2/6 353/2/6 358/2/6
f 350/1/6 351/1/6 358/1/6
f 351/1/6 352/1/6 358/1/6
f 353/1/6 354/1/6 359/1/6
f 358/2/6 353/2/6 359/2/6
f 359/1/6 354/1/6 360/1/6
f 360/1/6 354/1/6 361/1/6
f 354/2/6 355/2/6 362/2/6
f 361/1/6 354/1/6 362/1/6
f 355/1/6 356/1/6 363/1/6
f 362/2/6 355/2/6 363/2/6
f 356/1/6 357/1/6 363/1/6
f 360/3/6 361/3/6 364/3/6
f 359/1/6 360/1/6 364/1/6
f 358/1/6 359/1/6 364/1/6
f 361/1/6 362/1/6 365/1/6
f 364/3/6 361/3/6 365/3/6
f 362/1/6 363/1/6 365/1/6
f 365/1/6 363/1/6 366/1/6
f 366/1/6 363/1/6 367/1/6
f 364/1/6 365/1/6 368/1/6
f 365/1/6 366/1/6 368/1/6
f 368/1/6 366/1/6 369/1/6
f 366/3/6 367/3/6 370/3/6
f 369/1/6 366/1/6 370/1/6
f 367/1/6 363/1/6 371/1/6
f 370/3/6 367/3/6 371/3/6
f 363/1/6 357/1/6 372/1/6
f 371/1/6 363/1/6 372/1/6
f 372/1/6 357/1/6 373/1/6
f 358/1/6 364/1/6 374/1/6
f 350/1/6 358/1/6 374/1/6
f 364/1/6 368/1/6 374/1/6
f 374/1/6 368/1/6 375/1/6
f 368/2/6 369/2/6 376/2/6
f 375/1/6 368/1/6 376/1/6
f 370/1/6 371/1/6 377/1/6
f 376/2/6 369/2/6 377/2/6
f 369/1/6 370/1/6 377/1/6
f 371/1/6 372/1/6 377/1/6
f 377/1/6 372/1/6 378/1/6
f 378/1/6 372/1/6 379/1/6
f 372/3/6 373/3/6 380/3/6
f 379/1/6 372/1/6 380/1/6
f 373/1/6 357/1/6 381/1/6
f 380/3/6 373/3/6 381/3/6
f 350/1/6 374/1/6 382/1/6
f 374/3/6 375/3/6 382/3/6
f 375/1/6 376/1/6 383/1/6
f 382/3/6 375/3/6 383/3/6
f 376/1/6 377/1/6 383/1/6
f 377/1/6 378/1/6 383/1/6
f 383/1/6 378/1/6 384/1/6
f 384/1/6 378/1/6 385/1/6
f 378/2/6 379/2/6 386/2/6
f 385/1/6 378/1/6 386/1/6
f 379/1/6 380/1/6 387/1/6
f 386/2/6 379/2/6 387/2/6
f 380/1/6 381/1/6 387/1/6
f 383/1/6 384/1/6 388/1/6
f 382/1/6 383/1/6 388/1/6
f 388/1/6 384/1/6 389/1/6
f 389/1/6 384/1/6 390/1/6
f 390/1/6 384/1/6 391/1/6
f 384/3/6 385/3/6 392/3/6
f 391/1/6 384/1/6 392/1/6
f 385/1/6 386/1/6 393/1/6
f 392/3/6 385/3/6 393/3/6
f 386/1/6 387/1/6 393/1/6
f 350/1/6 382/1/6 394/1/6
f 382/1/6 388/1/6 394/1/6
f 394/1/6 388/1/6 395/1/6
f 388/3/6 389/3/6 396/3/6
f 395/1/6 388/1/6 396/1/6
f 389/1/6 390/1/6 397/1/6
f 396/3/6 389/3/6 397/3/6
f 390/2/6 391/2/6 398/2/6
f 397/1/6 390/1/6 398/1/6
f 391/1/6 392/1/6 399/1/6
f 398/2/6 391/2/6 399/2/6
f 392/1/6 393/1/6 399/1/6
f 350/1/6 394/1/6 400/1/6
f 394/2/6 395/2/6 400/2/6
f 397/1/6 398/1/6 401/1/6
f 400/2/6 395/2/6 401/2/6
f 396/1/6 397/1/6 401/1/6
f 398/1/6 399/1/6 401/1/6
f 395/1/6 396/1/6 401/1/6
f 399/1/6 393/1/6 402/1/6
f 401/1/6 399/1/6 402/1/6
f 402/1/6 393/1/6 403/1/6
f 400/1/6 401/1/6 404/1/6
f 401/1/6 402/1/6 404/1/6
f 404/1/6 402/1/6 405/1/6
f 405/1/6 402/1/6 406/1/6
f 402/2/6 403/2/6 407/2/6
f 406/1/6 402/1/6 407/1/6
f 403/1/6 393/1/6 408/1/6
f 407/2/6 403/2/6 408/2/6
f 400/1/6 404/1/6 409/1/6
f 404/3/6 405/3/6 409/3/6
f 405/1/6 406/1/6 410/1/6
f 409/3/6 405/3/6 410/3/6
f 406/2/6 407/2/6 411/2/6
f 410/1/6 406/1/6 411/1/6
f 407/1/6 408/1/6 412/1/6
f 411/2/6 407/2/6 412/2/6
f 393/1/6 387/1/6 413/1/6
f 412/1/6 408/1/6 413/1/6
f 408/1/6 393/1/6 413/1/6
f 413/1/6 387/1/6 414/1/6
f 387/1/6 381/1/6 415/1/6
f 414/1/6 387/1/6 415/1/6
f 415/1/6 381/1/6 416/1/6
f 326/1/6 350/1/6 417/1/6
f 411/1/6 412/1/6 417/1/6
f 350/1/6 400/1/6 417/1/6
f 409/1/6 410/1/6 417/1/6
f 412/1/6 413/1/6 417/1/6
f 410/1/6 411/1/6 417/1/6
f 400/1/6 409/1/6 417/1/6
f 417/1/6 413/1/6 418/1/6
f 418/1/6 413/1/6 419/1/6
f 419/1/6 413/1/6 420/1/6
f 420/1/6 413/1/6 421/1/6
f 421/1/6 413/1/6 422/1/6
f 422/1/6 413/1/6 423/1/6
f 423/1/6 413/1/6 424/1/6
f 413/3/6 414/3/6 425/3/6
f 424/1/6 413/1/6 425/1/6
f 414/1/6 415/1/6 426/1/6
f 425/3/6 414/3/6 426/3/6
f 415/2/6 416/2/6 427/2/6
f 426/1/6 415/1/6 427/1/6
f 416/1/6 381/1/6 428/1/6
f 427/2/6 416/2/6 428/2/6
f 326/1/6 417/1/6 429/1/6
f 417/3/6 418/3/6 429/3/6
f 418/1/6 419/1/6 430/1/6
f 429/3/6 418/3/6 430/3/6
f 419/2/6 420/2/6 431/2/6
f 430/1/6 419/1/6 431/1/6
f 420/1/6 421/1/6 432/1/6
f 431/2/6 420/2/6 432/2/6
f 421/2/6 422/2/6 433/2/6
f 432/1/6 421/1/6 433/1/6
f 422/1/6 423/1/6 434/1/6
f 433/2/6 422/2/6 434/2/6
f 423/2/6 424/2/6 435/2/6
f 434/1/6 423/1/6 435/1/6
f 426/1/6 427/1/6 436/1/6
f 435/2/6 424/2/6 436/2/6
f 425/1/6 426/1/6 436/1/6
f 424/1/6 425/1/6 436/1/6
f 427/1/6 428/1/6 436/1/6
f 434/1/6 435/1/6 437/1/6
f 432/1/6 433/1/6 437/1/6
f 435/1/6 436/1/6 437/1/6
f 429/1/6 430/1/6 437/1/6
f 431/1/6 432/1/6 437/1/6
f 430/1/6 431/1/6 437/1/6
f 433/1/6 434/1/6 437/1/6
f 437/1/6 436/1/6 438/1/6
f 429/1/6 437/1/6 439/1/6
f 439/1/6 437/1/6 440/1/6
f 437/3/6 438/3/6 441/3/6
f 440/1/6 437/1/6 441/1/6
f 438/1/6 436/1/6 442/1/6
f 441/3/6 438/3/6 442/3/6
f 442/1/6 436/1/6 443/1/6
f 443/1/6 436/1/6 444/1/6
f 436/1/6 428/1/6 445/1/6
f 444/1/6 436/1/6 445/1/6
f 428/1/6 381/1/6 445/1/6
f 381/1/6 357/1/6 445/1/6
f 445/1/6 357/1/6 446/1/6
f 439/3/6 440/3/6 447/3/6
f 429/1/6 439/1/6 447/1/6
f 442/1/6 443/1/6 448/1/6
f 447/3/6 440/3/6 448/3/6
f 441/1/6 442/1/6 448/1/6
f 440/1/6 441/1/6 448/1/6
f 448/1/6 443/1/6 449/1/6
f 449/1/6 443/1/6 450/1/6
f 443/2/6 444/2/6 451/2/6
f 450/1/6 443/1/6 451/1/6
f 444/1/6 445/1/6 452/1/6
f 451/2/6 444/2/6 452/2/6
f 445/3/6 446/3/6 453/3/6
f 452/1/6 445/1/6 453/1/6
f 446/1/6 357/1/6 454/1/6
f 453/3/6 446/3/6 454/3/6
f 449/3/6 450/3/6 455/3/6
f 447/1/6 448/1/6 455/1/6
f 448/1/6 449/1/6 455/1/6
f 450/1/6 451/1/6 456/1/6
f 455/3/6 450/3/6 456/3/6
f 451/1/6 452/1/6 456/1/6
f 453/1/6 454/1/6 456/1/6
f 452/1/6 453/1/6 456/1/6
f 456/1/6 454/1/6 457/1/6
f 457/1/6 454/1/6 458/1/6
f 458/1/6 454/1/6 459/1/6
f 459/1/6 454/1/6 460/1/6
f 454/1/6 357/1/6 461/1/6
f 460/1/6 454/1/6 461/1/6
f 461/1/6 357/1/6 462/1/6
f 455/1/6 456/1/6 463/1/6
f 456/1/6 457/1/6 463/1/6
f 457/2/6 458/2/6 464/2/6
f 463/1/6 457/1/6 464/1/6
f 458/1/6 459/1/6 465/1/6
f 464/2/6 458/2/6 465/2/6
f 459/2/6 460/2/6 466/2/6
f 465/1/6 459/1/6 466/1/6
f 460/1/6 461/1/6 467/1/6
f 466/2/6 460/2/6 467/2/6
f 461/3/6 462/3/6 468/3/6
f 467/1/6 461/1/6 468/1/6
f 462/1/6 357/1/6 469/1/6
f 468/3/6 462/3/6 469/3/6
f 326/1/6 429/1/6 470/1/6
f 429/1/6 447/1/6 470/1/6
f 447/1/6 455/1/6 470/1/6
f 455/1/6 463/1/6 470/1/6
f 470/1/6 463/1/6 471/1/6
f 471/1/6 463/1/6 472/1/6
f 472/1/6 463/1/6 473/1/6
f 463/2/6 464/2/6 474/2/6
f 473/1/6 463/1/6 474/1/6
f 464/1/6 465/1/6 475/1/6
f 474/2/6 464/2/6 475/2/6
f 468/1/6 469/1/6 475/1/6
f 465/1/6 466/1/6 475/1/6
f 467/1/6 468/1/6 475/1/6
f 466/1/6 467/1/6 475/1/6
f 475/1/6 469/1/6 476/1/6
f 476/1/6 469/1/6 477/1/6
f 477/1/6 469/1/6 478/1/6
f 478/1/6 469/1/6 479/1/6
f 470/2/6 471/2/6 480/2/6
f 471/1/6 472/1/6 481/1/6
f 480/2/6 471/2/6 481/2/6
f 472/2/6 473/2/6 482/2/6
f 481/1/6 472/1/6 482/1/6
f 473/1/6 474/1/6 483/1/6
f 482/2/6 473/2/6 483/2/6
f 474/1/6 475/1/6 483/1/6
f 475/1/6 476/1/6 483/1/6
f 476/2/6 477/2/6 484/2/6
f 483/1/6 476/1/6 484/1/6
f 477/1/6 478/1/6 485/1/6
f 484/2/6 477/2/6 485/2/6
f 478/3/6 479/3/6 486/3/6
f 485/1/6 478/1/6 486/1/6
f 479/1/6 469/1/6 487/1/6
f 486/3/6 479/3/6 487/3/6
f 469/1/6 357/1/6 488/1/6
f 487/1/6 469/1/6 488/1/6
f 357/1/6 268/1/6 488/1/6
