# MagicaVoxel @ ephtracy

# material
mtllib tree.mtl
usemtl palette

# normals
vn -1 0 0
vn 1 0 0
vn 0 0 1
vn 0 0 -1
vn 0 -1 0
vn 0 1 0

# texcoords
vt 0.0292969 0.5
vt 0.970703 0.5
vt 0.974609 0.5
vt 0.978516 0.5
vt 0.982422 0.5
vt 0.986328 0.5
vt 0.990234 0.5

# verts
v -7.5 13 7.5
v -7.5 13 -7.5
v -7.5 16 7.5
v -7.5 16 6.5
v -7.5 16 3.5
v -7.5 16 1.5
v -7.5 16 -1.5
v -7.5 16 -3.5
v -7.5 16 -6.5
v -7.5 16 -7.5
v -7.5 17 6.5
v -7.5 17 5.5
v -7.5 17 4.5
v -7.5 17 3.5
v -7.5 17 1.5
v -7.5 17 0.5
v -7.5 17 -0.5
v -7.5 17 -1.5
v -7.5 17 -3.5
v -7.5 17 -4.5
v -7.5 17 -5.5
v -7.5 17 -6.5
v -7.5 18 5.5
v -7.5 18 4.5
v -7.5 18 0.5
v -7.5 18 -0.5
v -7.5 18 -4.5
v -7.5 18 -5.5
v -7.5 21 7.5
v -7.5 21 6.5
v -7.5 21 3.5
v -7.5 21 1.5
v -7.5 21 -1.5
v -7.5 21 -3.5
v -7.5 21 -6.5
v -7.5 21 -7.5
v -7.5 22 6.5
v -7.5 22 5.5
v -7.5 22 4.5
v -7.5 22 3.5
v -7.5 22 1.5
v -7.5 22 0.5
v -7.5 22 -0.5
v -7.5 22 -1.5
v -7.5 22 -3.5
v -7.5 22 -4.5
v -7.5 22 -5.5
v -7.5 22 -6.5
v -7.5 23 5.5
v -7.5 23 4.5
v -7.5 23 0.5
v -7.5 23 -0.5
v -7.5 23 -4.5
v -7.5 23 -5.5
v -7.5 26 7.5
v -7.5 26 6.5
v -7.5 26 3.5
v -7.5 26 1.5
v -7.5 26 -1.5
v -7.5 26 -3.5
v -7.5 26 -6.5
v -7.5 26 -7.5
v -7.5 27 6.5
v -7.5 27 5.5
v -7.5 27 4.5
v -7.5 27 3.5
v -7.5 27 1.5
v -7.5 27 0.5
v -7.5 27 -0.5
v -7.5 27 -1.5
v -7.5 27 -3.5
v -7.5 27 -4.5
v -7.5 27 -5.5
v -7.5 27 -6.5
v -7.5 28 5.5
v -7.5 28 4.5
v -7.5 28 0.5
v -7.5 28 -0.5
v -7.5 28 -4.5
v -7.5 28 -5.5
v -7.5 31 7.5
v -7.5 31 -7.5
v -3.5 0 3.5
v -3.5 0 2.5
v -3.5 0 1.5
v -3.5 0 0.5
v -3.5 0 -0.5
v -3.5 0 -1.5
v -3.5 0 -2.5
v -3.5 0 -3.5
v -3.5 2 -1.5
v -3.5 2 -2.5
v -3.5 3 0.5
v -3.5 3 -0.5
v -3.5 3 -1.5
v -3.5 3 -2.5
v -3.5 4 2.5
v -3.5 4 1.5
v -3.5 4 0.5
v -3.5 4 -0.5
v -3.5 5 2.5
v -3.5 5 1.5
v -3.5 5 0.5
v -3.5 5 -0.5
v -3.5 6 0.5
v -3.5 6 -0.5
v -3.5 6 -1.5
v -3.5 6 -2.5
v -3.5 7 -1.5
v -3.5 7 -2.5
v -3.5 8 2.5
v -3.5 8 1.5
v -3.5 8 -1.5
v -3.5 8 -2.5
v -3.5 9 2.5
v -3.5 9 1.5
v -3.5 9 -1.5
v -3.5 9 -2.5
v -3.5 10 0.5
v -3.5 10 -0.5
v -3.5 11 0.5
v -3.5 11 -0.5
v -3.5 13 3.5
v -3.5 13 2.5
v -3.5 13 1.5
v -3.5 13 0.5
v -3.5 13 -0.5
v -3.5 13 -1.5
v -3.5 13 -2.5
v -3.5 13 -3.5
v 3.5 0 3.5
v 3.5 0 2.5
v 3.5 0 1.5
v 3.5 0 0.5
v 3.5 0 -0.5
v 3.5 0 -1.5
v 3.5 0 -2.5
v 3.5 0 -3.5
v 3.5 3 0.5
v 3.5 3 -0.5
v 3.5 4 2.5
v 3.5 4 1.5
v 3.5 4 0.5
v 3.5 4 -0.5
v 3.5 4 -1.5
v 3.5 4 -2.5
v 3.5 5 2.5
v 3.5 5 1.5
v 3.5 5 -1.5
v 3.5 5 -2.5
v 3.5 7 0.5
v 3.5 7 -0.5
v 3.5 8 0.5
v 3.5 8 -0.5
v 3.5 9 -1.5
v 3.5 9 -2.5
v 3.5 10 2.5
v 3.5 10 1.5
v 3.5 10 -1.5
v 3.5 10 -2.5
v 3.5 11 2.5
v 3.5 11 1.5
v 3.5 13 3.5
v 3.5 13 2.5
v 3.5 13 1.5
v 3.5 13 0.5
v 3.5 13 -0.5
v 3.5 13 -1.5
v 3.5 13 -2.5
v 3.5 13 -3.5
v 7.5 13 7.5
v 7.5 13 -7.5
v 7.5 16 7.5
v 7.5 16 6.5
v 7.5 16 3.5
v 7.5 16 1.5
v 7.5 16 -1.5
v 7.5 16 -3.5
v 7.5 16 -6.5
v 7.5 16 -7.5
v 7.5 17 6.5
v 7.5 17 5.5
v 7.5 17 4.5
v 7.5 17 3.5
v 7.5 17 1.5
v 7.5 17 0.5
v 7.5 17 -0.5
v 7.5 17 -1.5
v 7.5 17 -3.5
v 7.5 17 -4.5
v 7.5 17 -5.5
v 7.5 17 -6.5
v 7.5 18 5.5
v 7.5 18 4.5
v 7.5 18 0.5
v 7.5 18 -0.5
v 7.5 18 -4.5
v 7.5 18 -5.5
v 7.5 21 7.5
v 7.5 21 6.5
v 7.5 21 3.5
v 7.5 21 1.5
v 7.5 21 -1.5
v 7.5 21 -3.5
v 7.5 21 -6.5
v 7.5 21 -7.5
v 7.5 22 6.5
v 7.5 22 5.5
v 7.5 22 4.5
v 7.5 22 3.5
v 7.5 22 1.5
v 7.5 22 0.5
v 7.5 22 -0.5
v 7.5 22 -1.5
v 7.5 22 -3.5
v 7.5 22 -4.5
v 7.5 22 -5.5
v 7.5 22 -6.5
v 7.5 23 5.5
v 7.5 23 4.5
v 7.5 23 0.5
v 7.5 23 -0.5
v 7.5 23 -4.5
v 7.5 23 -5.5
v 7.5 26 7.5
v 7.5 26 6.5
v 7.5 26 3.5
v 7.5 26 1.5
v 7.5 26 -1.5
v 7.5 26 -3.5
v 7.5 26 -6.5
v 7.5 26 -7.5
v 7.5 27 6.5
v 7.5 27 5.5
v 7.5 27 4.5
v 7.5 27 3.5
v 7.5 27 1.5
v 7.5 27 0.5
v 7.5 27 -0.5
v 7.5 27 -1.5
v 7.5 27 -3.5
v 7.5 27 -4.5
v 7.5 27 -5.5
v 7.5 27 -6.5
v 7.5 28 5.5
v 7.5 28 4.5
v 7.5 28 0.5
v 7.5 28 -0.5
v 7.5 28 -4.5
v 7.5 28 -5.5
v 7.5 31 7.5
v 7.5 31 -7.5
v -7.5 13 7.5
v -7.5 16 7.5
v -7.5 21 7.5
v -7.5 26 7.5
v -7.5 31 7.5
v -6.5 16 7.5
v -6.5 17 7.5
v -6.5 21 7.5
v -6.5 22 7.5
v -6.5 26 7.5
v -6.5 27 7.5
v -5.5 17 7.5
v -5.5 18 7.5
v -5.5 22 7.5
v -5.5 23 7.5
v -5.5 27 7.5
v -5.5 28 7.5
v -4.5 17 7.5
v -4.5 18 7.5
v -4.5 22 7.5
v -4.5 23 7.5
v -4.5 27 7.5
v -4.5 28 7.5
v -3.5 16 7.5
v -3.5 17 7.5
v -3.5 21 7.5
v -3.5 22 7.5
v -3.5 26 7.5
v -3.5 27 7.5
v -1.5 16 7.5
v -1.5 17 7.5
v -1.5 21 7.5
v -1.5 22 7.5
v -1.5 26 7.5
v -1.5 27 7.5
v -0.5 17 7.5
v -0.5 18 7.5
v -0.5 22 7.5
v -0.5 23 7.5
v -0.5 27 7.5
v -0.5 28 7.5
v 0.5 17 7.5
v 0.5 18 7.5
v 0.5 22 7.5
v 0.5 23 7.5
v 0.5 27 7.5
v 0.5 28 7.5
v 1.5 16 7.5
v 1.5 17 7.5
v 1.5 21 7.5
v 1.5 22 7.5
v 1.5 26 7.5
v 1.5 27 7.5
v 3.5 16 7.5
v 3.5 17 7.5
v 3.5 21 7.5
v 3.5 22 7.5
v 3.5 26 7.5
v 3.5 27 7.5
v 4.5 17 7.5
v 4.5 18 7.5
v 4.5 22 7.5
v 4.5 23 7.5
v 4.5 27 7.5
v 4.5 28 7.5
v 5.5 17 7.5
v 5.5 18 7.5
v 5.5 22 7.5
v 5.5 23 7.5
v 5.5 27 7.5
v 5.5 28 7.5
v 6.5 16 7.5
v 6.5 17 7.5
v 6.5 21 7.5
v 6.5 22 7.5
v 6.5 26 7.5
v 6.5 27 7.5
v 7.5 13 7.5
v 7.5 16 7.5
v 7.5 21 7.5
v 7.5 26 7.5
v 7.5 31 7.5
v -3.5 0 3.5
v -3.5 13 3.5
v -2.5 0 3.5
v -2.5 5 3.5
v -2.5 6 3.5
v -2.5 8 3.5
v -2.5 9 3.5
v -2.5 13 3.5
v -1.5 0 3.5
v -1.5 5 3.5
v -1.5 6 3.5
v -1.5 8 3.5
v -1.5 9 3.5
v -1.5 13 3.5
v -0.5 0 3.5
v -0.5 3 3.5
v -0.5 4 3.5
v -0.5 6 3.5
v -0.5 7 3.5
v -0.5 10 3.5
v -0.5 11 3.5
v -0.5 13 3.5
v 0.5 0 3.5
v 0.5 3 3.5
v 0.5 4 3.5
v 0.5 6 3.5
v 0.5 7 3.5
v 0.5 10 3.5
v 0.5 11 3.5
v 0.5 13 3.5
v 1.5 0 3.5
v 1.5 4 3.5
v 1.5 5 3.5
v 1.5 6 3.5
v 1.5 7 3.5
v 1.5 9 3.5
v 1.5 10 3.5
v 1.5 13 3.5
v 2.5 0 3.5
v 2.5 4 3.5
v 2.5 5 3.5
v 2.5 6 3.5
v 2.5 7 3.5
v 2.5 9 3.5
v 2.5 10 3.5
v 2.5 13 3.5
v 3.5 0 3.5
v 3.5 13 3.5
v -3.5 0 -3.5
v -3.5 13 -3.5
v -2.5 0 -3.5
v -2.5 4 -3.5
v -2.5 5 -3.5
v -2.5 7 -3.5
v -2.5 8 -3.5
v -2.5 11 -3.5
v -2.5 12 -3.5
v -2.5 13 -3.5
v -1.5 0 -3.5
v -1.5 4 -3.5
v -1.5 5 -3.5
v -1.5 7 -3.5
v -1.5 8 -3.5
v -1.5 11 -3.5
v -1.5 12 -3.5
v -1.5 13 -3.5
v -0.5 0 -3.5
v -0.5 2 -3.5
v -0.5 3 -3.5
v -0.5 8 -3.5
v -0.5 9 -3.5
v -0.5 13 -3.5
v 0.5 0 -3.5
v 0.5 2 -3.5
v 0.5 3 -3.5
v 0.5 8 -3.5
v 0.5 9 -3.5
v 0.5 13 -3.5
v 1.5 0 -3.5
v 1.5 5 -3.5
v 1.5 6 -3.5
v 1.5 9 -3.5
v 1.5 10 -3.5
v 1.5 13 -3.5
v 2.5 0 -3.5
v 2.5 5 -3.5
v 2.5 6 -3.5
v 2.5 9 -3.5
v 2.5 10 -3.5
v 2.5 13 -3.5
v 3.5 0 -3.5
v 3.5 13 -3.5
v -7.5 13 -7.5
v -7.5 16 -7.5
v -7.5 21 -7.5
v -7.5 26 -7.5
v -7.5 31 -7.5
v -6.5 16 -7.5
v -6.5 17 -7.5
v -6.5 21 -7.5
v -6.5 22 -7.5
v -6.5 26 -7.5
v -6.5 27 -7.5
v -5.5 17 -7.5
v -5.5 18 -7.5
v -5.5 22 -7.5
v -5.5 23 -7.5
v -5.5 27 -7.5
v -5.5 28 -7.5
v -4.5 17 -7.5
v -4.5 18 -7.5
v -4.5 22 -7.5
v -4.5 23 -7.5
v -4.5 27 -7.5
v -4.5 28 -7.5
v -3.5 16 -7.5
v -3.5 17 -7.5
v -3.5 21 -7.5
v -3.5 22 -7.5
v -3.5 26 -7.5
v -3.5 27 -7.5
v -1.5 16 -7.5
v -1.5 17 -7.5
v -1.5 21 -7.5
v -1.5 22 -7.5
v -1.5 26 -7.5
v -1.5 27 -7.5
v -0.5 17 -7.5
v -0.5 18 -7.5
v -0.5 22 -7.5
v -0.5 23 -7.5
v -0.5 27 -7.5
v -0.5 28 -7.5
v 0.5 17 -7.5
v 0.5 18 -7.5
v 0.5 22 -7.5
v 0.5 23 -7.5
v 0.5 27 -7.5
v 0.5 28 -7.5
v 1.5 16 -7.5
v 1.5 17 -7.5
v 1.5 21 -7.5
v 1.5 22 -7.5
v 1.5 26 -7.5
v 1.5 27 -7.5
v 3.5 16 -7.5
v 3.5 17 -7.5
v 3.5 21 -7.5
v 3.5 22 -7.5
v 3.5 26 -7.5
v 3.5 27 -7.5
v 4.5 17 -7.5
v 4.5 18 -7.5
v 4.5 22 -7.5
v 4.5 23 -7.5
v 4.5 27 -7.5
v 4.5 28 -7.5
v 5.5 17 -7.5
v 5.5 18 -7.5
v 5.5 22 -7.5
v 5.5 23 -7.5
v 5.5 27 -7.5
v 5.5 28 -7.5
v 6.5 16 -7.5
v 6.5 17 -7.5
v 6.5 21 -7.5
v 6.5 22 -7.5
v 6.5 26 -7.5
v 6.5 27 -7.5
v 7.5 13 -7.5
v 7.5 16 -7.5
v 7.5 21 -7.5
v 7.5 26 -7.5
v 7.5 31 -7.5
v -3.5 0 3.5
v -2.5 0 3.5
v -1.5 0 3.5
v -0.5 0 3.5
v 0.5 0 3.5
v 1.5 0 3.5
v 2.5 0 3.5
v 3.5 0 3.5
v -3.5 0 2.5
v -2.5 0 2.5
v -1.5 0 2.5
v -0.5 0 2.5
v 0.5 0 2.5
v 1.5 0 2.5
v 2.5 0 2.5
v 3.5 0 2.5
v -3.5 0 1.5
v -2.5 0 1.5
v 2.5 0 1.5
v 3.5 0 1.5
v -3.5 0 0.5
v -2.5 0 0.5
v 2.5 0 0.5
v 3.5 0 0.5
v -3.5 0 -0.5
v -2.5 0 -0.5
v 2.5 0 -0.5
v 3.5 0 -0.5
v -3.5 0 -1.5
v -2.5 0 -1.5
v 2.5 0 -1.5
v 3.5 0 -1.5
v -3.5 0 -2.5
v -2.5 0 -2.5
v -1.5 0 -2.5
v -0.5 0 -2.5
v 0.5 0 -2.5
v 1.5 0 -2.5
v 2.5 0 -2.5
v 3.5 0 -2.5
v -3.5 0 -3.5
v -2.5 0 -3.5
v -1.5 0 -3.5
v -0.5 0 -3.5
v 0.5 0 -3.5
v 1.5 0 -3.5
v 2.5 0 -3.5
v 3.5 0 -3.5
v -7.5 13 7.5
v 7.5 13 7.5
v -3.5 13 3.5
v -2.5 13 3.5
v -1.5 13 3.5
v -0.5 13 3.5
v 0.5 13 3.5
v 1.5 13 3.5
v 2.5 13 3.5
v 3.5 13 3.5
v -3.5 13 2.5
v 3.5 13 2.5
v -3.5 13 1.5
v 3.5 13 1.5
v -3.5 13 0.5
v 3.5 13 0.5
v -3.5 13 -0.5
v 3.5 13 -0.5
v -3.5 13 -1.5
v 3.5 13 -1.5
v -3.5 13 -2.5
v 3.5 13 -2.5
v -3.5 13 -3.5
v -2.5 13 -3.5
v -1.5 13 -3.5
v -0.5 13 -3.5
v 0.5 13 -3.5
v 1.5 13 -3.5
v 2.5 13 -3.5
v 3.5 13 -3.5
v -7.5 13 -7.5
v 7.5 13 -7.5
v -7.5 31 7.5
v 7.5 31 7.5
v -7.5 31 -7.5
v 7.5 31 -7.5

# faces
f 3/5/1 2/5/1 1/5/1
f 4/5/1 2/5/1 3/5/1
f 5/5/1 2/5/1 4/5/1
f 6/5/1 2/5/1 5/5/1
f 7/5/1 2/5/1 6/5/1
f 8/5/1 2/5/1 7/5/1
f 9/5/1 2/5/1 8/5/1
f 10/5/1 2/5/1 9/5/1
f 11/4/1 4/4/1 3/4/1
f 11/5/1 5/5/1 4/5/1
f 12/5/1 5/5/1 11/5/1
f 13/5/1 5/5/1 12/5/1
f 14/4/1 6/4/1 5/4/1
f 14/5/1 5/5/1 13/5/1
f 15/5/1 7/5/1 6/5/1
f 15/4/1 6/4/1 14/4/1
f 16/5/1 7/5/1 15/5/1
f 17/5/1 7/5/1 16/5/1
f 18/4/1 8/4/1 7/4/1
f 18/5/1 7/5/1 17/5/1
f 19/5/1 9/5/1 8/5/1
f 19/4/1 8/4/1 18/4/1
f 20/5/1 9/5/1 19/5/1
f 21/5/1 9/5/1 20/5/1
f 22/4/1 10/4/1 9/4/1
f 22/5/1 9/5/1 21/5/1
f 23/5/1 13/5/1 12/5/1
f 23/4/1 12/4/1 11/4/1
f 24/4/1 14/4/1 13/4/1
f 24/5/1 13/5/1 23/5/1
f 24/4/1 15/4/1 14/4/1
f 24/4/1 16/4/1 15/4/1
f 25/5/1 17/5/1 16/5/1
f 25/4/1 16/4/1 24/4/1
f 26/4/1 18/4/1 17/4/1
f 26/5/1 17/5/1 25/5/1
f 26/4/1 20/4/1 19/4/1
f 26/4/1 19/4/1 18/4/1
f 27/5/1 21/5/1 20/5/1
f 27/4/1 20/4/1 26/4/1
f 28/4/1 22/4/1 21/4/1
f 28/5/1 21/5/1 27/5/1
f 29/4/1 26/4/1 25/4/1
f 29/4/1 23/4/1 11/4/1
f 29/4/1 28/4/1 27/4/1
f 29/4/1 27/4/1 26/4/1
f 29/4/1 11/4/1 3/4/1
f 29/4/1 25/4/1 24/4/1
f 29/4/1 24/4/1 23/4/1
f 30/4/1 28/4/1 29/4/1
f 31/4/1 28/4/1 30/4/1
f 32/4/1 28/4/1 31/4/1
f 33/4/1 28/4/1 32/4/1
f 34/4/1 28/4/1 33/4/1
f 35/4/1 22/4/1 28/4/1
f 35/4/1 28/4/1 34/4/1
f 35/4/1 10/4/1 22/4/1
f 36/4/1 10/4/1 35/4/1
f 37/3/1 30/3/1 29/3/1
f 37/4/1 31/4/1 30/4/1
f 38/4/1 31/4/1 37/4/1
f 39/4/1 31/4/1 38/4/1
f 40/3/1 32/3/1 31/3/1
f 40/4/1 31/4/1 39/4/1
f 41/4/1 33/4/1 32/4/1
f 41/3/1 32/3/1 40/3/1
f 42/4/1 33/4/1 41/4/1
f 43/4/1 33/4/1 42/4/1
f 44/3/1 34/3/1 33/3/1
f 44/4/1 33/4/1 43/4/1
f 45/4/1 35/4/1 34/4/1
f 45/3/1 34/3/1 44/3/1
f 46/4/1 35/4/1 45/4/1
f 47/4/1 35/4/1 46/4/1
f 48/3/1 36/3/1 35/3/1
f 48/4/1 35/4/1 47/4/1
f 49/4/1 39/4/1 38/4/1
f 49/3/1 38/3/1 37/3/1
f 50/3/1 40/3/1 39/3/1
f 50/4/1 39/4/1 49/4/1
f 50/3/1 41/3/1 40/3/1
f 50/3/1 42/3/1 41/3/1
f 51/4/1 43/4/1 42/4/1
f 51/3/1 42/3/1 50/3/1
f 52/3/1 44/3/1 43/3/1
f 52/4/1 43/4/1 51/4/1
f 52/3/1 46/3/1 45/3/1
f 52/3/1 45/3/1 44/3/1
f 53/4/1 47/4/1 46/4/1
f 53/3/1 46/3/1 52/3/1
f 54/3/1 48/3/1 47/3/1
f 54/4/1 47/4/1 53/4/1
f 55/3/1 50/3/1 49/3/1
f 55/3/1 49/3/1 37/3/1
f 55/3/1 54/3/1 53/3/1
f 55/3/1 53/3/1 52/3/1
f 55/3/1 37/3/1 29/3/1
f 55/3/1 51/3/1 50/3/1
f 55/3/1 52/3/1 51/3/1
f 56/3/1 54/3/1 55/3/1
f 57/3/1 54/3/1 56/3/1
f 58/3/1 54/3/1 57/3/1
f 59/3/1 54/3/1 58/3/1
f 60/3/1 54/3/1 59/3/1
f 61/3/1 48/3/1 54/3/1
f 61/3/1 54/3/1 60/3/1
f 61/3/1 36/3/1 48/3/1
f 62/3/1 36/3/1 61/3/1
f 63/2/1 56/2/1 55/2/1
f 63/3/1 57/3/1 56/3/1
f 64/3/1 57/3/1 63/3/1
f 65/3/1 57/3/1 64/3/1
f 66/2/1 58/2/1 57/2/1
f 66/3/1 57/3/1 65/3/1
f 67/3/1 59/3/1 58/3/1
f 67/2/1 58/2/1 66/2/1
f 68/3/1 59/3/1 67/3/1
f 69/3/1 59/3/1 68/3/1
f 70/2/1 60/2/1 59/2/1
f 70/3/1 59/3/1 69/3/1
f 71/3/1 61/3/1 60/3/1
f 71/2/1 60/2/1 70/2/1
f 72/3/1 61/3/1 71/3/1
f 73/3/1 61/3/1 72/3/1
f 74/2/1 62/2/1 61/2/1
f 74/3/1 61/3/1 73/3/1
f 75/3/1 65/3/1 64/3/1
f 75/2/1 64/2/1 63/2/1
f 76/2/1 66/2/1 65/2/1
f 76/3/1 65/3/1 75/3/1
f 76/2/1 67/2/1 66/2/1
f 76/2/1 68/2/1 67/2/1
f 77/3/1 69/3/1 68/3/1
f 77/2/1 68/2/1 76/2/1
f 78/2/1 70/2/1 69/2/1
f 78/3/1 69/3/1 77/3/1
f 78/2/1 72/2/1 71/2/1
f 78/2/1 71/2/1 70/2/1
f 79/3/1 73/3/1 72/3/1
f 79/2/1 72/2/1 78/2/1
f 80/2/1 74/2/1 73/2/1
f 80/3/1 73/3/1 79/3/1
f 81/2/1 76/2/1 75/2/1
f 81/2/1 75/2/1 63/2/1
f 81/2/1 80/2/1 79/2/1
f 81/2/1 79/2/1 78/2/1
f 81/2/1 63/2/1 55/2/1
f 81/2/1 77/2/1 76/2/1
f 81/2/1 78/2/1 77/2/1
f 82/2/1 74/2/1 80/2/1
f 82/2/1 80/2/1 81/2/1
f 82/2/1 62/2/1 74/2/1
f 91/6/1 88/6/1 87/6/1
f 91/7/1 89/7/1 88/7/1
f 92/6/1 90/6/1 89/6/1
f 92/7/1 89/7/1 91/7/1
f 93/6/1 86/6/1 85/6/1
f 93/7/1 87/7/1 86/7/1
f 94/6/1 92/6/1 91/6/1
f 94/7/1 87/7/1 93/7/1
f 94/6/1 91/6/1 87/6/1
f 95/6/1 92/6/1 94/6/1
f 96/6/1 90/6/1 92/6/1
f 96/6/1 92/6/1 95/6/1
f 97/6/1 84/6/1 83/6/1
f 97/7/1 85/7/1 84/7/1
f 98/6/1 95/6/1 94/6/1
f 98/7/1 85/7/1 97/7/1
f 98/6/1 93/6/1 85/6/1
f 98/6/1 94/6/1 93/6/1
f 99/6/1 95/6/1 98/6/1
f 100/6/1 95/6/1 99/6/1
f 101/6/1 97/6/1 83/6/1
f 101/6/1 98/6/1 97/6/1
f 101/6/1 99/6/1 98/6/1
f 102/6/1 99/6/1 101/6/1
f 103/7/1 100/7/1 99/7/1
f 103/6/1 99/6/1 102/6/1
f 104/6/1 95/6/1 100/6/1
f 104/7/1 100/7/1 103/7/1
f 105/6/1 103/6/1 102/6/1
f 105/6/1 104/6/1 103/6/1
f 106/6/1 95/6/1 104/6/1
f 106/6/1 104/6/1 105/6/1
f 107/7/1 96/7/1 95/7/1
f 107/6/1 95/6/1 106/6/1
f 108/6/1 90/6/1 96/6/1
f 108/7/1 96/7/1 107/7/1
f 109/6/1 107/6/1 106/6/1
f 109/6/1 108/6/1 107/6/1
f 110/6/1 90/6/1 108/6/1
f 110/6/1 108/6/1 109/6/1
f 111/7/1 102/7/1 101/7/1
f 111/6/1 101/6/1 83/6/1
f 112/6/1 105/6/1 102/6/1
f 112/7/1 102/7/1 111/7/1
f 113/6/1 109/6/1 106/6/1
f 113/7/1 110/7/1 109/7/1
f 114/6/1 90/6/1 110/6/1
f 114/7/1 110/7/1 113/7/1
f 115/6/1 111/6/1 83/6/1
f 115/6/1 112/6/1 111/6/1
f 116/6/1 105/6/1 112/6/1
f 116/6/1 112/6/1 115/6/1
f 117/6/1 113/6/1 106/6/1
f 117/6/1 114/6/1 113/6/1
f 118/6/1 90/6/1 114/6/1
f 118/6/1 114/6/1 117/6/1
f 119/7/1 106/7/1 105/7/1
f 119/6/1 105/6/1 116/6/1
f 120/6/1 117/6/1 106/6/1
f 120/7/1 106/7/1 119/7/1
f 121/6/1 119/6/1 116/6/1
f 121/6/1 120/6/1 119/6/1
f 122/6/1 117/6/1 120/6/1
f 122/6/1 120/6/1 121/6/1
f 123/6/1 115/6/1 83/6/1
f 124/7/1 116/7/1 115/7/1
f 124/6/1 115/6/1 123/6/1
f 125/6/1 121/6/1 116/6/1
f 125/7/1 116/7/1 124/7/1
f 126/7/1 122/7/1 121/7/1
f 126/6/1 121/6/1 125/6/1
f 127/6/1 117/6/1 122/6/1
f 127/7/1 122/7/1 126/7/1
f 128/7/1 118/7/1 117/7/1
f 128/6/1 117/6/1 127/6/1
f 129/6/1 90/6/1 118/6/1
f 129/7/1 118/7/1 128/7/1
f 130/6/1 90/6/1 129/6/1
f 133/6/2 134/6/2 139/6/2
f 134/7/2 135/7/2 139/7/2
f 135/6/2 136/6/2 140/6/2
f 139/7/2 135/7/2 140/7/2
f 131/6/2 132/6/2 141/6/2
f 132/7/2 133/7/2 141/7/2
f 139/6/2 140/6/2 142/6/2
f 141/7/2 133/7/2 142/7/2
f 133/6/2 139/6/2 142/6/2
f 142/6/2 140/6/2 143/6/2
f 140/6/2 136/6/2 144/6/2
f 143/6/2 140/6/2 144/6/2
f 136/7/2 137/7/2 145/7/2
f 144/6/2 136/6/2 145/6/2
f 137/6/2 138/6/2 146/6/2
f 145/7/2 137/7/2 146/7/2
f 142/6/2 143/6/2 147/6/2
f 131/6/2 141/6/2 147/6/2
f 141/6/2 142/6/2 147/6/2
f 147/6/2 143/6/2 148/6/2
f 145/6/2 146/6/2 149/6/2
f 144/6/2 145/6/2 149/6/2
f 146/6/2 138/6/2 150/6/2
f 149/6/2 146/6/2 150/6/2
f 148/6/2 143/6/2 151/6/2
f 143/7/2 144/7/2 151/7/2
f 144/6/2 149/6/2 152/6/2
f 151/7/2 144/7/2 152/7/2
f 148/6/2 151/6/2 153/6/2
f 151/6/2 152/6/2 153/6/2
f 152/6/2 149/6/2 154/6/2
f 153/6/2 152/6/2 154/6/2
f 149/7/2 150/7/2 155/7/2
f 154/6/2 149/6/2 155/6/2
f 150/6/2 138/6/2 156/6/2
f 155/7/2 150/7/2 156/7/2
f 147/7/2 148/7/2 157/7/2
f 131/6/2 147/6/2 157/6/2
f 148/6/2 153/6/2 158/6/2
f 157/7/2 148/7/2 158/7/2
f 154/6/2 155/6/2 159/6/2
f 155/6/2 156/6/2 159/6/2
f 156/6/2 138/6/2 160/6/2
f 159/6/2 156/6/2 160/6/2
f 131/6/2 157/6/2 161/6/2
f 157/6/2 158/6/2 161/6/2
f 158/6/2 153/6/2 162/6/2
f 161/6/2 158/6/2 162/6/2
f 131/6/2 161/6/2 163/6/2
f 161/7/2 162/7/2 164/7/2
f 163/6/2 161/6/2 164/6/2
f 162/6/2 153/6/2 165/6/2
f 164/7/2 162/7/2 165/7/2
f 153/7/2 154/7/2 166/7/2
f 165/6/2 153/6/2 166/6/2
f 154/6/2 159/6/2 167/6/2
f 166/7/2 154/7/2 167/7/2
f 159/7/2 160/7/2 168/7/2
f 167/6/2 159/6/2 168/6/2
f 160/6/2 138/6/2 169/6/2
f 168/7/2 160/7/2 169/7/2
f 169/6/2 138/6/2 170/6/2
f 171/5/2 172/5/2 173/5/2
f 173/5/2 172/5/2 174/5/2
f 174/5/2 172/5/2 175/5/2
f 175/5/2 172/5/2 176/5/2
f 176/5/2 172/5/2 177/5/2
f 177/5/2 172/5/2 178/5/2
f 178/5/2 172/5/2 179/5/2
f 179/5/2 172/5/2 180/5/2
f 173/4/2 174/4/2 181/4/2
f 174/5/2 175/5/2 181/5/2
f 181/5/2 175/5/2 182/5/2
f 182/5/2 175/5/2 183/5/2
f 175/4/2 176/4/2 184/4/2
f 183/5/2 175/5/2 184/5/2
f 176/5/2 177/5/2 185/5/2
f 184/4/2 176/4/2 185/4/2
f 185/5/2 177/5/2 186/5/2
f 186/5/2 177/5/2 187/5/2
f 177/4/2 178/4/2 188/4/2
f 187/5/2 177/5/2 188/5/2
f 178/5/2 179/5/2 189/5/2
f 188/4/2 178/4/2 189/4/2
f 189/5/2 179/5/2 190/5/2
f 190/5/2 179/5/2 191/5/2
f 179/4/2 180/4/2 192/4/2
f 191/5/2 179/5/2 192/5/2
f 182/5/2 183/5/2 193/5/2
f 181/4/2 182/4/2 193/4/2
f 183/4/2 184/4/2 194/4/2
f 193/5/2 183/5/2 194/5/2
f 184/4/2 185/4/2 194/4/2
f 185/4/2 186/4/2 194/4/2
f 186/5/2 187/5/2 195/5/2
f 194/4/2 186/4/2 195/4/2
f 187/4/2 188/4/2 196/4/2
f 195/5/2 187/5/2 196/5/2
f 189/4/2 190/4/2 196/4/2
f 188/4/2 189/4/2 196/4/2
f 190/5/2 191/5/2 197/5/2
f 196/4/2 190/4/2 197/4/2
f 191/4/2 192/4/2 198/4/2
f 197/5/2 191/5/2 198/5/2
f 195/4/2 196/4/2 199/4/2
f 181/4/2 193/4/2 199/4/2
f 197/4/2 198/4/2 199/4/2
f 196/4/2 197/4/2 199/4/2
f 173/4/2 181/4/2 199/4/2
f 194/4/2 195/4/2 199/4/2
f 193/4/2 194/4/2 199/4/2
f 199/4/2 198/4/2 200/4/2
f 200/4/2 198/4/2 201/4/2
f 201/4/2 198/4/2 202/4/2
f 202/4/2 198/4/2 203/4/2
f 203/4/2 198/4/2 204/4/2
f 198/4/2 192/4/2 205/4/2
f 204/4/2 198/4/2 205/4/2
f 192/4/2 180/4/2 205/4/2
f 205/4/2 180/4/2 206/4/2
f 199/3/2 200/3/2 207/3/2
f 200/4/2 201/4/2 207/4/2
f 207/4/2 201/4/2 208/4/2
f 208/4/2 201/4/2 209/4/2
f 201/3/2 202/3/2 210/3/2
f 209/4/2 201/4/2 210/4/2
f 202/4/2 203/4/2 211/4/2
f 210/3/2 202/3/2 211/3/2
f 211/4/2 203/4/2 212/4/2
f 212/4/2 203/4/2 213/4/2
f 203/3/2 204/3/2 214/3/2
f 213/4/2 203/4/2 214/4/2
f 204/4/2 205/4/2 215/4/2
f 214/3/2 204/3/2 215/3/2
f 215/4/2 205/4/2 216/4/2
f 216/4/2 205/4/2 217/4/2
f 205/3/2 206/3/2 218/3/2
f 217/4/2 205/4/2 218/4/2
f 208/4/2 209/4/2 219/4/2
f 207/3/2 208/3/2 219/3/2
f 209/3/2 210/3/2 220/3/2
f 219/4/2 209/4/2 220/4/2
f 210/3/2 211/3/2 220/3/2
f 211/3/2 212/3/2 220/3/2
f 212/4/2 213/4/2 221/4/2
f 220/3/2 212/3/2 221/3/2
f 213/3/2 214/3/2 222/3/2
f 221/4/2 213/4/2 222/4/2
f 215/3/2 216/3/2 222/3/2
f 214/3/2 215/3/2 222/3/2
f 216/4/2 217/4/2 223/4/2
f 222/3/2 216/3/2 223/3/2
f 217/3/2 218/3/2 224/3/2
f 223/4/2 217/4/2 224/4/2
f 219/3/2 220/3/2 225/3/2
f 207/3/2 219/3/2 225/3/2
f 223/3/2 224/3/2 225/3/2
f 222/3/2 223/3/2 225/3/2
f 199/3/2 207/3/2 225/3/2
f 220/3/2 221/3/2 225/3/2
f 221/3/2 222/3/2 225/3/2
f 225/3/2 224/3/2 226/3/2
f 226/3/2 224/3/2 227/3/2
f 227/3/2 224/3/2 228/3/2
f 228/3/2 224/3/2 229/3/2
f 229/3/2 224/3/2 230/3/2
f 224/3/2 218/3/2 231/3/2
f 230/3/2 224/3/2 231/3/2
f 218/3/2 206/3/2 231/3/2
f 231/3/2 206/3/2 232/3/2
f 225/2/2 226/2/2 233/2/2
f 226/3/2 227/3/2 233/3/2
f 233/3/2 227/3/2 234/3/2
f 234/3/2 227/3/2 235/3/2
f 227/2/2 228/2/2 236/2/2
f 235/3/2 227/3/2 236/3/2
f 228/3/2 229/3/2 237/3/2
f 236/2/2 228/2/2 237/2/2
f 237/3/2 229/3/2 238/3/2
f 238/3/2 229/3/2 239/3/2
f 229/2/2 230/2/2 240/2/2
f 239/3/2 229/3/2 240/3/2
f 230/3/2 231/3/2 241/3/2
f 240/2/2 230/2/2 241/2/2
f 241/3/2 231/3/2 242/3/2
f 242/3/2 231/3/2 243/3/2
f 231/2/2 232/2/2 244/2/2
f 243/3/2 231/3/2 244/3/2
f 234/3/2 235/3/2 245/3/2
f 233/2/2 234/2/2 245/2/2
f 235/2/2 236/2/2 246/2/2
f 245/3/2 235/3/2 246/3/2
f 236/2/2 237/2/2 246/2/2
f 237/2/2 238/2/2 246/2/2
f 238/3/2 239/3/2 247/3/2
f 246/2/2 238/2/2 247/2/2
f 239/2/2 240/2/2 248/2/2
f 247/3/2 239/3/2 248/3/2
f 241/2/2 242/2/2 248/2/2
f 240/2/2 241/2/2 248/2/2
f 242/3/2 243/3/2 249/3/2
f 248/2/2 242/2/2 249/2/2
f 243/2/2 244/2/2 250/2/2
f 249/3/2 243/3/2 250/3/2
f 245/2/2 246/2/2 251/2/2
f 233/2/2 245/2/2 251/2/2
f 249/2/2 250/2/2 251/2/2
f 248/2/2 249/2/2 251/2/2
f 225/2/2 233/2/2 251/2/2
f 246/2/2 247/2/2 251/2/2
f 247/2/2 248/2/2 251/2/2
f 250/2/2 244/2/2 252/2/2
f 251/2/2 250/2/2 252/2/2
f 244/2/2 232/2/2 252/2/2
f 258/5/3 254/5/3 253/5/3
f 258/4/3 255/4/3 254/4/3
f 259/4/3 255/4/3 258/4/3
f 260/3/3 256/3/3 255/3/3
f 260/4/3 255/4/3 259/4/3
f 261/3/3 256/3/3 260/3/3
f 262/2/3 257/2/3 256/2/3
f 262/3/3 256/3/3 261/3/3
f 263/2/3 257/2/3 262/2/3
f 264/4/3 261/4/3 260/4/3
f 264/5/3 259/5/3 258/5/3
f 264/4/3 260/4/3 259/4/3
f 265/4/3 261/4/3 264/4/3
f 266/3/3 263/3/3 262/3/3
f 266/4/3 261/4/3 265/4/3
f 266/3/3 262/3/3 261/3/3
f 267/3/3 263/3/3 266/3/3
f 268/2/3 257/2/3 263/2/3
f 268/3/3 263/3/3 267/3/3
f 269/2/3 257/2/3 268/2/3
f 270/5/3 265/5/3 264/5/3
f 270/5/3 264/5/3 258/5/3
f 271/4/3 267/4/3 266/4/3
f 271/5/3 265/5/3 270/5/3
f 271/4/3 266/4/3 265/4/3
f 272/4/3 267/4/3 271/4/3
f 273/3/3 269/3/3 268/3/3
f 273/4/3 267/4/3 272/4/3
f 273/3/3 268/3/3 267/3/3
f 274/3/3 269/3/3 273/3/3
f 275/2/3 257/2/3 269/2/3
f 275/3/3 269/3/3 274/3/3
f 276/5/3 270/5/3 258/5/3
f 276/5/3 258/5/3 253/5/3
f 277/4/3 272/4/3 271/4/3
f 277/5/3 270/5/3 276/5/3
f 277/4/3 271/4/3 270/4/3
f 278/4/3 272/4/3 277/4/3
f 279/3/3 274/3/3 273/3/3
f 279/4/3 272/4/3 278/4/3
f 279/3/3 273/3/3 272/3/3
f 280/3/3 274/3/3 279/3/3
f 281/2/3 275/2/3 274/2/3
f 281/3/3 274/3/3 280/3/3
f 282/4/3 278/4/3 277/4/3
f 282/5/3 276/5/3 253/5/3
f 282/4/3 277/4/3 276/4/3
f 283/4/3 278/4/3 282/4/3
f 284/3/3 280/3/3 279/3/3
f 284/4/3 278/4/3 283/4/3
f 284/3/3 279/3/3 278/3/3
f 285/3/3 280/3/3 284/3/3
f 286/2/3 281/2/3 280/2/3
f 286/3/3 280/3/3 285/3/3
f 287/2/3 275/2/3 281/2/3
f 287/2/3 281/2/3 286/2/3
f 288/5/3 283/5/3 282/5/3
f 288/4/3 285/4/3 284/4/3
f 288/4/3 284/4/3 283/4/3
f 289/4/3 285/4/3 288/4/3
f 290/3/3 286/3/3 285/3/3
f 290/4/3 285/4/3 289/4/3
f 290/3/3 287/3/3 286/3/3
f 291/3/3 287/3/3 290/3/3
f 292/2/3 275/2/3 287/2/3
f 292/3/3 287/3/3 291/3/3
f 293/2/3 257/2/3 275/2/3
f 293/2/3 275/2/3 292/2/3
f 294/5/3 289/5/3 288/5/3
f 294/5/3 288/5/3 282/5/3
f 295/4/3 291/4/3 290/4/3
f 295/5/3 289/5/3 294/5/3
f 295/4/3 290/4/3 289/4/3
f 296/4/3 291/4/3 295/4/3
f 297/3/3 292/3/3 291/3/3
f 297/4/3 291/4/3 296/4/3
f 297/3/3 293/3/3 292/3/3
f 298/3/3 293/3/3 297/3/3
f 299/2/3 257/2/3 293/2/3
f 299/3/3 293/3/3 298/3/3
f 300/5/3 294/5/3 282/5/3
f 300/5/3 282/5/3 253/5/3
f 301/4/3 296/4/3 295/4/3
f 301/5/3 294/5/3 300/5/3
f 301/4/3 295/4/3 294/4/3
f 302/4/3 296/4/3 301/4/3
f 303/3/3 298/3/3 297/3/3
f 303/4/3 296/4/3 302/4/3
f 303/3/3 297/3/3 296/3/3
f 304/3/3 298/3/3 303/3/3
f 305/2/3 299/2/3 298/2/3
f 305/3/3 298/3/3 304/3/3
f 306/5/3 300/5/3 253/5/3
f 306/4/3 302/4/3 301/4/3
f 306/4/3 301/4/3 300/4/3
f 307/4/3 302/4/3 306/4/3
f 308/3/3 303/3/3 302/3/3
f 308/4/3 302/4/3 307/4/3
f 308/3/3 304/3/3 303/3/3
f 309/3/3 304/3/3 308/3/3
f 310/2/3 305/2/3 304/2/3
f 310/3/3 304/3/3 309/3/3
f 311/2/3 299/2/3 305/2/3
f 311/2/3 305/2/3 310/2/3
f 312/4/3 309/4/3 308/4/3
f 312/5/3 307/5/3 306/5/3
f 312/4/3 308/4/3 307/4/3
f 313/4/3 309/4/3 312/4/3
f 314/3/3 310/3/3 309/3/3
f 314/4/3 309/4/3 313/4/3
f 314/3/3 311/3/3 310/3/3
f 315/3/3 311/3/3 314/3/3
f 316/2/3 299/2/3 311/2/3
f 316/3/3 311/3/3 315/3/3
f 317/2/3 257/2/3 299/2/3
f 317/2/3 299/2/3 316/2/3
f 318/5/3 313/5/3 312/5/3
f 318/5/3 312/5/3 306/5/3
f 319/4/3 315/4/3 314/4/3
f 319/5/3 313/5/3 318/5/3
f 319/4/3 314/4/3 313/4/3
f 320/4/3 315/4/3 319/4/3
f 321/3/3 316/3/3 315/3/3
f 321/4/3 315/4/3 320/4/3
f 321/3/3 317/3/3 316/3/3
f 322/3/3 317/3/3 321/3/3
f 323/2/3 257/2/3 317/2/3
f 323/3/3 317/3/3 322/3/3
f 324/5/3 318/5/3 306/5/3
f 324/5/3 306/5/3 253/5/3
f 325/4/3 320/4/3 319/4/3
f 325/5/3 318/5/3 324/5/3
f 325/4/3 319/4/3 318/4/3
f 326/4/3 320/4/3 325/4/3
f 327/3/3 322/3/3 321/3/3
f 327/4/3 320/4/3 326/4/3
f 327/3/3 321/3/3 320/3/3
f 328/3/3 322/3/3 327/3/3
f 329/2/3 323/2/3 322/2/3
f 329/3/3 322/3/3 328/3/3
f 330/5/3 324/5/3 253/5/3
f 331/4/3 326/4/3 325/4/3
f 331/5/3 324/5/3 330/5/3
f 331/4/3 325/4/3 324/4/3
f 332/3/3 328/3/3 327/3/3
f 332/4/3 326/4/3 331/4/3
f 332/3/3 327/3/3 326/3/3
f 333/2/3 329/2/3 328/2/3
f 333/3/3 328/3/3 332/3/3
f 334/2/3 257/2/3 323/2/3
f 334/2/3 329/2/3 333/2/3
f 334/2/3 323/2/3 329/2/3
f 337/6/3 336/6/3 335/6/3
f 338/6/3 336/6/3 337/6/3
f 339/6/3 336/6/3 338/6/3
f 340/6/3 336/6/3 339/6/3
f 341/6/3 336/6/3 340/6/3
f 342/6/3 336/6/3 341/6/3
f 343/7/3 338/7/3 337/7/3
f 344/6/3 339/6/3 338/6/3
f 344/7/3 338/7/3 343/7/3
f 345/7/3 340/7/3 339/7/3
f 345/6/3 339/6/3 344/6/3
f 346/6/3 341/6/3 340/6/3
f 346/7/3 340/7/3 345/7/3
f 347/7/3 342/7/3 341/7/3
f 347/6/3 341/6/3 346/6/3
f 348/7/3 342/7/3 347/7/3
f 349/6/3 344/6/3 343/6/3
f 349/6/3 345/6/3 344/6/3
f 349/6/3 348/6/3 347/6/3
f 349/6/3 347/6/3 346/6/3
f 349/6/3 346/6/3 345/6/3
f 350/6/3 348/6/3 349/6/3
f 351/6/3 348/6/3 350/6/3
f 352/6/3 348/6/3 351/6/3
f 353/6/3 348/6/3 352/6/3
f 354/6/3 348/6/3 353/6/3
f 355/6/3 348/6/3 354/6/3
f 356/6/3 348/6/3 355/6/3
f 357/7/3 350/7/3 349/7/3
f 358/6/3 351/6/3 350/6/3
f 358/7/3 350/7/3 357/7/3
f 359/7/3 352/7/3 351/7/3
f 359/6/3 351/6/3 358/6/3
f 360/6/3 353/6/3 352/6/3
f 360/7/3 352/7/3 359/7/3
f 361/7/3 354/7/3 353/7/3
f 361/6/3 353/6/3 360/6/3
f 362/6/3 355/6/3 354/6/3
f 362/7/3 354/7/3 361/7/3
f 363/7/3 356/7/3 355/7/3
f 363/6/3 355/6/3 362/6/3
f 364/7/3 356/7/3 363/7/3
f 365/6/3 358/6/3 357/6/3
f 365/6/3 359/6/3 358/6/3
f 365/6/3 364/6/3 363/6/3
f 365/6/3 363/6/3 362/6/3
f 365/6/3 362/6/3 361/6/3
f 365/6/3 361/6/3 360/6/3
f 365/6/3 360/6/3 359/6/3
f 366/6/3 364/6/3 365/6/3
f 367/6/3 364/6/3 366/6/3
f 368/6/3 364/6/3 367/6/3
f 369/6/3 364/6/3 368/6/3
f 370/6/3 364/6/3 369/6/3
f 371/6/3 364/6/3 370/6/3
f 372/6/3 364/6/3 371/6/3
f 373/7/3 366/7/3 365/7/3
f 374/6/3 367/6/3 366/6/3
f 374/7/3 366/7/3 373/7/3
f 375/7/3 368/7/3 367/7/3
f 375/6/3 367/6/3 374/6/3
f 376/6/3 369/6/3 368/6/3
f 376/7/3 368/7/3 375/7/3
f 377/7/3 370/7/3 369/7/3
f 377/6/3 369/6/3 376/6/3
f 378/6/3 371/6/3 370/6/3
f 378/7/3 370/7/3 377/7/3
f 379/7/3 372/7/3 371/7/3
f 379/6/3 371/6/3 378/6/3
f 380/7/3 372/7/3 379/7/3
f 381/6/3 374/6/3 373/6/3
f 381/6/3 375/6/3 374/6/3
f 381/6/3 380/6/3 379/6/3
f 381/6/3 379/6/3 378/6/3
f 381/6/3 378/6/3 377/6/3
f 381/6/3 377/6/3 376/6/3
f 381/6/3 376/6/3 375/6/3
f 382/6/3 380/6/3 381/6/3
f 383/6/4 384/6/4 385/6/4
f 385/6/4 384/6/4 386/6/4
f 386/6/4 384/6/4 387/6/4
f 387/6/4 384/6/4 388/6/4
f 388/6/4 384/6/4 389/6/4
f 389/6/4 384/6/4 390/6/4
f 390/6/4 384/6/4 391/6/4
f 391/6/4 384/6/4 392/6/4
f 385/7/4 386/7/4 393/7/4
f 386/6/4 387/6/4 394/6/4
f 393/7/4 386/7/4 394/7/4
f 387/7/4 388/7/4 395/7/4
f 394/6/4 387/6/4 395/6/4
f 388/6/4 389/6/4 396/6/4
f 395/7/4 388/7/4 396/7/4
f 389/7/4 390/7/4 397/7/4
f 396/6/4 389/6/4 397/6/4
f 390/6/4 391/6/4 398/6/4
f 397/7/4 390/7/4 398/7/4
f 391/7/4 392/7/4 399/7/4
f 398/6/4 391/6/4 399/6/4
f 399/7/4 392/7/4 400/7/4
f 393/6/4 394/6/4 401/6/4
f 394/6/4 395/6/4 401/6/4
f 399/6/4 400/6/4 401/6/4
f 398/6/4 399/6/4 401/6/4
f 397/6/4 398/6/4 401/6/4
f 396/6/4 397/6/4 401/6/4
f 395/6/4 396/6/4 401/6/4
f 401/6/4 400/6/4 402/6/4
f 402/6/4 400/6/4 403/6/4
f 403/6/4 400/6/4 404/6/4
f 404/6/4 400/6/4 405/6/4
f 405/6/4 400/6/4 406/6/4
f 401/7/4 402/7/4 407/7/4
f 402/6/4 403/6/4 408/6/4
f 407/7/4 402/7/4 408/7/4
f 403/7/4 404/7/4 409/7/4
f 408/6/4 403/6/4 409/6/4
f 404/6/4 405/6/4 410/6/4
f 409/7/4 404/7/4 410/7/4
f 405/7/4 406/7/4 411/7/4
f 410/6/4 405/6/4 411/6/4
f 411/7/4 406/7/4 412/7/4
f 407/6/4 408/6/4 413/6/4
f 408/6/4 409/6/4 413/6/4
f 411/6/4 412/6/4 413/6/4
f 410/6/4 411/6/4 413/6/4
f 409/6/4 410/6/4 413/6/4
f 413/6/4 412/6/4 414/6/4
f 414/6/4 412/6/4 415/6/4
f 415/6/4 412/6/4 416/6/4
f 416/6/4 412/6/4 417/6/4
f 417/6/4 412/6/4 418/6/4
f 413/7/4 414/7/4 419/7/4
f 414/6/4 415/6/4 420/6/4
f 419/7/4 414/7/4 420/7/4
f 415/7/4 416/7/4 421/7/4
f 420/6/4 415/6/4 421/6/4
f 416/6/4 417/6/4 422/6/4
f 421/7/4 416/7/4 422/7/4
f 417/7/4 418/7/4 423/7/4
f 422/6/4 417/6/4 423/6/4
f 423/7/4 418/7/4 424/7/4
f 419/6/4 420/6/4 425/6/4
f 420/6/4 421/6/4 425/6/4
f 423/6/4 424/6/4 425/6/4
f 422/6/4 423/6/4 425/6/4
f 421/6/4 422/6/4 425/6/4
f 425/6/4 424/6/4 426/6/4
f 427/5/4 428/5/4 432/5/4
f 428/4/4 429/4/4 432/4/4
f 432/4/4 429/4/4 433/4/4
f 429/3/4 430/3/4 434/3/4
f 433/4/4 429/4/4 434/4/4
f 434/3/4 430/3/4 435/3/4
f 430/2/4 431/2/4 436/2/4
f 435/3/4 430/3/4 436/3/4
f 436/2/4 431/2/4 437/2/4
f 434/4/4 435/4/4 438/4/4
f 432/5/4 433/5/4 438/5/4
f 433/4/4 434/4/4 438/4/4
f 438/4/4 435/4/4 439/4/4
f 436/3/4 437/3/4 440/3/4
f 439/4/4 435/4/4 440/4/4
f 435/3/4 436/3/4 440/3/4
f 440/3/4 437/3/4 441/3/4
f 437/2/4 431/2/4 442/2/4
f 441/3/4 437/3/4 442/3/4
f 442/2/4 431/2/4 443/2/4
f 438/5/4 439/5/4 444/5/4
f 432/5/4 438/5/4 444/5/4
f 440/4/4 441/4/4 445/4/4
f 444/5/4 439/5/4 445/5/4
f 439/4/4 440/4/4 445/4/4
f 445/4/4 441/4/4 446/4/4
f 442/3/4 443/3/4 447/3/4
f 446/4/4 441/4/4 447/4/4
f 441/3/4 442/3/4 447/3/4
f 447/3/4 443/3/4 448/3/4
f 443/2/4 431/2/4 449/2/4
f 448/3/4 443/3/4 449/3/4
f 432/5/4 444/5/4 450/5/4
f 427/5/4 432/5/4 450/5/4
f 445/4/4 446/4/4 451/4/4
f 450/5/4 444/5/4 451/5/4
f 444/4/4 445/4/4 451/4/4
f 451/4/4 446/4/4 452/4/4
f 447/3/4 448/3/4 453/3/4
f 452/4/4 446/4/4 453/4/4
f 446/3/4 447/3/4 453/3/4
f 453/3/4 448/3/4 454/3/4
f 448/2/4 449/2/4 455/2/4
f 454/3/4 448/3/4 455/3/4
f 451/4/4 452/4/4 456/4/4
f 427/5/4 450/5/4 456/5/4
f 450/4/4 451/4/4 456/4/4
f 456/4/4 452/4/4 457/4/4
f 453/3/4 454/3/4 458/3/4
f 457/4/4 452/4/4 458/4/4
f 452/3/4 453/3/4 458/3/4
f 458/3/4 454/3/4 459/3/4
f 454/2/4 455/2/4 460/2/4
f 459/3/4 454/3/4 460/3/4
f 455/2/4 449/2/4 461/2/4
f 460/2/4 455/2/4 461/2/4
f 456/5/4 457/5/4 462/5/4
f 458/4/4 459/4/4 462/4/4
f 457/4/4 458/4/4 462/4/4
f 462/4/4 459/4/4 463/4/4
f 459/3/4 460/3/4 464/3/4
f 463/4/4 459/4/4 464/4/4
f 460/3/4 461/3/4 464/3/4
f 464/3/4 461/3/4 465/3/4
f 461/2/4 449/2/4 466/2/4
f 465/3/4 461/3/4 466/3/4
f 449/2/4 431/2/4 467/2/4
f 466/2/4 449/2/4 467/2/4
f 462/5/4 463/5/4 468/5/4
f 456/5/4 462/5/4 468/5/4
f 464/4/4 465/4/4 469/4/4
f 468/5/4 463/5/4 469/5/4
f 463/4/4 464/4/4 469/4/4
f 469/4/4 465/4/4 470/4/4
f 465/3/4 466/3/4 471/3/4
f 470/4/4 465/4/4 471/4/4
f 466/3/4 467/3/4 471/3/4
f 471/3/4 467/3/4 472/3/4
f 467/2/4 431/2/4 473/2/4
f 472/3/4 467/3/4 473/3/4
f 456/5/4 468/5/4 474/5/4
f 427/5/4 456/5/4 474/5/4
f 469/4/4 470/4/4 475/4/4
f 474/5/4 468/5/4 475/5/4
f 468/4/4 469/4/4 475/4/4
f 475/4/4 470/4/4 476/4/4
f 471/3/4 472/3/4 477/3/4
f 476/4/4 470/4/4 477/4/4
f 470/3/4 471/3/4 477/3/4
f 477/3/4 472/3/4 478/3/4
f 472/2/4 473/2/4 479/2/4
f 478/3/4 472/3/4 479/3/4
f 427/5/4 474/5/4 480/5/4
f 475/4/4 476/4/4 480/4/4
f 474/4/4 475/4/4 480/4/4
f 480/4/4 476/4/4 481/4/4
f 476/3/4 477/3/4 482/3/4
f 481/4/4 476/4/4 482/4/4
f 477/3/4 478/3/4 482/3/4
f 482/3/4 478/3/4 483/3/4
f 478/2/4 479/2/4 484/2/4
f 483/3/4 478/3/4 484/3/4
f 479/2/4 473/2/4 485/2/4
f 484/2/4 479/2/4 485/2/4
f 482/4/4 483/4/4 486/4/4
f 480/5/4 481/5/4 486/5/4
f 481/4/4 482/4/4 486/4/4
f 486/4/4 483/4/4 487/4/4
f 483/3/4 484/3/4 488/3/4
f 487/4/4 483/4/4 488/4/4
f 484/3/4 485/3/4 488/3/4
f 488/3/4 485/3/4 489/3/4
f 485/2/4 473/2/4 490/2/4
f 489/3/4 485/3/4 490/3/4
f 473/2/4 431/2/4 491/2/4
f 490/2/4 473/2/4 491/2/4
f 486/5/4 487/5/4 492/5/4
f 480/5/4 486/5/4 492/5/4
f 488/4/4 489/4/4 493/4/4
f 492/5/4 487/5/4 493/5/4
f 487/4/4 488/4/4 493/4/4
f 493/4/4 489/4/4 494/4/4
f 489/3/4 490/3/4 495/3/4
f 494/4/4 489/4/4 495/4/4
f 490/3/4 491/3/4 495/3/4
f 495/3/4 491/3/4 496/3/4
f 491/2/4 431/2/4 497/2/4
f 496/3/4 491/3/4 497/3/4
f 480/5/4 492/5/4 498/5/4
f 427/5/4 480/5/4 498/5/4
f 493/4/4 494/4/4 499/4/4
f 498/5/4 492/5/4 499/5/4
f 492/4/4 493/4/4 499/4/4
f 499/4/4 494/4/4 500/4/4
f 495/3/4 496/3/4 501/3/4
f 500/4/4 494/4/4 501/4/4
f 494/3/4 495/3/4 501/3/4
f 501/3/4 496/3/4 502/3/4
f 496/2/4 497/2/4 503/2/4
f 502/3/4 496/3/4 503/3/4
f 427/5/4 498/5/4 504/5/4
f 499/4/4 500/4/4 505/4/4
f 504/5/4 498/5/4 505/5/4
f 498/4/4 499/4/4 505/4/4
f 501/3/4 502/3/4 506/3/4
f 505/4/4 500/4/4 506/4/4
f 500/3/4 501/3/4 506/3/4
f 502/2/4 503/2/4 507/2/4
f 506/3/4 502/3/4 507/3/4
f 497/2/4 431/2/4 508/2/4
f 507/2/4 503/2/4 508/2/4
f 503/2/4 497/2/4 508/2/4
f 517/6/5 510/6/5 509/6/5
f 518/7/5 511/7/5 510/7/5
f 518/6/5 510/6/5 517/6/5
f 519/6/5 512/6/5 511/6/5
f 519/7/5 511/7/5 518/7/5
f 520/7/5 513/7/5 512/7/5
f 520/6/5 512/6/5 519/6/5
f 521/6/5 514/6/5 513/6/5
f 521/7/5 513/7/5 520/7/5
f 522/7/5 515/7/5 514/7/5
f 522/6/5 514/6/5 521/6/5
f 523/6/5 516/6/5 515/6/5
f 523/7/5 515/7/5 522/7/5
f 524/6/5 516/6/5 523/6/5
f 525/7/5 518/7/5 517/7/5
f 526/6/5 522/6/5 521/6/5
f 526/7/5 518/7/5 525/7/5
f 526/6/5 519/6/5 518/6/5
f 526/6/5 520/6/5 519/6/5
f 526/6/5 523/6/5 522/6/5
f 526/6/5 521/6/5 520/6/5
f 527/7/5 524/7/5 523/7/5
f 527/6/5 523/6/5 526/6/5
f 528/7/5 524/7/5 527/7/5
f 529/6/5 526/6/5 525/6/5
f 529/6/5 527/6/5 526/6/5
f 529/6/5 528/6/5 527/6/5
f 530/6/5 528/6/5 529/6/5
f 531/6/5 528/6/5 530/6/5
f 532/6/5 528/6/5 531/6/5
f 533/7/5 530/7/5 529/7/5
f 534/6/5 531/6/5 530/6/5
f 534/7/5 530/7/5 533/7/5
f 535/7/5 532/7/5 531/7/5
f 535/6/5 531/6/5 534/6/5
f 536/7/5 532/7/5 535/7/5
f 537/6/5 534/6/5 533/6/5
f 537/6/5 535/6/5 534/6/5
f 537/6/5 536/6/5 535/6/5
f 538/6/5 536/6/5 537/6/5
f 539/6/5 536/6/5 538/6/5
f 540/6/5 536/6/5 539/6/5
f 541/7/5 538/7/5 537/7/5
f 542/6/5 539/6/5 538/6/5
f 542/7/5 538/7/5 541/7/5
f 543/6/5 539/6/5 542/6/5
f 544/6/5 539/6/5 543/6/5
f 545/6/5 539/6/5 544/6/5
f 546/6/5 539/6/5 545/6/5
f 547/7/5 540/7/5 539/7/5
f 547/6/5 539/6/5 546/6/5
f 548/7/5 540/7/5 547/7/5
f 549/6/5 542/6/5 541/6/5
f 550/7/5 543/7/5 542/7/5
f 550/6/5 542/6/5 549/6/5
f 551/6/5 544/6/5 543/6/5
f 551/7/5 543/7/5 550/7/5
f 552/7/5 545/7/5 544/7/5
f 552/6/5 544/6/5 551/6/5
f 553/6/5 546/6/5 545/6/5
f 553/7/5 545/7/5 552/7/5
f 554/7/5 547/7/5 546/7/5
f 554/6/5 546/6/5 553/6/5
f 555/6/5 548/6/5 547/6/5
f 555/7/5 547/7/5 554/7/5
f 556/6/5 548/6/5 555/6/5
f 559/5/5 558/5/5 557/5/5
f 560/5/5 558/5/5 559/5/5
f 561/5/5 558/5/5 560/5/5
f 562/5/5 558/5/5 561/5/5
f 563/5/5 558/5/5 562/5/5
f 564/5/5 558/5/5 563/5/5
f 565/5/5 558/5/5 564/5/5
f 566/5/5 558/5/5 565/5/5
f 567/5/5 559/5/5 557/5/5
f 568/5/5 558/5/5 566/5/5
f 569/5/5 567/5/5 557/5/5
f 570/5/5 558/5/5 568/5/5
f 571/5/5 569/5/5 557/5/5
f 572/5/5 558/5/5 570/5/5
f 573/5/5 571/5/5 557/5/5
f 574/5/5 558/5/5 572/5/5
f 575/5/5 573/5/5 557/5/5
f 576/5/5 558/5/5 574/5/5
f 577/5/5 575/5/5 557/5/5
f 578/5/5 558/5/5 576/5/5
f 579/5/5 577/5/5 557/5/5
f 586/5/5 558/5/5 578/5/5
f 587/5/5 585/5/5 584/5/5
f 587/5/5 586/5/5 585/5/5
f 587/5/5 579/5/5 557/5/5
f 587/5/5 580/5/5 579/5/5
f 587/5/5 584/5/5 583/5/5
f 587/5/5 583/5/5 582/5/5
f 587/5/5 582/5/5 581/5/5
f 587/5/5 581/5/5 580/5/5
f 588/5/5 558/5/5 586/5/5
f 588/5/5 586/5/5 587/5/5
f 589/2/6 590/2/6 591/2/6
f 591/2/6 590/2/6 592/2/6
