# MagicaVoxel @ ephtracy

# material
mtllib woodfloor_01.mtl
usemtl palette

# normals
vn -1 0 0
vn 1 0 0
vn 0 0 1
vn 0 0 -1
vn 0 -1 0
vn 0 1 0

# texcoords
vt 0.970703 0.5
vt 0.974609 0.5

# verts
v -48 0 48
v -48 0 46
v -48 0 40
v -48 0 38
v -48 0 32
v -48 0 22
v -48 0 16
v -48 0 14
v -48 0 8
v -48 0 -2
v -48 0 -8
v -48 0 -10
v -48 0 -16
v -48 0 -26
v -48 0 -32
v -48 0 -34
v -48 0 -40
v -48 0 -48
v -48 1 47
v -48 1 46
v -48 1 39
v -48 1 38
v -48 1 23
v -48 1 22
v -48 1 15
v -48 1 14
v -48 1 -1
v -48 1 -2
v -48 1 -9
v -48 1 -10
v -48 1 -25
v -48 1 -26
v -48 1 -33
v -48 1 -34
v -48 2 48
v -48 2 47
v -48 2 40
v -48 2 39
v -48 2 32
v -48 2 23
v -48 2 16
v -48 2 15
v -48 2 8
v -48 2 -1
v -48 2 -8
v -48 2 -9
v -48 2 -16
v -48 2 -25
v -48 2 -32
v -48 2 -33
v -48 2 -40
v -48 2 -48
v 48 0 48
v 48 0 46
v 48 0 40
v 48 0 38
v 48 0 32
v 48 0 30
v 48 0 24
v 48 0 22
v 48 0 16
v 48 0 14
v 48 0 8
v 48 0 6
v 48 0 -0
v 48 0 -2
v 48 0 -8
v 48 0 -10
v 48 0 -16
v 48 0 -18
v 48 0 -24
v 48 0 -26
v 48 0 -32
v 48 0 -34
v 48 0 -40
v 48 0 -42
v 48 0 -48
v 48 1 47
v 48 1 46
v 48 1 39
v 48 1 38
v 48 1 31
v 48 1 30
v 48 1 23
v 48 1 22
v 48 1 15
v 48 1 14
v 48 1 7
v 48 1 6
v 48 1 -1
v 48 1 -2
v 48 1 -9
v 48 1 -10
v 48 1 -17
v 48 1 -18
v 48 1 -25
v 48 1 -26
v 48 1 -33
v 48 1 -34
v 48 1 -41
v 48 1 -42
v 48 2 48
v 48 2 47
v 48 2 40
v 48 2 39
v 48 2 32
v 48 2 31
v 48 2 24
v 48 2 23
v 48 2 16
v 48 2 15
v 48 2 8
v 48 2 7
v 48 2 -0
v 48 2 -1
v 48 2 -8
v 48 2 -9
v 48 2 -16
v 48 2 -17
v 48 2 -24
v 48 2 -25
v 48 2 -32
v 48 2 -33
v 48 2 -40
v 48 2 -41
v 48 2 -48
v -48 0 48
v -48 2 48
v 48 0 48
v 48 2 48
v -48 0 -48
v -48 2 -48
v -47 1 -48
v -47 2 -48
v -46 0 -48
v -46 1 -48
v -16 0 -48
v -16 2 -48
v -15 1 -48
v -15 2 -48
v -14 0 -48
v -14 1 -48
v 16 0 -48
v 16 2 -48
v 17 1 -48
v 17 2 -48
v 18 0 -48
v 18 1 -48
v 48 0 -48
v 48 2 -48
v -48 0 48
v 48 0 48
v -48 0 46
v -36 0 46
v -34 0 46
v -4 0 46
v -2 0 46
v 28 0 46
v 30 0 46
v 48 0 46
v -48 0 40
v -36 0 40
v -34 0 40
v -4 0 40
v -2 0 40
v 28 0 40
v 30 0 40
v 48 0 40
v -48 0 38
v -28 0 38
v -26 0 38
v 4 0 38
v 6 0 38
v 36 0 38
v 38 0 38
v 48 0 38
v -48 0 32
v -28 0 32
v -26 0 32
v 4 0 32
v 6 0 32
v 36 0 32
v 38 0 32
v 48 0 32
v -46 0 30
v -16 0 30
v -14 0 30
v 16 0 30
v 18 0 30
v 48 0 30
v -46 0 24
v -16 0 24
v -14 0 24
v 16 0 24
v 18 0 24
v 48 0 24
v -48 0 22
v -36 0 22
v -34 0 22
v -4 0 22
v -2 0 22
v 28 0 22
v 30 0 22
v 48 0 22
v -48 0 16
v -36 0 16
v -34 0 16
v -4 0 16
v -2 0 16
v 28 0 16
v 30 0 16
v 48 0 16
v -48 0 14
v -28 0 14
v -26 0 14
v 4 0 14
v 6 0 14
v 36 0 14
v 38 0 14
v 48 0 14
v -48 0 8
v -28 0 8
v -26 0 8
v 4 0 8
v 6 0 8
v 36 0 8
v 38 0 8
v 48 0 8
v -46 0 6
v -16 0 6
v -14 0 6
v 16 0 6
v 18 0 6
v 48 0 6
v -46 0 -0
v -16 0 -0
v -14 0 -0
v 16 0 -0
v 18 0 -0
v 48 0 -0
v -48 0 -2
v -36 0 -2
v -34 0 -2
v -4 0 -2
v -2 0 -2
v 28 0 -2
v 30 0 -2
v 48 0 -2
v -48 0 -8
v -36 0 -8
v -34 0 -8
v -4 0 -8
v -2 0 -8
v 28 0 -8
v 30 0 -8
v 48 0 -8
v -48 0 -10
v -28 0 -10
v -26 0 -10
v 4 0 -10
v 6 0 -10
v 36 0 -10
v 38 0 -10
v 48 0 -10
v -48 0 -16
v -28 0 -16
v -26 0 -16
v 4 0 -16
v 6 0 -16
v 36 0 -16
v 38 0 -16
v 48 0 -16
v -46 0 -18
v -16 0 -18
v -14 0 -18
v 16 0 -18
v 18 0 -18
v 48 0 -18
v -46 0 -24
v -16 0 -24
v -14 0 -24
v 16 0 -24
v 18 0 -24
v 48 0 -24
v -48 0 -26
v -36 0 -26
v -34 0 -26
v -4 0 -26
v -2 0 -26
v 28 0 -26
v 30 0 -26
v 48 0 -26
v -48 0 -32
v -36 0 -32
v -34 0 -32
v -4 0 -32
v -2 0 -32
v 28 0 -32
v 30 0 -32
v 48 0 -32
v -48 0 -34
v -28 0 -34
v -26 0 -34
v 4 0 -34
v 6 0 -34
v 36 0 -34
v 38 0 -34
v 48 0 -34
v -48 0 -40
v -28 0 -40
v -26 0 -40
v 4 0 -40
v 6 0 -40
v 36 0 -40
v 38 0 -40
v 48 0 -40
v -46 0 -42
v -16 0 -42
v -14 0 -42
v 16 0 -42
v 18 0 -42
v 48 0 -42
v -48 0 -48
v -46 0 -48
v -16 0 -48
v -14 0 -48
v 16 0 -48
v 18 0 -48
v 48 0 -48
v -48 2 48
v 48 2 48
v -48 2 47
v -36 2 47
v -35 2 47
v -4 2 47
v -3 2 47
v 28 2 47
v 29 2 47
v 48 2 47
v -48 2 40
v -36 2 40
v -35 2 40
v -4 2 40
v -3 2 40
v 28 2 40
v 29 2 40
v 48 2 40
v -48 2 39
v -28 2 39
v -27 2 39
v 4 2 39
v 5 2 39
v 36 2 39
v 37 2 39
v 48 2 39
v -48 2 32
v -28 2 32
v -27 2 32
v 4 2 32
v 5 2 32
v 36 2 32
v 37 2 32
v 48 2 32
v -47 2 31
v -16 2 31
v -15 2 31
v 16 2 31
v 17 2 31
v 48 2 31
v -47 2 24
v -16 2 24
v -15 2 24
v 16 2 24
v 17 2 24
v 48 2 24
v -48 2 23
v -36 2 23
v -35 2 23
v 28 2 23
v 29 2 23
v 48 2 23
v -4 2 22
v -3 2 22
v -48 2 16
v -36 2 16
v -35 2 16
v -4 2 16
v -3 2 16
v 28 2 16
v 29 2 16
v 48 2 16
v -48 2 15
v -28 2 15
v -27 2 15
v 4 2 15
v 5 2 15
v 36 2 15
v 37 2 15
v 48 2 15
v -48 2 8
v -28 2 8
v -27 2 8
v 4 2 8
v 5 2 8
v 36 2 8
v 37 2 8
v 48 2 8
v -47 2 7
v -16 2 7
v -15 2 7
v 16 2 7
v 17 2 7
v 48 2 7
v -47 2 -0
v -16 2 -0
v -15 2 -0
v 16 2 -0
v 17 2 -0
v 48 2 -0
v -48 2 -1
v -36 2 -1
v -35 2 -1
v -4 2 -1
v -3 2 -1
v 28 2 -1
v 29 2 -1
v 48 2 -1
v -48 2 -8
v -36 2 -8
v -35 2 -8
v -4 2 -8
v -3 2 -8
v 28 2 -8
v 29 2 -8
v 48 2 -8
v -48 2 -9
v -28 2 -9
v -27 2 -9
v 4 2 -9
v 5 2 -9
v 36 2 -9
v 37 2 -9
v 48 2 -9
v -48 2 -16
v -28 2 -16
v -27 2 -16
v 4 2 -16
v 5 2 -16
v 36 2 -16
v 37 2 -16
v 48 2 -16
v -47 2 -17
v -16 2 -17
v -15 2 -17
v 16 2 -17
v 17 2 -17
v 48 2 -17
v -47 2 -24
v -16 2 -24
v -15 2 -24
v 16 2 -24
v 17 2 -24
v 48 2 -24
v -48 2 -25
v -36 2 -25
v -35 2 -25
v -4 2 -25
v -3 2 -25
v 28 2 -25
v 29 2 -25
v 48 2 -25
v -48 2 -32
v -36 2 -32
v -35 2 -32
v -4 2 -32
v -3 2 -32
v 28 2 -32
v 29 2 -32
v 48 2 -32
v -48 2 -33
v -28 2 -33
v -27 2 -33
v 4 2 -33
v 5 2 -33
v 36 2 -33
v 37 2 -33
v 48 2 -33
v -48 2 -40
v -28 2 -40
v -27 2 -40
v 4 2 -40
v 5 2 -40
v 36 2 -40
v 37 2 -40
v 48 2 -40
v -47 2 -41
v -16 2 -41
v -15 2 -41
v 16 2 -41
v 17 2 -41
v 48 2 -41
v -48 2 -48
v -47 2 -48
v -16 2 -48
v -15 2 -48
v 16 2 -48
v 17 2 -48
v 48 2 -48

# faces
f 19/2/1 2/2/1 1/2/1
f 20/1/1 3/1/1 2/1/1
f 20/2/1 2/2/1 19/2/1
f 21/2/1 4/2/1 3/2/1
f 22/1/1 5/1/1 4/1/1
f 22/2/1 4/2/1 21/2/1
f 23/2/1 6/2/1 5/2/1
f 24/1/1 7/1/1 6/1/1
f 24/2/1 6/2/1 23/2/1
f 25/2/1 8/2/1 7/2/1
f 26/1/1 9/1/1 8/1/1
f 26/2/1 8/2/1 25/2/1
f 27/2/1 10/2/1 9/2/1
f 28/1/1 11/1/1 10/1/1
f 28/2/1 10/2/1 27/2/1
f 29/2/1 12/2/1 11/2/1
f 30/1/1 13/1/1 12/1/1
f 30/2/1 12/2/1 29/2/1
f 31/2/1 14/2/1 13/2/1
f 32/1/1 15/1/1 14/1/1
f 32/2/1 14/2/1 31/2/1
f 33/2/1 16/2/1 15/2/1
f 34/1/1 17/1/1 16/1/1
f 34/2/1 16/2/1 33/2/1
f 35/2/1 19/2/1 1/2/1
f 36/1/1 20/1/1 19/1/1
f 36/2/1 19/2/1 35/2/1
f 37/1/1 3/1/1 20/1/1
f 37/1/1 20/1/1 36/1/1
f 37/2/1 21/2/1 3/2/1
f 38/1/1 22/1/1 21/1/1
f 38/2/1 21/2/1 37/2/1
f 39/1/1 5/1/1 22/1/1
f 39/1/1 22/1/1 38/1/1
f 39/2/1 23/2/1 5/2/1
f 40/1/1 24/1/1 23/1/1
f 40/2/1 23/2/1 39/2/1
f 41/1/1 7/1/1 24/1/1
f 41/1/1 24/1/1 40/1/1
f 41/2/1 25/2/1 7/2/1
f 42/1/1 26/1/1 25/1/1
f 42/2/1 25/2/1 41/2/1
f 43/1/1 9/1/1 26/1/1
f 43/1/1 26/1/1 42/1/1
f 43/2/1 27/2/1 9/2/1
f 44/1/1 28/1/1 27/1/1
f 44/2/1 27/2/1 43/2/1
f 45/1/1 11/1/1 28/1/1
f 45/1/1 28/1/1 44/1/1
f 45/2/1 29/2/1 11/2/1
f 46/1/1 30/1/1 29/1/1
f 46/2/1 29/2/1 45/2/1
f 47/1/1 13/1/1 30/1/1
f 47/1/1 30/1/1 46/1/1
f 47/2/1 31/2/1 13/2/1
f 48/1/1 32/1/1 31/1/1
f 48/2/1 31/2/1 47/2/1
f 49/1/1 15/1/1 32/1/1
f 49/1/1 32/1/1 48/1/1
f 49/2/1 33/2/1 15/2/1
f 50/1/1 34/1/1 33/1/1
f 50/2/1 33/2/1 49/2/1
f 51/2/1 18/2/1 17/2/1
f 51/1/1 34/1/1 50/1/1
f 51/1/1 17/1/1 34/1/1
f 52/2/1 18/2/1 51/2/1
f 53/2/2 54/2/2 78/2/2
f 54/1/2 55/1/2 79/1/2
f 78/2/2 54/2/2 79/2/2
f 55/2/2 56/2/2 80/2/2
f 56/1/2 57/1/2 81/1/2
f 80/2/2 56/2/2 81/2/2
f 57/2/2 58/2/2 82/2/2
f 58/1/2 59/1/2 83/1/2
f 82/2/2 58/2/2 83/2/2
f 59/2/2 60/2/2 84/2/2
f 60/1/2 61/1/2 85/1/2
f 84/2/2 60/2/2 85/2/2
f 61/2/2 62/2/2 86/2/2
f 62/1/2 63/1/2 87/1/2
f 86/2/2 62/2/2 87/2/2
f 63/2/2 64/2/2 88/2/2
f 64/1/2 65/1/2 89/1/2
f 88/2/2 64/2/2 89/2/2
f 65/2/2 66/2/2 90/2/2
f 66/1/2 67/1/2 91/1/2
f 90/2/2 66/2/2 91/2/2
f 67/2/2 68/2/2 92/2/2
f 68/1/2 69/1/2 93/1/2
f 92/2/2 68/2/2 93/2/2
f 69/2/2 70/2/2 94/2/2
f 70/1/2 71/1/2 95/1/2
f 94/2/2 70/2/2 95/2/2
f 71/2/2 72/2/2 96/2/2
f 72/1/2 73/1/2 97/1/2
f 96/2/2 72/2/2 97/2/2
f 73/2/2 74/2/2 98/2/2
f 74/1/2 75/1/2 99/1/2
f 98/2/2 74/2/2 99/2/2
f 75/2/2 76/2/2 100/2/2
f 76/1/2 77/1/2 101/1/2
f 100/2/2 76/2/2 101/2/2
f 53/2/2 78/2/2 102/2/2
f 78/1/2 79/1/2 103/1/2
f 102/2/2 78/2/2 103/2/2
f 79/1/2 55/1/2 104/1/2
f 103/1/2 79/1/2 104/1/2
f 55/2/2 80/2/2 104/2/2
f 80/1/2 81/1/2 105/1/2
f 104/2/2 80/2/2 105/2/2
f 81/1/2 57/1/2 106/1/2
f 105/1/2 81/1/2 106/1/2
f 57/2/2 82/2/2 106/2/2
f 82/1/2 83/1/2 107/1/2
f 106/2/2 82/2/2 107/2/2
f 83/1/2 59/1/2 108/1/2
f 107/1/2 83/1/2 108/1/2
f 59/2/2 84/2/2 108/2/2
f 84/1/2 85/1/2 109/1/2
f 108/2/2 84/2/2 109/2/2
f 85/1/2 61/1/2 110/1/2
f 109/1/2 85/1/2 110/1/2
f 61/2/2 86/2/2 110/2/2
f 86/1/2 87/1/2 111/1/2
f 110/2/2 86/2/2 111/2/2
f 87/1/2 63/1/2 112/1/2
f 111/1/2 87/1/2 112/1/2
f 63/2/2 88/2/2 112/2/2
f 88/1/2 89/1/2 113/1/2
f 112/2/2 88/2/2 113/2/2
f 89/1/2 65/1/2 114/1/2
f 113/1/2 89/1/2 114/1/2
f 65/2/2 90/2/2 114/2/2
f 90/1/2 91/1/2 115/1/2
f 114/2/2 90/2/2 115/2/2
f 91/1/2 67/1/2 116/1/2
f 115/1/2 91/1/2 116/1/2
f 67/2/2 92/2/2 116/2/2
f 92/1/2 93/1/2 117/1/2
f 116/2/2 92/2/2 117/2/2
f 93/1/2 69/1/2 118/1/2
f 117/1/2 93/1/2 118/1/2
f 69/2/2 94/2/2 118/2/2
f 94/1/2 95/1/2 119/1/2
f 118/2/2 94/2/2 119/2/2
f 95/1/2 71/1/2 120/1/2
f 119/1/2 95/1/2 120/1/2
f 71/2/2 96/2/2 120/2/2
f 96/1/2 97/1/2 121/1/2
f 120/2/2 96/2/2 121/2/2
f 97/1/2 73/1/2 122/1/2
f 121/1/2 97/1/2 122/1/2
f 73/2/2 98/2/2 122/2/2
f 98/1/2 99/1/2 123/1/2
f 122/2/2 98/2/2 123/2/2
f 75/2/2 100/2/2 124/2/2
f 123/1/2 99/1/2 124/1/2
f 99/1/2 75/1/2 124/1/2
f 100/1/2 101/1/2 125/1/2
f 124/2/2 100/2/2 125/2/2
f 101/1/2 77/1/2 126/1/2
f 125/1/2 101/1/2 126/1/2
f 129/2/3 128/2/3 127/2/3
f 130/2/3 128/2/3 129/2/3
f 131/2/4 132/2/4 133/2/4
f 133/2/4 132/2/4 134/2/4
f 131/2/4 133/2/4 135/2/4
f 133/1/4 134/1/4 136/1/4
f 135/2/4 133/2/4 136/2/4
f 135/1/4 136/1/4 137/1/4
f 136/1/4 134/1/4 138/1/4
f 137/1/4 136/1/4 138/1/4
f 137/2/4 138/2/4 139/2/4
f 139/2/4 138/2/4 140/2/4
f 137/2/4 139/2/4 141/2/4
f 139/1/4 140/1/4 142/1/4
f 141/2/4 139/2/4 142/2/4
f 141/1/4 142/1/4 143/1/4
f 142/1/4 140/1/4 144/1/4
f 143/1/4 142/1/4 144/1/4
f 143/2/4 144/2/4 145/2/4
f 145/2/4 144/2/4 146/2/4
f 143/2/4 145/2/4 147/2/4
f 145/1/4 146/1/4 148/1/4
f 147/2/4 145/2/4 148/2/4
f 147/1/4 148/1/4 149/1/4
f 148/1/4 146/1/4 150/1/4
f 149/1/4 148/1/4 150/1/4
f 153/2/5 152/2/5 151/2/5
f 154/2/5 152/2/5 153/2/5
f 155/2/5 152/2/5 154/2/5
f 156/2/5 152/2/5 155/2/5
f 157/2/5 152/2/5 156/2/5
f 158/2/5 152/2/5 157/2/5
f 159/2/5 152/2/5 158/2/5
f 160/2/5 152/2/5 159/2/5
f 161/1/5 154/1/5 153/1/5
f 162/2/5 155/2/5 154/2/5
f 162/1/5 154/1/5 161/1/5
f 163/1/5 156/1/5 155/1/5
f 163/2/5 155/2/5 162/2/5
f 164/2/5 157/2/5 156/2/5
f 164/1/5 156/1/5 163/1/5
f 165/1/5 158/1/5 157/1/5
f 165/2/5 157/2/5 164/2/5
f 166/2/5 159/2/5 158/2/5
f 166/1/5 158/1/5 165/1/5
f 167/1/5 160/1/5 159/1/5
f 167/2/5 159/2/5 166/2/5
f 168/1/5 160/1/5 167/1/5
f 169/2/5 162/2/5 161/2/5
f 169/2/5 163/2/5 162/2/5
f 169/2/5 168/2/5 167/2/5
f 169/2/5 167/2/5 166/2/5
f 169/2/5 166/2/5 165/2/5
f 169/2/5 165/2/5 164/2/5
f 169/2/5 164/2/5 163/2/5
f 170/2/5 168/2/5 169/2/5
f 171/2/5 168/2/5 170/2/5
f 172/2/5 168/2/5 171/2/5
f 173/2/5 168/2/5 172/2/5
f 174/2/5 168/2/5 173/2/5
f 175/2/5 168/2/5 174/2/5
f 176/2/5 168/2/5 175/2/5
f 177/1/5 170/1/5 169/1/5
f 178/2/5 171/2/5 170/2/5
f 178/1/5 170/1/5 177/1/5
f 179/1/5 172/1/5 171/1/5
f 179/2/5 171/2/5 178/2/5
f 180/2/5 173/2/5 172/2/5
f 180/1/5 172/1/5 179/1/5
f 181/1/5 174/1/5 173/1/5
f 181/2/5 173/2/5 180/2/5
f 182/2/5 175/2/5 174/2/5
f 182/1/5 174/1/5 181/1/5
f 183/1/5 176/1/5 175/1/5
f 183/2/5 175/2/5 182/2/5
f 184/1/5 176/1/5 183/1/5
f 185/2/5 178/2/5 177/2/5
f 185/2/5 179/2/5 178/2/5
f 185/2/5 184/2/5 183/2/5
f 185/2/5 183/2/5 182/2/5
f 185/2/5 182/2/5 181/2/5
f 185/2/5 181/2/5 180/2/5
f 185/2/5 180/2/5 179/2/5
f 186/2/5 184/2/5 185/2/5
f 187/2/5 184/2/5 186/2/5
f 188/2/5 184/2/5 187/2/5
f 189/2/5 184/2/5 188/2/5
f 190/2/5 184/2/5 189/2/5
f 191/2/5 185/2/5 177/2/5
f 191/1/5 186/1/5 185/1/5
f 192/2/5 187/2/5 186/2/5
f 192/1/5 186/1/5 191/1/5
f 193/1/5 188/1/5 187/1/5
f 193/2/5 187/2/5 192/2/5
f 194/2/5 189/2/5 188/2/5
f 194/1/5 188/1/5 193/1/5
f 195/1/5 190/1/5 189/1/5
f 195/2/5 189/2/5 194/2/5
f 196/1/5 190/1/5 195/1/5
f 197/2/5 194/2/5 193/2/5
f 197/2/5 191/2/5 177/2/5
f 197/2/5 196/2/5 195/2/5
f 197/2/5 195/2/5 194/2/5
f 197/2/5 193/2/5 192/2/5
f 197/2/5 192/2/5 191/2/5
f 198/2/5 196/2/5 197/2/5
f 199/2/5 196/2/5 198/2/5
f 200/2/5 196/2/5 199/2/5
f 201/2/5 196/2/5 200/2/5
f 202/2/5 196/2/5 201/2/5
f 203/2/5 196/2/5 202/2/5
f 204/2/5 196/2/5 203/2/5
f 205/1/5 198/1/5 197/1/5
f 206/2/5 199/2/5 198/2/5
f 206/1/5 198/1/5 205/1/5
f 207/1/5 200/1/5 199/1/5
f 207/2/5 199/2/5 206/2/5
f 208/2/5 201/2/5 200/2/5
f 208/1/5 200/1/5 207/1/5
f 209/1/5 202/1/5 201/1/5
f 209/2/5 201/2/5 208/2/5
f 210/2/5 203/2/5 202/2/5
f 210/1/5 202/1/5 209/1/5
f 211/1/5 204/1/5 203/1/5
f 211/2/5 203/2/5 210/2/5
f 212/1/5 204/1/5 211/1/5
f 213/2/5 206/2/5 205/2/5
f 213/2/5 207/2/5 206/2/5
f 213/2/5 212/2/5 211/2/5
f 213/2/5 211/2/5 210/2/5
f 213/2/5 210/2/5 209/2/5
f 213/2/5 209/2/5 208/2/5
f 213/2/5 208/2/5 207/2/5
f 214/2/5 212/2/5 213/2/5
f 215/2/5 212/2/5 214/2/5
f 216/2/5 212/2/5 215/2/5
f 217/2/5 212/2/5 216/2/5
f 218/2/5 212/2/5 217/2/5
f 219/2/5 212/2/5 218/2/5
f 220/2/5 212/2/5 219/2/5
f 221/1/5 214/1/5 213/1/5
f 222/2/5 215/2/5 214/2/5
f 222/1/5 214/1/5 221/1/5
f 223/1/5 216/1/5 215/1/5
f 223/2/5 215/2/5 222/2/5
f 224/2/5 217/2/5 216/2/5
f 224/1/5 216/1/5 223/1/5
f 225/1/5 218/1/5 217/1/5
f 225/2/5 217/2/5 224/2/5
f 226/2/5 219/2/5 218/2/5
f 226/1/5 218/1/5 225/1/5
f 227/1/5 220/1/5 219/1/5
f 227/2/5 219/2/5 226/2/5
f 228/1/5 220/1/5 227/1/5
f 229/2/5 222/2/5 221/2/5
f 229/2/5 223/2/5 222/2/5
f 229/2/5 228/2/5 227/2/5
f 229/2/5 227/2/5 226/2/5
f 229/2/5 226/2/5 225/2/5
f 229/2/5 225/2/5 224/2/5
f 229/2/5 224/2/5 223/2/5
f 230/2/5 228/2/5 229/2/5
f 231/2/5 228/2/5 230/2/5
f 232/2/5 228/2/5 231/2/5
f 233/2/5 228/2/5 232/2/5
f 234/2/5 228/2/5 233/2/5
f 235/2/5 229/2/5 221/2/5
f 235/1/5 230/1/5 229/1/5
f 236/2/5 231/2/5 230/2/5
f 236/1/5 230/1/5 235/1/5
f 237/1/5 232/1/5 231/1/5
f 237/2/5 231/2/5 236/2/5
f 238/2/5 233/2/5 232/2/5
f 238/1/5 232/1/5 237/1/5
f 239/1/5 234/1/5 233/1/5
f 239/2/5 233/2/5 238/2/5
f 240/1/5 234/1/5 239/1/5
f 241/2/5 238/2/5 237/2/5
f 241/2/5 235/2/5 221/2/5
f 241/2/5 240/2/5 239/2/5
f 241/2/5 239/2/5 238/2/5
f 241/2/5 237/2/5 236/2/5
f 241/2/5 236/2/5 235/2/5
f 242/2/5 240/2/5 241/2/5
f 243/2/5 240/2/5 242/2/5
f 244/2/5 240/2/5 243/2/5
f 245/2/5 240/2/5 244/2/5
f 246/2/5 240/2/5 245/2/5
f 247/2/5 240/2/5 246/2/5
f 248/2/5 240/2/5 247/2/5
f 249/1/5 242/1/5 241/1/5
f 250/2/5 243/2/5 242/2/5
f 250/1/5 242/1/5 249/1/5
f 251/1/5 244/1/5 243/1/5
f 251/2/5 243/2/5 250/2/5
f 252/2/5 245/2/5 244/2/5
f 252/1/5 244/1/5 251/1/5
f 253/1/5 246/1/5 245/1/5
f 253/2/5 245/2/5 252/2/5
f 254/2/5 247/2/5 246/2/5
f 254/1/5 246/1/5 253/1/5
f 255/1/5 248/1/5 247/1/5
f 255/2/5 247/2/5 254/2/5
f 256/1/5 248/1/5 255/1/5
f 257/2/5 250/2/5 249/2/5
f 257/2/5 251/2/5 250/2/5
f 257/2/5 256/2/5 255/2/5
f 257/2/5 255/2/5 254/2/5
f 257/2/5 254/2/5 253/2/5
f 257/2/5 253/2/5 252/2/5
f 257/2/5 252/2/5 251/2/5
f 258/2/5 256/2/5 257/2/5
f 259/2/5 256/2/5 258/2/5
f 260/2/5 256/2/5 259/2/5
f 261/2/5 256/2/5 260/2/5
f 262/2/5 256/2/5 261/2/5
f 263/2/5 256/2/5 262/2/5
f 264/2/5 256/2/5 263/2/5
f 265/1/5 258/1/5 257/1/5
f 266/2/5 259/2/5 258/2/5
f 266/1/5 258/1/5 265/1/5
f 267/1/5 260/1/5 259/1/5
f 267/2/5 259/2/5 266/2/5
f 268/2/5 261/2/5 260/2/5
f 268/1/5 260/1/5 267/1/5
f 269/1/5 262/1/5 261/1/5
f 269/2/5 261/2/5 268/2/5
f 270/2/5 263/2/5 262/2/5
f 270/1/5 262/1/5 269/1/5
f 271/1/5 264/1/5 263/1/5
f 271/2/5 263/2/5 270/2/5
f 272/1/5 264/1/5 271/1/5
f 273/2/5 266/2/5 265/2/5
f 273/2/5 267/2/5 266/2/5
f 273/2/5 272/2/5 271/2/5
f 273/2/5 271/2/5 270/2/5
f 273/2/5 270/2/5 269/2/5
f 273/2/5 269/2/5 268/2/5
f 273/2/5 268/2/5 267/2/5
f 274/2/5 272/2/5 273/2/5
f 275/2/5 272/2/5 274/2/5
f 276/2/5 272/2/5 275/2/5
f 277/2/5 272/2/5 276/2/5
f 278/2/5 272/2/5 277/2/5
f 279/2/5 273/2/5 265/2/5
f 279/1/5 274/1/5 273/1/5
f 280/2/5 275/2/5 274/2/5
f 280/1/5 274/1/5 279/1/5
f 281/1/5 276/1/5 275/1/5
f 281/2/5 275/2/5 280/2/5
f 282/2/5 277/2/5 276/2/5
f 282/1/5 276/1/5 281/1/5
f 283/1/5 278/1/5 277/1/5
f 283/2/5 277/2/5 282/2/5
f 284/1/5 278/1/5 283/1/5
f 285/2/5 282/2/5 281/2/5
f 285/2/5 279/2/5 265/2/5
f 285/2/5 284/2/5 283/2/5
f 285/2/5 283/2/5 282/2/5
f 285/2/5 281/2/5 280/2/5
f 285/2/5 280/2/5 279/2/5
f 286/2/5 284/2/5 285/2/5
f 287/2/5 284/2/5 286/2/5
f 288/2/5 284/2/5 287/2/5
f 289/2/5 284/2/5 288/2/5
f 290/2/5 284/2/5 289/2/5
f 291/2/5 284/2/5 290/2/5
f 292/2/5 284/2/5 291/2/5
f 293/1/5 286/1/5 285/1/5
f 294/2/5 287/2/5 286/2/5
f 294/1/5 286/1/5 293/1/5
f 295/1/5 288/1/5 287/1/5
f 295/2/5 287/2/5 294/2/5
f 296/2/5 289/2/5 288/2/5
f 296/1/5 288/1/5 295/1/5
f 297/1/5 290/1/5 289/1/5
f 297/2/5 289/2/5 296/2/5
f 298/2/5 291/2/5 290/2/5
f 298/1/5 290/1/5 297/1/5
f 299/1/5 292/1/5 291/1/5
f 299/2/5 291/2/5 298/2/5
f 300/1/5 292/1/5 299/1/5
f 301/2/5 294/2/5 293/2/5
f 301/2/5 295/2/5 294/2/5
f 301/2/5 300/2/5 299/2/5
f 301/2/5 299/2/5 298/2/5
f 301/2/5 298/2/5 297/2/5
f 301/2/5 297/2/5 296/2/5
f 301/2/5 296/2/5 295/2/5
f 302/2/5 300/2/5 301/2/5
f 303/2/5 300/2/5 302/2/5
f 304/2/5 300/2/5 303/2/5
f 305/2/5 300/2/5 304/2/5
f 306/2/5 300/2/5 305/2/5
f 307/2/5 300/2/5 306/2/5
f 308/2/5 300/2/5 307/2/5
f 309/1/5 302/1/5 301/1/5
f 310/2/5 303/2/5 302/2/5
f 310/1/5 302/1/5 309/1/5
f 311/1/5 304/1/5 303/1/5
f 311/2/5 303/2/5 310/2/5
f 312/2/5 305/2/5 304/2/5
f 312/1/5 304/1/5 311/1/5
f 313/1/5 306/1/5 305/1/5
f 313/2/5 305/2/5 312/2/5
f 314/2/5 307/2/5 306/2/5
f 314/1/5 306/1/5 313/1/5
f 315/1/5 308/1/5 307/1/5
f 315/2/5 307/2/5 314/2/5
f 316/1/5 308/1/5 315/1/5
f 317/2/5 310/2/5 309/2/5
f 317/2/5 311/2/5 310/2/5
f 317/2/5 316/2/5 315/2/5
f 317/2/5 315/2/5 314/2/5
f 317/2/5 314/2/5 313/2/5
f 317/2/5 313/2/5 312/2/5
f 317/2/5 312/2/5 311/2/5
f 318/2/5 316/2/5 317/2/5
f 319/2/5 316/2/5 318/2/5
f 320/2/5 316/2/5 319/2/5
f 321/2/5 316/2/5 320/2/5
f 322/2/5 316/2/5 321/2/5
f 323/2/5 317/2/5 309/2/5
f 324/1/5 318/1/5 317/1/5
f 324/2/5 317/2/5 323/2/5
f 325/2/5 319/2/5 318/2/5
f 325/1/5 318/1/5 324/1/5
f 326/1/5 320/1/5 319/1/5
f 326/2/5 319/2/5 325/2/5
f 327/2/5 321/2/5 320/2/5
f 327/1/5 320/1/5 326/1/5
f 328/1/5 322/1/5 321/1/5
f 328/2/5 321/2/5 327/2/5
f 329/1/5 322/1/5 328/1/5
f 330/2/6 331/2/6 332/2/6
f 332/2/6 331/2/6 333/2/6
f 333/2/6 331/2/6 334/2/6
f 334/2/6 331/2/6 335/2/6
f 335/2/6 331/2/6 336/2/6
f 336/2/6 331/2/6 337/2/6
f 337/2/6 331/2/6 338/2/6
f 338/2/6 331/2/6 339/2/6
f 332/1/6 333/1/6 340/1/6
f 333/2/6 334/2/6 341/2/6
f 340/1/6 333/1/6 341/1/6
f 334/1/6 335/1/6 342/1/6
f 341/2/6 334/2/6 342/2/6
f 335/2/6 336/2/6 343/2/6
f 342/1/6 335/1/6 343/1/6
f 336/1/6 337/1/6 344/1/6
f 343/2/6 336/2/6 344/2/6
f 337/2/6 338/2/6 345/2/6
f 344/1/6 337/1/6 345/1/6
f 338/1/6 339/1/6 346/1/6
f 345/2/6 338/2/6 346/2/6
f 346/1/6 339/1/6 347/1/6
f 340/2/6 341/2/6 348/2/6
f 341/2/6 342/2/6 348/2/6
f 346/2/6 347/2/6 348/2/6
f 345/2/6 346/2/6 348/2/6
f 344/2/6 345/2/6 348/2/6
f 343/2/6 344/2/6 348/2/6
f 342/2/6 343/2/6 348/2/6
f 348/2/6 347/2/6 349/2/6
f 349/2/6 347/2/6 350/2/6
f 350/2/6 347/2/6 351/2/6
f 351/2/6 347/2/6 352/2/6
f 352/2/6 347/2/6 353/2/6
f 353/2/6 347/2/6 354/2/6
f 354/2/6 347/2/6 355/2/6
f 348/1/6 349/1/6 356/1/6
f 349/2/6 350/2/6 357/2/6
f 356/1/6 349/1/6 357/1/6
f 350/1/6 351/1/6 358/1/6
f 357/2/6 350/2/6 358/2/6
f 351/2/6 352/2/6 359/2/6
f 358/1/6 351/1/6 359/1/6
f 352/1/6 353/1/6 360/1/6
f 359/2/6 352/2/6 360/2/6
f 353/2/6 354/2/6 361/2/6
f 360/1/6 353/1/6 361/1/6
f 354/1/6 355/1/6 362/1/6
f 361/2/6 354/2/6 362/2/6
f 362/1/6 355/1/6 363/1/6
f 356/2/6 357/2/6 364/2/6
f 357/2/6 358/2/6 364/2/6
f 362/2/6 363/2/6 364/2/6
f 361/2/6 362/2/6 364/2/6
f 360/2/6 361/2/6 364/2/6
f 359/2/6 360/2/6 364/2/6
f 358/2/6 359/2/6 364/2/6
f 364/2/6 363/2/6 365/2/6
f 365/2/6 363/2/6 366/2/6
f 366/2/6 363/2/6 367/2/6
f 367/2/6 363/2/6 368/2/6
f 368/2/6 363/2/6 369/2/6
f 356/2/6 364/2/6 370/2/6
f 364/1/6 365/1/6 370/1/6
f 365/2/6 366/2/6 371/2/6
f 370/1/6 365/1/6 371/1/6
f 366/1/6 367/1/6 372/1/6
f 371/2/6 366/2/6 372/2/6
f 367/2/6 368/2/6 373/2/6
f 372/1/6 367/1/6 373/1/6
f 368/1/6 369/1/6 374/1/6
f 373/2/6 368/2/6 374/2/6
f 374/1/6 369/1/6 375/1/6
f 372/2/6 373/2/6 376/2/6
f 356/2/6 370/2/6 376/2/6
f 374/2/6 375/2/6 376/2/6
f 373/2/6 374/2/6 376/2/6
f 371/2/6 372/2/6 376/2/6
f 370/2/6 371/2/6 376/2/6
f 376/2/6 375/2/6 377/2/6
f 377/2/6 375/2/6 378/2/6
f 378/2/6 375/2/6 379/2/6
f 379/2/6 375/2/6 380/2/6
f 380/2/6 375/2/6 381/2/6
f 378/1/6 379/1/6 382/1/6
f 382/1/6 379/1/6 383/1/6
f 376/1/6 377/1/6 384/1/6
f 377/2/6 378/2/6 385/2/6
f 384/1/6 377/1/6 385/1/6
f 378/1/6 382/1/6 386/1/6
f 385/2/6 378/2/6 386/2/6
f 382/2/6 383/2/6 387/2/6
f 386/1/6 382/1/6 387/1/6
f 383/1/6 379/1/6 388/1/6
f 387/2/6 383/2/6 388/2/6
f 379/2/6 380/2/6 389/2/6
f 388/1/6 379/1/6 389/1/6
f 380/1/6 381/1/6 390/1/6
f 389/2/6 380/2/6 390/2/6
f 390/1/6 381/1/6 391/1/6
f 386/2/6 387/2/6 392/2/6
f 387/2/6 388/2/6 392/2/6
f 390/2/6 391/2/6 392/2/6
f 389/2/6 390/2/6 392/2/6
f 385/2/6 386/2/6 392/2/6
f 384/2/6 385/2/6 392/2/6
f 388/2/6 389/2/6 392/2/6
f 392/2/6 391/2/6 393/2/6
f 393/2/6 391/2/6 394/2/6
f 394/2/6 391/2/6 395/2/6
f 395/2/6 391/2/6 396/2/6
f 396/2/6 391/2/6 397/2/6
f 397/2/6 391/2/6 398/2/6
f 398/2/6 391/2/6 399/2/6
f 392/1/6 393/1/6 400/1/6
f 393/2/6 394/2/6 401/2/6
f 400/1/6 393/1/6 401/1/6
f 394/1/6 395/1/6 402/1/6
f 401/2/6 394/2/6 402/2/6
f 395/2/6 396/2/6 403/2/6
f 402/1/6 395/1/6 403/1/6
f 396/1/6 397/1/6 404/1/6
f 403/2/6 396/2/6 404/2/6
f 397/2/6 398/2/6 405/2/6
f 404/1/6 397/1/6 405/1/6
f 398/1/6 399/1/6 406/1/6
f 405/2/6 398/2/6 406/2/6
f 406/1/6 399/1/6 407/1/6
f 400/2/6 401/2/6 408/2/6
f 401/2/6 402/2/6 408/2/6
f 406/2/6 407/2/6 408/2/6
f 405/2/6 406/2/6 408/2/6
f 404/2/6 405/2/6 408/2/6
f 403/2/6 404/2/6 408/2/6
f 402/2/6 403/2/6 408/2/6
f 408/2/6 407/2/6 409/2/6
f 409/2/6 407/2/6 410/2/6
f 410/2/6 407/2/6 411/2/6
f 411/2/6 407/2/6 412/2/6
f 412/2/6 407/2/6 413/2/6
f 400/2/6 408/2/6 414/2/6
f 408/1/6 409/1/6 414/1/6
f 409/2/6 410/2/6 415/2/6
f 414/1/6 409/1/6 415/1/6
f 410/1/6 411/1/6 416/1/6
f 415/2/6 410/2/6 416/2/6
f 411/2/6 412/2/6 417/2/6
f 416/1/6 411/1/6 417/1/6
f 412/1/6 413/1/6 418/1/6
f 417/2/6 412/2/6 418/2/6
f 418/1/6 413/1/6 419/1/6
f 416/2/6 417/2/6 420/2/6
f 400/2/6 414/2/6 420/2/6
f 418/2/6 419/2/6 420/2/6
f 417/2/6 418/2/6 420/2/6
f 415/2/6 416/2/6 420/2/6
f 414/2/6 415/2/6 420/2/6
f 420/2/6 419/2/6 421/2/6
f 421/2/6 419/2/6 422/2/6
f 422/2/6 419/2/6 423/2/6
f 423/2/6 419/2/6 424/2/6
f 424/2/6 419/2/6 425/2/6
f 425/2/6 419/2/6 426/2/6
f 426/2/6 419/2/6 427/2/6
f 420/1/6 421/1/6 428/1/6
f 421/2/6 422/2/6 429/2/6
f 428/1/6 421/1/6 429/1/6
f 422/1/6 423/1/6 430/1/6
f 429/2/6 422/2/6 430/2/6
f 423/2/6 424/2/6 431/2/6
f 430/1/6 423/1/6 431/1/6
f 424/1/6 425/1/6 432/1/6
f 431/2/6 424/2/6 432/2/6
f 425/2/6 426/2/6 433/2/6
f 432/1/6 425/1/6 433/1/6
f 426/1/6 427/1/6 434/1/6
f 433/2/6 426/2/6 434/2/6
f 434/1/6 427/1/6 435/1/6
f 428/2/6 429/2/6 436/2/6
f 429/2/6 430/2/6 436/2/6
f 434/2/6 435/2/6 436/2/6
f 433/2/6 434/2/6 436/2/6
f 432/2/6 433/2/6 436/2/6
f 431/2/6 432/2/6 436/2/6
f 430/2/6 431/2/6 436/2/6
f 436/2/6 435/2/6 437/2/6
f 437/2/6 435/2/6 438/2/6
f 438/2/6 435/2/6 439/2/6
f 439/2/6 435/2/6 440/2/6
f 440/2/6 435/2/6 441/2/6
f 441/2/6 435/2/6 442/2/6
f 442/2/6 435/2/6 443/2/6
f 436/1/6 437/1/6 444/1/6
f 437/2/6 438/2/6 445/2/6
f 444/1/6 437/1/6 445/1/6
f 438/1/6 439/1/6 446/1/6
f 445/2/6 438/2/6 446/2/6
f 439/2/6 440/2/6 447/2/6
f 446/1/6 439/1/6 447/1/6
f 440/1/6 441/1/6 448/1/6
f 447/2/6 440/2/6 448/2/6
f 441/2/6 442/2/6 449/2/6
f 448/1/6 441/1/6 449/1/6
f 442/1/6 443/1/6 450/1/6
f 449/2/6 442/2/6 450/2/6
f 450/1/6 443/1/6 451/1/6
f 444/2/6 445/2/6 452/2/6
f 445/2/6 446/2/6 452/2/6
f 450/2/6 451/2/6 452/2/6
f 449/2/6 450/2/6 452/2/6
f 448/2/6 449/2/6 452/2/6
f 447/2/6 448/2/6 452/2/6
f 446/2/6 447/2/6 452/2/6
f 452/2/6 451/2/6 453/2/6
f 453/2/6 451/2/6 454/2/6
f 454/2/6 451/2/6 455/2/6
f 455/2/6 451/2/6 456/2/6
f 456/2/6 451/2/6 457/2/6
f 444/2/6 452/2/6 458/2/6
f 452/1/6 453/1/6 458/1/6
f 453/2/6 454/2/6 459/2/6
f 458/1/6 453/1/6 459/1/6
f 454/1/6 455/1/6 460/1/6
f 459/2/6 454/2/6 460/2/6
f 455/2/6 456/2/6 461/2/6
f 460/1/6 455/1/6 461/1/6
f 456/1/6 457/1/6 462/1/6
f 461/2/6 456/2/6 462/2/6
f 462/1/6 457/1/6 463/1/6
f 460/2/6 461/2/6 464/2/6
f 444/2/6 458/2/6 464/2/6
f 462/2/6 463/2/6 464/2/6
f 461/2/6 462/2/6 464/2/6
f 459/2/6 460/2/6 464/2/6
f 458/2/6 459/2/6 464/2/6
f 464/2/6 463/2/6 465/2/6
f 465/2/6 463/2/6 466/2/6
f 466/2/6 463/2/6 467/2/6
f 467/2/6 463/2/6 468/2/6
f 468/2/6 463/2/6 469/2/6
f 469/2/6 463/2/6 470/2/6
f 470/2/6 463/2/6 471/2/6
f 464/1/6 465/1/6 472/1/6
f 465/2/6 466/2/6 473/2/6
f 472/1/6 465/1/6 473/1/6
f 466/1/6 467/1/6 474/1/6
f 473/2/6 466/2/6 474/2/6
f 467/2/6 468/2/6 475/2/6
f 474/1/6 467/1/6 475/1/6
f 468/1/6 469/1/6 476/1/6
f 475/2/6 468/2/6 476/2/6
f 469/2/6 470/2/6 477/2/6
f 476/1/6 469/1/6 477/1/6
f 470/1/6 471/1/6 478/1/6
f 477/2/6 470/2/6 478/2/6
f 478/1/6 471/1/6 479/1/6
f 472/2/6 473/2/6 480/2/6
f 473/2/6 474/2/6 480/2/6
f 478/2/6 479/2/6 480/2/6
f 477/2/6 478/2/6 480/2/6
f 476/2/6 477/2/6 480/2/6
f 475/2/6 476/2/6 480/2/6
f 474/2/6 475/2/6 480/2/6
f 480/2/6 479/2/6 481/2/6
f 481/2/6 479/2/6 482/2/6
f 482/2/6 479/2/6 483/2/6
f 483/2/6 479/2/6 484/2/6
f 484/2/6 479/2/6 485/2/6
f 485/2/6 479/2/6 486/2/6
f 486/2/6 479/2/6 487/2/6
f 480/1/6 481/1/6 488/1/6
f 481/2/6 482/2/6 489/2/6
f 488/1/6 481/1/6 489/1/6
f 482/1/6 483/1/6 490/1/6
f 489/2/6 482/2/6 490/2/6
f 483/2/6 484/2/6 491/2/6
f 490/1/6 483/1/6 491/1/6
f 484/1/6 485/1/6 492/1/6
f 491/2/6 484/2/6 492/2/6
f 485/2/6 486/2/6 493/2/6
f 492/1/6 485/1/6 493/1/6
f 486/1/6 487/1/6 494/1/6
f 493/2/6 486/2/6 494/2/6
f 494/1/6 487/1/6 495/1/6
f 488/2/6 489/2/6 496/2/6
f 489/2/6 490/2/6 496/2/6
f 494/2/6 495/2/6 496/2/6
f 493/2/6 494/2/6 496/2/6
f 492/2/6 493/2/6 496/2/6
f 491/2/6 492/2/6 496/2/6
f 490/2/6 491/2/6 496/2/6
f 496/2/6 495/2/6 497/2/6
f 497/2/6 495/2/6 498/2/6
f 498/2/6 495/2/6 499/2/6
f 499/2/6 495/2/6 500/2/6
f 500/2/6 495/2/6 501/2/6
f 488/2/6 496/2/6 502/2/6
f 496/1/6 497/1/6 503/1/6
f 502/2/6 496/2/6 503/2/6
f 497/2/6 498/2/6 504/2/6
f 503/1/6 497/1/6 504/1/6
f 498/1/6 499/1/6 505/1/6
f 504/2/6 498/2/6 505/2/6
f 499/2/6 500/2/6 506/2/6
f 505/1/6 499/1/6 506/1/6
f 500/1/6 501/1/6 507/1/6
f 506/2/6 500/2/6 507/2/6
f 507/1/6 501/1/6 508/1/6
