# MagicaVoxel @ ephtracy

# material
mtllib ivy_weak_15_30.mtl
usemtl palette

# normals
vn -1 0 0
vn 1 0 0
vn 0 0 1
vn 0 0 -1
vn 0 -1 0
vn 0 1 0

# texcoords
vt 0.00195313 0.5
vt 0.00585938 0.5
vt 0.00976563 0.5
vt 0.0175781 0.5

# verts
v -6.5 17 0.5
v -6.5 17 -0.5
v -6.5 18 0.5
v -6.5 18 -0.5
v -5.5 18 0.5
v -5.5 18 -0.5
v -5.5 19 0.5
v -5.5 19 -0.5
v -5.5 20 -0.5
v -5.5 20 -1.5
v -5.5 22 -0.5
v -5.5 22 -1.5
v -4.5 19 0.5
v -4.5 19 -0.5
v -4.5 20 -0.5
v -4.5 21 0.5
v -4.5 21 -0.5
v -3.5 7 0.5
v -3.5 7 -0.5
v -3.5 8 0.5
v -3.5 8 -0.5
v -3.5 11 1.5
v -3.5 11 0.5
v -3.5 12 1.5
v -3.5 12 0.5
v -3.5 16 0.5
v -3.5 16 -0.5
v -3.5 18 0.5
v -3.5 18 -0.5
v -3.5 21 -0.5
v -3.5 21 -1.5
v -3.5 23 -0.5
v -3.5 23 -1.5
v -2.5 8 0.5
v -2.5 8 -0.5
v -2.5 9 0.5
v -2.5 9 -0.5
v -2.5 10 -0.5
v -2.5 10 -1.5
v -2.5 12 1.5
v -2.5 12 0.5
v -2.5 12 -0.5
v -2.5 12 -1.5
v -2.5 13 1.5
v -2.5 13 0.5
v -2.5 14 0.5
v -2.5 14 -0.5
v -2.5 16 0.5
v -2.5 16 -0.5
v -2.5 20 0.5
v -2.5 20 -0.5
v -2.5 21 0.5
v -2.5 21 -0.5
v -1.5 6 0.5
v -1.5 6 -0.5
v -1.5 7 0.5
v -1.5 7 -0.5
v -1.5 9 0.5
v -1.5 9 -0.5
v -1.5 10 -0.5
v -1.5 11 0.5
v -1.5 11 -0.5
v -1.5 13 1.5
v -1.5 13 0.5
v -1.5 14 0.5
v -1.5 15 1.5
v -1.5 15 0.5
v -1.5 17 0.5
v -1.5 17 -0.5
v -1.5 18 0.5
v -1.5 18 -0.5
v -1.5 21 -0.5
v -1.5 21 -1.5
v -1.5 22 -0.5
v -1.5 22 -1.5
v -1.5 23 1.5
v -1.5 23 0.5
v -1.5 24 1.5
v -1.5 24 0.5
v -0.5 7 0.5
v -0.5 7 -0.5
v -0.5 8 0.5
v -0.5 8 -0.5
v -0.5 9 -0.5
v -0.5 9 -1.5
v -0.5 10 1.5
v -0.5 10 0.5
v -0.5 10 -0.5
v -0.5 10 -1.5
v -0.5 11 0.5
v -0.5 11 -0.5
v -0.5 11 -1.5
v -0.5 12 1.5
v -0.5 12 0.5
v -0.5 13 -0.5
v -0.5 13 -1.5
v -0.5 15 0.5
v -0.5 15 -0.5
v -0.5 17 0.5
v -0.5 17 -0.5
v -0.5 24 1.5
v -0.5 24 0.5
v -0.5 25 1.5
v -0.5 25 0.5
v -0.5 26 0.5
v -0.5 26 -0.5
v -0.5 28 0.5
v -0.5 28 -0.5
v 0.5 10 0.5
v 0.5 10 -0.5
v 0.5 11 0.5
v 0.5 11 -0.5
v 0.5 14 1.5
v 0.5 14 0.5
v 0.5 15 1.5
v 0.5 15 0.5
v 0.5 25 1.5
v 0.5 25 0.5
v 0.5 26 0.5
v 0.5 27 1.5
v 0.5 27 0.5
v 1.5 5 0.5
v 1.5 5 -0.5
v 1.5 7 0.5
v 1.5 7 -0.5
v 1.5 11 1.5
v 1.5 11 0.5
v 1.5 11 -0.5
v 1.5 11 -1.5
v 1.5 12 1.5
v 1.5 12 0.5
v 1.5 12 -0.5
v 1.5 12 -1.5
v 1.5 15 0.5
v 1.5 15 -0.5
v 1.5 16 0.5
v 1.5 16 -0.5
v 1.5 22 1.5
v 1.5 22 0.5
v 1.5 24 1.5
v 1.5 24 0.5
v 1.5 27 0.5
v 1.5 27 -0.5
v 1.5 29 0.5
v 1.5 29 -0.5
v 2.5 9 0.5
v 2.5 9 -0.5
v 2.5 10 0.5
v 2.5 10 -0.5
v 2.5 26 1.5
v 2.5 26 0.5
v 2.5 27 1.5
v 2.5 27 0.5
v 3.5 6 0.5
v 3.5 6 -0.5
v 3.5 7 0.5
v 3.5 7 -0.5
v 3.5 10 -0.5
v 3.5 10 -1.5
v 3.5 11 -0.5
v 3.5 11 -1.5
v 3.5 23 1.5
v 3.5 23 0.5
v 3.5 24 1.5
v 3.5 24 0.5
v 3.5 27 0.5
v 3.5 27 -0.5
v 3.5 28 0.5
v 3.5 28 -0.5
v -4.5 17 0.5
v -4.5 17 -0.5
v -4.5 18 0.5
v -4.5 18 -0.5
v -4.5 21 -0.5
v -4.5 21 -1.5
v -4.5 22 -0.5
v -4.5 22 -1.5
v -3.5 20 0.5
v -3.5 20 -0.5
v -3.5 21 0.5
v -3.5 21 -0.5
v -2.5 16 0.5
v -2.5 16 -0.5
v -2.5 18 0.5
v -2.5 18 -0.5
v -2.5 21 -0.5
v -2.5 21 -1.5
v -2.5 23 -0.5
v -2.5 23 -1.5
v -1.5 7 0.5
v -1.5 7 -0.5
v -1.5 8 0.5
v -1.5 8 -0.5
v -1.5 11 1.5
v -1.5 11 0.5
v -1.5 11 -0.5
v -1.5 11 -1.5
v -1.5 12 1.5
v -1.5 12 0.5
v -1.5 12 -0.5
v -1.5 12 -1.5
v -1.5 15 0.5
v -1.5 15 -0.5
v -1.5 16 0.5
v -1.5 16 -0.5
v -1.5 19 0.5
v -1.5 19 -0.5
v -1.5 20 -0.5
v -1.5 21 0.5
v -1.5 21 -0.5
v -0.5 10 0.5
v -0.5 10 -0.5
v -0.5 11 0.5
v -0.5 11 -0.5
v -0.5 14 1.5
v -0.5 14 0.5
v -0.5 15 1.5
v -0.5 15 0.5
v -0.5 18 0.5
v -0.5 18 -0.5
v -0.5 19 0.5
v -0.5 19 -0.5
v -0.5 20 -0.5
v -0.5 20 -1.5
v -0.5 22 -0.5
v -0.5 22 -1.5
v 0.5 6 0.5
v 0.5 6 -0.5
v 0.5 7 0.5
v 0.5 7 -0.5
v 0.5 10 1.5
v 0.5 10 0.5
v 0.5 11 0.5
v 0.5 11 -0.5
v 0.5 11 -1.5
v 0.5 12 1.5
v 0.5 12 0.5
v 0.5 13 -0.5
v 0.5 13 -1.5
v 0.5 15 0.5
v 0.5 15 -0.5
v 0.5 17 0.5
v 0.5 17 -0.5
v 0.5 18 0.5
v 0.5 18 -0.5
v 0.5 23 1.5
v 0.5 23 0.5
v 0.5 24 1.5
v 0.5 24 0.5
v 0.5 27 0.5
v 0.5 27 -0.5
v 0.5 28 0.5
v 0.5 28 -0.5
v 1.5 9 0.5
v 1.5 9 -0.5
v 1.5 10 0.5
v 1.5 10 -0.5
v 1.5 11 0.5
v 1.5 11 -0.5
v 1.5 13 1.5
v 1.5 13 0.5
v 1.5 14 0.5
v 1.5 15 1.5
v 1.5 15 0.5
v 1.5 26 1.5
v 1.5 26 0.5
v 1.5 27 1.5
v 1.5 27 0.5
v 2.5 5 0.5
v 2.5 5 -0.5
v 2.5 7 0.5
v 2.5 7 -0.5
v 2.5 10 -0.5
v 2.5 10 -1.5
v 2.5 12 1.5
v 2.5 12 0.5
v 2.5 12 -0.5
v 2.5 12 -1.5
v 2.5 13 1.5
v 2.5 13 0.5
v 2.5 14 0.5
v 2.5 14 -0.5
v 2.5 16 0.5
v 2.5 16 -0.5
v 2.5 22 1.5
v 2.5 22 0.5
v 2.5 24 1.5
v 2.5 24 0.5
v 2.5 27 0.5
v 2.5 27 -0.5
v 2.5 29 0.5
v 2.5 29 -0.5
v 3.5 8 0.5
v 3.5 8 -0.5
v 3.5 9 -0.5
v 3.5 10 0.5
v 3.5 10 -0.5
v 3.5 11 1.5
v 3.5 11 0.5
v 3.5 12 1.5
v 3.5 12 0.5
v 3.5 25 1.5
v 3.5 25 0.5
v 3.5 26 0.5
v 3.5 27 1.5
v 3.5 27 0.5
v 4.5 7 0.5
v 4.5 7 -0.5
v 4.5 8 0.5
v 4.5 8 -0.5
v 4.5 9 -0.5
v 4.5 9 -1.5
v 4.5 11 -0.5
v 4.5 11 -1.5
v 4.5 24 1.5
v 4.5 24 0.5
v 4.5 25 1.5
v 4.5 25 0.5
v 4.5 26 0.5
v 4.5 26 -0.5
v 4.5 28 0.5
v 4.5 28 -0.5
v 5.5 6 0.5
v 5.5 6 -0.5
v 5.5 7 0.5
v 5.5 7 -0.5
v 5.5 23 1.5
v 5.5 23 0.5
v 5.5 24 1.5
v 5.5 24 0.5
v -3.5 11 1.5
v -3.5 12 1.5
v -2.5 12 1.5
v -2.5 13 1.5
v -1.5 11 1.5
v -1.5 12 1.5
v -1.5 13 1.5
v -1.5 15 1.5
v -1.5 23 1.5
v -1.5 24 1.5
v -0.5 10 1.5
v -0.5 12 1.5
v -0.5 14 1.5
v -0.5 15 1.5
v -0.5 24 1.5
v -0.5 25 1.5
v 0.5 10 1.5
v 0.5 12 1.5
v 0.5 14 1.5
v 0.5 15 1.5
v 0.5 23 1.5
v 0.5 24 1.5
v 0.5 25 1.5
v 0.5 27 1.5
v 1.5 11 1.5
v 1.5 12 1.5
v 1.5 13 1.5
v 1.5 15 1.5
v 1.5 22 1.5
v 1.5 24 1.5
v 1.5 26 1.5
v 1.5 27 1.5
v 2.5 12 1.5
v 2.5 13 1.5
v 2.5 22 1.5
v 2.5 24 1.5
v 2.5 26 1.5
v 2.5 27 1.5
v 3.5 11 1.5
v 3.5 12 1.5
v 3.5 23 1.5
v 3.5 24 1.5
v 3.5 25 1.5
v 3.5 27 1.5
v 4.5 24 1.5
v 4.5 25 1.5
v 5.5 23 1.5
v 5.5 24 1.5
v -6.5 17 0.5
v -6.5 18 0.5
v -5.5 18 0.5
v -5.5 19 0.5
v -4.5 17 0.5
v -4.5 18 0.5
v -4.5 19 0.5
v -4.5 21 0.5
v -3.5 7 0.5
v -3.5 8 0.5
v -3.5 16 0.5
v -3.5 18 0.5
v -3.5 20 0.5
v -3.5 21 0.5
v -2.5 8 0.5
v -2.5 9 0.5
v -2.5 14 0.5
v -2.5 16 0.5
v -2.5 18 0.5
v -2.5 20 0.5
v -2.5 21 0.5
v -1.5 6 0.5
v -1.5 7 0.5
v -1.5 8 0.5
v -1.5 9 0.5
v -1.5 11 0.5
v -1.5 14 0.5
v -1.5 15 0.5
v -1.5 16 0.5
v -1.5 17 0.5
v -1.5 18 0.5
v -1.5 19 0.5
v -1.5 21 0.5
v -0.5 7 0.5
v -0.5 8 0.5
v -0.5 10 0.5
v -0.5 11 0.5
v -0.5 14 0.5
v -0.5 15 0.5
v -0.5 17 0.5
v -0.5 18 0.5
v -0.5 19 0.5
v -0.5 26 0.5
v -0.5 28 0.5
v 0.5 6 0.5
v 0.5 7 0.5
v 0.5 8 0.5
v 0.5 10 0.5
v 0.5 11 0.5
v 0.5 14 0.5
v 0.5 15 0.5
v 0.5 17 0.5
v 0.5 18 0.5
v 0.5 26 0.5
v 0.5 27 0.5
v 0.5 28 0.5
v 1.5 5 0.5
v 1.5 7 0.5
v 1.5 9 0.5
v 1.5 10 0.5
v 1.5 11 0.5
v 1.5 14 0.5
v 1.5 15 0.5
v 1.5 16 0.5
v 1.5 26 0.5
v 1.5 27 0.5
v 1.5 29 0.5
v 2.5 5 0.5
v 2.5 7 0.5
v 2.5 9 0.5
v 2.5 10 0.5
v 2.5 14 0.5
v 2.5 16 0.5
v 2.5 26 0.5
v 2.5 27 0.5
v 2.5 29 0.5
v 3.5 6 0.5
v 3.5 7 0.5
v 3.5 8 0.5
v 3.5 10 0.5
v 3.5 26 0.5
v 3.5 27 0.5
v 3.5 28 0.5
v 4.5 7 0.5
v 4.5 8 0.5
v 4.5 26 0.5
v 4.5 28 0.5
v 5.5 6 0.5
v 5.5 7 0.5
v -5.5 20 -0.5
v -5.5 22 -0.5
v -4.5 20 -0.5
v -4.5 21 -0.5
v -4.5 22 -0.5
v -3.5 20 -0.5
v -3.5 21 -0.5
v -3.5 23 -0.5
v -2.5 10 -0.5
v -2.5 12 -0.5
v -2.5 20 -0.5
v -2.5 21 -0.5
v -2.5 23 -0.5
v -1.5 10 -0.5
v -1.5 11 -0.5
v -1.5 12 -0.5
v -1.5 20 -0.5
v -1.5 21 -0.5
v -1.5 22 -0.5
v -0.5 10 -0.5
v -0.5 11 -0.5
v -0.5 13 -0.5
v -0.5 20 -0.5
v -0.5 22 -0.5
v 0.5 10 -0.5
v 0.5 11 -0.5
v 0.5 13 -0.5
v 1.5 9 -0.5
v 1.5 10 -0.5
v 1.5 11 -0.5
v 1.5 12 -0.5
v 2.5 9 -0.5
v 2.5 10 -0.5
v 2.5 12 -0.5
v 3.5 9 -0.5
v 3.5 10 -0.5
v 3.5 11 -0.5
v 4.5 9 -0.5
v 4.5 11 -0.5
v -3.5 11 0.5
v -3.5 12 0.5
v -2.5 12 0.5
v -2.5 13 0.5
v -1.5 11 0.5
v -1.5 12 0.5
v -1.5 13 0.5
v -1.5 14 0.5
v -1.5 23 0.5
v -1.5 24 0.5
v -0.5 10 0.5
v -0.5 11 0.5
v -0.5 12 0.5
v -0.5 24 0.5
v -0.5 25 0.5
v 0.5 10 0.5
v 0.5 11 0.5
v 0.5 12 0.5
v 0.5 23 0.5
v 0.5 24 0.5
v 0.5 25 0.5
v 0.5 26 0.5
v 1.5 11 0.5
v 1.5 12 0.5
v 1.5 13 0.5
v 1.5 14 0.5
v 1.5 22 0.5
v 1.5 24 0.5
v 2.5 12 0.5
v 2.5 13 0.5
v 2.5 22 0.5
v 2.5 24 0.5
v 3.5 11 0.5
v 3.5 12 0.5
v 3.5 23 0.5
v 3.5 24 0.5
v 3.5 25 0.5
v 3.5 26 0.5
v 4.5 24 0.5
v 4.5 25 0.5
v 5.5 23 0.5
v 5.5 24 0.5
v -6.5 17 -0.5
v -6.5 18 -0.5
v -5.5 18 -0.5
v -5.5 19 -0.5
v -4.5 17 -0.5
v -4.5 18 -0.5
v -4.5 19 -0.5
v -4.5 20 -0.5
v -3.5 7 -0.5
v -3.5 8 -0.5
v -3.5 16 -0.5
v -3.5 18 -0.5
v -2.5 8 -0.5
v -2.5 9 -0.5
v -2.5 14 -0.5
v -2.5 16 -0.5
v -2.5 18 -0.5
v -1.5 6 -0.5
v -1.5 7 -0.5
v -1.5 8 -0.5
v -1.5 9 -0.5
v -1.5 10 -0.5
v -1.5 15 -0.5
v -1.5 16 -0.5
v -1.5 17 -0.5
v -1.5 18 -0.5
v -1.5 19 -0.5
v -1.5 20 -0.5
v -0.5 7 -0.5
v -0.5 8 -0.5
v -0.5 9 -0.5
v -0.5 10 -0.5
v -0.5 15 -0.5
v -0.5 17 -0.5
v -0.5 18 -0.5
v -0.5 19 -0.5
v -0.5 26 -0.5
v -0.5 28 -0.5
v 0.5 6 -0.5
v 0.5 7 -0.5
v 0.5 8 -0.5
v 0.5 9 -0.5
v 0.5 15 -0.5
v 0.5 17 -0.5
v 0.5 18 -0.5
v 0.5 27 -0.5
v 0.5 28 -0.5
v 1.5 5 -0.5
v 1.5 7 -0.5
v 1.5 15 -0.5
v 1.5 16 -0.5
v 1.5 27 -0.5
v 1.5 29 -0.5
v 2.5 5 -0.5
v 2.5 7 -0.5
v 2.5 14 -0.5
v 2.5 16 -0.5
v 2.5 27 -0.5
v 2.5 29 -0.5
v 3.5 6 -0.5
v 3.5 7 -0.5
v 3.5 8 -0.5
v 3.5 9 -0.5
v 3.5 27 -0.5
v 3.5 28 -0.5
v 4.5 7 -0.5
v 4.5 8 -0.5
v 4.5 26 -0.5
v 4.5 28 -0.5
v 5.5 6 -0.5
v 5.5 7 -0.5
v -5.5 20 -1.5
v -5.5 22 -1.5
v -4.5 21 -1.5
v -4.5 22 -1.5
v -3.5 21 -1.5
v -3.5 23 -1.5
v -2.5 10 -1.5
v -2.5 12 -1.5
v -2.5 21 -1.5
v -2.5 23 -1.5
v -1.5 11 -1.5
v -1.5 12 -1.5
v -1.5 21 -1.5
v -1.5 22 -1.5
v -0.5 9 -1.5
v -0.5 10 -1.5
v -0.5 11 -1.5
v -0.5 13 -1.5
v -0.5 20 -1.5
v -0.5 22 -1.5
v 0.5 10 -1.5
v 0.5 11 -1.5
v 0.5 13 -1.5
v 1.5 10 -1.5
v 1.5 11 -1.5
v 1.5 12 -1.5
v 2.5 10 -1.5
v 2.5 12 -1.5
v 3.5 10 -1.5
v 3.5 11 -1.5
v 4.5 9 -1.5
v 4.5 11 -1.5
v 1.5 5 0.5
v 2.5 5 0.5
v 1.5 5 -0.5
v 2.5 5 -0.5
v -1.5 6 0.5
v 0.5 6 0.5
v 3.5 6 0.5
v 5.5 6 0.5
v -1.5 6 -0.5
v 0.5 6 -0.5
v 3.5 6 -0.5
v 5.5 6 -0.5
v -3.5 7 0.5
v -1.5 7 0.5
v 0.5 7 0.5
v 1.5 7 0.5
v 2.5 7 0.5
v 3.5 7 0.5
v -3.5 7 -0.5
v -1.5 7 -0.5
v 0.5 7 -0.5
v 1.5 7 -0.5
v 2.5 7 -0.5
v 3.5 7 -0.5
v -1.5 8 0.5
v -0.5 8 0.5
v -1.5 8 -0.5
v -0.5 8 -0.5
v -0.5 9 -0.5
v 0.5 9 -0.5
v 3.5 9 -0.5
v 4.5 9 -0.5
v -0.5 9 -1.5
v 4.5 9 -1.5
v -0.5 10 1.5
v 0.5 10 1.5
v -0.5 10 0.5
v 0.5 10 0.5
v -2.5 10 -0.5
v -1.5 10 -0.5
v -0.5 10 -0.5
v -2.5 10 -1.5
v -0.5 10 -1.5
v -3.5 11 1.5
v -1.5 11 1.5
v 1.5 11 1.5
v 3.5 11 1.5
v -3.5 11 0.5
v -1.5 11 0.5
v 1.5 11 0.5
v 3.5 11 0.5
v -1.5 12 1.5
v -0.5 12 1.5
v 0.5 12 1.5
v 1.5 12 1.5
v -1.5 12 0.5
v -0.5 12 0.5
v 0.5 12 0.5
v 1.5 12 0.5
v -2.5 14 0.5
v -1.5 14 0.5
v 1.5 14 0.5
v 2.5 14 0.5
v -2.5 14 -0.5
v 2.5 14 -0.5
v -3.5 16 0.5
v -2.5 16 0.5
v -3.5 16 -0.5
v -2.5 16 -0.5
v -6.5 17 0.5
v -4.5 17 0.5
v -1.5 17 0.5
v -0.5 17 0.5
v -6.5 17 -0.5
v -4.5 17 -0.5
v -1.5 17 -0.5
v -0.5 17 -0.5
v -4.5 18 0.5
v -3.5 18 0.5
v -2.5 18 0.5
v -1.5 18 0.5
v -4.5 18 -0.5
v -3.5 18 -0.5
v -2.5 18 -0.5
v -1.5 18 -0.5
v -5.5 20 -0.5
v -4.5 20 -0.5
v -1.5 20 -0.5
v -0.5 20 -0.5
v -5.5 20 -1.5
v -0.5 20 -1.5
v 1.5 22 1.5
v 2.5 22 1.5
v 1.5 22 0.5
v 2.5 22 0.5
v -1.5 23 1.5
v 0.5 23 1.5
v 3.5 23 1.5
v 5.5 23 1.5
v -1.5 23 0.5
v 0.5 23 0.5
v 3.5 23 0.5
v 5.5 23 0.5
v 0.5 24 1.5
v 1.5 24 1.5
v 2.5 24 1.5
v 3.5 24 1.5
v 0.5 24 0.5
v 1.5 24 0.5
v 2.5 24 0.5
v 3.5 24 0.5
v -0.5 26 0.5
v 0.5 26 0.5
v 3.5 26 0.5
v 4.5 26 0.5
v -0.5 26 -0.5
v 4.5 26 -0.5
v -1.5 7 0.5
v -0.5 7 0.5
v 4.5 7 0.5
v 5.5 7 0.5
v -1.5 7 -0.5
v -0.5 7 -0.5
v 4.5 7 -0.5
v 5.5 7 -0.5
v -3.5 8 0.5
v -2.5 8 0.5
v 3.5 8 0.5
v 4.5 8 0.5
v -3.5 8 -0.5
v -2.5 8 -0.5
v 3.5 8 -0.5
v 4.5 8 -0.5
v -2.5 9 0.5
v -1.5 9 0.5
v 1.5 9 0.5
v 2.5 9 0.5
v -2.5 9 -0.5
v -1.5 9 -0.5
v 1.5 9 -0.5
v 2.5 9 -0.5
v -0.5 10 0.5
v 0.5 10 0.5
v 2.5 10 0.5
v 3.5 10 0.5
v -0.5 10 -0.5
v 0.5 10 -0.5
v 2.5 10 -0.5
v 3.5 10 -0.5
v 2.5 10 -1.5
v 3.5 10 -1.5
v -1.5 11 0.5
v -0.5 11 0.5
v 0.5 11 0.5
v 1.5 11 0.5
v -1.5 11 -0.5
v -0.5 11 -0.5
v 0.5 11 -0.5
v 1.5 11 -0.5
v 3.5 11 -0.5
v 4.5 11 -0.5
v -1.5 11 -1.5
v -0.5 11 -1.5
v 0.5 11 -1.5
v 1.5 11 -1.5
v 3.5 11 -1.5
v 4.5 11 -1.5
v -3.5 12 1.5
v -2.5 12 1.5
v 2.5 12 1.5
v 3.5 12 1.5
v -3.5 12 0.5
v -2.5 12 0.5
v 2.5 12 0.5
v 3.5 12 0.5
v -2.5 12 -0.5
v -1.5 12 -0.5
v 1.5 12 -0.5
v 2.5 12 -0.5
v -2.5 12 -1.5
v -1.5 12 -1.5
v 1.5 12 -1.5
v 2.5 12 -1.5
v -2.5 13 1.5
v -1.5 13 1.5
v 1.5 13 1.5
v 2.5 13 1.5
v -2.5 13 0.5
v -1.5 13 0.5
v 1.5 13 0.5
v 2.5 13 0.5
v -0.5 13 -0.5
v 0.5 13 -0.5
v -0.5 13 -1.5
v 0.5 13 -1.5
v -0.5 14 1.5
v 0.5 14 1.5
v -0.5 14 0.5
v 0.5 14 0.5
v -1.5 15 1.5
v -0.5 15 1.5
v 0.5 15 1.5
v 1.5 15 1.5
v -1.5 15 0.5
v -0.5 15 0.5
v 0.5 15 0.5
v 1.5 15 0.5
v -1.5 15 -0.5
v -0.5 15 -0.5
v 0.5 15 -0.5
v 1.5 15 -0.5
v -2.5 16 0.5
v -1.5 16 0.5
v 1.5 16 0.5
v 2.5 16 0.5
v -2.5 16 -0.5
v -1.5 16 -0.5
v 1.5 16 -0.5
v 2.5 16 -0.5
v -6.5 18 0.5
v -5.5 18 0.5
v -0.5 18 0.5
v 0.5 18 0.5
v -6.5 18 -0.5
v -5.5 18 -0.5
v -0.5 18 -0.5
v 0.5 18 -0.5
v -5.5 19 0.5
v -4.5 19 0.5
v -1.5 19 0.5
v -0.5 19 0.5
v -5.5 19 -0.5
v -4.5 19 -0.5
v -1.5 19 -0.5
v -0.5 19 -0.5
v -3.5 20 0.5
v -2.5 20 0.5
v -3.5 20 -0.5
v -2.5 20 -0.5
v -4.5 21 0.5
v -3.5 21 0.5
v -2.5 21 0.5
v -1.5 21 0.5
v -4.5 21 -0.5
v -3.5 21 -0.5
v -2.5 21 -0.5
v -1.5 21 -0.5
v -4.5 21 -1.5
v -3.5 21 -1.5
v -2.5 21 -1.5
v -1.5 21 -1.5
v -5.5 22 -0.5
v -4.5 22 -0.5
v -1.5 22 -0.5
v -0.5 22 -0.5
v -5.5 22 -1.5
v -4.5 22 -1.5
v -1.5 22 -1.5
v -0.5 22 -1.5
v -3.5 23 -0.5
v -2.5 23 -0.5
v -3.5 23 -1.5
v -2.5 23 -1.5
v -1.5 24 1.5
v -0.5 24 1.5
v 4.5 24 1.5
v 5.5 24 1.5
v -1.5 24 0.5
v -0.5 24 0.5
v 4.5 24 0.5
v 5.5 24 0.5
v -0.5 25 1.5
v 0.5 25 1.5
v 3.5 25 1.5
v 4.5 25 1.5
v -0.5 25 0.5
v 0.5 25 0.5
v 3.5 25 0.5
v 4.5 25 0.5
v 1.5 26 1.5
v 2.5 26 1.5
v 1.5 26 0.5
v 2.5 26 0.5
v 0.5 27 1.5
v 1.5 27 1.5
v 2.5 27 1.5
v 3.5 27 1.5
v 0.5 27 0.5
v 1.5 27 0.5
v 2.5 27 0.5
v 3.5 27 0.5
v 0.5 27 -0.5
v 1.5 27 -0.5
v 2.5 27 -0.5
v 3.5 27 -0.5
v -0.5 28 0.5
v 0.5 28 0.5
v 3.5 28 0.5
v 4.5 28 0.5
v -0.5 28 -0.5
v 0.5 28 -0.5
v 3.5 28 -0.5
v 4.5 28 -0.5
v 1.5 29 0.5
v 2.5 29 0.5
v 1.5 29 -0.5
v 2.5 29 -0.5

# faces
f 3/3/1 2/3/1 1/3/1
f 4/3/1 2/3/1 3/3/1
f 7/3/1 6/3/1 5/3/1
f 8/3/1 6/3/1 7/3/1
f 11/3/1 10/3/1 9/3/1
f 12/3/1 10/3/1 11/3/1
f 15/3/1 14/3/1 13/3/1
f 16/3/1 15/3/1 13/3/1
f 17/3/1 15/3/1 16/3/1
f 20/4/1 19/4/1 18/4/1
f 21/4/1 19/4/1 20/4/1
f 24/1/1 23/1/1 22/1/1
f 25/1/1 23/1/1 24/1/1
f 28/3/1 27/3/1 26/3/1
f 29/3/1 27/3/1 28/3/1
f 32/3/1 31/3/1 30/3/1
f 33/3/1 31/3/1 32/3/1
f 36/4/1 35/4/1 34/4/1
f 37/4/1 35/4/1 36/4/1
f 42/4/1 39/4/1 38/4/1
f 43/4/1 39/4/1 42/4/1
f 44/1/1 41/1/1 40/1/1
f 45/1/1 41/1/1 44/1/1
f 48/1/1 47/1/1 46/1/1
f 49/1/1 47/1/1 48/1/1
f 52/3/1 51/3/1 50/3/1
f 53/3/1 51/3/1 52/3/1
f 56/2/1 55/2/1 54/2/1
f 57/2/1 55/2/1 56/2/1
f 60/4/1 59/4/1 58/4/1
f 61/4/1 60/4/1 58/4/1
f 62/4/1 60/4/1 61/4/1
f 65/1/1 64/1/1 63/1/1
f 66/1/1 65/1/1 63/1/1
f 67/1/1 65/1/1 66/1/1
f 70/3/1 69/3/1 68/3/1
f 71/3/1 69/3/1 70/3/1
f 74/3/1 73/3/1 72/3/1
f 75/3/1 73/3/1 74/3/1
f 78/4/1 77/4/1 76/4/1
f 79/4/1 77/4/1 78/4/1
f 82/2/1 81/2/1 80/2/1
f 83/2/1 81/2/1 82/2/1
f 88/2/1 85/2/1 84/2/1
f 89/2/1 85/2/1 88/2/1
f 90/1/1 87/1/1 86/1/1
f 93/1/1 90/1/1 86/1/1
f 94/1/1 90/1/1 93/1/1
f 95/4/1 92/4/1 91/4/1
f 96/4/1 92/4/1 95/4/1
f 99/1/1 98/1/1 97/1/1
f 100/1/1 98/1/1 99/1/1
f 103/4/1 102/4/1 101/4/1
f 104/4/1 102/4/1 103/4/1
f 107/4/1 106/4/1 105/4/1
f 108/4/1 106/4/1 107/4/1
f 111/4/1 110/4/1 109/4/1
f 112/4/1 110/4/1 111/4/1
f 115/1/1 114/1/1 113/1/1
f 116/1/1 114/1/1 115/1/1
f 119/4/1 118/4/1 117/4/1
f 120/4/1 119/4/1 117/4/1
f 121/4/1 119/4/1 120/4/1
f 124/2/1 123/2/1 122/2/1
f 125/2/1 123/2/1 124/2/1
f 130/1/1 127/1/1 126/1/1
f 131/1/1 127/1/1 130/1/1
f 132/2/1 129/2/1 128/2/1
f 133/2/1 129/2/1 132/2/1
f 136/1/1 135/1/1 134/1/1
f 137/1/1 135/1/1 136/1/1
f 140/4/1 139/4/1 138/4/1
f 141/4/1 139/4/1 140/4/1
f 144/4/1 143/4/1 142/4/1
f 145/4/1 143/4/1 144/4/1
f 148/2/1 147/2/1 146/2/1
f 149/2/1 147/2/1 148/2/1
f 152/4/1 151/4/1 150/4/1
f 153/4/1 151/4/1 152/4/1
f 156/2/1 155/2/1 154/2/1
f 157/2/1 155/2/1 156/2/1
f 160/2/1 159/2/1 158/2/1
f 161/2/1 159/2/1 160/2/1
f 164/4/1 163/4/1 162/4/1
f 165/4/1 163/4/1 164/4/1
f 168/4/1 167/4/1 166/4/1
f 169/4/1 167/4/1 168/4/1
f 170/3/2 171/3/2 172/3/2
f 172/3/2 171/3/2 173/3/2
f 174/3/2 175/3/2 176/3/2
f 176/3/2 175/3/2 177/3/2
f 178/3/2 179/3/2 180/3/2
f 180/3/2 179/3/2 181/3/2
f 182/3/2 183/3/2 184/3/2
f 184/3/2 183/3/2 185/3/2
f 186/3/2 187/3/2 188/3/2
f 188/3/2 187/3/2 189/3/2
f 190/4/2 191/4/2 192/4/2
f 192/4/2 191/4/2 193/4/2
f 194/1/2 195/1/2 198/1/2
f 198/1/2 195/1/2 199/1/2
f 196/4/2 197/4/2 200/4/2
f 200/4/2 197/4/2 201/4/2
f 202/1/2 203/1/2 204/1/2
f 204/1/2 203/1/2 205/1/2
f 206/3/2 207/3/2 208/3/2
f 206/3/2 208/3/2 209/3/2
f 209/3/2 208/3/2 210/3/2
f 211/4/2 212/4/2 213/4/2
f 213/4/2 212/4/2 214/4/2
f 215/1/2 216/1/2 217/1/2
f 217/1/2 216/1/2 218/1/2
f 219/3/2 220/3/2 221/3/2
f 221/3/2 220/3/2 222/3/2
f 223/3/2 224/3/2 225/3/2
f 225/3/2 224/3/2 226/3/2
f 227/2/2 228/2/2 229/2/2
f 229/2/2 228/2/2 230/2/2
f 231/1/2 232/1/2 233/1/2
f 231/1/2 233/1/2 236/1/2
f 236/1/2 233/1/2 237/1/2
f 234/4/2 235/4/2 238/4/2
f 238/4/2 235/4/2 239/4/2
f 240/1/2 241/1/2 242/1/2
f 242/1/2 241/1/2 243/1/2
f 242/3/2 243/3/2 244/3/2
f 244/3/2 243/3/2 245/3/2
f 246/4/2 247/4/2 248/4/2
f 248/4/2 247/4/2 249/4/2
f 250/4/2 251/4/2 252/4/2
f 252/4/2 251/4/2 253/4/2
f 254/2/2 255/2/2 256/2/2
f 256/2/2 255/2/2 257/2/2
f 256/4/2 257/4/2 258/4/2
f 258/4/2 257/4/2 259/4/2
f 260/1/2 261/1/2 262/1/2
f 260/1/2 262/1/2 263/1/2
f 263/1/2 262/1/2 264/1/2
f 265/4/2 266/4/2 267/4/2
f 267/4/2 266/4/2 268/4/2
f 269/2/2 270/2/2 271/2/2
f 271/2/2 270/2/2 272/2/2
f 273/2/2 274/2/2 277/2/2
f 277/2/2 274/2/2 278/2/2
f 275/1/2 276/1/2 279/1/2
f 279/1/2 276/1/2 280/1/2
f 281/1/2 282/1/2 283/1/2
f 283/1/2 282/1/2 284/1/2
f 285/4/2 286/4/2 287/4/2
f 287/4/2 286/4/2 288/4/2
f 289/4/2 290/4/2 291/4/2
f 291/4/2 290/4/2 292/4/2
f 293/2/2 294/2/2 295/2/2
f 293/2/2 295/2/2 296/2/2
f 296/2/2 295/2/2 297/2/2
f 298/1/2 299/1/2 300/1/2
f 300/1/2 299/1/2 301/1/2
f 302/4/2 303/4/2 304/4/2
f 302/4/2 304/4/2 305/4/2
f 305/4/2 304/4/2 306/4/2
f 307/2/2 308/2/2 309/2/2
f 309/2/2 308/2/2 310/2/2
f 311/2/2 312/2/2 313/2/2
f 313/2/2 312/2/2 314/2/2
f 315/4/2 316/4/2 317/4/2
f 317/4/2 316/4/2 318/4/2
f 319/4/2 320/4/2 321/4/2
f 321/4/2 320/4/2 322/4/2
f 323/2/2 324/2/2 325/2/2
f 325/2/2 324/2/2 326/2/2
f 327/4/2 328/4/2 329/4/2
f 329/4/2 328/4/2 330/4/2
f 333/1/3 332/1/3 331/1/3
f 335/1/3 333/1/3 331/1/3
f 335/1/3 334/1/3 333/1/3
f 336/1/3 334/1/3 335/1/3
f 337/1/3 334/1/3 336/1/3
f 342/1/3 337/1/3 336/1/3
f 342/1/3 338/1/3 337/1/3
f 343/1/3 338/1/3 342/1/3
f 344/1/3 338/1/3 343/1/3
f 345/4/3 340/4/3 339/4/3
f 347/1/3 342/1/3 341/1/3
f 347/1/3 343/1/3 342/1/3
f 348/1/3 343/1/3 347/1/3
f 349/1/3 343/1/3 348/1/3
f 351/4/3 346/4/3 345/4/3
f 351/4/3 345/4/3 339/4/3
f 352/4/3 346/4/3 351/4/3
f 353/4/3 346/4/3 352/4/3
f 356/1/3 350/1/3 349/1/3
f 356/1/3 349/1/3 348/1/3
f 357/1/3 350/1/3 356/1/3
f 358/1/3 350/1/3 357/1/3
f 360/4/3 353/4/3 352/4/3
f 360/4/3 354/4/3 353/4/3
f 361/4/3 354/4/3 360/4/3
f 362/4/3 354/4/3 361/4/3
f 363/1/3 357/1/3 356/1/3
f 363/1/3 356/1/3 355/1/3
f 364/1/3 357/1/3 363/1/3
f 365/4/3 361/4/3 360/4/3
f 365/4/3 360/4/3 359/4/3
f 366/4/3 361/4/3 365/4/3
f 367/4/3 361/4/3 366/4/3
f 369/1/3 363/1/3 355/1/3
f 370/1/3 363/1/3 369/1/3
f 372/4/3 368/4/3 367/4/3
f 372/4/3 367/4/3 366/4/3
f 373/4/3 368/4/3 372/4/3
f 374/4/3 368/4/3 373/4/3
f 375/4/3 372/4/3 371/4/3
f 375/4/3 373/4/3 372/4/3
f 376/4/3 373/4/3 375/4/3
f 377/4/3 375/4/3 371/4/3
f 378/4/3 375/4/3 377/4/3
f 381/3/3 380/3/3 379/3/3
f 383/3/3 381/3/3 379/3/3
f 383/3/3 382/3/3 381/3/3
f 384/3/3 382/3/3 383/3/3
f 385/3/3 382/3/3 384/3/3
f 390/3/3 386/3/3 385/3/3
f 390/3/3 385/3/3 384/3/3
f 391/3/3 386/3/3 390/3/3
f 392/3/3 386/3/3 391/3/3
f 393/4/3 388/4/3 387/4/3
f 396/3/3 390/3/3 389/3/3
f 396/3/3 391/3/3 390/3/3
f 397/3/3 391/3/3 396/3/3
f 398/3/3 391/3/3 397/3/3
f 401/4/3 394/4/3 393/4/3
f 401/4/3 393/4/3 387/4/3
f 402/4/3 394/4/3 401/4/3
f 403/4/3 394/4/3 402/4/3
f 405/1/3 396/1/3 395/1/3
f 406/1/3 396/1/3 405/1/3
f 407/1/3 396/1/3 406/1/3
f 409/3/3 398/3/3 397/3/3
f 409/3/3 399/3/3 398/3/3
f 410/3/3 399/3/3 409/3/3
f 411/3/3 399/3/3 410/3/3
f 412/2/3 401/2/3 400/2/3
f 413/4/3 404/4/3 403/4/3
f 413/4/3 403/4/3 402/4/3
f 414/4/3 404/4/3 413/4/3
f 415/4/3 404/4/3 414/4/3
f 418/3/3 410/3/3 409/3/3
f 418/3/3 409/3/3 408/3/3
f 419/3/3 410/3/3 418/3/3
f 420/3/3 410/3/3 419/3/3
f 423/2/3 412/2/3 400/2/3
f 423/2/3 413/2/3 412/2/3
f 424/2/3 413/2/3 423/2/3
f 425/4/3 414/4/3 413/4/3
f 425/2/3 413/2/3 424/2/3
f 426/4/3 414/4/3 425/4/3
f 428/1/3 417/1/3 416/1/3
f 428/1/3 418/1/3 417/1/3
f 429/1/3 418/1/3 428/1/3
f 430/3/3 419/3/3 418/3/3
f 430/1/3 418/1/3 429/1/3
f 431/3/3 419/3/3 430/3/3
f 432/4/3 422/4/3 421/4/3
f 433/4/3 422/4/3 432/4/3
f 434/4/3 422/4/3 433/4/3
f 436/2/3 426/2/3 425/2/3
f 436/2/3 425/2/3 424/2/3
f 437/2/3 426/2/3 436/2/3
f 438/4/3 427/4/3 426/4/3
f 438/2/3 426/2/3 437/2/3
f 439/4/3 427/4/3 438/4/3
f 446/2/3 437/2/3 436/2/3
f 446/2/3 436/2/3 435/2/3
f 447/2/3 437/2/3 446/2/3
f 448/2/3 437/2/3 447/2/3
f 450/1/3 442/1/3 441/1/3
f 450/1/3 441/1/3 440/1/3
f 451/1/3 442/1/3 450/1/3
f 452/4/3 444/4/3 443/4/3
f 452/4/3 445/4/3 444/4/3
f 453/4/3 445/4/3 452/4/3
f 454/4/3 445/4/3 453/4/3
f 456/2/3 449/2/3 448/2/3
f 456/2/3 448/2/3 447/2/3
f 457/2/3 449/2/3 456/2/3
f 458/2/3 449/2/3 457/2/3
f 462/2/3 456/2/3 455/2/3
f 462/2/3 457/2/3 456/2/3
f 463/2/3 457/2/3 462/2/3
f 464/4/3 461/4/3 460/4/3
f 464/4/3 460/4/3 459/4/3
f 465/4/3 461/4/3 464/4/3
f 466/2/3 462/2/3 455/2/3
f 467/2/3 462/2/3 466/2/3
f 470/3/3 469/3/3 468/3/3
f 471/3/3 469/3/3 470/3/3
f 472/3/3 469/3/3 471/3/3
f 478/3/3 474/3/3 473/3/3
f 478/3/3 475/3/3 474/3/3
f 479/3/3 475/3/3 478/3/3
f 480/3/3 475/3/3 479/3/3
f 481/4/3 477/4/3 476/4/3
f 482/4/3 477/4/3 481/4/3
f 483/4/3 477/4/3 482/4/3
f 490/3/3 486/3/3 485/3/3
f 490/3/3 485/3/3 484/3/3
f 491/3/3 486/3/3 490/3/3
f 492/2/3 488/2/3 487/2/3
f 493/4/3 489/4/3 488/4/3
f 493/2/3 488/2/3 492/2/3
f 494/4/3 489/4/3 493/4/3
f 499/2/3 496/2/3 495/2/3
f 499/2/3 498/2/3 497/2/3
f 499/2/3 497/2/3 496/2/3
f 500/2/3 498/2/3 499/2/3
f 501/2/3 498/2/3 500/2/3
f 505/2/3 503/2/3 502/2/3
f 505/2/3 504/2/3 503/2/3
f 506/2/3 504/2/3 505/2/3
f 507/1/4 508/1/4 509/1/4
f 507/1/4 509/1/4 511/1/4
f 509/1/4 510/1/4 511/1/4
f 511/1/4 510/1/4 512/1/4
f 512/1/4 510/1/4 513/1/4
f 512/1/4 513/1/4 519/1/4
f 513/1/4 514/1/4 519/1/4
f 515/4/4 516/4/4 520/4/4
f 518/1/4 519/1/4 522/1/4
f 517/1/4 518/1/4 522/1/4
f 522/1/4 519/1/4 523/1/4
f 519/1/4 514/1/4 524/1/4
f 523/1/4 519/1/4 524/1/4
f 520/4/4 521/4/4 525/4/4
f 515/4/4 520/4/4 525/4/4
f 525/4/4 521/4/4 526/4/4
f 526/4/4 521/4/4 527/4/4
f 524/1/4 514/1/4 530/1/4
f 530/1/4 514/1/4 531/1/4
f 531/1/4 514/1/4 532/1/4
f 527/4/4 528/4/4 534/4/4
f 526/4/4 527/4/4 534/4/4
f 530/1/4 531/1/4 535/1/4
f 529/1/4 530/1/4 535/1/4
f 535/1/4 531/1/4 536/1/4
f 533/4/4 534/4/4 537/4/4
f 534/4/4 528/4/4 538/4/4
f 537/4/4 534/4/4 538/4/4
f 529/1/4 535/1/4 539/1/4
f 539/1/4 535/1/4 540/1/4
f 538/4/4 528/4/4 542/4/4
f 542/4/4 528/4/4 543/4/4
f 543/4/4 528/4/4 544/4/4
f 541/4/4 542/4/4 545/4/4
f 542/4/4 543/4/4 545/4/4
f 545/4/4 543/4/4 546/4/4
f 541/4/4 545/4/4 547/4/4
f 547/4/4 545/4/4 548/4/4
f 549/3/4 550/3/4 551/3/4
f 549/3/4 551/3/4 553/3/4
f 551/3/4 552/3/4 553/3/4
f 553/3/4 552/3/4 554/3/4
f 554/3/4 552/3/4 555/3/4
f 555/3/4 556/3/4 560/3/4
f 554/3/4 555/3/4 560/3/4
f 557/4/4 558/4/4 561/4/4
f 559/3/4 560/3/4 564/3/4
f 560/3/4 556/3/4 565/3/4
f 564/3/4 560/3/4 565/3/4
f 561/4/4 562/4/4 567/4/4
f 557/4/4 561/4/4 567/4/4
f 567/4/4 562/4/4 568/4/4
f 568/4/4 562/4/4 569/4/4
f 563/1/4 564/1/4 571/1/4
f 571/1/4 564/1/4 572/1/4
f 565/3/4 556/3/4 574/3/4
f 574/3/4 556/3/4 575/3/4
f 575/3/4 556/3/4 576/3/4
f 566/2/4 567/2/4 577/2/4
f 569/4/4 570/4/4 578/4/4
f 568/4/4 569/4/4 578/4/4
f 578/4/4 570/4/4 579/4/4
f 579/4/4 570/4/4 580/4/4
f 563/1/4 571/1/4 581/1/4
f 574/3/4 575/3/4 582/3/4
f 573/3/4 574/3/4 582/3/4
f 582/3/4 575/3/4 583/3/4
f 583/3/4 575/3/4 584/3/4
f 566/2/4 577/2/4 587/2/4
f 577/2/4 578/2/4 587/2/4
f 587/2/4 578/2/4 588/2/4
f 578/4/4 579/4/4 589/4/4
f 588/2/4 578/2/4 589/2/4
f 589/4/4 579/4/4 590/4/4
f 563/1/4 581/1/4 591/1/4
f 581/1/4 582/1/4 591/1/4
f 582/3/4 583/3/4 592/3/4
f 591/1/4 582/1/4 592/1/4
f 592/3/4 583/3/4 593/3/4
f 585/4/4 586/4/4 594/4/4
f 594/4/4 586/4/4 595/4/4
f 589/2/4 590/2/4 597/2/4
f 588/2/4 589/2/4 597/2/4
f 563/1/4 591/1/4 598/1/4
f 585/4/4 594/4/4 600/4/4
f 596/2/4 597/2/4 602/2/4
f 597/2/4 590/2/4 603/2/4
f 602/2/4 597/2/4 603/2/4
f 598/1/4 599/1/4 604/1/4
f 563/1/4 598/1/4 604/1/4
f 604/1/4 599/1/4 605/1/4
f 585/4/4 600/4/4 606/4/4
f 600/4/4 601/4/4 606/4/4
f 606/4/4 601/4/4 607/4/4
f 603/2/4 590/2/4 609/2/4
f 609/2/4 590/2/4 610/2/4
f 610/2/4 590/2/4 611/2/4
f 585/4/4 606/4/4 612/4/4
f 608/2/4 609/2/4 614/2/4
f 609/2/4 610/2/4 614/2/4
f 614/2/4 610/2/4 615/2/4
f 612/4/4 613/4/4 616/4/4
f 585/4/4 612/4/4 616/4/4
f 616/4/4 613/4/4 617/4/4
f 608/2/4 614/2/4 618/2/4
f 618/2/4 614/2/4 619/2/4
f 620/3/4 621/3/4 622/3/4
f 622/3/4 621/3/4 623/3/4
f 620/3/4 622/3/4 624/3/4
f 620/3/4 624/3/4 628/3/4
f 624/3/4 625/3/4 628/3/4
f 628/3/4 625/3/4 629/3/4
f 626/4/4 627/4/4 630/4/4
f 630/4/4 627/4/4 631/4/4
f 620/3/4 628/3/4 632/3/4
f 626/4/4 630/4/4 635/4/4
f 635/4/4 630/4/4 636/4/4
f 632/3/4 633/3/4 638/3/4
f 620/3/4 632/3/4 638/3/4
f 638/3/4 633/3/4 639/3/4
f 635/2/4 636/2/4 640/2/4
f 634/2/4 635/2/4 640/2/4
f 636/4/4 637/4/4 641/4/4
f 640/2/4 636/2/4 641/2/4
f 641/4/4 637/4/4 642/4/4
f 634/2/4 640/2/4 643/2/4
f 640/4/4 641/4/4 643/4/4
f 643/4/4 641/4/4 644/4/4
f 634/2/4 643/2/4 646/2/4
f 644/2/4 645/2/4 646/2/4
f 643/2/4 644/2/4 646/2/4
f 646/2/4 645/2/4 647/2/4
f 634/2/4 646/2/4 648/2/4
f 634/2/4 648/2/4 650/2/4
f 648/2/4 649/2/4 650/2/4
f 650/2/4 649/2/4 651/2/4
f 654/2/5 653/2/5 652/2/5
f 655/2/5 653/2/5 654/2/5
f 660/2/5 657/2/5 656/2/5
f 661/2/5 657/2/5 660/2/5
f 662/2/5 659/2/5 658/2/5
f 663/2/5 659/2/5 662/2/5
f 670/4/5 665/4/5 664/4/5
f 671/4/5 665/4/5 670/4/5
f 672/2/5 667/2/5 666/2/5
f 673/2/5 667/2/5 672/2/5
f 674/2/5 669/2/5 668/2/5
f 675/2/5 669/2/5 674/2/5
f 678/4/5 677/4/5 676/4/5
f 679/4/5 677/4/5 678/4/5
f 684/2/5 681/2/5 680/2/5
f 684/2/5 683/2/5 682/2/5
f 684/2/5 682/2/5 681/2/5
f 685/2/5 683/2/5 684/2/5
f 688/1/5 687/1/5 686/1/5
f 689/1/5 687/1/5 688/1/5
f 693/4/5 691/4/5 690/4/5
f 693/4/5 692/4/5 691/4/5
f 694/4/5 692/4/5 693/4/5
f 699/1/5 696/1/5 695/1/5
f 700/1/5 696/1/5 699/1/5
f 701/1/5 698/1/5 697/1/5
f 702/1/5 698/1/5 701/1/5
f 707/1/5 704/1/5 703/1/5
f 708/1/5 704/1/5 707/1/5
f 709/1/5 706/1/5 705/1/5
f 710/1/5 706/1/5 709/1/5
f 715/1/5 712/1/5 711/1/5
f 715/1/5 714/1/5 713/1/5
f 715/1/5 713/1/5 712/1/5
f 716/1/5 714/1/5 715/1/5
f 719/3/5 718/3/5 717/3/5
f 720/3/5 718/3/5 719/3/5
f 725/3/5 722/3/5 721/3/5
f 726/3/5 722/3/5 725/3/5
f 727/3/5 724/3/5 723/3/5
f 728/3/5 724/3/5 727/3/5
f 733/3/5 730/3/5 729/3/5
f 734/3/5 730/3/5 733/3/5
f 735/3/5 732/3/5 731/3/5
f 736/3/5 732/3/5 735/3/5
f 741/3/5 738/3/5 737/3/5
f 741/3/5 740/3/5 739/3/5
f 741/3/5 739/3/5 738/3/5
f 742/3/5 740/3/5 741/3/5
f 745/4/5 744/4/5 743/4/5
f 746/4/5 744/4/5 745/4/5
f 751/4/5 748/4/5 747/4/5
f 752/4/5 748/4/5 751/4/5
f 753/4/5 750/4/5 749/4/5
f 754/4/5 750/4/5 753/4/5
f 759/4/5 756/4/5 755/4/5
f 760/4/5 756/4/5 759/4/5
f 761/4/5 758/4/5 757/4/5
f 762/4/5 758/4/5 761/4/5
f 767/4/5 764/4/5 763/4/5
f 767/4/5 766/4/5 765/4/5
f 767/4/5 765/4/5 764/4/5
f 768/4/5 766/4/5 767/4/5
f 769/2/6 770/2/6 773/2/6
f 773/2/6 770/2/6 774/2/6
f 771/2/6 772/2/6 775/2/6
f 775/2/6 772/2/6 776/2/6
f 777/4/6 778/4/6 781/4/6
f 781/4/6 778/4/6 782/4/6
f 779/2/6 780/2/6 783/2/6
f 783/2/6 780/2/6 784/2/6
f 785/4/6 786/4/6 789/4/6
f 789/4/6 786/4/6 790/4/6
f 787/2/6 788/2/6 791/2/6
f 791/2/6 788/2/6 792/2/6
f 793/4/6 794/4/6 797/4/6
f 797/4/6 794/4/6 798/4/6
f 795/2/6 796/2/6 799/2/6
f 799/2/6 796/2/6 800/2/6
f 799/2/6 800/2/6 801/2/6
f 801/2/6 800/2/6 802/2/6
f 803/4/6 804/4/6 807/4/6
f 807/4/6 804/4/6 808/4/6
f 805/4/6 806/4/6 809/4/6
f 809/4/6 806/4/6 810/4/6
f 807/4/6 808/4/6 813/4/6
f 813/4/6 808/4/6 814/4/6
f 809/4/6 810/4/6 815/4/6
f 815/4/6 810/4/6 816/4/6
f 811/2/6 812/2/6 817/2/6
f 817/2/6 812/2/6 818/2/6
f 819/1/6 820/1/6 823/1/6
f 823/1/6 820/1/6 824/1/6
f 821/1/6 822/1/6 825/1/6
f 825/1/6 822/1/6 826/1/6
f 827/4/6 828/4/6 831/4/6
f 831/4/6 828/4/6 832/4/6
f 829/2/6 830/2/6 833/2/6
f 833/2/6 830/2/6 834/2/6
f 835/1/6 836/1/6 839/1/6
f 839/1/6 836/1/6 840/1/6
f 837/1/6 838/1/6 841/1/6
f 841/1/6 838/1/6 842/1/6
f 843/4/6 844/4/6 845/4/6
f 845/4/6 844/4/6 846/4/6
f 847/1/6 848/1/6 849/1/6
f 849/1/6 848/1/6 850/1/6
f 851/1/6 852/1/6 855/1/6
f 855/1/6 852/1/6 856/1/6
f 853/1/6 854/1/6 857/1/6
f 857/1/6 854/1/6 858/1/6
f 855/1/6 856/1/6 859/1/6
f 859/1/6 856/1/6 860/1/6
f 857/1/6 858/1/6 861/1/6
f 861/1/6 858/1/6 862/1/6
f 863/1/6 864/1/6 867/1/6
f 867/1/6 864/1/6 868/1/6
f 865/1/6 866/1/6 869/1/6
f 869/1/6 866/1/6 870/1/6
f 871/3/6 872/3/6 875/3/6
f 875/3/6 872/3/6 876/3/6
f 873/3/6 874/3/6 877/3/6
f 877/3/6 874/3/6 878/3/6
f 879/3/6 880/3/6 883/3/6
f 883/3/6 880/3/6 884/3/6
f 881/3/6 882/3/6 885/3/6
f 885/3/6 882/3/6 886/3/6
f 887/3/6 888/3/6 889/3/6
f 889/3/6 888/3/6 890/3/6
f 891/3/6 892/3/6 895/3/6
f 895/3/6 892/3/6 896/3/6
f 893/3/6 894/3/6 897/3/6
f 897/3/6 894/3/6 898/3/6
f 895/3/6 896/3/6 899/3/6
f 899/3/6 896/3/6 900/3/6
f 897/3/6 898/3/6 901/3/6
f 901/3/6 898/3/6 902/3/6
f 903/3/6 904/3/6 907/3/6
f 907/3/6 904/3/6 908/3/6
f 905/3/6 906/3/6 909/3/6
f 909/3/6 906/3/6 910/3/6
f 911/3/6 912/3/6 913/3/6
f 913/3/6 912/3/6 914/3/6
f 915/4/6 916/4/6 919/4/6
f 919/4/6 916/4/6 920/4/6
f 917/4/6 918/4/6 921/4/6
f 921/4/6 918/4/6 922/4/6
f 923/4/6 924/4/6 927/4/6
f 927/4/6 924/4/6 928/4/6
f 925/4/6 926/4/6 929/4/6
f 929/4/6 926/4/6 930/4/6
f 931/4/6 932/4/6 933/4/6
f 933/4/6 932/4/6 934/4/6
f 935/4/6 936/4/6 939/4/6
f 939/4/6 936/4/6 940/4/6
f 937/4/6 938/4/6 941/4/6
f 941/4/6 938/4/6 942/4/6
f 939/4/6 940/4/6 943/4/6
f 943/4/6 940/4/6 944/4/6
f 941/4/6 942/4/6 945/4/6
f 945/4/6 942/4/6 946/4/6
f 947/4/6 948/4/6 951/4/6
f 951/4/6 948/4/6 952/4/6
f 949/4/6 950/4/6 953/4/6
f 953/4/6 950/4/6 954/4/6
f 955/4/6 956/4/6 957/4/6
f 957/4/6 956/4/6 958/4/6
