# MagicaVoxel @ ephtracy

# material
mtllib ivy_weak_60_15.mtl
usemtl palette

# normals
vn -1 0 0
vn 1 0 0
vn 0 0 1
vn 0 0 -1
vn 0 -1 0
vn 0 1 0

# texcoords
vt 0.00195313 0.5
vt 0.00585938 0.5
vt 0.00976563 0.5
vt 0.0136719 0.5
vt 0.0175781 0.5

# verts
v -25 1 1.5
v -25 1 0.5
v -25 2 1.5
v -25 2 0.5
v -24 2 1.5
v -24 2 0.5
v -24 3 1.5
v -24 3 0.5
v -24 4 0.5
v -24 4 -0.5
v -24 6 0.5
v -24 6 -0.5
v -23 3 1.5
v -23 3 0.5
v -23 4 1.5
v -23 4 0.5
v -23 5 1.5
v -23 5 0.5
v -22 0 1.5
v -22 0 0.5
v -22 2 1.5
v -22 2 0.5
v -22 5 1.5
v -22 5 0.5
v -22 5 -0.5
v -22 6 1.5
v -22 6 0.5
v -22 7 0.5
v -22 7 -0.5
v -22 9 0.5
v -22 9 -0.5
v -21 6 1.5
v -21 6 0.5
v -21 7 0.5
v -21 8 1.5
v -21 8 0.5
v -20 1 1.5
v -20 1 0.5
v -20 2 1.5
v -20 2 0.5
v -20 5 0.5
v -20 5 -0.5
v -20 6 0.5
v -20 6 -0.5
v -20 8 0.5
v -20 8 -0.5
v -20 10 0.5
v -20 10 -0.5
v -19 7 1.5
v -19 7 0.5
v -19 8 1.5
v -19 8 0.5
v -18 4 1.5
v -18 4 0.5
v -18 5 1.5
v -18 5 0.5
v -18 8 0.5
v -18 8 -0.5
v -18 9 0.5
v -18 9 -0.5
v -17 6 1.5
v -17 6 0.5
v -17 7 1.5
v -17 7 0.5
v -16 7 1.5
v -16 7 0.5
v -16 8 1.5
v -16 8 0.5
v -16 9 0.5
v -16 9 -0.5
v -16 11 0.5
v -16 11 -0.5
v -15 8 1.5
v -15 8 0.5
v -15 9 0.5
v -15 10 1.5
v -15 10 0.5
v -14 3 0.5
v -14 3 -0.5
v -14 4 0.5
v -14 4 -0.5
v -14 5 1.5
v -14 5 0.5
v -14 7 1.5
v -14 7 0.5
v -14 10 0.5
v -14 10 -0.5
v -14 12 0.5
v -14 12 -0.5
v -13 4 0.5
v -13 4 -0.5
v -13 5 0.5
v -13 5 -0.5
v -13 6 -0.5
v -13 6 -1.5
v -13 8 -0.5
v -13 8 -1.5
v -13 9 1.5
v -13 9 0.5
v -13 10 1.5
v -13 10 0.5
v -12 5 0.5
v -12 5 -0.5
v -12 6 1.5
v -12 6 0.5
v -12 6 -0.5
v -12 7 1.5
v -12 7 0.5
v -12 7 -0.5
v -12 10 0.5
v -12 10 -0.5
v -12 11 0.5
v -12 11 -0.5
v -11 2 0.5
v -11 2 -0.5
v -11 4 0.5
v -11 4 -0.5
v -11 7 -0.5
v -11 7 -1.5
v -11 9 -0.5
v -11 9 -1.5
v -10 6 0.5
v -10 6 -0.5
v -10 7 0.5
v -10 7 -0.5
v -10 8 1.5
v -10 8 0.5
v -10 9 1.5
v -10 9 0.5
v -9 3 0.5
v -9 3 -0.5
v -9 4 0.5
v -9 4 -0.5
v -9 7 -0.5
v -9 7 -1.5
v -9 8 -0.5
v -9 8 -1.5
v -9 9 1.5
v -9 9 0.5
v -9 10 1.5
v -9 10 0.5
v -9 11 0.5
v -9 11 -0.5
v -9 13 0.5
v -9 13 -0.5
v -8 10 1.5
v -8 10 0.5
v -8 11 0.5
v -8 12 1.5
v -8 12 0.5
v -7 7 1.5
v -7 7 0.5
v -7 8 1.5
v -7 8 0.5
v -7 9 1.5
v -7 9 0.5
v -7 12 0.5
v -7 12 -0.5
v -7 14 0.5
v -7 14 -0.5
v -6 10 0.5
v -6 10 -0.5
v -6 11 1.5
v -6 11 0.5
v -6 11 -0.5
v -6 12 1.5
v -6 12 0.5
v -5 1 0.5
v -5 1 -0.5
v -5 2 0.5
v -5 2 -0.5
v -5 12 0.5
v -5 12 -0.5
v -5 13 0.5
v -5 13 -0.5
v -4 2 0.5
v -4 2 -0.5
v -4 3 0.5
v -4 3 -0.5
v -4 4 -0.5
v -4 4 -1.5
v -4 6 1.5
v -4 6 0.5
v -4 6 -0.5
v -4 6 -1.5
v -4 8 1.5
v -4 8 0.5
v -3 3 0.5
v -3 3 -0.5
v -3 4 -0.5
v -3 5 0.5
v -3 5 -0.5
v -3 10 1.5
v -3 10 0.5
v -3 11 1.5
v -3 11 0.5
v -2 0 0.5
v -2 0 -0.5
v -2 2 0.5
v -2 2 -0.5
v -2 5 -0.5
v -2 5 -1.5
v -2 7 1.5
v -2 7 0.5
v -2 7 -0.5
v -2 7 -1.5
v -2 8 1.5
v -2 8 0.5
v -2 11 0.5
v -2 11 -0.5
v -2 12 0.5
v -2 12 -0.5
v -1 4 0.5
v -1 4 -0.5
v -1 5 0.5
v -1 5 -0.5
v 0 1 0.5
v 0 1 -0.5
v 0 2 0.5
v 0 2 -0.5
v 0 5 -0.5
v 0 5 -1.5
v 0 6 -0.5
v 0 6 -1.5
v 6 4 0.5
v 6 4 -0.5
v 6 5 0.5
v 6 5 -0.5
v 7 5 0.5
v 7 5 -0.5
v 7 6 0.5
v 7 6 -0.5
v 7 7 -0.5
v 7 7 -1.5
v 7 9 -0.5
v 7 9 -1.5
v 8 6 0.5
v 8 6 -0.5
v 8 7 -0.5
v 8 8 0.5
v 8 8 -0.5
v 9 1 1.5
v 9 1 0.5
v 9 2 1.5
v 9 2 0.5
v 9 3 0.5
v 9 3 -0.5
v 9 5 0.5
v 9 5 -0.5
v 9 8 -0.5
v 9 8 -1.5
v 9 10 -0.5
v 9 10 -1.5
v 10 2 1.5
v 10 2 0.5
v 10 3 1.5
v 10 3 0.5
v 10 7 0.5
v 10 7 -0.5
v 10 8 0.5
v 10 8 -0.5
v 11 3 1.5
v 11 3 0.5
v 11 4 0.5
v 11 5 1.5
v 11 5 0.5
v 11 8 -0.5
v 11 8 -1.5
v 11 9 -0.5
v 11 9 -1.5
v 12 0 1.5
v 12 0 0.5
v 12 2 1.5
v 12 2 0.5
v 12 6 0.5
v 12 6 -0.5
v 12 7 0.5
v 12 7 -0.5
v 13 4 1.5
v 13 4 0.5
v 13 5 1.5
v 13 5 0.5
v 14 1 1.5
v 14 1 0.5
v 14 2 1.5
v 14 2 0.5
v 14 5 0.5
v 14 5 -0.5
v 14 7 0.5
v 14 7 -0.5
v 15 4 1.5
v 15 4 0.5
v 15 5 0.5
v 15 6 1.5
v 15 6 0.5
v 16 7 0.5
v 16 7 -0.5
v 16 8 0.5
v 16 8 -0.5
v 19 1 0.5
v 19 1 -0.5
v 19 2 0.5
v 19 2 -0.5
v 20 2 0.5
v 20 2 -0.5
v 20 3 0.5
v 20 3 -0.5
v 20 4 -0.5
v 20 4 -1.5
v 20 5 -0.5
v 20 6 -0.5
v 20 6 -1.5
v 21 3 0.5
v 21 3 -0.5
v 21 4 -0.5
v 21 5 0.5
v 21 5 -0.5
v 22 0 0.5
v 22 0 -0.5
v 22 2 0.5
v 22 2 -0.5
v 22 5 -0.5
v 22 5 -1.5
v 22 6 1.5
v 22 6 0.5
v 22 7 1.5
v 22 7 0.5
v 22 7 -0.5
v 22 7 -1.5
v 23 4 0.5
v 23 4 -0.5
v 23 5 0.5
v 23 5 -0.5
v 23 7 1.5
v 23 7 0.5
v 23 8 1.5
v 23 8 0.5
v 23 9 0.5
v 23 9 -0.5
v 23 11 0.5
v 23 11 -0.5
v 24 1 0.5
v 24 1 -0.5
v 24 2 0.5
v 24 2 -0.5
v 24 5 -0.5
v 24 5 -1.5
v 24 6 -0.5
v 24 6 -1.5
v 24 8 1.5
v 24 8 0.5
v 24 9 0.5
v 24 10 1.5
v 24 10 0.5
v 25 5 1.5
v 25 5 0.5
v 25 7 1.5
v 25 7 0.5
v 25 10 0.5
v 25 10 -0.5
v 25 12 0.5
v 25 12 -0.5
v 26 9 1.5
v 26 9 0.5
v 26 10 1.5
v 26 10 0.5
v 27 6 1.5
v 27 6 0.5
v 27 7 1.5
v 27 7 0.5
v 27 10 0.5
v 27 10 -0.5
v 27 11 0.5
v 27 11 -0.5
v -23 1 1.5
v -23 1 0.5
v -23 2 1.5
v -23 2 0.5
v -23 5 0.5
v -23 5 -0.5
v -23 6 0.5
v -23 6 -0.5
v -21 0 1.5
v -21 0 0.5
v -21 2 1.5
v -21 2 0.5
v -21 5 0.5
v -21 5 -0.5
v -21 7 0.5
v -21 7 -0.5
v -21 8 0.5
v -21 8 -0.5
v -21 9 0.5
v -21 9 -0.5
v -20 7 1.5
v -20 7 0.5
v -20 8 1.5
v -20 8 0.5
v -19 2 1.5
v -19 2 0.5
v -19 3 1.5
v -19 3 0.5
v -19 4 0.5
v -19 4 -0.5
v -19 5 1.5
v -19 5 0.5
v -19 6 0.5
v -19 6 -0.5
v -19 8 0.5
v -19 8 -0.5
v -19 10 0.5
v -19 10 -0.5
v -18 1 1.5
v -18 1 0.5
v -18 2 1.5
v -18 2 0.5
v -18 6 1.5
v -18 6 0.5
v -18 7 0.5
v -18 8 1.5
v -18 8 0.5
v -17 5 1.5
v -17 5 0.5
v -17 6 1.5
v -17 6 0.5
v -17 7 0.5
v -17 7 -0.5
v -17 9 0.5
v -17 9 -0.5
v -16 4 1.5
v -16 4 0.5
v -16 5 1.5
v -16 5 0.5
v -15 6 1.5
v -15 6 0.5
v -15 7 1.5
v -15 7 0.5
v -15 10 0.5
v -15 10 -0.5
v -15 11 0.5
v -15 11 -0.5
v -14 9 1.5
v -14 9 0.5
v -14 10 1.5
v -14 10 0.5
v -13 5 1.5
v -13 5 0.5
v -13 7 1.5
v -13 7 0.5
v -13 10 0.5
v -13 10 -0.5
v -13 12 0.5
v -13 12 -0.5
v -12 3 0.5
v -12 3 -0.5
v -12 4 0.5
v -12 4 -0.5
v -12 7 -0.5
v -12 7 -1.5
v -12 8 1.5
v -12 8 0.5
v -12 8 -0.5
v -12 8 -1.5
v -12 9 0.5
v -12 10 1.5
v -12 10 0.5
v -11 6 0.5
v -11 6 -0.5
v -11 7 1.5
v -11 7 0.5
v -11 7 -0.5
v -11 8 1.5
v -11 8 0.5
v -11 9 0.5
v -11 9 -0.5
v -11 11 0.5
v -11 11 -0.5
v -10 2 0.5
v -10 2 -0.5
v -10 4 0.5
v -10 4 -0.5
v -10 6 1.5
v -10 6 0.5
v -10 7 1.5
v -10 7 0.5
v -10 7 -0.5
v -10 7 -1.5
v -10 9 -0.5
v -10 9 -1.5
v -9 5 0.5
v -9 5 -0.5
v -9 6 -0.5
v -9 7 0.5
v -9 7 -0.5
v -8 4 0.5
v -8 4 -0.5
v -8 5 0.5
v -8 5 -0.5
v -8 6 -0.5
v -8 6 -1.5
v -8 8 1.5
v -8 8 0.5
v -8 8 -0.5
v -8 8 -1.5
v -8 9 1.5
v -8 9 0.5
v -8 12 0.5
v -8 12 -0.5
v -8 13 0.5
v -8 13 -0.5
v -7 3 0.5
v -7 3 -0.5
v -7 4 0.5
v -7 4 -0.5
v -7 11 1.5
v -7 11 0.5
v -7 12 1.5
v -7 12 0.5
v -6 12 0.5
v -6 12 -0.5
v -6 14 0.5
v -6 14 -0.5
v -5 7 1.5
v -5 7 0.5
v -5 8 1.5
v -5 8 0.5
v -5 11 1.5
v -5 11 0.5
v -5 12 1.5
v -5 12 0.5
v -4 10 1.5
v -4 10 0.5
v -4 11 1.5
v -4 11 0.5
v -3 1 0.5
v -3 1 -0.5
v -3 2 0.5
v -3 2 -0.5
v -3 5 -0.5
v -3 5 -1.5
v -3 6 1.5
v -3 6 0.5
v -3 6 -0.5
v -3 6 -1.5
v -3 8 1.5
v -3 8 0.5
v -3 11 0.5
v -3 11 -0.5
v -3 13 0.5
v -3 13 -0.5
v -2 4 0.5
v -2 4 -0.5
v -2 5 0.5
v -2 5 -0.5
v -2 9 1.5
v -2 9 0.5
v -2 10 0.5
v -2 11 1.5
v -2 11 0.5
v -1 0 0.5
v -1 0 -0.5
v -1 2 0.5
v -1 2 -0.5
v -1 5 -0.5
v -1 5 -1.5
v -1 7 -0.5
v -1 7 -1.5
v -1 8 1.5
v -1 8 0.5
v -1 9 1.5
v -1 9 0.5
v -1 10 0.5
v -1 10 -0.5
v -1 12 0.5
v -1 12 -0.5
v 0 3 0.5
v 0 3 -0.5
v 0 4 -0.5
v 0 5 0.5
v 0 5 -0.5
v 0 7 1.5
v 0 7 0.5
v 0 8 1.5
v 0 8 0.5
v 1 2 0.5
v 1 2 -0.5
v 1 3 0.5
v 1 3 -0.5
v 1 4 -0.5
v 1 4 -1.5
v 1 6 -0.5
v 1 6 -1.5
v 2 1 0.5
v 2 1 -0.5
v 2 2 0.5
v 2 2 -0.5
v 8 4 0.5
v 8 4 -0.5
v 8 5 0.5
v 8 5 -0.5
v 8 8 -0.5
v 8 8 -1.5
v 8 9 -0.5
v 8 9 -1.5
v 9 7 0.5
v 9 7 -0.5
v 9 8 0.5
v 9 8 -0.5
v 10 3 0.5
v 10 3 -0.5
v 10 4 0.5
v 10 4 -0.5
v 10 8 -0.5
v 10 8 -1.5
v 10 10 -0.5
v 10 10 -1.5
v 11 1 1.5
v 11 1 0.5
v 11 2 1.5
v 11 2 0.5
v 11 6 0.5
v 11 6 -0.5
v 11 7 -0.5
v 11 8 0.5
v 11 8 -0.5
v 12 4 1.5
v 12 4 0.5
v 12 5 1.5
v 12 5 0.5
v 12 7 -0.5
v 12 7 -1.5
v 12 9 -0.5
v 12 9 -1.5
v 13 0 1.5
v 13 0 0.5
v 13 2 1.5
v 13 2 0.5
v 13 5 0.5
v 13 5 -0.5
v 13 7 0.5
v 13 7 -0.5
v 14 4 1.5
v 14 4 0.5
v 14 5 1.5
v 14 5 0.5
v 15 4 0.5
v 15 4 -0.5
v 15 5 0.5
v 15 5 -0.5
v 18 1 1.5
v 18 1 0.5
v 18 2 1.5
v 18 2 0.5
v 18 7 0.5
v 18 7 -0.5
v 18 8 0.5
v 18 8 -0.5
v 19 4 1.5
v 19 4 0.5
v 19 5 0.5
v 19 6 1.5
v 19 6 0.5
v 20 3 1.5
v 20 3 0.5
v 20 4 1.5
v 20 4 0.5
v 20 5 0.5
v 20 5 -0.5
v 20 6 -0.5
v 20 7 0.5
v 20 7 -0.5
v 21 1 0.5
v 21 1 -0.5
v 21 2 1.5
v 21 2 0.5
v 21 2 -0.5
v 21 3 1.5
v 21 3 0.5
v 21 5 -0.5
v 21 5 -1.5
v 21 6 -0.5
v 21 6 -1.5
v 22 4 0.5
v 22 4 -0.5
v 22 5 0.5
v 22 5 -0.5
v 23 0 0.5
v 23 0 -0.5
v 23 2 0.5
v 23 2 -0.5
v 23 5 -0.5
v 23 5 -1.5
v 23 7 -0.5
v 23 7 -1.5
v 24 3 0.5
v 24 3 -0.5
v 24 4 -0.5
v 24 5 0.5
v 24 5 -0.5
v 24 6 1.5
v 24 6 0.5
v 24 7 1.5
v 24 7 0.5
v 24 10 0.5
v 24 10 -0.5
v 24 11 0.5
v 24 11 -0.5
v 25 2 0.5
v 25 2 -0.5
v 25 3 0.5
v 25 3 -0.5
v 25 4 -0.5
v 25 4 -1.5
v 25 6 -0.5
v 25 6 -1.5
v 25 9 1.5
v 25 9 0.5
v 25 10 1.5
v 25 10 0.5
v 26 1 0.5
v 26 1 -0.5
v 26 2 0.5
v 26 2 -0.5
v 26 5 1.5
v 26 5 0.5
v 26 7 1.5
v 26 7 0.5
v 26 10 0.5
v 26 10 -0.5
v 26 12 0.5
v 26 12 -0.5
v 27 8 1.5
v 27 8 0.5
v 27 9 0.5
v 27 10 1.5
v 27 10 0.5
v 28 7 1.5
v 28 7 0.5
v 28 8 1.5
v 28 8 0.5
v 28 9 0.5
v 28 9 -0.5
v 28 11 0.5
v 28 11 -0.5
v 29 6 1.5
v 29 6 0.5
v 29 7 1.5
v 29 7 0.5
v -25 1 1.5
v -25 2 1.5
v -24 2 1.5
v -24 3 1.5
v -23 1 1.5
v -23 2 1.5
v -23 3 1.5
v -23 4 1.5
v -23 5 1.5
v -22 0 1.5
v -22 2 1.5
v -22 5 1.5
v -22 6 1.5
v -21 0 1.5
v -21 2 1.5
v -21 4 1.5
v -21 5 1.5
v -21 6 1.5
v -21 8 1.5
v -20 1 1.5
v -20 2 1.5
v -20 3 1.5
v -20 5 1.5
v -20 7 1.5
v -20 8 1.5
v -19 2 1.5
v -19 3 1.5
v -19 5 1.5
v -19 7 1.5
v -19 8 1.5
v -18 1 1.5
v -18 2 1.5
v -18 4 1.5
v -18 5 1.5
v -18 6 1.5
v -18 8 1.5
v -17 5 1.5
v -17 6 1.5
v -17 7 1.5
v -16 4 1.5
v -16 5 1.5
v -16 7 1.5
v -16 8 1.5
v -15 6 1.5
v -15 7 1.5
v -15 8 1.5
v -15 10 1.5
v -14 5 1.5
v -14 7 1.5
v -14 9 1.5
v -14 10 1.5
v -13 5 1.5
v -13 7 1.5
v -13 9 1.5
v -13 10 1.5
v -12 6 1.5
v -12 7 1.5
v -12 8 1.5
v -12 10 1.5
v -11 7 1.5
v -11 8 1.5
v -10 6 1.5
v -10 7 1.5
v -10 8 1.5
v -10 9 1.5
v -9 9 1.5
v -9 10 1.5
v -8 8 1.5
v -8 9 1.5
v -8 10 1.5
v -8 12 1.5
v -7 7 1.5
v -7 8 1.5
v -7 9 1.5
v -7 11 1.5
v -7 12 1.5
v -6 8 1.5
v -6 9 1.5
v -6 11 1.5
v -6 12 1.5
v -5 7 1.5
v -5 8 1.5
v -5 9 1.5
v -5 11 1.5
v -5 12 1.5
v -4 6 1.5
v -4 8 1.5
v -4 10 1.5
v -4 11 1.5
v -3 6 1.5
v -3 8 1.5
v -3 10 1.5
v -3 11 1.5
v -2 7 1.5
v -2 8 1.5
v -2 9 1.5
v -2 11 1.5
v -1 8 1.5
v -1 9 1.5
v 0 7 1.5
v 0 8 1.5
v 9 1 1.5
v 9 2 1.5
v 10 2 1.5
v 10 3 1.5
v 11 1 1.5
v 11 2 1.5
v 11 3 1.5
v 11 5 1.5
v 12 0 1.5
v 12 2 1.5
v 12 4 1.5
v 12 5 1.5
v 13 0 1.5
v 13 2 1.5
v 13 3 1.5
v 13 4 1.5
v 13 5 1.5
v 14 1 1.5
v 14 2 1.5
v 14 3 1.5
v 14 4 1.5
v 14 5 1.5
v 15 4 1.5
v 15 6 1.5
v 16 1 1.5
v 16 2 1.5
v 18 1 1.5
v 18 2 1.5
v 19 4 1.5
v 19 6 1.5
v 20 3 1.5
v 20 4 1.5
v 21 2 1.5
v 21 3 1.5
v 22 6 1.5
v 22 7 1.5
v 23 7 1.5
v 23 8 1.5
v 24 6 1.5
v 24 7 1.5
v 24 8 1.5
v 24 10 1.5
v 25 5 1.5
v 25 7 1.5
v 25 9 1.5
v 25 10 1.5
v 26 5 1.5
v 26 7 1.5
v 26 9 1.5
v 26 10 1.5
v 27 6 1.5
v 27 7 1.5
v 27 8 1.5
v 27 10 1.5
v 28 7 1.5
v 28 8 1.5
v 29 6 1.5
v 29 7 1.5
v -24 4 0.5
v -24 6 0.5
v -23 4 0.5
v -23 5 0.5
v -23 6 0.5
v -22 6 0.5
v -22 7 0.5
v -22 9 0.5
v -21 6 0.5
v -21 7 0.5
v -21 8 0.5
v -21 9 0.5
v -20 7 0.5
v -20 8 0.5
v -20 10 0.5
v -19 7 0.5
v -19 8 0.5
v -19 10 0.5
v -18 7 0.5
v -18 8 0.5
v -18 9 0.5
v -17 7 0.5
v -17 9 0.5
v -16 9 0.5
v -16 11 0.5
v -15 9 0.5
v -15 10 0.5
v -15 11 0.5
v -14 3 0.5
v -14 4 0.5
v -14 9 0.5
v -14 10 0.5
v -14 12 0.5
v -13 4 0.5
v -13 5 0.5
v -13 9 0.5
v -13 10 0.5
v -13 12 0.5
v -12 3 0.5
v -12 4 0.5
v -12 5 0.5
v -12 6 0.5
v -12 9 0.5
v -12 10 0.5
v -12 11 0.5
v -11 2 0.5
v -11 4 0.5
v -11 9 0.5
v -11 11 0.5
v -10 2 0.5
v -10 4 0.5
v -10 6 0.5
v -10 7 0.5
v -9 3 0.5
v -9 4 0.5
v -9 5 0.5
v -9 7 0.5
v -9 11 0.5
v -9 13 0.5
v -8 4 0.5
v -8 5 0.5
v -8 11 0.5
v -8 12 0.5
v -8 13 0.5
v -7 3 0.5
v -7 4 0.5
v -7 11 0.5
v -7 12 0.5
v -7 14 0.5
v -6 11 0.5
v -6 12 0.5
v -6 14 0.5
v -5 1 0.5
v -5 2 0.5
v -5 11 0.5
v -5 12 0.5
v -5 13 0.5
v -4 2 0.5
v -4 3 0.5
v -4 10 0.5
v -4 11 0.5
v -4 13 0.5
v -3 1 0.5
v -3 2 0.5
v -3 3 0.5
v -3 5 0.5
v -3 10 0.5
v -3 11 0.5
v -3 13 0.5
v -2 0 0.5
v -2 2 0.5
v -2 4 0.5
v -2 5 0.5
v -2 10 0.5
v -2 11 0.5
v -2 12 0.5
v -1 0 0.5
v -1 2 0.5
v -1 4 0.5
v -1 5 0.5
v -1 10 0.5
v -1 12 0.5
v 0 1 0.5
v 0 2 0.5
v 0 3 0.5
v 0 5 0.5
v 1 2 0.5
v 1 3 0.5
v 2 1 0.5
v 2 2 0.5
v 6 4 0.5
v 6 5 0.5
v 7 5 0.5
v 7 6 0.5
v 8 4 0.5
v 8 5 0.5
v 8 6 0.5
v 8 8 0.5
v 9 3 0.5
v 9 5 0.5
v 9 7 0.5
v 9 8 0.5
v 10 3 0.5
v 10 4 0.5
v 10 5 0.5
v 10 7 0.5
v 10 8 0.5
v 11 4 0.5
v 11 5 0.5
v 11 6 0.5
v 11 8 0.5
v 12 4 0.5
v 12 5 0.5
v 12 6 0.5
v 12 7 0.5
v 13 4 0.5
v 13 5 0.5
v 13 7 0.5
v 14 4 0.5
v 14 5 0.5
v 14 7 0.5
v 15 4 0.5
v 15 5 0.5
v 15 6 0.5
v 16 7 0.5
v 16 8 0.5
v 18 7 0.5
v 18 8 0.5
v 19 1 0.5
v 19 2 0.5
v 19 5 0.5
v 19 6 0.5
v 20 5 0.5
v 20 7 0.5
v 21 1 0.5
v 21 2 0.5
v 21 3 0.5
v 21 5 0.5
v 22 0 0.5
v 22 2 0.5
v 22 4 0.5
v 22 5 0.5
v 23 0 0.5
v 23 2 0.5
v 23 4 0.5
v 23 5 0.5
v 23 9 0.5
v 23 11 0.5
v 24 1 0.5
v 24 2 0.5
v 24 3 0.5
v 24 5 0.5
v 24 9 0.5
v 24 10 0.5
v 24 11 0.5
v 25 2 0.5
v 25 3 0.5
v 25 9 0.5
v 25 10 0.5
v 25 12 0.5
v 26 1 0.5
v 26 2 0.5
v 26 9 0.5
v 26 10 0.5
v 26 12 0.5
v 27 9 0.5
v 27 10 0.5
v 27 11 0.5
v 28 9 0.5
v 28 11 0.5
v -13 6 -0.5
v -13 8 -0.5
v -12 6 -0.5
v -12 7 -0.5
v -12 8 -0.5
v -11 6 -0.5
v -11 7 -0.5
v -11 9 -0.5
v -10 6 -0.5
v -10 7 -0.5
v -10 9 -0.5
v -9 6 -0.5
v -9 7 -0.5
v -9 8 -0.5
v -8 6 -0.5
v -8 8 -0.5
v -4 4 -0.5
v -4 6 -0.5
v -3 4 -0.5
v -3 5 -0.5
v -3 6 -0.5
v -2 4 -0.5
v -2 5 -0.5
v -2 7 -0.5
v -1 4 -0.5
v -1 5 -0.5
v -1 7 -0.5
v 0 4 -0.5
v 0 5 -0.5
v 0 6 -0.5
v 1 4 -0.5
v 1 6 -0.5
v 7 7 -0.5
v 7 9 -0.5
v 8 7 -0.5
v 8 8 -0.5
v 8 9 -0.5
v 9 7 -0.5
v 9 8 -0.5
v 9 10 -0.5
v 10 7 -0.5
v 10 8 -0.5
v 10 10 -0.5
v 11 7 -0.5
v 11 8 -0.5
v 11 9 -0.5
v 12 7 -0.5
v 12 9 -0.5
v 20 4 -0.5
v 20 5 -0.5
v 20 6 -0.5
v 21 4 -0.5
v 21 5 -0.5
v 21 6 -0.5
v 22 4 -0.5
v 22 5 -0.5
v 22 7 -0.5
v 23 4 -0.5
v 23 5 -0.5
v 23 7 -0.5
v 24 4 -0.5
v 24 5 -0.5
v 24 6 -0.5
v 25 4 -0.5
v 25 6 -0.5
v -25 1 0.5
v -25 2 0.5
v -24 2 0.5
v -24 3 0.5
v -23 1 0.5
v -23 2 0.5
v -23 3 0.5
v -23 4 0.5
v -22 0 0.5
v -22 2 0.5
v -21 0 0.5
v -21 2 0.5
v -21 5 0.5
v -21 7 0.5
v -20 1 0.5
v -20 2 0.5
v -20 3 0.5
v -20 4 0.5
v -20 5 0.5
v -20 6 0.5
v -19 2 0.5
v -19 3 0.5
v -19 4 0.5
v -19 5 0.5
v -19 6 0.5
v -18 1 0.5
v -18 2 0.5
v -18 4 0.5
v -18 5 0.5
v -18 6 0.5
v -18 7 0.5
v -17 5 0.5
v -17 6 0.5
v -17 7 0.5
v -16 4 0.5
v -16 5 0.5
v -16 7 0.5
v -16 8 0.5
v -15 6 0.5
v -15 7 0.5
v -15 8 0.5
v -15 9 0.5
v -14 5 0.5
v -14 7 0.5
v -13 5 0.5
v -13 7 0.5
v -12 7 0.5
v -12 8 0.5
v -12 9 0.5
v -11 6 0.5
v -11 7 0.5
v -11 8 0.5
v -10 6 0.5
v -10 7 0.5
v -10 8 0.5
v -10 9 0.5
v -9 9 0.5
v -9 10 0.5
v -8 8 0.5
v -8 9 0.5
v -8 10 0.5
v -8 11 0.5
v -7 7 0.5
v -7 8 0.5
v -7 9 0.5
v -6 8 0.5
v -6 9 0.5
v -6 10 0.5
v -6 11 0.5
v -5 7 0.5
v -5 8 0.5
v -5 9 0.5
v -5 10 0.5
v -4 6 0.5
v -4 8 0.5
v -3 6 0.5
v -3 8 0.5
v -2 7 0.5
v -2 8 0.5
v -2 9 0.5
v -2 10 0.5
v -1 8 0.5
v -1 9 0.5
v 0 7 0.5
v 0 8 0.5
v 9 1 0.5
v 9 2 0.5
v 10 2 0.5
v 10 3 0.5
v 11 1 0.5
v 11 2 0.5
v 11 3 0.5
v 11 4 0.5
v 12 0 0.5
v 12 2 0.5
v 13 0 0.5
v 13 2 0.5
v 13 3 0.5
v 13 4 0.5
v 14 1 0.5
v 14 2 0.5
v 14 3 0.5
v 14 4 0.5
v 15 4 0.5
v 15 5 0.5
v 16 1 0.5
v 16 2 0.5
v 18 1 0.5
v 18 2 0.5
v 19 2 0.5
v 19 4 0.5
v 19 5 0.5
v 20 2 0.5
v 20 3 0.5
v 20 4 0.5
v 22 6 0.5
v 22 7 0.5
v 23 7 0.5
v 23 8 0.5
v 24 6 0.5
v 24 7 0.5
v 24 8 0.5
v 24 9 0.5
v 25 5 0.5
v 25 7 0.5
v 26 5 0.5
v 26 7 0.5
v 27 6 0.5
v 27 7 0.5
v 27 8 0.5
v 27 9 0.5
v 28 7 0.5
v 28 8 0.5
v 29 6 0.5
v 29 7 0.5
v -24 4 -0.5
v -24 6 -0.5
v -23 5 -0.5
v -23 6 -0.5
v -22 5 -0.5
v -22 7 -0.5
v -22 9 -0.5
v -21 5 -0.5
v -21 7 -0.5
v -21 8 -0.5
v -21 9 -0.5
v -20 5 -0.5
v -20 6 -0.5
v -20 8 -0.5
v -20 10 -0.5
v -19 4 -0.5
v -19 6 -0.5
v -19 8 -0.5
v -19 10 -0.5
v -18 8 -0.5
v -18 9 -0.5
v -17 7 -0.5
v -17 9 -0.5
v -16 9 -0.5
v -16 11 -0.5
v -15 10 -0.5
v -15 11 -0.5
v -14 3 -0.5
v -14 4 -0.5
v -14 10 -0.5
v -14 12 -0.5
v -13 4 -0.5
v -13 5 -0.5
v -13 10 -0.5
v -13 12 -0.5
v -12 3 -0.5
v -12 4 -0.5
v -12 5 -0.5
v -12 6 -0.5
v -12 10 -0.5
v -12 11 -0.5
v -11 2 -0.5
v -11 4 -0.5
v -11 9 -0.5
v -11 11 -0.5
v -10 2 -0.5
v -10 4 -0.5
v -9 3 -0.5
v -9 4 -0.5
v -9 5 -0.5
v -9 6 -0.5
v -9 11 -0.5
v -9 13 -0.5
v -8 4 -0.5
v -8 5 -0.5
v -8 12 -0.5
v -8 13 -0.5
v -7 3 -0.5
v -7 4 -0.5
v -7 12 -0.5
v -7 14 -0.5
v -6 10 -0.5
v -6 11 -0.5
v -6 12 -0.5
v -6 14 -0.5
v -5 1 -0.5
v -5 2 -0.5
v -5 11 -0.5
v -5 12 -0.5
v -5 13 -0.5
v -4 2 -0.5
v -4 3 -0.5
v -4 11 -0.5
v -4 13 -0.5
v -3 1 -0.5
v -3 2 -0.5
v -3 3 -0.5
v -3 4 -0.5
v -3 11 -0.5
v -3 13 -0.5
v -2 0 -0.5
v -2 2 -0.5
v -2 11 -0.5
v -2 12 -0.5
v -1 0 -0.5
v -1 2 -0.5
v -1 10 -0.5
v -1 12 -0.5
v 0 1 -0.5
v 0 2 -0.5
v 0 3 -0.5
v 0 4 -0.5
v 1 2 -0.5
v 1 3 -0.5
v 2 1 -0.5
v 2 2 -0.5
v 6 4 -0.5
v 6 5 -0.5
v 7 5 -0.5
v 7 6 -0.5
v 8 4 -0.5
v 8 5 -0.5
v 8 6 -0.5
v 8 7 -0.5
v 9 3 -0.5
v 9 5 -0.5
v 10 3 -0.5
v 10 4 -0.5
v 10 5 -0.5
v 11 4 -0.5
v 11 5 -0.5
v 11 6 -0.5
v 11 7 -0.5
v 12 5 -0.5
v 12 6 -0.5
v 12 7 -0.5
v 13 4 -0.5
v 13 5 -0.5
v 13 7 -0.5
v 14 5 -0.5
v 14 7 -0.5
v 15 4 -0.5
v 15 5 -0.5
v 16 7 -0.5
v 16 8 -0.5
v 18 7 -0.5
v 18 8 -0.5
v 19 1 -0.5
v 19 2 -0.5
v 20 2 -0.5
v 20 3 -0.5
v 20 5 -0.5
v 20 6 -0.5
v 20 7 -0.5
v 21 1 -0.5
v 21 2 -0.5
v 21 3 -0.5
v 21 4 -0.5
v 22 0 -0.5
v 22 2 -0.5
v 23 0 -0.5
v 23 2 -0.5
v 23 9 -0.5
v 23 11 -0.5
v 24 1 -0.5
v 24 2 -0.5
v 24 3 -0.5
v 24 4 -0.5
v 24 10 -0.5
v 24 11 -0.5
v 25 2 -0.5
v 25 3 -0.5
v 25 10 -0.5
v 25 12 -0.5
v 26 1 -0.5
v 26 2 -0.5
v 26 10 -0.5
v 26 12 -0.5
v 27 10 -0.5
v 27 11 -0.5
v 28 9 -0.5
v 28 11 -0.5
v -13 6 -1.5
v -13 8 -1.5
v -12 7 -1.5
v -12 8 -1.5
v -11 7 -1.5
v -11 9 -1.5
v -10 7 -1.5
v -10 9 -1.5
v -9 7 -1.5
v -9 8 -1.5
v -8 6 -1.5
v -8 8 -1.5
v -4 4 -1.5
v -4 6 -1.5
v -3 5 -1.5
v -3 6 -1.5
v -2 5 -1.5
v -2 7 -1.5
v -1 5 -1.5
v -1 7 -1.5
v 0 5 -1.5
v 0 6 -1.5
v 1 4 -1.5
v 1 6 -1.5
v 7 7 -1.5
v 7 9 -1.5
v 8 8 -1.5
v 8 9 -1.5
v 9 8 -1.5
v 9 10 -1.5
v 10 8 -1.5
v 10 10 -1.5
v 11 8 -1.5
v 11 9 -1.5
v 12 7 -1.5
v 12 9 -1.5
v 20 4 -1.5
v 20 6 -1.5
v 21 5 -1.5
v 21 6 -1.5
v 22 5 -1.5
v 22 7 -1.5
v 23 5 -1.5
v 23 7 -1.5
v 24 5 -1.5
v 24 6 -1.5
v 25 4 -1.5
v 25 6 -1.5
v -22 0 1.5
v -21 0 1.5
v 12 0 1.5
v 13 0 1.5
v -22 0 0.5
v -21 0 0.5
v -2 0 0.5
v -1 0 0.5
v 12 0 0.5
v 13 0 0.5
v 22 0 0.5
v 23 0 0.5
v -2 0 -0.5
v -1 0 -0.5
v 22 0 -0.5
v 23 0 -0.5
v -25 1 1.5
v -23 1 1.5
v -20 1 1.5
v -18 1 1.5
v 9 1 1.5
v 11 1 1.5
v 14 1 1.5
v 16 1 1.5
v 18 1 1.5
v -25 1 0.5
v -23 1 0.5
v -20 1 0.5
v -18 1 0.5
v -5 1 0.5
v -3 1 0.5
v 0 1 0.5
v 2 1 0.5
v 9 1 0.5
v 11 1 0.5
v 14 1 0.5
v 16 1 0.5
v 18 1 0.5
v 19 1 0.5
v 21 1 0.5
v 24 1 0.5
v 26 1 0.5
v -5 1 -0.5
v -3 1 -0.5
v 0 1 -0.5
v 2 1 -0.5
v 19 1 -0.5
v 21 1 -0.5
v 24 1 -0.5
v 26 1 -0.5
v -23 2 1.5
v -22 2 1.5
v -21 2 1.5
v -20 2 1.5
v 11 2 1.5
v 12 2 1.5
v 13 2 1.5
v 14 2 1.5
v 18 2 1.5
v 21 2 1.5
v -23 2 0.5
v -22 2 0.5
v -21 2 0.5
v -20 2 0.5
v -11 2 0.5
v -10 2 0.5
v -3 2 0.5
v -2 2 0.5
v -1 2 0.5
v 0 2 0.5
v 11 2 0.5
v 12 2 0.5
v 13 2 0.5
v 14 2 0.5
v 18 2 0.5
v 19 2 0.5
v 21 2 0.5
v 22 2 0.5
v 23 2 0.5
v 24 2 0.5
v -11 2 -0.5
v -10 2 -0.5
v -3 2 -0.5
v -2 2 -0.5
v -1 2 -0.5
v 0 2 -0.5
v 21 2 -0.5
v 22 2 -0.5
v 23 2 -0.5
v 24 2 -0.5
v -14 3 0.5
v -12 3 0.5
v -9 3 0.5
v -7 3 0.5
v 9 3 0.5
v 10 3 0.5
v -14 3 -0.5
v -12 3 -0.5
v -9 3 -0.5
v -7 3 -0.5
v 9 3 -0.5
v 10 3 -0.5
v -18 4 1.5
v -16 4 1.5
v -24 4 0.5
v -23 4 0.5
v -20 4 0.5
v -19 4 0.5
v -18 4 0.5
v -16 4 0.5
v -12 4 0.5
v -11 4 0.5
v -10 4 0.5
v -9 4 0.5
v 6 4 0.5
v 8 4 0.5
v 10 4 0.5
v 11 4 0.5
v 13 4 0.5
v 14 4 0.5
v 15 4 0.5
v -24 4 -0.5
v -19 4 -0.5
v -12 4 -0.5
v -11 4 -0.5
v -10 4 -0.5
v -9 4 -0.5
v -4 4 -0.5
v -3 4 -0.5
v 0 4 -0.5
v 1 4 -0.5
v 6 4 -0.5
v 8 4 -0.5
v 10 4 -0.5
v 11 4 -0.5
v 13 4 -0.5
v 15 4 -0.5
v 20 4 -0.5
v 21 4 -0.5
v 24 4 -0.5
v 25 4 -0.5
v -4 4 -1.5
v 1 4 -1.5
v 20 4 -1.5
v 25 4 -1.5
v -19 5 1.5
v -18 5 1.5
v -14 5 1.5
v -13 5 1.5
v 25 5 1.5
v 26 5 1.5
v -19 5 0.5
v -18 5 0.5
v -14 5 0.5
v -13 5 0.5
v 8 5 0.5
v 9 5 0.5
v 15 5 0.5
v 19 5 0.5
v 20 5 0.5
v 25 5 0.5
v 26 5 0.5
v 8 5 -0.5
v 9 5 -0.5
v 15 5 -0.5
v 20 5 -0.5
v -17 6 1.5
v -15 6 1.5
v -12 6 1.5
v -10 6 1.5
v -4 6 1.5
v -3 6 1.5
v 22 6 1.5
v 24 6 1.5
v 27 6 1.5
v 29 6 1.5
v -17 6 0.5
v -15 6 0.5
v -12 6 0.5
v -10 6 0.5
v -4 6 0.5
v -3 6 0.5
v 22 6 0.5
v 24 6 0.5
v 27 6 0.5
v 29 6 0.5
v -13 6 -0.5
v -12 6 -0.5
v -9 6 -0.5
v -8 6 -0.5
v -13 6 -1.5
v -8 6 -1.5
v -15 7 1.5
v -14 7 1.5
v -13 7 1.5
v -12 7 1.5
v -7 7 1.5
v -5 7 1.5
v -2 7 1.5
v 0 7 1.5
v 24 7 1.5
v 25 7 1.5
v 26 7 1.5
v 27 7 1.5
v -21 7 0.5
v -18 7 0.5
v -17 7 0.5
v -15 7 0.5
v -14 7 0.5
v -13 7 0.5
v -12 7 0.5
v -7 7 0.5
v -5 7 0.5
v -2 7 0.5
v 0 7 0.5
v 24 7 0.5
v 25 7 0.5
v 26 7 0.5
v 27 7 0.5
v -21 7 -0.5
v -17 7 -0.5
v 7 7 -0.5
v 8 7 -0.5
v 11 7 -0.5
v 12 7 -0.5
v 7 7 -1.5
v 12 7 -1.5
v -10 8 1.5
v -8 8 1.5
v -5 8 1.5
v -4 8 1.5
v -3 8 1.5
v -2 8 1.5
v -10 8 0.5
v -8 8 0.5
v -5 8 0.5
v -4 8 0.5
v -3 8 0.5
v -2 8 0.5
v -8 9 1.5
v -7 9 1.5
v -16 9 0.5
v -15 9 0.5
v -12 9 0.5
v -11 9 0.5
v -8 9 0.5
v -7 9 0.5
v 23 9 0.5
v 24 9 0.5
v 27 9 0.5
v 28 9 0.5
v -16 9 -0.5
v -11 9 -0.5
v 23 9 -0.5
v 28 9 -0.5
v -6 10 0.5
v -5 10 0.5
v -2 10 0.5
v -1 10 0.5
v -6 10 -0.5
v -1 10 -0.5
v -9 11 0.5
v -8 11 0.5
v -6 11 0.5
v -9 11 -0.5
v -6 11 -0.5
v -25 2 1.5
v -24 2 1.5
v -19 2 1.5
v -18 2 1.5
v 9 2 1.5
v 10 2 1.5
v -25 2 0.5
v -24 2 0.5
v -19 2 0.5
v -18 2 0.5
v -5 2 0.5
v -4 2 0.5
v 1 2 0.5
v 2 2 0.5
v 9 2 0.5
v 10 2 0.5
v 19 2 0.5
v 20 2 0.5
v 25 2 0.5
v 26 2 0.5
v -5 2 -0.5
v -4 2 -0.5
v 1 2 -0.5
v 2 2 -0.5
v 19 2 -0.5
v 20 2 -0.5
v 25 2 -0.5
v 26 2 -0.5
v -24 3 1.5
v -23 3 1.5
v 10 3 1.5
v 11 3 1.5
v 20 3 1.5
v 21 3 1.5
v -24 3 0.5
v -23 3 0.5
v -4 3 0.5
v -3 3 0.5
v 0 3 0.5
v 1 3 0.5
v 10 3 0.5
v 11 3 0.5
v 20 3 0.5
v 21 3 0.5
v 24 3 0.5
v 25 3 0.5
v -4 3 -0.5
v -3 3 -0.5
v 0 3 -0.5
v 1 3 -0.5
v 20 3 -0.5
v 21 3 -0.5
v 24 3 -0.5
v 25 3 -0.5
v 12 4 1.5
v 13 4 1.5
v 14 4 1.5
v 15 4 1.5
v 19 4 1.5
v 20 4 1.5
v -14 4 0.5
v -13 4 0.5
v -8 4 0.5
v -7 4 0.5
v -2 4 0.5
v -1 4 0.5
v 12 4 0.5
v 13 4 0.5
v 14 4 0.5
v 15 4 0.5
v 19 4 0.5
v 20 4 0.5
v 22 4 0.5
v 23 4 0.5
v -14 4 -0.5
v -13 4 -0.5
v -8 4 -0.5
v -7 4 -0.5
v -2 4 -0.5
v -1 4 -0.5
v 22 4 -0.5
v 23 4 -0.5
v -23 5 1.5
v -22 5 1.5
v -17 5 1.5
v -16 5 1.5
v 11 5 1.5
v 12 5 1.5
v 13 5 1.5
v 14 5 1.5
v -23 5 0.5
v -22 5 0.5
v -21 5 0.5
v -20 5 0.5
v -17 5 0.5
v -16 5 0.5
v -13 5 0.5
v -12 5 0.5
v -9 5 0.5
v -8 5 0.5
v -3 5 0.5
v -2 5 0.5
v -1 5 0.5
v 0 5 0.5
v 6 5 0.5
v 7 5 0.5
v 11 5 0.5
v 12 5 0.5
v 13 5 0.5
v 14 5 0.5
v 21 5 0.5
v 22 5 0.5
v 23 5 0.5
v 24 5 0.5
v -23 5 -0.5
v -22 5 -0.5
v -21 5 -0.5
v -20 5 -0.5
v -13 5 -0.5
v -12 5 -0.5
v -9 5 -0.5
v -8 5 -0.5
v -3 5 -0.5
v -2 5 -0.5
v -1 5 -0.5
v 0 5 -0.5
v 6 5 -0.5
v 7 5 -0.5
v 13 5 -0.5
v 14 5 -0.5
v 21 5 -0.5
v 22 5 -0.5
v 23 5 -0.5
v 24 5 -0.5
v -3 5 -1.5
v -2 5 -1.5
v -1 5 -1.5
v 0 5 -1.5
v 21 5 -1.5
v 22 5 -1.5
v 23 5 -1.5
v 24 5 -1.5
v -22 6 1.5
v -21 6 1.5
v -18 6 1.5
v -17 6 1.5
v 15 6 1.5
v 19 6 1.5
v -24 6 0.5
v -23 6 0.5
v -22 6 0.5
v -21 6 0.5
v -20 6 0.5
v -19 6 0.5
v -18 6 0.5
v -17 6 0.5
v -11 6 0.5
v -10 6 0.5
v 7 6 0.5
v 8 6 0.5
v 11 6 0.5
v 12 6 0.5
v 15 6 0.5
v 19 6 0.5
v -24 6 -0.5
v -23 6 -0.5
v -20 6 -0.5
v -19 6 -0.5
v -11 6 -0.5
v -10 6 -0.5
v -4 6 -0.5
v -3 6 -0.5
v 0 6 -0.5
v 1 6 -0.5
v 7 6 -0.5
v 8 6 -0.5
v 11 6 -0.5
v 12 6 -0.5
v 20 6 -0.5
v 21 6 -0.5
v 24 6 -0.5
v 25 6 -0.5
v -4 6 -1.5
v -3 6 -1.5
v 0 6 -1.5
v 1 6 -1.5
v 20 6 -1.5
v 21 6 -1.5
v 24 6 -1.5
v 25 6 -1.5
v -20 7 1.5
v -19 7 1.5
v -17 7 1.5
v -16 7 1.5
v -11 7 1.5
v -10 7 1.5
v 22 7 1.5
v 23 7 1.5
v 28 7 1.5
v 29 7 1.5
v -20 7 0.5
v -19 7 0.5
v -17 7 0.5
v -16 7 0.5
v -12 7 0.5
v -11 7 0.5
v -10 7 0.5
v -9 7 0.5
v 9 7 0.5
v 10 7 0.5
v 12 7 0.5
v 13 7 0.5
v 14 7 0.5
v 16 7 0.5
v 18 7 0.5
v 20 7 0.5
v 22 7 0.5
v 23 7 0.5
v 28 7 0.5
v 29 7 0.5
v -12 7 -0.5
v -11 7 -0.5
v -10 7 -0.5
v -9 7 -0.5
v -2 7 -0.5
v -1 7 -0.5
v 9 7 -0.5
v 10 7 -0.5
v 12 7 -0.5
v 13 7 -0.5
v 14 7 -0.5
v 16 7 -0.5
v 18 7 -0.5
v 20 7 -0.5
v 22 7 -0.5
v 23 7 -0.5
v -12 7 -1.5
v -11 7 -1.5
v -10 7 -1.5
v -9 7 -1.5
v -2 7 -1.5
v -1 7 -1.5
v 22 7 -1.5
v 23 7 -1.5
v -21 8 1.5
v -20 8 1.5
v -19 8 1.5
v -18 8 1.5
v -16 8 1.5
v -15 8 1.5
v -12 8 1.5
v -11 8 1.5
v -1 8 1.5
v 0 8 1.5
v 23 8 1.5
v 24 8 1.5
v 27 8 1.5
v 28 8 1.5
v -21 8 0.5
v -20 8 0.5
v -19 8 0.5
v -18 8 0.5
v -16 8 0.5
v -15 8 0.5
v -12 8 0.5
v -11 8 0.5
v -1 8 0.5
v 0 8 0.5
v 8 8 0.5
v 9 8 0.5
v 10 8 0.5
v 11 8 0.5
v 16 8 0.5
v 18 8 0.5
v 23 8 0.5
v 24 8 0.5
v 27 8 0.5
v 28 8 0.5
v -21 8 -0.5
v -20 8 -0.5
v -19 8 -0.5
v -18 8 -0.5
v -13 8 -0.5
v -12 8 -0.5
v -9 8 -0.5
v -8 8 -0.5
v 8 8 -0.5
v 9 8 -0.5
v 10 8 -0.5
v 11 8 -0.5
v 16 8 -0.5
v 18 8 -0.5
v -13 8 -1.5
v -12 8 -1.5
v -9 8 -1.5
v -8 8 -1.5
v 8 8 -1.5
v 9 8 -1.5
v 10 8 -1.5
v 11 8 -1.5
v -14 9 1.5
v -13 9 1.5
v -10 9 1.5
v -9 9 1.5
v -2 9 1.5
v -1 9 1.5
v 25 9 1.5
v 26 9 1.5
v -22 9 0.5
v -21 9 0.5
v -18 9 0.5
v -17 9 0.5
v -14 9 0.5
v -13 9 0.5
v -10 9 0.5
v -9 9 0.5
v -2 9 0.5
v -1 9 0.5
v 25 9 0.5
v 26 9 0.5
v -22 9 -0.5
v -21 9 -0.5
v -18 9 -0.5
v -17 9 -0.5
v -11 9 -0.5
v -10 9 -0.5
v 7 9 -0.5
v 8 9 -0.5
v 11 9 -0.5
v 12 9 -0.5
v -11 9 -1.5
v -10 9 -1.5
v 7 9 -1.5
v 8 9 -1.5
v 11 9 -1.5
v 12 9 -1.5
v -15 10 1.5
v -14 10 1.5
v -13 10 1.5
v -12 10 1.5
v -9 10 1.5
v -8 10 1.5
v -4 10 1.5
v -3 10 1.5
v 24 10 1.5
v 25 10 1.5
v 26 10 1.5
v 27 10 1.5
v -20 10 0.5
v -19 10 0.5
v -15 10 0.5
v -14 10 0.5
v -13 10 0.5
v -12 10 0.5
v -9 10 0.5
v -8 10 0.5
v -4 10 0.5
v -3 10 0.5
v 24 10 0.5
v 25 10 0.5
v 26 10 0.5
v 27 10 0.5
v -20 10 -0.5
v -19 10 -0.5
v -15 10 -0.5
v -14 10 -0.5
v -13 10 -0.5
v -12 10 -0.5
v 9 10 -0.5
v 10 10 -0.5
v 24 10 -0.5
v 25 10 -0.5
v 26 10 -0.5
v 27 10 -0.5
v 9 10 -1.5
v 10 10 -1.5
v -7 11 1.5
v -6 11 1.5
v -5 11 1.5
v -4 11 1.5
v -3 11 1.5
v -2 11 1.5
v -16 11 0.5
v -15 11 0.5
v -12 11 0.5
v -11 11 0.5
v -7 11 0.5
v -6 11 0.5
v -5 11 0.5
v -4 11 0.5
v -3 11 0.5
v -2 11 0.5
v 23 11 0.5
v 24 11 0.5
v 27 11 0.5
v 28 11 0.5
v -16 11 -0.5
v -15 11 -0.5
v -12 11 -0.5
v -11 11 -0.5
v -3 11 -0.5
v -2 11 -0.5
v 23 11 -0.5
v 24 11 -0.5
v 27 11 -0.5
v 28 11 -0.5
v -8 12 1.5
v -7 12 1.5
v -6 12 1.5
v -5 12 1.5
v -14 12 0.5
v -13 12 0.5
v -8 12 0.5
v -7 12 0.5
v -6 12 0.5
v -5 12 0.5
v -2 12 0.5
v -1 12 0.5
v 25 12 0.5
v 26 12 0.5
v -14 12 -0.5
v -13 12 -0.5
v -8 12 -0.5
v -7 12 -0.5
v -6 12 -0.5
v -5 12 -0.5
v -2 12 -0.5
v -1 12 -0.5
v 25 12 -0.5
v 26 12 -0.5
v -9 13 0.5
v -8 13 0.5
v -5 13 0.5
v -4 13 0.5
v -3 13 0.5
v -9 13 -0.5
v -8 13 -0.5
v -5 13 -0.5
v -4 13 -0.5
v -3 13 -0.5
v -7 14 0.5
v -6 14 0.5
v -7 14 -0.5
v -6 14 -0.5

# faces
f 3/5/1 2/5/1 1/5/1
f 4/5/1 2/5/1 3/5/1
f 7/5/1 6/5/1 5/5/1
f 8/5/1 6/5/1 7/5/1
f 11/5/1 10/5/1 9/5/1
f 12/5/1 10/5/1 11/5/1
f 15/5/1 14/5/1 13/5/1
f 16/5/1 14/5/1 15/5/1
f 17/3/1 16/3/1 15/3/1
f 18/3/1 16/3/1 17/3/1
f 21/5/1 20/5/1 19/5/1
f 22/5/1 20/5/1 21/5/1
f 26/3/1 24/3/1 23/3/1
f 27/5/1 25/5/1 24/5/1
f 27/3/1 24/3/1 26/3/1
f 28/5/1 25/5/1 27/5/1
f 29/5/1 25/5/1 28/5/1
f 30/3/1 29/3/1 28/3/1
f 31/3/1 29/3/1 30/3/1
f 34/3/1 33/3/1 32/3/1
f 35/3/1 34/3/1 32/3/1
f 36/3/1 34/3/1 35/3/1
f 39/5/1 38/5/1 37/5/1
f 40/5/1 38/5/1 39/5/1
f 43/5/1 42/5/1 41/5/1
f 44/5/1 42/5/1 43/5/1
f 47/3/1 46/3/1 45/3/1
f 48/3/1 46/3/1 47/3/1
f 51/3/1 50/3/1 49/3/1
f 52/3/1 50/3/1 51/3/1
f 55/3/1 54/3/1 53/3/1
f 56/3/1 54/3/1 55/3/1
f 59/3/1 58/3/1 57/3/1
f 60/3/1 58/3/1 59/3/1
f 63/3/1 62/3/1 61/3/1
f 64/3/1 62/3/1 63/3/1
f 67/3/1 66/3/1 65/3/1
f 68/3/1 66/3/1 67/3/1
f 71/3/1 70/3/1 69/3/1
f 72/3/1 70/3/1 71/3/1
f 75/3/1 74/3/1 73/3/1
f 76/3/1 75/3/1 73/3/1
f 77/3/1 75/3/1 76/3/1
f 80/2/1 79/2/1 78/2/1
f 81/2/1 79/2/1 80/2/1
f 84/3/1 83/3/1 82/3/1
f 85/3/1 83/3/1 84/3/1
f 88/3/1 87/3/1 86/3/1
f 89/3/1 87/3/1 88/3/1
f 92/2/1 91/2/1 90/2/1
f 93/2/1 91/2/1 92/2/1
f 96/2/1 95/2/1 94/2/1
f 97/2/1 95/2/1 96/2/1
f 100/3/1 99/3/1 98/3/1
f 101/3/1 99/3/1 100/3/1
f 105/2/1 103/2/1 102/2/1
f 106/2/1 103/2/1 105/2/1
f 107/3/1 105/3/1 104/3/1
f 108/2/1 106/2/1 105/2/1
f 108/3/1 105/3/1 107/3/1
f 109/2/1 106/2/1 108/2/1
f 112/3/1 111/3/1 110/3/1
f 113/3/1 111/3/1 112/3/1
f 116/2/1 115/2/1 114/2/1
f 117/2/1 115/2/1 116/2/1
f 120/2/1 119/2/1 118/2/1
f 121/2/1 119/2/1 120/2/1
f 124/2/1 123/2/1 122/2/1
f 125/2/1 123/2/1 124/2/1
f 128/5/1 127/5/1 126/5/1
f 129/5/1 127/5/1 128/5/1
f 132/2/1 131/2/1 130/2/1
f 133/2/1 131/2/1 132/2/1
f 136/2/1 135/2/1 134/2/1
f 137/2/1 135/2/1 136/2/1
f 140/5/1 139/5/1 138/5/1
f 141/5/1 139/5/1 140/5/1
f 144/5/1 143/5/1 142/5/1
f 145/5/1 143/5/1 144/5/1
f 148/5/1 147/5/1 146/5/1
f 149/5/1 148/5/1 146/5/1
f 150/5/1 148/5/1 149/5/1
f 153/1/1 152/1/1 151/1/1
f 154/1/1 152/1/1 153/1/1
f 155/5/1 154/5/1 153/5/1
f 156/5/1 154/5/1 155/5/1
f 159/5/1 158/5/1 157/5/1
f 160/5/1 158/5/1 159/5/1
f 164/1/1 162/1/1 161/1/1
f 165/1/1 162/1/1 164/1/1
f 166/5/1 164/5/1 163/5/1
f 167/5/1 164/5/1 166/5/1
f 170/1/1 169/1/1 168/1/1
f 171/1/1 169/1/1 170/1/1
f 174/5/1 173/5/1 172/5/1
f 175/5/1 173/5/1 174/5/1
f 178/1/1 177/1/1 176/1/1
f 179/1/1 177/1/1 178/1/1
f 184/1/1 181/1/1 180/1/1
f 185/1/1 181/1/1 184/1/1
f 186/1/1 183/1/1 182/1/1
f 187/1/1 183/1/1 186/1/1
f 190/1/1 189/1/1 188/1/1
f 191/1/1 190/1/1 188/1/1
f 192/1/1 190/1/1 191/1/1
f 195/1/1 194/1/1 193/1/1
f 196/1/1 194/1/1 195/1/1
f 199/1/1 198/1/1 197/1/1
f 200/1/1 198/1/1 199/1/1
f 205/1/1 202/1/1 201/1/1
f 206/1/1 202/1/1 205/1/1
f 207/1/1 204/1/1 203/1/1
f 208/1/1 204/1/1 207/1/1
f 211/1/1 210/1/1 209/1/1
f 212/1/1 210/1/1 211/1/1
f 215/1/1 214/1/1 213/1/1
f 216/1/1 214/1/1 215/1/1
f 219/1/1 218/1/1 217/1/1
f 220/1/1 218/1/1 219/1/1
f 223/1/1 222/1/1 221/1/1
f 224/1/1 222/1/1 223/1/1
f 227/4/1 226/4/1 225/4/1
f 228/4/1 226/4/1 227/4/1
f 231/4/1 230/4/1 229/4/1
f 232/4/1 230/4/1 231/4/1
f 235/4/1 234/4/1 233/4/1
f 236/4/1 234/4/1 235/4/1
f 239/4/1 238/4/1 237/4/1
f 240/4/1 239/4/1 237/4/1
f 241/4/1 239/4/1 240/4/1
f 244/5/1 243/5/1 242/5/1
f 245/5/1 243/5/1 244/5/1
f 248/4/1 247/4/1 246/4/1
f 249/4/1 247/4/1 248/4/1
f 252/4/1 251/4/1 250/4/1
f 253/4/1 251/4/1 252/4/1
f 256/5/1 255/5/1 254/5/1
f 257/5/1 255/5/1 256/5/1
f 260/4/1 259/4/1 258/4/1
f 261/4/1 259/4/1 260/4/1
f 264/5/1 263/5/1 262/5/1
f 265/5/1 264/5/1 262/5/1
f 266/5/1 264/5/1 265/5/1
f 269/4/1 268/4/1 267/4/1
f 270/4/1 268/4/1 269/4/1
f 273/5/1 272/5/1 271/5/1
f 274/5/1 272/5/1 273/5/1
f 277/5/1 276/5/1 275/5/1
f 278/5/1 276/5/1 277/5/1
f 281/5/1 280/5/1 279/5/1
f 282/5/1 280/5/1 281/5/1
f 285/5/1 284/5/1 283/5/1
f 286/5/1 284/5/1 285/5/1
f 289/4/1 288/4/1 287/4/1
f 290/4/1 288/4/1 289/4/1
f 293/4/1 292/4/1 291/4/1
f 294/4/1 293/4/1 291/4/1
f 295/4/1 293/4/1 294/4/1
f 298/4/1 297/4/1 296/4/1
f 299/4/1 297/4/1 298/4/1
f 302/3/1 301/3/1 300/3/1
f 303/3/1 301/3/1 302/3/1
f 306/3/1 305/3/1 304/3/1
f 307/3/1 305/3/1 306/3/1
f 310/3/1 309/3/1 308/3/1
f 311/3/1 309/3/1 310/3/1
f 312/3/1 309/3/1 311/3/1
f 315/3/1 314/3/1 313/3/1
f 316/3/1 315/3/1 313/3/1
f 317/3/1 315/3/1 316/3/1
f 320/3/1 319/3/1 318/3/1
f 321/3/1 319/3/1 320/3/1
f 326/1/1 325/1/1 324/1/1
f 327/1/1 325/1/1 326/1/1
f 328/3/1 323/3/1 322/3/1
f 329/3/1 323/3/1 328/3/1
f 332/3/1 331/3/1 330/3/1
f 333/3/1 331/3/1 332/3/1
f 336/1/1 335/1/1 334/1/1
f 337/1/1 335/1/1 336/1/1
f 340/1/1 339/1/1 338/1/1
f 341/1/1 339/1/1 340/1/1
f 344/3/1 343/3/1 342/3/1
f 345/3/1 343/3/1 344/3/1
f 348/3/1 347/3/1 346/3/1
f 349/3/1 347/3/1 348/3/1
f 352/1/1 351/1/1 350/1/1
f 353/1/1 352/1/1 350/1/1
f 354/1/1 352/1/1 353/1/1
f 357/1/1 356/1/1 355/1/1
f 358/1/1 356/1/1 357/1/1
f 361/1/1 360/1/1 359/1/1
f 362/1/1 360/1/1 361/1/1
f 365/1/1 364/1/1 363/1/1
f 366/1/1 364/1/1 365/1/1
f 369/1/1 368/1/1 367/1/1
f 370/1/1 368/1/1 369/1/1
f 373/1/1 372/1/1 371/1/1
f 374/1/1 372/1/1 373/1/1
f 375/5/2 376/5/2 377/5/2
f 377/5/2 376/5/2 378/5/2
f 379/5/2 380/5/2 381/5/2
f 381/5/2 380/5/2 382/5/2
f 383/5/2 384/5/2 385/5/2
f 385/5/2 384/5/2 386/5/2
f 387/5/2 388/5/2 389/5/2
f 389/5/2 388/5/2 390/5/2
f 391/3/2 392/3/2 393/3/2
f 393/3/2 392/3/2 394/3/2
f 395/3/2 396/3/2 397/3/2
f 397/3/2 396/3/2 398/3/2
f 399/5/2 400/5/2 401/5/2
f 401/5/2 400/5/2 402/5/2
f 401/3/2 402/3/2 403/3/2
f 401/3/2 403/3/2 405/3/2
f 403/5/2 404/5/2 406/5/2
f 405/3/2 403/3/2 406/3/2
f 406/5/2 404/5/2 407/5/2
f 407/5/2 404/5/2 408/5/2
f 409/3/2 410/3/2 411/3/2
f 411/3/2 410/3/2 412/3/2
f 413/5/2 414/5/2 415/5/2
f 415/5/2 414/5/2 416/5/2
f 417/3/2 418/3/2 419/3/2
f 417/3/2 419/3/2 420/3/2
f 420/3/2 419/3/2 421/3/2
f 422/3/2 423/3/2 424/3/2
f 424/3/2 423/3/2 425/3/2
f 426/3/2 427/3/2 428/3/2
f 428/3/2 427/3/2 429/3/2
f 430/3/2 431/3/2 432/3/2
f 432/3/2 431/3/2 433/3/2
f 434/3/2 435/3/2 436/3/2
f 436/3/2 435/3/2 437/3/2
f 438/3/2 439/3/2 440/3/2
f 440/3/2 439/3/2 441/3/2
f 442/3/2 443/3/2 444/3/2
f 444/3/2 443/3/2 445/3/2
f 446/3/2 447/3/2 448/3/2
f 448/3/2 447/3/2 449/3/2
f 450/3/2 451/3/2 452/3/2
f 452/3/2 451/3/2 453/3/2
f 454/2/2 455/2/2 456/2/2
f 456/2/2 455/2/2 457/2/2
f 458/2/2 459/2/2 462/2/2
f 462/2/2 459/2/2 463/2/2
f 460/3/2 461/3/2 464/3/2
f 460/3/2 464/3/2 465/3/2
f 465/3/2 464/3/2 466/3/2
f 467/2/2 468/2/2 470/2/2
f 470/2/2 468/2/2 471/2/2
f 469/3/2 470/3/2 472/3/2
f 472/3/2 470/3/2 473/3/2
f 474/3/2 475/3/2 476/3/2
f 476/3/2 475/3/2 477/3/2
f 478/2/2 479/2/2 480/2/2
f 480/2/2 479/2/2 481/2/2
f 482/3/2 483/3/2 484/3/2
f 484/3/2 483/3/2 485/3/2
f 486/2/2 487/2/2 488/2/2
f 488/2/2 487/2/2 489/2/2
f 490/2/2 491/2/2 492/2/2
f 490/2/2 492/2/2 493/2/2
f 493/2/2 492/2/2 494/2/2
f 495/2/2 496/2/2 497/2/2
f 497/2/2 496/2/2 498/2/2
f 499/2/2 500/2/2 503/2/2
f 503/2/2 500/2/2 504/2/2
f 501/5/2 502/5/2 505/5/2
f 505/5/2 502/5/2 506/5/2
f 507/5/2 508/5/2 509/5/2
f 509/5/2 508/5/2 510/5/2
f 511/2/2 512/2/2 513/2/2
f 513/2/2 512/2/2 514/2/2
f 515/5/2 516/5/2 517/5/2
f 517/5/2 516/5/2 518/5/2
f 519/5/2 520/5/2 521/5/2
f 521/5/2 520/5/2 522/5/2
f 523/1/2 524/1/2 525/1/2
f 525/1/2 524/1/2 526/1/2
f 527/5/2 528/5/2 529/5/2
f 529/5/2 528/5/2 530/5/2
f 531/1/2 532/1/2 533/1/2
f 533/1/2 532/1/2 534/1/2
f 535/1/2 536/1/2 537/1/2
f 537/1/2 536/1/2 538/1/2
f 539/1/2 540/1/2 543/1/2
f 543/1/2 540/1/2 544/1/2
f 541/1/2 542/1/2 545/1/2
f 545/1/2 542/1/2 546/1/2
f 547/1/2 548/1/2 549/1/2
f 549/1/2 548/1/2 550/1/2
f 551/1/2 552/1/2 553/1/2
f 553/1/2 552/1/2 554/1/2
f 555/1/2 556/1/2 557/1/2
f 555/1/2 557/1/2 558/1/2
f 558/1/2 557/1/2 559/1/2
f 560/1/2 561/1/2 562/1/2
f 562/1/2 561/1/2 563/1/2
f 564/1/2 565/1/2 566/1/2
f 566/1/2 565/1/2 567/1/2
f 568/1/2 569/1/2 570/1/2
f 570/1/2 569/1/2 571/1/2
f 572/1/2 573/1/2 574/1/2
f 574/1/2 573/1/2 575/1/2
f 576/1/2 577/1/2 578/1/2
f 576/1/2 578/1/2 579/1/2
f 579/1/2 578/1/2 580/1/2
f 581/1/2 582/1/2 583/1/2
f 583/1/2 582/1/2 584/1/2
f 585/1/2 586/1/2 587/1/2
f 587/1/2 586/1/2 588/1/2
f 589/1/2 590/1/2 591/1/2
f 591/1/2 590/1/2 592/1/2
f 593/1/2 594/1/2 595/1/2
f 595/1/2 594/1/2 596/1/2
f 597/4/2 598/4/2 599/4/2
f 599/4/2 598/4/2 600/4/2
f 601/4/2 602/4/2 603/4/2
f 603/4/2 602/4/2 604/4/2
f 605/4/2 606/4/2 607/4/2
f 607/4/2 606/4/2 608/4/2
f 609/4/2 610/4/2 611/4/2
f 611/4/2 610/4/2 612/4/2
f 613/4/2 614/4/2 615/4/2
f 615/4/2 614/4/2 616/4/2
f 617/5/2 618/5/2 619/5/2
f 619/5/2 618/5/2 620/5/2
f 621/4/2 622/4/2 623/4/2
f 621/4/2 623/4/2 624/4/2
f 624/4/2 623/4/2 625/4/2
f 626/5/2 627/5/2 628/5/2
f 628/5/2 627/5/2 629/5/2
f 630/4/2 631/4/2 632/4/2
f 632/4/2 631/4/2 633/4/2
f 634/5/2 635/5/2 636/5/2
f 636/5/2 635/5/2 637/5/2
f 638/5/2 639/5/2 640/5/2
f 640/5/2 639/5/2 641/5/2
f 642/5/2 643/5/2 644/5/2
f 644/5/2 643/5/2 645/5/2
f 646/5/2 647/5/2 648/5/2
f 648/5/2 647/5/2 649/5/2
f 650/4/2 651/4/2 652/4/2
f 652/4/2 651/4/2 653/4/2
f 654/4/2 655/4/2 656/4/2
f 656/4/2 655/4/2 657/4/2
f 658/4/2 659/4/2 660/4/2
f 658/4/2 660/4/2 661/4/2
f 661/4/2 660/4/2 662/4/2
f 663/4/2 664/4/2 665/4/2
f 665/4/2 664/4/2 666/4/2
f 667/4/2 668/4/2 669/4/2
f 667/4/2 669/4/2 670/4/2
f 670/4/2 669/4/2 671/4/2
f 672/3/2 673/3/2 675/3/2
f 675/3/2 673/3/2 676/3/2
f 674/4/2 675/4/2 677/4/2
f 677/4/2 675/4/2 678/4/2
f 679/3/2 680/3/2 681/3/2
f 681/3/2 680/3/2 682/3/2
f 683/3/2 684/3/2 685/3/2
f 685/3/2 684/3/2 686/3/2
f 687/3/2 688/3/2 689/3/2
f 689/3/2 688/3/2 690/3/2
f 691/3/2 692/3/2 693/3/2
f 693/3/2 692/3/2 694/3/2
f 695/3/2 696/3/2 697/3/2
f 695/3/2 697/3/2 698/3/2
f 698/3/2 697/3/2 699/3/2
f 700/1/2 701/1/2 702/1/2
f 702/1/2 701/1/2 703/1/2
f 704/1/2 705/1/2 706/1/2
f 706/1/2 705/1/2 707/1/2
f 708/3/2 709/3/2 710/3/2
f 710/3/2 709/3/2 711/3/2
f 712/3/2 713/3/2 714/3/2
f 714/3/2 713/3/2 715/3/2
f 716/1/2 717/1/2 718/1/2
f 718/1/2 717/1/2 719/1/2
f 720/3/2 721/3/2 722/3/2
f 722/3/2 721/3/2 723/3/2
f 724/1/2 725/1/2 726/1/2
f 726/1/2 725/1/2 727/1/2
f 728/1/2 729/1/2 730/1/2
f 730/1/2 729/1/2 731/1/2
f 732/1/2 733/1/2 734/1/2
f 732/1/2 734/1/2 735/1/2
f 735/1/2 734/1/2 736/1/2
f 737/1/2 738/1/2 739/1/2
f 739/1/2 738/1/2 740/1/2
f 741/1/2 742/1/2 743/1/2
f 743/1/2 742/1/2 744/1/2
f 745/1/2 746/1/2 747/1/2
f 747/1/2 746/1/2 748/1/2
f 751/5/3 750/5/3 749/5/3
f 753/5/3 751/5/3 749/5/3
f 753/5/3 752/5/3 751/5/3
f 754/5/3 752/5/3 753/5/3
f 755/5/3 752/5/3 754/5/3
f 759/5/3 755/5/3 754/5/3
f 759/5/3 756/5/3 755/5/3
f 760/3/3 757/3/3 756/3/3
f 762/5/3 759/5/3 758/5/3
f 763/5/3 756/5/3 759/5/3
f 763/5/3 759/5/3 762/5/3
f 764/3/3 761/3/3 760/3/3
f 764/5/3 756/5/3 763/5/3
f 764/3/3 760/3/3 756/3/3
f 765/3/3 761/3/3 764/3/3
f 766/3/3 761/3/3 765/3/3
f 769/5/3 764/5/3 763/5/3
f 769/5/3 765/5/3 764/5/3
f 770/5/3 765/5/3 769/5/3
f 771/3/3 767/3/3 766/3/3
f 771/5/3 765/5/3 770/5/3
f 771/3/3 766/3/3 765/3/3
f 772/3/3 767/3/3 771/3/3
f 773/3/3 767/3/3 772/3/3
f 774/5/3 770/5/3 769/5/3
f 774/5/3 769/5/3 768/5/3
f 775/3/3 772/3/3 771/3/3
f 775/5/3 770/5/3 774/5/3
f 775/3/3 771/3/3 770/3/3
f 776/3/3 772/3/3 775/3/3
f 777/3/3 772/3/3 776/3/3
f 779/5/3 774/5/3 768/5/3
f 780/5/3 774/5/3 779/5/3
f 782/3/3 778/3/3 777/3/3
f 782/3/3 777/3/3 776/3/3
f 783/3/3 778/3/3 782/3/3
f 784/3/3 778/3/3 783/3/3
f 785/3/3 782/3/3 781/3/3
f 785/3/3 783/3/3 782/3/3
f 786/3/3 783/3/3 785/3/3
f 788/3/3 785/3/3 781/3/3
f 789/3/3 785/3/3 788/3/3
f 790/3/3 787/3/3 786/3/3
f 792/3/3 791/3/3 790/3/3
f 792/3/3 790/3/3 786/3/3
f 793/3/3 791/3/3 792/3/3
f 794/3/3 791/3/3 793/3/3
f 797/3/3 794/3/3 793/3/3
f 797/3/3 795/3/3 794/3/3
f 798/3/3 795/3/3 797/3/3
f 799/3/3 795/3/3 798/3/3
f 800/3/3 797/3/3 796/3/3
f 800/3/3 798/3/3 797/3/3
f 801/3/3 798/3/3 800/3/3
f 802/3/3 798/3/3 801/3/3
f 805/3/3 803/3/3 802/3/3
f 805/3/3 802/3/3 801/3/3
f 806/3/3 803/3/3 805/3/3
f 807/3/3 803/3/3 806/3/3
f 808/3/3 805/3/3 804/3/3
f 808/3/3 806/3/3 805/3/3
f 809/3/3 806/3/3 808/3/3
f 810/3/3 808/3/3 804/3/3
f 811/3/3 808/3/3 810/3/3
f 814/5/3 813/5/3 812/5/3
f 816/5/3 814/5/3 812/5/3
f 816/5/3 815/5/3 814/5/3
f 817/5/3 815/5/3 816/5/3
f 818/5/3 815/5/3 817/5/3
f 822/5/3 818/5/3 817/5/3
f 822/5/3 819/5/3 818/5/3
f 823/5/3 819/5/3 822/5/3
f 824/5/3 819/5/3 823/5/3
f 825/1/3 821/1/3 820/1/3
f 825/5/3 822/5/3 821/5/3
f 825/5/3 823/5/3 822/5/3
f 826/5/3 823/5/3 825/5/3
f 827/5/3 823/5/3 826/5/3
f 829/1/3 825/1/3 820/1/3
f 829/1/3 826/1/3 825/1/3
f 830/1/3 826/1/3 829/1/3
f 831/5/3 828/5/3 827/5/3
f 831/1/3 826/1/3 830/1/3
f 831/5/3 827/5/3 826/5/3
f 832/5/3 828/5/3 831/5/3
f 833/5/3 828/5/3 832/5/3
f 835/1/3 831/1/3 830/1/3
f 835/1/3 832/1/3 831/1/3
f 836/1/3 832/1/3 835/1/3
f 837/1/3 832/1/3 836/1/3
f 838/1/3 835/1/3 834/1/3
f 838/1/3 836/1/3 835/1/3
f 839/1/3 836/1/3 838/1/3
f 840/1/3 836/1/3 839/1/3
f 843/1/3 841/1/3 840/1/3
f 843/1/3 840/1/3 839/1/3
f 844/1/3 841/1/3 843/1/3
f 845/1/3 841/1/3 844/1/3
f 846/1/3 843/1/3 842/1/3
f 846/1/3 844/1/3 843/1/3
f 847/1/3 844/1/3 846/1/3
f 848/1/3 846/1/3 842/1/3
f 849/1/3 846/1/3 848/1/3
f 852/5/3 851/5/3 850/5/3
f 854/5/3 852/5/3 850/5/3
f 854/5/3 853/5/3 852/5/3
f 855/5/3 853/5/3 854/5/3
f 856/5/3 853/5/3 855/5/3
f 859/5/3 857/5/3 856/5/3
f 859/5/3 856/5/3 855/5/3
f 860/5/3 857/5/3 859/5/3
f 861/5/3 857/5/3 860/5/3
f 862/5/3 859/5/3 858/5/3
f 862/5/3 860/5/3 859/5/3
f 863/5/3 860/5/3 862/5/3
f 864/5/3 860/5/3 863/5/3
f 865/5/3 860/5/3 864/5/3
f 868/4/3 864/4/3 863/4/3
f 869/5/3 866/5/3 865/5/3
f 869/5/3 865/5/3 864/5/3
f 869/4/3 864/4/3 868/4/3
f 870/5/3 866/5/3 869/5/3
f 871/5/3 866/5/3 870/5/3
f 872/4/3 869/4/3 868/4/3
f 872/4/3 870/4/3 869/4/3
f 874/5/3 868/5/3 867/5/3
f 875/4/3 872/4/3 868/4/3
f 875/5/3 868/5/3 874/5/3
f 875/4/3 873/4/3 872/4/3
f 876/4/3 875/4/3 874/4/3
f 877/4/3 873/4/3 875/4/3
f 877/4/3 875/4/3 876/4/3
f 878/4/3 873/4/3 877/4/3
f 879/4/3 873/4/3 878/4/3
f 880/4/3 878/4/3 877/4/3
f 881/4/3 878/4/3 880/4/3
f 882/4/3 880/4/3 877/4/3
f 883/4/3 880/4/3 882/4/3
f 886/1/3 885/1/3 884/1/3
f 888/1/3 886/1/3 884/1/3
f 888/1/3 887/1/3 886/1/3
f 889/1/3 887/1/3 888/1/3
f 890/1/3 887/1/3 889/1/3
f 893/1/3 890/1/3 889/1/3
f 893/1/3 891/1/3 890/1/3
f 894/1/3 891/1/3 893/1/3
f 895/1/3 891/1/3 894/1/3
f 896/1/3 893/1/3 892/1/3
f 896/1/3 894/1/3 893/1/3
f 897/1/3 894/1/3 896/1/3
f 898/1/3 894/1/3 897/1/3
f 901/1/3 899/1/3 898/1/3
f 901/1/3 898/1/3 897/1/3
f 902/1/3 899/1/3 901/1/3
f 903/1/3 899/1/3 902/1/3
f 904/1/3 901/1/3 900/1/3
f 904/1/3 902/1/3 901/1/3
f 905/1/3 902/1/3 904/1/3
f 906/1/3 904/1/3 900/1/3
f 907/1/3 904/1/3 906/1/3
f 910/5/3 909/5/3 908/5/3
f 911/5/3 909/5/3 910/5/3
f 912/5/3 909/5/3 911/5/3
f 916/5/3 914/5/3 913/5/3
f 917/3/3 915/3/3 914/3/3
f 917/5/3 914/5/3 916/5/3
f 918/3/3 915/3/3 917/3/3
f 919/3/3 915/3/3 918/3/3
f 923/3/3 921/3/3 920/3/3
f 923/3/3 922/3/3 921/3/3
f 924/3/3 922/3/3 923/3/3
f 925/3/3 922/3/3 924/3/3
f 929/3/3 927/3/3 926/3/3
f 929/3/3 928/3/3 927/3/3
f 930/3/3 928/3/3 929/3/3
f 933/3/3 932/3/3 931/3/3
f 934/3/3 932/3/3 933/3/3
f 935/3/3 932/3/3 934/3/3
f 941/2/3 937/2/3 936/2/3
f 943/3/3 939/3/3 938/3/3
f 943/3/3 940/3/3 939/3/3
f 944/3/3 940/3/3 943/3/3
f 945/3/3 940/3/3 944/3/3
f 946/2/3 942/2/3 941/2/3
f 946/2/3 941/2/3 936/2/3
f 947/2/3 942/2/3 946/2/3
f 948/2/3 942/2/3 947/2/3
f 954/2/3 948/2/3 947/2/3
f 954/2/3 949/2/3 948/2/3
f 955/3/3 952/3/3 951/3/3
f 955/3/3 951/3/3 950/3/3
f 956/3/3 952/3/3 955/3/3
f 957/2/3 954/2/3 953/2/3
f 958/2/3 949/2/3 954/2/3
f 958/2/3 954/2/3 957/2/3
f 959/2/3 949/2/3 958/2/3
f 962/2/3 960/2/3 959/2/3
f 962/2/3 959/2/3 958/2/3
f 963/2/3 960/2/3 962/2/3
f 964/2/3 960/2/3 963/2/3
f 967/2/3 963/2/3 962/2/3
f 967/2/3 962/2/3 961/2/3
f 968/2/3 963/2/3 967/2/3
f 969/5/3 966/5/3 965/5/3
f 970/5/3 966/5/3 969/5/3
f 971/5/3 966/5/3 970/5/3
f 972/2/3 967/2/3 961/2/3
f 973/2/3 967/2/3 972/2/3
f 977/5/3 975/5/3 974/5/3
f 977/5/3 976/5/3 975/5/3
f 978/5/3 976/5/3 977/5/3
f 979/5/3 976/5/3 978/5/3
f 985/1/3 981/1/3 980/1/3
f 988/5/3 984/5/3 983/5/3
f 988/5/3 983/5/3 982/5/3
f 989/5/3 984/5/3 988/5/3
f 990/1/3 986/1/3 985/1/3
f 990/1/3 985/1/3 980/1/3
f 991/1/3 986/1/3 990/1/3
f 992/1/3 986/1/3 991/1/3
f 994/1/3 989/1/3 988/1/3
f 994/1/3 988/1/3 987/1/3
f 995/1/3 989/1/3 994/1/3
f 996/1/3 989/1/3 995/1/3
f 998/1/3 993/1/3 992/1/3
f 998/1/3 992/1/3 991/1/3
f 999/1/3 993/1/3 998/1/3
f 1000/1/3 993/1/3 999/1/3
f 1004/1/3 998/1/3 997/1/3
f 1004/1/3 999/1/3 998/1/3
f 1005/1/3 999/1/3 1004/1/3
f 1006/1/3 999/1/3 1005/1/3
f 1008/1/3 1003/1/3 1002/1/3
f 1008/1/3 1002/1/3 1001/1/3
f 1009/1/3 1003/1/3 1008/1/3
f 1011/1/3 1007/1/3 1006/1/3
f 1011/1/3 1006/1/3 1005/1/3
f 1012/1/3 1007/1/3 1011/1/3
f 1013/1/3 1007/1/3 1012/1/3
f 1014/1/3 1011/1/3 1010/1/3
f 1014/1/3 1012/1/3 1011/1/3
f 1015/1/3 1012/1/3 1014/1/3
f 1016/1/3 1014/1/3 1010/1/3
f 1017/1/3 1014/1/3 1016/1/3
f 1020/4/3 1019/4/3 1018/4/3
f 1022/4/3 1020/4/3 1018/4/3
f 1022/4/3 1021/4/3 1020/4/3
f 1023/4/3 1021/4/3 1022/4/3
f 1024/4/3 1021/4/3 1023/4/3
f 1027/4/3 1025/4/3 1024/4/3
f 1027/4/3 1024/4/3 1023/4/3
f 1028/4/3 1025/4/3 1027/4/3
f 1029/4/3 1025/4/3 1028/4/3
f 1030/4/3 1027/4/3 1026/4/3
f 1030/4/3 1028/4/3 1027/4/3
f 1031/4/3 1028/4/3 1030/4/3
f 1032/4/3 1028/4/3 1031/4/3
f 1033/4/3 1028/4/3 1032/4/3
f 1035/5/3 1032/5/3 1031/5/3
f 1036/4/3 1034/4/3 1033/4/3
f 1036/5/3 1032/5/3 1035/5/3
f 1036/4/3 1033/4/3 1032/4/3
f 1037/4/3 1034/4/3 1036/4/3
f 1038/4/3 1034/4/3 1037/4/3
f 1040/4/3 1037/4/3 1036/4/3
f 1041/4/3 1037/4/3 1040/4/3
f 1043/4/3 1040/4/3 1039/4/3
f 1044/5/3 1042/5/3 1041/5/3
f 1044/4/3 1040/4/3 1043/4/3
f 1044/5/3 1041/5/3 1040/5/3
f 1045/5/3 1042/5/3 1044/5/3
f 1049/5/3 1047/5/3 1046/5/3
f 1050/4/3 1048/4/3 1047/4/3
f 1050/5/3 1047/5/3 1049/5/3
f 1051/4/3 1048/4/3 1050/4/3
f 1052/4/3 1048/4/3 1051/4/3
f 1054/4/3 1052/4/3 1051/4/3
f 1054/4/3 1053/4/3 1052/4/3
f 1055/4/3 1053/4/3 1054/4/3
f 1059/4/3 1054/4/3 1051/4/3
f 1060/4/3 1059/4/3 1058/4/3
f 1061/4/3 1054/4/3 1059/4/3
f 1061/4/3 1059/4/3 1060/4/3
f 1062/3/3 1057/3/3 1056/3/3
f 1063/3/3 1057/3/3 1062/3/3
f 1067/3/3 1065/3/3 1064/3/3
f 1067/3/3 1064/3/3 1063/3/3
f 1068/3/3 1065/3/3 1067/3/3
f 1069/3/3 1065/3/3 1068/3/3
f 1070/3/3 1067/3/3 1066/3/3
f 1070/3/3 1068/3/3 1067/3/3
f 1071/3/3 1068/3/3 1070/3/3
f 1072/3/3 1068/3/3 1071/3/3
f 1077/3/3 1073/3/3 1072/3/3
f 1077/3/3 1072/3/3 1071/3/3
f 1078/3/3 1073/3/3 1077/3/3
f 1079/3/3 1073/3/3 1078/3/3
f 1080/1/3 1075/1/3 1074/1/3
f 1081/1/3 1075/1/3 1080/1/3
f 1082/1/3 1075/1/3 1081/1/3
f 1083/3/3 1077/3/3 1076/3/3
f 1083/3/3 1078/3/3 1077/3/3
f 1084/3/3 1078/3/3 1083/3/3
f 1088/3/3 1083/3/3 1076/3/3
f 1089/3/3 1083/3/3 1088/3/3
f 1090/1/3 1086/1/3 1085/1/3
f 1090/1/3 1087/1/3 1086/1/3
f 1091/1/3 1087/1/3 1090/1/3
f 1092/1/3 1087/1/3 1091/1/3
f 1096/1/3 1094/1/3 1093/1/3
f 1096/1/3 1095/1/3 1094/1/3
f 1097/1/3 1095/1/3 1096/1/3
f 1100/2/3 1099/2/3 1098/2/3
f 1101/2/3 1099/2/3 1100/2/3
f 1102/2/3 1099/2/3 1101/2/3
f 1106/2/3 1104/2/3 1103/2/3
f 1106/2/3 1105/2/3 1104/2/3
f 1107/2/3 1105/2/3 1106/2/3
f 1108/2/3 1105/2/3 1107/2/3
f 1112/2/3 1110/2/3 1109/2/3
f 1112/2/3 1111/2/3 1110/2/3
f 1113/2/3 1111/2/3 1112/2/3
f 1116/1/3 1115/1/3 1114/1/3
f 1117/1/3 1115/1/3 1116/1/3
f 1118/1/3 1115/1/3 1117/1/3
f 1122/1/3 1120/1/3 1119/1/3
f 1122/1/3 1121/1/3 1120/1/3
f 1123/1/3 1121/1/3 1122/1/3
f 1124/1/3 1121/1/3 1123/1/3
f 1128/1/3 1126/1/3 1125/1/3
f 1128/1/3 1127/1/3 1126/1/3
f 1129/1/3 1127/1/3 1128/1/3
f 1132/4/3 1131/4/3 1130/4/3
f 1133/4/3 1131/4/3 1132/4/3
f 1134/4/3 1131/4/3 1133/4/3
f 1138/4/3 1136/4/3 1135/4/3
f 1138/4/3 1137/4/3 1136/4/3
f 1139/4/3 1137/4/3 1138/4/3
f 1140/4/3 1137/4/3 1139/4/3
f 1144/4/3 1142/4/3 1141/4/3
f 1144/4/3 1143/4/3 1142/4/3
f 1145/4/3 1143/4/3 1144/4/3
f 1149/3/3 1147/3/3 1146/3/3
f 1149/3/3 1148/3/3 1147/3/3
f 1150/3/3 1148/3/3 1149/3/3
f 1151/3/3 1148/3/3 1150/3/3
f 1155/3/3 1153/3/3 1152/3/3
f 1155/3/3 1154/3/3 1153/3/3
f 1156/3/3 1154/3/3 1155/3/3
f 1157/3/3 1154/3/3 1156/3/3
f 1161/3/3 1159/3/3 1158/3/3
f 1161/3/3 1160/3/3 1159/3/3
f 1162/3/3 1160/3/3 1161/3/3
f 1163/5/4 1164/5/4 1165/5/4
f 1163/5/4 1165/5/4 1167/5/4
f 1165/5/4 1166/5/4 1167/5/4
f 1167/5/4 1166/5/4 1168/5/4
f 1168/5/4 1166/5/4 1169/5/4
f 1169/5/4 1170/5/4 1172/5/4
f 1168/5/4 1169/5/4 1172/5/4
f 1171/5/4 1172/5/4 1173/5/4
f 1172/5/4 1170/5/4 1174/5/4
f 1173/5/4 1172/5/4 1174/5/4
f 1174/5/4 1170/5/4 1178/5/4
f 1178/5/4 1170/5/4 1179/5/4
f 1179/5/4 1170/5/4 1180/5/4
f 1175/3/4 1176/3/4 1181/3/4
f 1181/3/4 1176/3/4 1182/3/4
f 1177/5/4 1178/5/4 1183/5/4
f 1178/5/4 1179/5/4 1183/5/4
f 1179/3/4 1180/3/4 1184/3/4
f 1183/5/4 1179/5/4 1184/5/4
f 1184/3/4 1180/3/4 1185/3/4
f 1182/3/4 1176/3/4 1187/3/4
f 1177/5/4 1183/5/4 1188/5/4
f 1188/5/4 1183/5/4 1189/5/4
f 1186/3/4 1187/3/4 1191/3/4
f 1187/3/4 1176/3/4 1192/3/4
f 1191/3/4 1187/3/4 1192/3/4
f 1192/3/4 1176/3/4 1193/3/4
f 1190/3/4 1191/3/4 1194/3/4
f 1191/3/4 1192/3/4 1194/3/4
f 1194/3/4 1192/3/4 1195/3/4
f 1190/3/4 1194/3/4 1197/3/4
f 1197/3/4 1194/3/4 1198/3/4
f 1195/3/4 1196/3/4 1199/3/4
f 1195/3/4 1199/3/4 1201/3/4
f 1199/3/4 1200/3/4 1201/3/4
f 1201/3/4 1200/3/4 1202/3/4
f 1202/3/4 1200/3/4 1203/3/4
f 1203/3/4 1204/3/4 1206/3/4
f 1202/3/4 1203/3/4 1206/3/4
f 1205/3/4 1206/3/4 1207/3/4
f 1206/3/4 1204/3/4 1208/3/4
f 1207/3/4 1206/3/4 1208/3/4
f 1208/3/4 1204/3/4 1209/3/4
f 1209/3/4 1204/3/4 1210/3/4
f 1210/3/4 1204/3/4 1211/3/4
f 1209/3/4 1210/3/4 1213/3/4
f 1213/3/4 1210/3/4 1214/3/4
f 1212/3/4 1213/3/4 1215/3/4
f 1215/3/4 1213/3/4 1216/3/4
f 1217/5/4 1218/5/4 1219/5/4
f 1217/5/4 1219/5/4 1221/5/4
f 1219/5/4 1220/5/4 1221/5/4
f 1221/5/4 1220/5/4 1222/5/4
f 1222/5/4 1220/5/4 1223/5/4
f 1223/5/4 1224/5/4 1227/5/4
f 1222/5/4 1223/5/4 1227/5/4
f 1225/1/4 1226/1/4 1228/1/4
f 1226/5/4 1227/5/4 1228/5/4
f 1227/5/4 1224/5/4 1229/5/4
f 1228/5/4 1227/5/4 1229/5/4
f 1229/5/4 1224/5/4 1230/5/4
f 1230/5/4 1224/5/4 1231/5/4
f 1225/1/4 1228/1/4 1232/1/4
f 1228/1/4 1229/1/4 1232/1/4
f 1232/1/4 1229/1/4 1233/1/4
f 1229/5/4 1230/5/4 1234/5/4
f 1233/1/4 1229/1/4 1234/1/4
f 1234/5/4 1230/5/4 1235/5/4
f 1233/1/4 1234/1/4 1237/1/4
f 1234/1/4 1235/1/4 1237/1/4
f 1236/1/4 1237/1/4 1238/1/4
f 1237/1/4 1235/1/4 1239/1/4
f 1238/1/4 1237/1/4 1239/1/4
f 1239/1/4 1235/1/4 1241/1/4
f 1241/1/4 1235/1/4 1242/1/4
f 1242/1/4 1235/1/4 1243/1/4
f 1240/1/4 1241/1/4 1244/1/4
f 1241/1/4 1242/1/4 1244/1/4
f 1244/1/4 1242/1/4 1245/1/4
f 1240/1/4 1244/1/4 1246/1/4
f 1246/1/4 1244/1/4 1247/1/4
f 1248/5/4 1249/5/4 1250/5/4
f 1248/5/4 1250/5/4 1252/5/4
f 1250/5/4 1251/5/4 1252/5/4
f 1252/5/4 1251/5/4 1253/5/4
f 1253/5/4 1251/5/4 1254/5/4
f 1254/5/4 1255/5/4 1257/5/4
f 1253/5/4 1254/5/4 1257/5/4
f 1256/5/4 1257/5/4 1258/5/4
f 1257/5/4 1255/5/4 1259/5/4
f 1258/5/4 1257/5/4 1259/5/4
f 1259/5/4 1255/5/4 1260/5/4
f 1260/5/4 1255/5/4 1261/5/4
f 1259/4/4 1260/4/4 1263/4/4
f 1260/5/4 1261/5/4 1264/5/4
f 1263/4/4 1260/4/4 1264/4/4
f 1264/5/4 1261/5/4 1265/5/4
f 1263/4/4 1264/4/4 1266/4/4
f 1264/4/4 1265/4/4 1266/4/4
f 1262/5/4 1263/5/4 1268/5/4
f 1263/4/4 1266/4/4 1269/4/4
f 1268/5/4 1263/5/4 1269/5/4
f 1266/4/4 1267/4/4 1269/4/4
f 1268/4/4 1269/4/4 1270/4/4
f 1269/4/4 1267/4/4 1271/4/4
f 1270/4/4 1269/4/4 1271/4/4
f 1271/4/4 1267/4/4 1272/4/4
f 1272/4/4 1267/4/4 1273/4/4
f 1273/4/4 1267/4/4 1274/4/4
f 1272/4/4 1273/4/4 1275/4/4
f 1275/4/4 1273/4/4 1276/4/4
f 1276/4/4 1273/4/4 1277/4/4
f 1278/1/4 1279/1/4 1280/1/4
f 1278/1/4 1280/1/4 1282/1/4
f 1280/1/4 1281/1/4 1282/1/4
f 1282/1/4 1281/1/4 1283/1/4
f 1283/1/4 1281/1/4 1284/1/4
f 1283/1/4 1284/1/4 1287/1/4
f 1284/1/4 1285/1/4 1287/1/4
f 1286/1/4 1287/1/4 1288/1/4
f 1287/1/4 1285/1/4 1289/1/4
f 1288/1/4 1287/1/4 1289/1/4
f 1289/1/4 1285/1/4 1291/1/4
f 1291/1/4 1285/1/4 1292/1/4
f 1292/1/4 1285/1/4 1293/1/4
f 1290/1/4 1291/1/4 1294/1/4
f 1291/1/4 1292/1/4 1294/1/4
f 1294/1/4 1292/1/4 1295/1/4
f 1290/1/4 1294/1/4 1296/1/4
f 1296/1/4 1294/1/4 1297/1/4
f 1298/5/4 1299/5/4 1300/5/4
f 1300/5/4 1299/5/4 1301/5/4
f 1298/5/4 1300/5/4 1302/5/4
f 1298/5/4 1302/5/4 1305/5/4
f 1302/5/4 1303/5/4 1305/5/4
f 1303/3/4 1304/3/4 1306/3/4
f 1305/5/4 1303/5/4 1306/5/4
f 1306/3/4 1304/3/4 1307/3/4
f 1307/3/4 1304/3/4 1308/3/4
f 1298/5/4 1305/5/4 1309/5/4
f 1306/3/4 1307/3/4 1311/3/4
f 1309/5/4 1310/5/4 1313/5/4
f 1298/5/4 1309/5/4 1313/5/4
f 1313/5/4 1310/5/4 1314/5/4
f 1306/3/4 1311/3/4 1315/3/4
f 1311/3/4 1312/3/4 1315/3/4
f 1315/3/4 1312/3/4 1316/3/4
f 1306/3/4 1315/3/4 1317/3/4
f 1306/3/4 1317/3/4 1319/3/4
f 1317/3/4 1318/3/4 1319/3/4
f 1319/3/4 1318/3/4 1320/3/4
f 1321/3/4 1322/3/4 1323/3/4
f 1323/3/4 1322/3/4 1324/3/4
f 1321/3/4 1323/3/4 1327/3/4
f 1325/2/4 1326/2/4 1329/2/4
f 1327/3/4 1328/3/4 1331/3/4
f 1321/3/4 1327/3/4 1331/3/4
f 1331/3/4 1328/3/4 1332/3/4
f 1329/2/4 1330/2/4 1333/2/4
f 1325/2/4 1329/2/4 1333/2/4
f 1333/2/4 1330/2/4 1334/2/4
f 1334/2/4 1330/2/4 1335/2/4
f 1321/3/4 1331/3/4 1337/3/4
f 1335/2/4 1336/2/4 1340/2/4
f 1334/2/4 1335/2/4 1340/2/4
f 1321/3/4 1337/3/4 1341/3/4
f 1337/3/4 1338/3/4 1341/3/4
f 1341/3/4 1338/3/4 1342/3/4
f 1339/2/4 1340/2/4 1343/2/4
f 1340/2/4 1336/2/4 1344/2/4
f 1343/2/4 1340/2/4 1344/2/4
f 1344/2/4 1336/2/4 1346/2/4
f 1346/2/4 1336/2/4 1347/2/4
f 1347/2/4 1336/2/4 1348/2/4
f 1346/2/4 1347/2/4 1351/2/4
f 1345/2/4 1346/2/4 1351/2/4
f 1351/2/4 1347/2/4 1352/2/4
f 1349/5/4 1350/5/4 1353/5/4
f 1353/5/4 1350/5/4 1354/5/4
f 1345/2/4 1351/2/4 1355/2/4
f 1355/2/4 1351/2/4 1356/2/4
f 1349/5/4 1353/5/4 1357/5/4
f 1349/5/4 1357/5/4 1360/5/4
f 1357/5/4 1358/5/4 1360/5/4
f 1360/5/4 1358/5/4 1361/5/4
f 1361/5/4 1358/5/4 1362/5/4
f 1359/1/4 1360/1/4 1365/1/4
f 1360/1/4 1361/1/4 1365/1/4
f 1365/1/4 1361/1/4 1366/1/4
f 1363/1/4 1364/1/4 1368/1/4
f 1366/5/4 1367/5/4 1370/5/4
f 1359/1/4 1365/1/4 1370/1/4
f 1365/5/4 1366/5/4 1370/5/4
f 1370/5/4 1367/5/4 1371/5/4
f 1368/1/4 1369/1/4 1372/1/4
f 1363/1/4 1368/1/4 1372/1/4
f 1372/1/4 1369/1/4 1373/1/4
f 1373/1/4 1369/1/4 1374/1/4
f 1370/1/4 1371/1/4 1376/1/4
f 1359/1/4 1370/1/4 1376/1/4
f 1376/1/4 1371/1/4 1377/1/4
f 1374/1/4 1375/1/4 1379/1/4
f 1373/1/4 1374/1/4 1379/1/4
f 1359/1/4 1376/1/4 1380/1/4
f 1378/1/4 1379/1/4 1382/1/4
f 1379/1/4 1375/1/4 1383/1/4
f 1382/1/4 1379/1/4 1383/1/4
f 1380/1/4 1381/1/4 1384/1/4
f 1359/1/4 1380/1/4 1384/1/4
f 1384/1/4 1381/1/4 1385/1/4
f 1383/1/4 1375/1/4 1387/1/4
f 1387/1/4 1375/1/4 1388/1/4
f 1388/1/4 1375/1/4 1389/1/4
f 1386/1/4 1387/1/4 1390/1/4
f 1387/1/4 1388/1/4 1390/1/4
f 1390/1/4 1388/1/4 1391/1/4
f 1386/1/4 1390/1/4 1392/1/4
f 1392/1/4 1390/1/4 1393/1/4
f 1394/4/4 1395/4/4 1396/4/4
f 1394/4/4 1396/4/4 1398/4/4
f 1396/4/4 1397/4/4 1398/4/4
f 1398/4/4 1397/4/4 1399/4/4
f 1399/4/4 1397/4/4 1400/4/4
f 1400/4/4 1401/4/4 1403/4/4
f 1399/4/4 1400/4/4 1403/4/4
f 1402/4/4 1403/4/4 1404/4/4
f 1404/4/4 1403/4/4 1405/4/4
f 1403/4/4 1401/4/4 1406/4/4
f 1405/4/4 1403/4/4 1406/4/4
f 1405/5/4 1406/5/4 1407/5/4
f 1406/4/4 1401/4/4 1408/4/4
f 1407/5/4 1406/5/4 1408/5/4
f 1408/4/4 1401/4/4 1409/4/4
f 1409/4/4 1401/4/4 1410/4/4
f 1407/4/4 1408/4/4 1411/4/4
f 1408/4/4 1409/4/4 1411/4/4
f 1411/4/4 1409/4/4 1412/4/4
f 1407/4/4 1411/4/4 1414/4/4
f 1412/5/4 1413/5/4 1415/5/4
f 1414/4/4 1411/4/4 1415/4/4
f 1411/5/4 1412/5/4 1415/5/4
f 1415/5/4 1413/5/4 1416/5/4
f 1414/5/4 1415/5/4 1417/5/4
f 1414/5/4 1417/5/4 1419/5/4
f 1417/4/4 1418/4/4 1420/4/4
f 1419/5/4 1417/5/4 1420/5/4
f 1420/4/4 1418/4/4 1421/4/4
f 1420/4/4 1421/4/4 1423/4/4
f 1421/4/4 1422/4/4 1423/4/4
f 1423/4/4 1422/4/4 1424/4/4
f 1425/3/4 1426/3/4 1427/3/4
f 1420/4/4 1423/4/4 1429/4/4
f 1429/4/4 1423/4/4 1430/4/4
f 1430/4/4 1423/4/4 1431/4/4
f 1427/3/4 1428/3/4 1432/3/4
f 1425/3/4 1427/3/4 1432/3/4
f 1432/3/4 1428/3/4 1433/3/4
f 1433/3/4 1428/3/4 1434/3/4
f 1434/3/4 1435/3/4 1437/3/4
f 1433/3/4 1434/3/4 1437/3/4
f 1436/3/4 1437/3/4 1438/3/4
f 1437/3/4 1435/3/4 1439/3/4
f 1438/3/4 1437/3/4 1439/3/4
f 1439/3/4 1435/3/4 1443/3/4
f 1443/3/4 1435/3/4 1444/3/4
f 1444/3/4 1435/3/4 1445/3/4
f 1440/1/4 1441/1/4 1446/1/4
f 1446/1/4 1441/1/4 1447/1/4
f 1442/3/4 1443/3/4 1448/3/4
f 1443/3/4 1444/3/4 1448/3/4
f 1448/3/4 1444/3/4 1449/3/4
f 1440/1/4 1446/1/4 1450/1/4
f 1442/3/4 1448/3/4 1452/3/4
f 1452/3/4 1448/3/4 1453/3/4
f 1440/1/4 1450/1/4 1454/1/4
f 1450/1/4 1451/1/4 1454/1/4
f 1454/1/4 1451/1/4 1455/1/4
f 1440/1/4 1454/1/4 1456/1/4
f 1440/1/4 1456/1/4 1458/1/4
f 1456/1/4 1457/1/4 1458/1/4
f 1458/1/4 1457/1/4 1459/1/4
f 1460/2/4 1461/2/4 1462/2/4
f 1462/2/4 1461/2/4 1463/2/4
f 1460/2/4 1462/2/4 1464/2/4
f 1460/2/4 1464/2/4 1466/2/4
f 1464/2/4 1465/2/4 1466/2/4
f 1466/2/4 1465/2/4 1467/2/4
f 1460/2/4 1466/2/4 1468/2/4
f 1460/2/4 1468/2/4 1470/2/4
f 1468/2/4 1469/2/4 1470/2/4
f 1470/2/4 1469/2/4 1471/2/4
f 1472/1/4 1473/1/4 1474/1/4
f 1474/1/4 1473/1/4 1475/1/4
f 1472/1/4 1474/1/4 1476/1/4
f 1472/1/4 1476/1/4 1478/1/4
f 1476/1/4 1477/1/4 1478/1/4
f 1478/1/4 1477/1/4 1479/1/4
f 1472/1/4 1478/1/4 1480/1/4
f 1472/1/4 1480/1/4 1482/1/4
f 1480/1/4 1481/1/4 1482/1/4
f 1482/1/4 1481/1/4 1483/1/4
f 1484/4/4 1485/4/4 1486/4/4
f 1486/4/4 1485/4/4 1487/4/4
f 1484/4/4 1486/4/4 1488/4/4
f 1484/4/4 1488/4/4 1490/4/4
f 1488/4/4 1489/4/4 1490/4/4
f 1490/4/4 1489/4/4 1491/4/4
f 1484/4/4 1490/4/4 1492/4/4
f 1484/4/4 1492/4/4 1494/4/4
f 1492/4/4 1493/4/4 1494/4/4
f 1494/4/4 1493/4/4 1495/4/4
f 1496/3/4 1497/3/4 1498/3/4
f 1498/3/4 1497/3/4 1499/3/4
f 1496/3/4 1498/3/4 1500/3/4
f 1496/3/4 1500/3/4 1502/3/4
f 1500/3/4 1501/3/4 1502/3/4
f 1502/3/4 1501/3/4 1503/3/4
f 1496/3/4 1502/3/4 1504/3/4
f 1496/3/4 1504/3/4 1506/3/4
f 1504/3/4 1505/3/4 1506/3/4
f 1506/3/4 1505/3/4 1507/3/4
f 1512/5/5 1509/5/5 1508/5/5
f 1513/5/5 1509/5/5 1512/5/5
f 1516/5/5 1511/5/5 1510/5/5
f 1517/5/5 1511/5/5 1516/5/5
f 1520/1/5 1515/1/5 1514/1/5
f 1521/1/5 1515/1/5 1520/1/5
f 1522/3/5 1519/3/5 1518/3/5
f 1523/3/5 1519/3/5 1522/3/5
f 1533/5/5 1525/5/5 1524/5/5
f 1534/5/5 1525/5/5 1533/5/5
f 1535/5/5 1527/5/5 1526/5/5
f 1536/5/5 1527/5/5 1535/5/5
f 1541/5/5 1529/5/5 1528/5/5
f 1542/5/5 1529/5/5 1541/5/5
f 1543/5/5 1531/5/5 1530/5/5
f 1544/4/5 1532/4/5 1531/4/5
f 1544/5/5 1531/5/5 1543/5/5
f 1545/4/5 1532/4/5 1544/4/5
f 1550/1/5 1538/1/5 1537/1/5
f 1551/1/5 1538/1/5 1550/1/5
f 1552/1/5 1540/1/5 1539/1/5
f 1553/1/5 1540/1/5 1552/1/5
f 1554/3/5 1547/3/5 1546/3/5
f 1555/3/5 1547/3/5 1554/3/5
f 1556/3/5 1549/3/5 1548/3/5
f 1557/3/5 1549/3/5 1556/3/5
f 1568/5/5 1559/5/5 1558/5/5
f 1569/5/5 1559/5/5 1568/5/5
f 1570/5/5 1561/5/5 1560/5/5
f 1571/5/5 1561/5/5 1570/5/5
f 1578/5/5 1563/5/5 1562/5/5
f 1579/5/5 1563/5/5 1578/5/5
f 1580/4/5 1565/4/5 1564/4/5
f 1581/4/5 1565/4/5 1580/4/5
f 1582/4/5 1567/4/5 1566/4/5
f 1583/4/5 1567/4/5 1582/4/5
f 1584/4/5 1567/4/5 1583/4/5
f 1588/2/5 1573/2/5 1572/2/5
f 1589/2/5 1573/2/5 1588/2/5
f 1590/1/5 1575/1/5 1574/1/5
f 1591/1/5 1575/1/5 1590/1/5
f 1592/1/5 1577/1/5 1576/1/5
f 1593/1/5 1577/1/5 1592/1/5
f 1594/3/5 1585/3/5 1584/3/5
f 1595/3/5 1585/3/5 1594/3/5
f 1596/3/5 1587/3/5 1586/3/5
f 1597/3/5 1587/3/5 1596/3/5
f 1604/2/5 1599/2/5 1598/2/5
f 1605/2/5 1599/2/5 1604/2/5
f 1606/2/5 1601/2/5 1600/2/5
f 1607/2/5 1601/2/5 1606/2/5
f 1608/4/5 1603/4/5 1602/4/5
f 1609/4/5 1603/4/5 1608/4/5
f 1616/3/5 1611/3/5 1610/3/5
f 1617/3/5 1611/3/5 1616/3/5
f 1629/5/5 1615/5/5 1614/5/5
f 1629/5/5 1613/5/5 1612/5/5
f 1629/5/5 1614/5/5 1613/5/5
f 1630/5/5 1615/5/5 1629/5/5
f 1631/2/5 1619/2/5 1618/2/5
f 1632/2/5 1619/2/5 1631/2/5
f 1633/2/5 1621/2/5 1620/2/5
f 1634/2/5 1621/2/5 1633/2/5
f 1639/4/5 1623/4/5 1622/4/5
f 1640/4/5 1623/4/5 1639/4/5
f 1641/5/5 1625/5/5 1624/5/5
f 1642/4/5 1626/4/5 1625/4/5
f 1642/5/5 1625/5/5 1641/5/5
f 1643/5/5 1628/5/5 1627/5/5
f 1643/4/5 1626/4/5 1642/4/5
f 1643/5/5 1627/5/5 1626/5/5
f 1644/5/5 1628/5/5 1643/5/5
f 1649/1/5 1637/1/5 1636/1/5
f 1649/1/5 1636/1/5 1635/1/5
f 1649/1/5 1638/1/5 1637/1/5
f 1650/1/5 1638/1/5 1649/1/5
f 1651/3/5 1648/3/5 1647/3/5
f 1651/3/5 1647/3/5 1646/3/5
f 1651/3/5 1646/3/5 1645/3/5
f 1652/3/5 1648/3/5 1651/3/5
f 1659/3/5 1654/3/5 1653/3/5
f 1660/3/5 1654/3/5 1659/3/5
f 1661/3/5 1656/3/5 1655/3/5
f 1662/3/5 1656/3/5 1661/3/5
f 1668/1/5 1658/1/5 1657/1/5
f 1669/1/5 1658/1/5 1668/1/5
f 1670/4/5 1664/4/5 1663/4/5
f 1671/4/5 1664/4/5 1670/4/5
f 1672/4/5 1667/4/5 1666/4/5
f 1672/4/5 1666/4/5 1665/4/5
f 1673/4/5 1667/4/5 1672/4/5
f 1684/3/5 1675/3/5 1674/3/5
f 1685/3/5 1675/3/5 1684/3/5
f 1686/3/5 1677/3/5 1676/3/5
f 1687/3/5 1677/3/5 1686/3/5
f 1688/1/5 1679/1/5 1678/1/5
f 1689/1/5 1679/1/5 1688/1/5
f 1690/1/5 1681/1/5 1680/1/5
f 1691/1/5 1681/1/5 1690/1/5
f 1692/1/5 1683/1/5 1682/1/5
f 1693/1/5 1683/1/5 1692/1/5
f 1698/2/5 1695/2/5 1694/2/5
f 1698/2/5 1697/2/5 1696/2/5
f 1698/2/5 1696/2/5 1695/2/5
f 1699/2/5 1697/2/5 1698/2/5
f 1715/3/5 1701/3/5 1700/3/5
f 1716/3/5 1701/3/5 1715/3/5
f 1717/3/5 1703/3/5 1702/3/5
f 1718/3/5 1703/3/5 1717/3/5
f 1719/1/5 1705/1/5 1704/1/5
f 1720/1/5 1705/1/5 1719/1/5
f 1721/1/5 1707/1/5 1706/1/5
f 1722/1/5 1707/1/5 1721/1/5
f 1723/1/5 1709/1/5 1708/1/5
f 1724/1/5 1709/1/5 1723/1/5
f 1725/1/5 1711/1/5 1710/1/5
f 1726/1/5 1711/1/5 1725/1/5
f 1727/3/5 1714/3/5 1713/3/5
f 1727/3/5 1713/3/5 1712/3/5
f 1728/3/5 1714/3/5 1727/3/5
f 1733/4/5 1732/4/5 1731/4/5
f 1733/4/5 1731/4/5 1730/4/5
f 1733/4/5 1730/4/5 1729/4/5
f 1734/4/5 1732/4/5 1733/4/5
f 1741/5/5 1736/5/5 1735/5/5
f 1742/5/5 1736/5/5 1741/5/5
f 1743/1/5 1738/1/5 1737/1/5
f 1744/1/5 1738/1/5 1743/1/5
f 1745/1/5 1740/1/5 1739/1/5
f 1746/1/5 1740/1/5 1745/1/5
f 1753/5/5 1748/5/5 1747/5/5
f 1754/5/5 1748/5/5 1753/5/5
f 1759/3/5 1752/3/5 1751/3/5
f 1759/3/5 1750/3/5 1749/3/5
f 1759/3/5 1751/3/5 1750/3/5
f 1760/3/5 1752/3/5 1759/3/5
f 1761/1/5 1758/1/5 1757/1/5
f 1761/1/5 1757/1/5 1756/1/5
f 1761/1/5 1756/1/5 1755/1/5
f 1762/1/5 1758/1/5 1761/1/5
f 1767/1/5 1764/1/5 1763/1/5
f 1767/1/5 1766/1/5 1765/1/5
f 1767/1/5 1765/1/5 1764/1/5
f 1768/1/5 1766/1/5 1767/1/5
f 1772/5/5 1770/5/5 1769/5/5
f 1772/5/5 1771/5/5 1770/5/5
f 1773/5/5 1771/5/5 1772/5/5
f 1774/5/6 1775/5/6 1780/5/6
f 1780/5/6 1775/5/6 1781/5/6
f 1776/5/6 1777/5/6 1782/5/6
f 1782/5/6 1777/5/6 1783/5/6
f 1778/5/6 1779/5/6 1788/5/6
f 1788/5/6 1779/5/6 1789/5/6
f 1784/1/6 1785/1/6 1794/1/6
f 1794/1/6 1785/1/6 1795/1/6
f 1786/1/6 1787/1/6 1796/1/6
f 1796/1/6 1787/1/6 1797/1/6
f 1790/3/6 1791/3/6 1798/3/6
f 1798/3/6 1791/3/6 1799/3/6
f 1792/3/6 1793/3/6 1800/3/6
f 1800/3/6 1793/3/6 1801/3/6
f 1802/5/6 1803/5/6 1808/5/6
f 1808/5/6 1803/5/6 1809/5/6
f 1804/5/6 1805/5/6 1814/5/6
f 1814/5/6 1805/5/6 1815/5/6
f 1806/4/6 1807/4/6 1816/4/6
f 1816/4/6 1807/4/6 1817/4/6
f 1810/1/6 1811/1/6 1820/1/6
f 1820/1/6 1811/1/6 1821/1/6
f 1812/1/6 1813/1/6 1822/1/6
f 1822/1/6 1813/1/6 1823/1/6
f 1816/3/6 1817/3/6 1824/3/6
f 1824/3/6 1817/3/6 1825/3/6
f 1818/3/6 1819/3/6 1826/3/6
f 1826/3/6 1819/3/6 1827/3/6
f 1828/5/6 1829/5/6 1840/5/6
f 1840/5/6 1829/5/6 1841/5/6
f 1830/4/6 1831/4/6 1842/4/6
f 1842/4/6 1831/4/6 1843/4/6
f 1832/4/6 1833/4/6 1844/4/6
f 1844/4/6 1833/4/6 1845/4/6
f 1834/2/6 1835/2/6 1848/2/6
f 1848/2/6 1835/2/6 1849/2/6
f 1836/2/6 1837/2/6 1850/2/6
f 1850/2/6 1837/2/6 1851/2/6
f 1838/1/6 1839/1/6 1852/1/6
f 1852/1/6 1839/1/6 1853/1/6
f 1846/3/6 1847/3/6 1854/3/6
f 1854/3/6 1847/3/6 1855/3/6
f 1856/3/6 1857/3/6 1864/3/6
f 1864/3/6 1857/3/6 1865/3/6
f 1858/3/6 1859/3/6 1868/3/6
f 1868/3/6 1859/3/6 1869/3/6
f 1860/5/6 1861/5/6 1880/5/6
f 1880/5/6 1861/5/6 1881/5/6
f 1862/5/6 1863/5/6 1882/5/6
f 1882/5/6 1863/5/6 1883/5/6
f 1864/5/6 1865/5/6 1888/5/6
f 1888/5/6 1865/5/6 1889/5/6
f 1866/5/6 1867/5/6 1890/5/6
f 1890/5/6 1867/5/6 1891/5/6
f 1870/2/6 1871/2/6 1892/2/6
f 1892/2/6 1871/2/6 1893/2/6
f 1872/2/6 1873/2/6 1894/2/6
f 1894/2/6 1873/2/6 1895/2/6
f 1874/1/6 1875/1/6 1896/1/6
f 1896/1/6 1875/1/6 1897/1/6
f 1876/1/6 1877/1/6 1898/1/6
f 1898/1/6 1877/1/6 1899/1/6
f 1878/4/6 1879/4/6 1900/4/6
f 1900/4/6 1879/4/6 1901/4/6
f 1882/5/6 1883/5/6 1902/5/6
f 1902/5/6 1883/5/6 1903/5/6
f 1884/3/6 1885/3/6 1904/3/6
f 1904/3/6 1885/3/6 1905/3/6
f 1886/3/6 1887/3/6 1906/3/6
f 1906/3/6 1887/3/6 1907/3/6
f 1896/1/6 1897/1/6 1908/1/6
f 1908/1/6 1897/1/6 1909/1/6
f 1898/1/6 1899/1/6 1910/1/6
f 1910/1/6 1899/1/6 1911/1/6
f 1904/3/6 1905/3/6 1912/3/6
f 1912/3/6 1905/3/6 1913/3/6
f 1906/3/6 1907/3/6 1914/3/6
f 1914/3/6 1907/3/6 1915/3/6
f 1916/3/6 1917/3/6 1924/3/6
f 1924/3/6 1917/3/6 1925/3/6
f 1918/3/6 1919/3/6 1928/3/6
f 1928/3/6 1919/3/6 1929/3/6
f 1920/4/6 1921/4/6 1936/4/6
f 1936/4/6 1921/4/6 1937/4/6
f 1922/5/6 1923/5/6 1938/5/6
f 1938/5/6 1923/5/6 1939/5/6
f 1926/5/6 1927/5/6 1940/5/6
f 1940/5/6 1927/5/6 1941/5/6
f 1930/2/6 1931/2/6 1942/2/6
f 1942/2/6 1931/2/6 1943/2/6
f 1932/4/6 1933/4/6 1948/4/6
f 1948/4/6 1933/4/6 1949/4/6
f 1934/4/6 1935/4/6 1950/4/6
f 1950/4/6 1935/4/6 1951/4/6
f 1944/1/6 1945/1/6 1956/1/6
f 1956/1/6 1945/1/6 1957/1/6
f 1946/1/6 1947/1/6 1958/1/6
f 1958/1/6 1947/1/6 1959/1/6
f 1952/3/6 1953/3/6 1960/3/6
f 1960/3/6 1953/3/6 1961/3/6
f 1954/3/6 1955/3/6 1962/3/6
f 1962/3/6 1955/3/6 1963/3/6
f 1964/3/6 1965/3/6 1974/3/6
f 1974/3/6 1965/3/6 1975/3/6
f 1966/3/6 1967/3/6 1976/3/6
f 1976/3/6 1967/3/6 1977/3/6
f 1968/3/6 1969/3/6 1979/3/6
f 1979/3/6 1969/3/6 1980/3/6
f 1970/1/6 1971/1/6 1990/1/6
f 1990/1/6 1971/1/6 1991/1/6
f 1972/1/6 1973/1/6 1992/1/6
f 1992/1/6 1973/1/6 1993/1/6
f 1978/2/6 1979/2/6 1994/2/6
f 1994/2/6 1979/2/6 1995/2/6
f 1980/2/6 1981/2/6 1996/2/6
f 1996/2/6 1981/2/6 1997/2/6
f 1982/4/6 1983/4/6 2000/4/6
f 2000/4/6 1983/4/6 2001/4/6
f 1984/5/6 1985/5/6 2002/5/6
f 2002/5/6 1985/5/6 2003/5/6
f 1986/4/6 1987/4/6 2004/4/6
f 2004/4/6 1987/4/6 2005/4/6
f 1988/4/6 1989/4/6 2006/4/6
f 2006/4/6 1989/4/6 2007/4/6
f 1994/2/6 1995/2/6 2010/2/6
f 2010/2/6 1995/2/6 2011/2/6
f 1996/2/6 1997/2/6 2012/2/6
f 2012/2/6 1997/2/6 2013/2/6
f 1998/1/6 1999/1/6 2014/1/6
f 2014/1/6 1999/1/6 2015/1/6
f 2008/3/6 2009/3/6 2016/3/6
f 2016/3/6 2009/3/6 2017/3/6
f 2018/3/6 2019/3/6 2032/3/6
f 2032/3/6 2019/3/6 2033/3/6
f 2020/3/6 2021/3/6 2034/3/6
f 2034/3/6 2021/3/6 2035/3/6
f 2022/3/6 2023/3/6 2036/3/6
f 2036/3/6 2023/3/6 2037/3/6
f 2024/3/6 2025/3/6 2038/3/6
f 2038/3/6 2025/3/6 2039/3/6
f 2026/1/6 2027/1/6 2040/1/6
f 2040/1/6 2027/1/6 2041/1/6
f 2028/1/6 2029/1/6 2048/1/6
f 2048/1/6 2029/1/6 2049/1/6
f 2030/1/6 2031/1/6 2050/1/6
f 2050/1/6 2031/1/6 2051/1/6
f 2032/3/6 2033/3/6 2052/3/6
f 2052/3/6 2033/3/6 2053/3/6
f 2034/3/6 2035/3/6 2054/3/6
f 2054/3/6 2035/3/6 2055/3/6
f 2042/4/6 2043/4/6 2060/4/6
f 2060/4/6 2043/4/6 2061/4/6
f 2044/4/6 2045/4/6 2062/4/6
f 2062/4/6 2045/4/6 2063/4/6
f 2046/4/6 2047/4/6 2064/4/6
f 2064/4/6 2047/4/6 2065/4/6
f 2056/2/6 2057/2/6 2066/2/6
f 2066/2/6 2057/2/6 2067/2/6
f 2058/2/6 2059/2/6 2068/2/6
f 2068/2/6 2059/2/6 2069/2/6
f 2060/4/6 2061/4/6 2070/4/6
f 2070/4/6 2061/4/6 2071/4/6
f 2062/4/6 2063/4/6 2072/4/6
f 2072/4/6 2063/4/6 2073/4/6
f 2074/3/6 2075/3/6 2086/3/6
f 2086/3/6 2075/3/6 2087/3/6
f 2076/5/6 2077/5/6 2088/5/6
f 2088/5/6 2077/5/6 2089/5/6
f 2078/1/6 2079/1/6 2090/1/6
f 2090/1/6 2079/1/6 2091/1/6
f 2080/1/6 2081/1/6 2092/1/6
f 2092/1/6 2081/1/6 2093/1/6
f 2082/3/6 2083/3/6 2094/3/6
f 2094/3/6 2083/3/6 2095/3/6
f 2084/3/6 2085/3/6 2096/3/6
f 2096/3/6 2085/3/6 2097/3/6
f 2098/2/6 2099/2/6 2104/2/6
f 2104/2/6 2099/2/6 2105/2/6
f 2100/4/6 2101/4/6 2106/4/6
f 2106/4/6 2101/4/6 2107/4/6
f 2102/4/6 2103/4/6 2108/4/6
f 2108/4/6 2103/4/6 2109/4/6
f 2110/3/6 2111/3/6 2124/3/6
f 2124/3/6 2111/3/6 2125/3/6
f 2112/3/6 2113/3/6 2126/3/6
f 2126/3/6 2113/3/6 2127/3/6
f 2114/5/6 2115/5/6 2128/5/6
f 2128/5/6 2115/5/6 2129/5/6
f 2116/1/6 2117/1/6 2130/1/6
f 2130/1/6 2117/1/6 2131/1/6
f 2118/1/6 2119/1/6 2132/1/6
f 2132/1/6 2119/1/6 2133/1/6
f 2120/1/6 2121/1/6 2134/1/6
f 2134/1/6 2121/1/6 2135/1/6
f 2122/3/6 2123/3/6 2136/3/6
f 2136/3/6 2123/3/6 2137/3/6
f 2124/3/6 2125/3/6 2138/3/6
f 2138/3/6 2125/3/6 2139/3/6
f 2126/3/6 2127/3/6 2140/3/6
f 2140/3/6 2127/3/6 2141/3/6
f 2132/1/6 2133/1/6 2144/1/6
f 2144/1/6 2133/1/6 2145/1/6
f 2134/1/6 2135/1/6 2146/1/6
f 2146/1/6 2135/1/6 2147/1/6
f 2142/4/6 2143/4/6 2148/4/6
f 2148/4/6 2143/4/6 2149/4/6
f 2150/5/6 2151/5/6 2160/5/6
f 2160/5/6 2151/5/6 2161/5/6
f 2152/1/6 2153/1/6 2162/1/6
f 2162/1/6 2153/1/6 2163/1/6
f 2154/1/6 2155/1/6 2164/1/6
f 2164/1/6 2155/1/6 2165/1/6
f 2156/3/6 2157/3/6 2170/3/6
f 2170/3/6 2157/3/6 2171/3/6
f 2158/3/6 2159/3/6 2172/3/6
f 2172/3/6 2159/3/6 2173/3/6
f 2164/1/6 2165/1/6 2174/1/6
f 2174/1/6 2165/1/6 2175/1/6
f 2166/1/6 2167/1/6 2176/1/6
f 2176/1/6 2167/1/6 2177/1/6
f 2168/1/6 2169/1/6 2178/1/6
f 2178/1/6 2169/1/6 2179/1/6
f 2180/5/6 2181/5/6 2186/5/6
f 2186/5/6 2181/5/6 2187/5/6
f 2182/5/6 2183/5/6 2188/5/6
f 2188/5/6 2183/5/6 2189/5/6
f 2184/3/6 2185/3/6 2194/3/6
f 2194/3/6 2185/3/6 2195/3/6
f 2186/5/6 2187/5/6 2196/5/6
f 2196/5/6 2187/5/6 2197/5/6
f 2188/1/6 2189/1/6 2198/1/6
f 2198/1/6 2189/1/6 2199/1/6
f 2190/1/6 2191/1/6 2200/1/6
f 2200/1/6 2191/1/6 2201/1/6
f 2192/1/6 2193/1/6 2202/1/6
f 2202/1/6 2193/1/6 2203/1/6
f 2204/5/6 2205/5/6 2209/5/6
f 2209/5/6 2205/5/6 2210/5/6
f 2206/5/6 2207/5/6 2211/5/6
f 2207/1/6 2208/1/6 2212/1/6
f 2211/5/6 2207/5/6 2212/5/6
f 2212/1/6 2208/1/6 2213/1/6
f 2214/5/6 2215/5/6 2216/5/6
f 2216/5/6 2215/5/6 2217/5/6
