# MagicaVoxel @ ephtracy

# material
mtllib BIG human road.mtl
usemtl palette

# normals
vn -1 0 0
vn 1 0 0
vn 0 0 1
vn 0 0 -1
vn 0 -1 0
vn 0 1 0

# texcoords
vt 0.970703 0.5
vt 0.974609 0.5
vt 0.978516 0.5
vt 0.982422 0.5
vt 0.986328 0.5
vt 0.990234 0.5
vt 0.994141 0.5

# verts
v -29.5 0 63
v -29.5 0 56
v -29.5 0 49
v -29.5 0 42
v -29.5 0 35
v -29.5 0 28
v -29.5 0 21
v -29.5 0 14
v -29.5 0 7
v -29.5 0 -0
v -29.5 0 -7
v -29.5 0 -14
v -29.5 0 -21
v -29.5 0 -28
v -29.5 0 -35
v -29.5 0 -42
v -29.5 0 -49
v -29.5 0 -56
v -29.5 0 -63
v -29.5 3 63
v -29.5 3 56
v -29.5 3 49
v -29.5 3 42
v -29.5 3 35
v -29.5 3 28
v -29.5 3 21
v -29.5 3 14
v -29.5 3 7
v -29.5 3 -0
v -29.5 3 -7
v -29.5 3 -14
v -29.5 3 -21
v -29.5 3 -28
v -29.5 3 -35
v -29.5 3 -42
v -29.5 3 -49
v -29.5 3 -56
v -29.5 3 -63
v 29.5 0 63
v 29.5 0 -63
v 29.5 3 63
v 29.5 3 -63
v -29.5 0 63
v -29.5 3 63
v -22.5 0 63
v -22.5 3 63
v -15.5 0 63
v -15.5 3 63
v -8.5 0 63
v -8.5 3 63
v -1.5 0 63
v -1.5 3 63
v 5.5 0 63
v 5.5 3 63
v 12.5 0 63
v 12.5 3 63
v 19.5 0 63
v 19.5 3 63
v 26.5 0 63
v 26.5 3 63
v 29.5 0 63
v 29.5 3 63
v -29.5 0 -63
v -29.5 3 -63
v -22.5 0 -63
v -22.5 3 -63
v -15.5 0 -63
v -15.5 3 -63
v -8.5 0 -63
v -8.5 3 -63
v -1.5 0 -63
v -1.5 3 -63
v 5.5 0 -63
v 5.5 3 -63
v 12.5 0 -63
v 12.5 3 -63
v 19.5 0 -63
v 19.5 2 -63
v 19.5 3 -63
v 26.5 0 -63
v 26.5 2 -63
v 26.5 3 -63
v 29.5 0 -63
v 29.5 3 -63
v -29.5 0 63
v -22.5 0 63
v -15.5 0 63
v -8.5 0 63
v -1.5 0 63
v 5.5 0 63
v 12.5 0 63
v 19.5 0 63
v 26.5 0 63
v 29.5 0 63
v -0.5 0 62
v 5.5 0 62
v 12.5 0 62
v 19.5 0 62
v 26.5 0 62
v -29.5 0 56
v -22.5 0 56
v -15.5 0 56
v -8.5 0 56
v -1.5 0 56
v -0.5 0 56
v -29.5 0 49
v -22.5 0 49
v -15.5 0 49
v -8.5 0 49
v -1.5 0 49
v -0.5 0 49
v -29.5 0 42
v -22.5 0 42
v -15.5 0 42
v -8.5 0 42
v -1.5 0 42
v -0.5 0 42
v -29.5 0 35
v -22.5 0 35
v -15.5 0 35
v -8.5 0 35
v -1.5 0 35
v -0.5 0 35
v -29.5 0 28
v -22.5 0 28
v -15.5 0 28
v -8.5 0 28
v -1.5 0 28
v -0.5 0 28
v -29.5 0 21
v -22.5 0 21
v -15.5 0 21
v -8.5 0 21
v -1.5 0 21
v -0.5 0 21
v -29.5 0 14
v -22.5 0 14
v -15.5 0 14
v -8.5 0 14
v -1.5 0 14
v -0.5 0 14
v -29.5 0 7
v -22.5 0 7
v -15.5 0 7
v -8.5 0 7
v -1.5 0 7
v -0.5 0 7
v -29.5 0 -0
v -22.5 0 -0
v -15.5 0 -0
v -8.5 0 -0
v -1.5 0 -0
v -0.5 0 -0
v -29.5 0 -7
v -22.5 0 -7
v -15.5 0 -7
v -8.5 0 -7
v -1.5 0 -7
v -0.5 0 -7
v -29.5 0 -14
v -22.5 0 -14
v -15.5 0 -14
v -8.5 0 -14
v -1.5 0 -14
v -0.5 0 -14
v -29.5 0 -21
v -22.5 0 -21
v -15.5 0 -21
v -8.5 0 -21
v -1.5 0 -21
v -0.5 0 -21
v -29.5 0 -28
v -22.5 0 -28
v -15.5 0 -28
v -8.5 0 -28
v -1.5 0 -28
v -0.5 0 -28
v -29.5 0 -35
v -22.5 0 -35
v -15.5 0 -35
v -8.5 0 -35
v -1.5 0 -35
v -0.5 0 -35
v -29.5 0 -42
v -22.5 0 -42
v -15.5 0 -42
v -8.5 0 -42
v -1.5 0 -42
v -0.5 0 -42
v 5.5 0 -42
v -29.5 0 -49
v -22.5 0 -49
v -15.5 0 -49
v -8.5 0 -49
v -1.5 0 -49
v 5.5 0 -49
v -29.5 0 -56
v -22.5 0 -56
v -15.5 0 -56
v -8.5 0 -56
v -1.5 0 -56
v 5.5 0 -56
v 12.5 0 -56
v 19.5 0 -56
v 19.5 0 -62
v 26.5 0 -62
v -29.5 0 -63
v -22.5 0 -63
v -15.5 0 -63
v -8.5 0 -63
v -1.5 0 -63
v 5.5 0 -63
v 12.5 0 -63
v 19.5 0 -63
v 26.5 0 -63
v 29.5 0 -63
v -29.5 3 63
v -22.5 3 63
v -15.5 3 63
v -8.5 3 63
v -1.5 3 63
v 5.5 3 63
v 12.5 3 63
v 19.5 3 63
v 26.5 3 63
v 29.5 3 63
v -29.5 3 56
v -22.5 3 56
v -15.5 3 56
v -8.5 3 56
v -1.5 3 56
v 5.5 3 56
v 12.5 3 56
v 19.5 3 56
v 26.5 3 56
v -29.5 3 49
v -22.5 3 49
v -15.5 3 49
v -8.5 3 49
v -1.5 3 49
v 5.5 3 49
v 12.5 3 49
v 19.5 3 49
v 26.5 3 49
v -29.5 3 42
v -22.5 3 42
v -15.5 3 42
v -8.5 3 42
v -1.5 3 42
v 5.5 3 42
v 12.5 3 42
v 19.5 3 42
v 26.5 3 42
v -29.5 3 35
v -22.5 3 35
v -15.5 3 35
v -8.5 3 35
v -1.5 3 35
v 5.5 3 35
v 12.5 3 35
v 19.5 3 35
v 26.5 3 35
v -29.5 3 28
v -22.5 3 28
v -15.5 3 28
v -8.5 3 28
v -1.5 3 28
v 5.5 3 28
v 12.5 3 28
v 19.5 3 28
v 26.5 3 28
v -29.5 3 21
v -22.5 3 21
v -15.5 3 21
v -8.5 3 21
v -1.5 3 21
v 5.5 3 21
v 12.5 3 21
v 19.5 3 21
v 26.5 3 21
v -29.5 3 14
v -22.5 3 14
v -15.5 3 14
v -8.5 3 14
v -1.5 3 14
v 5.5 3 14
v 12.5 3 14
v 19.5 3 14
v 26.5 3 14
v -29.5 3 7
v -22.5 3 7
v -15.5 3 7
v -8.5 3 7
v -1.5 3 7
v 5.5 3 7
v 12.5 3 7
v 19.5 3 7
v 26.5 3 7
v -29.5 3 -0
v -22.5 3 -0
v -15.5 3 -0
v -8.5 3 -0
v -1.5 3 -0
v 5.5 3 -0
v 12.5 3 -0
v 19.5 3 -0
v 26.5 3 -0
v -29.5 3 -7
v -22.5 3 -7
v -15.5 3 -7
v -8.5 3 -7
v -1.5 3 -7
v 5.5 3 -7
v 12.5 3 -7
v 19.5 3 -7
v 26.5 3 -7
v -29.5 3 -14
v -22.5 3 -14
v -15.5 3 -14
v -8.5 3 -14
v -1.5 3 -14
v 5.5 3 -14
v 12.5 3 -14
v 19.5 3 -14
v 26.5 3 -14
v -29.5 3 -21
v -22.5 3 -21
v -15.5 3 -21
v -8.5 3 -21
v -1.5 3 -21
v 5.5 3 -21
v 12.5 3 -21
v 19.5 3 -21
v 26.5 3 -21
v -29.5 3 -28
v -22.5 3 -28
v -15.5 3 -28
v -8.5 3 -28
v -1.5 3 -28
v 5.5 3 -28
v 12.5 3 -28
v 19.5 3 -28
v 26.5 3 -28
v -29.5 3 -35
v -22.5 3 -35
v -15.5 3 -35
v -8.5 3 -35
v -1.5 3 -35
v 5.5 3 -35
v 12.5 3 -35
v 19.5 3 -35
v 26.5 3 -35
v -29.5 3 -42
v -22.5 3 -42
v -15.5 3 -42
v -8.5 3 -42
v -1.5 3 -42
v 5.5 3 -42
v 12.5 3 -42
v 19.5 3 -42
v 26.5 3 -42
v -29.5 3 -49
v -22.5 3 -49
v -15.5 3 -49
v -8.5 3 -49
v -1.5 3 -49
v 5.5 3 -49
v 12.5 3 -49
v 19.5 3 -49
v 26.5 3 -49
v -29.5 3 -56
v -22.5 3 -56
v -15.5 3 -56
v -8.5 3 -56
v -1.5 3 -56
v 5.5 3 -56
v 12.5 3 -56
v 19.5 3 -56
v 26.5 3 -56
v -29.5 3 -63
v -22.5 3 -63
v -15.5 3 -63
v -8.5 3 -63
v -1.5 3 -63
v 5.5 3 -63
v 12.5 3 -63
v 19.5 3 -63
v 26.5 3 -63
v 29.5 3 -63

# faces
f 20/3/1 2/3/1 1/3/1
f 21/5/1 3/5/1 2/5/1
f 21/3/1 2/3/1 20/3/1
f 22/7/1 4/7/1 3/7/1
f 22/5/1 3/5/1 21/5/1
f 23/1/1 5/1/1 4/1/1
f 23/7/1 4/7/1 22/7/1
f 24/7/1 6/7/1 5/7/1
f 24/1/1 5/1/1 23/1/1
f 25/6/1 7/6/1 6/6/1
f 25/7/1 6/7/1 24/7/1
f 26/3/1 8/3/1 7/3/1
f 26/6/1 7/6/1 25/6/1
f 27/7/1 9/7/1 8/7/1
f 27/3/1 8/3/1 26/3/1
f 28/4/1 10/4/1 9/4/1
f 28/7/1 9/7/1 27/7/1
f 29/7/1 11/7/1 10/7/1
f 29/4/1 10/4/1 28/4/1
f 30/6/1 12/6/1 11/6/1
f 30/7/1 11/7/1 29/7/1
f 31/5/1 13/5/1 12/5/1
f 31/6/1 12/6/1 30/6/1
f 32/3/1 14/3/1 13/3/1
f 32/5/1 13/5/1 31/5/1
f 33/1/1 15/1/1 14/1/1
f 33/3/1 14/3/1 32/3/1
f 34/3/1 16/3/1 15/3/1
f 34/1/1 15/1/1 33/1/1
f 35/6/1 17/6/1 16/6/1
f 35/3/1 16/3/1 34/3/1
f 36/4/1 18/4/1 17/4/1
f 36/6/1 17/6/1 35/6/1
f 37/3/1 19/3/1 18/3/1
f 37/4/1 18/4/1 36/4/1
f 38/3/1 19/3/1 37/3/1
f 39/2/2 40/2/2 41/2/2
f 41/2/2 40/2/2 42/2/2
f 45/3/3 44/3/3 43/3/3
f 46/3/3 44/3/3 45/3/3
f 47/4/3 46/4/3 45/4/3
f 48/4/3 46/4/3 47/4/3
f 49/6/3 48/6/3 47/6/3
f 50/6/3 48/6/3 49/6/3
f 51/1/3 50/1/3 49/1/3
f 52/1/3 50/1/3 51/1/3
f 53/3/3 52/3/3 51/3/3
f 54/3/3 52/3/3 53/3/3
f 55/7/3 54/7/3 53/7/3
f 56/7/3 54/7/3 55/7/3
f 57/5/3 56/5/3 55/5/3
f 58/5/3 56/5/3 57/5/3
f 59/6/3 58/6/3 57/6/3
f 60/6/3 58/6/3 59/6/3
f 61/2/3 60/2/3 59/2/3
f 62/2/3 60/2/3 61/2/3
f 63/3/4 64/3/4 65/3/4
f 65/3/4 64/3/4 66/3/4
f 65/4/4 66/4/4 67/4/4
f 67/4/4 66/4/4 68/4/4
f 67/1/4 68/1/4 69/1/4
f 69/1/4 68/1/4 70/1/4
f 69/6/4 70/6/4 71/6/4
f 71/6/4 70/6/4 72/6/4
f 71/3/4 72/3/4 73/3/4
f 73/3/4 72/3/4 74/3/4
f 73/1/4 74/1/4 75/1/4
f 75/1/4 74/1/4 76/1/4
f 75/5/4 76/5/4 77/5/4
f 77/5/4 76/5/4 78/5/4
f 78/5/4 76/5/4 79/5/4
f 77/4/4 78/4/4 80/4/4
f 78/6/4 79/6/4 81/6/4
f 80/4/4 78/4/4 81/4/4
f 81/6/4 79/6/4 82/6/4
f 80/2/4 81/2/4 83/2/4
f 81/2/4 82/2/4 83/2/4
f 83/2/4 82/2/4 84/2/4
f 95/3/5 90/3/5 89/3/5
f 96/7/5 91/7/5 90/7/5
f 96/3/5 90/3/5 95/3/5
f 97/5/5 92/5/5 91/5/5
f 97/7/5 91/7/5 96/7/5
f 98/6/5 93/6/5 92/6/5
f 98/5/5 92/5/5 97/5/5
f 99/2/5 94/2/5 93/2/5
f 99/6/5 93/6/5 98/6/5
f 100/3/5 86/3/5 85/3/5
f 101/4/5 87/4/5 86/4/5
f 101/3/5 86/3/5 100/3/5
f 102/6/5 88/6/5 87/6/5
f 102/4/5 87/4/5 101/4/5
f 103/1/5 89/1/5 88/1/5
f 103/6/5 88/6/5 102/6/5
f 104/3/5 95/3/5 89/3/5
f 104/1/5 89/1/5 103/1/5
f 105/1/5 98/1/5 97/1/5
f 105/3/5 95/3/5 104/3/5
f 105/1/5 96/1/5 95/1/5
f 105/1/5 99/1/5 98/1/5
f 105/1/5 97/1/5 96/1/5
f 106/5/5 101/5/5 100/5/5
f 107/7/5 102/7/5 101/7/5
f 107/5/5 101/5/5 106/5/5
f 107/7/5 103/7/5 102/7/5
f 108/7/5 103/7/5 107/7/5
f 109/6/5 104/6/5 103/6/5
f 109/7/5 103/7/5 108/7/5
f 110/5/5 105/5/5 104/5/5
f 110/6/5 104/6/5 109/6/5
f 111/1/5 99/1/5 105/1/5
f 111/5/5 105/5/5 110/5/5
f 112/7/5 107/7/5 106/7/5
f 113/4/5 108/4/5 107/4/5
f 113/7/5 107/7/5 112/7/5
f 114/3/5 109/3/5 108/3/5
f 114/4/5 108/4/5 113/4/5
f 115/4/5 110/4/5 109/4/5
f 115/3/5 109/3/5 114/3/5
f 116/1/5 111/1/5 110/1/5
f 116/4/5 110/4/5 115/4/5
f 117/1/5 99/1/5 111/1/5
f 117/1/5 111/1/5 116/1/5
f 118/1/5 113/1/5 112/1/5
f 119/6/5 114/6/5 113/6/5
f 119/1/5 113/1/5 118/1/5
f 120/1/5 115/1/5 114/1/5
f 120/6/5 114/6/5 119/6/5
f 121/7/5 116/7/5 115/7/5
f 121/1/5 115/1/5 120/1/5
f 122/6/5 117/6/5 116/6/5
f 122/7/5 116/7/5 121/7/5
f 123/1/5 99/1/5 117/1/5
f 123/6/5 117/6/5 122/6/5
f 124/7/5 119/7/5 118/7/5
f 125/5/5 120/5/5 119/5/5
f 125/7/5 119/7/5 124/7/5
f 126/6/5 121/6/5 120/6/5
f 126/5/5 120/5/5 125/5/5
f 127/5/5 122/5/5 121/5/5
f 127/6/5 121/6/5 126/6/5
f 128/4/5 123/4/5 122/4/5
f 128/5/5 122/5/5 127/5/5
f 129/1/5 99/1/5 123/1/5
f 129/4/5 123/4/5 128/4/5
f 130/6/5 125/6/5 124/6/5
f 131/7/5 126/7/5 125/7/5
f 131/6/5 125/6/5 130/6/5
f 132/5/5 127/5/5 126/5/5
f 132/7/5 126/7/5 131/7/5
f 133/1/5 128/1/5 127/1/5
f 133/5/5 127/5/5 132/5/5
f 134/5/5 129/5/5 128/5/5
f 134/1/5 128/1/5 133/1/5
f 135/1/5 99/1/5 129/1/5
f 135/5/5 129/5/5 134/5/5
f 136/3/5 131/3/5 130/3/5
f 137/4/5 132/4/5 131/4/5
f 137/3/5 131/3/5 136/3/5
f 138/7/5 133/7/5 132/7/5
f 138/4/5 132/4/5 137/4/5
f 139/6/5 134/6/5 133/6/5
f 139/7/5 133/7/5 138/7/5
f 140/1/5 135/1/5 134/1/5
f 140/6/5 134/6/5 139/6/5
f 141/1/5 99/1/5 135/1/5
f 141/1/5 135/1/5 140/1/5
f 142/7/5 137/7/5 136/7/5
f 143/5/5 138/5/5 137/5/5
f 143/7/5 137/7/5 142/7/5
f 144/6/5 139/6/5 138/6/5
f 144/5/5 138/5/5 143/5/5
f 145/1/5 140/1/5 139/1/5
f 145/6/5 139/6/5 144/6/5
f 146/6/5 141/6/5 140/6/5
f 146/1/5 140/1/5 145/1/5
f 147/1/5 99/1/5 141/1/5
f 147/6/5 141/6/5 146/6/5
f 148/4/5 143/4/5 142/4/5
f 149/7/5 144/7/5 143/7/5
f 149/4/5 143/4/5 148/4/5
f 150/3/5 145/3/5 144/3/5
f 150/7/5 144/7/5 149/7/5
f 151/7/5 146/7/5 145/7/5
f 151/3/5 145/3/5 150/3/5
f 152/4/5 147/4/5 146/4/5
f 152/7/5 146/7/5 151/7/5
f 153/1/5 99/1/5 147/1/5
f 153/4/5 147/4/5 152/4/5
f 154/7/5 149/7/5 148/7/5
f 155/6/5 150/6/5 149/6/5
f 155/7/5 149/7/5 154/7/5
f 156/7/5 151/7/5 150/7/5
f 156/6/5 150/6/5 155/6/5
f 157/4/5 152/4/5 151/4/5
f 157/7/5 151/7/5 156/7/5
f 158/1/5 153/1/5 152/1/5
f 158/4/5 152/4/5 157/4/5
f 159/1/5 99/1/5 153/1/5
f 159/1/5 153/1/5 158/1/5
f 160/6/5 155/6/5 154/6/5
f 161/4/5 156/4/5 155/4/5
f 161/6/5 155/6/5 160/6/5
f 162/6/5 157/6/5 156/6/5
f 162/4/5 156/4/5 161/4/5
f 163/5/5 158/5/5 157/5/5
f 163/6/5 157/6/5 162/6/5
f 164/6/5 159/6/5 158/6/5
f 164/5/5 158/5/5 163/5/5
f 165/1/5 99/1/5 159/1/5
f 165/6/5 159/6/5 164/6/5
f 166/5/5 161/5/5 160/5/5
f 167/7/5 162/7/5 161/7/5
f 167/5/5 161/5/5 166/5/5
f 168/4/5 163/4/5 162/4/5
f 168/7/5 162/7/5 167/7/5
f 169/6/5 164/6/5 163/6/5
f 169/4/5 163/4/5 168/4/5
f 170/3/5 165/3/5 164/3/5
f 170/6/5 164/6/5 169/6/5
f 171/1/5 99/1/5 165/1/5
f 171/3/5 165/3/5 170/3/5
f 172/3/5 167/3/5 166/3/5
f 173/5/5 168/5/5 167/5/5
f 173/3/5 167/3/5 172/3/5
f 174/6/5 169/6/5 168/6/5
f 174/5/5 168/5/5 173/5/5
f 175/7/5 170/7/5 169/7/5
f 175/6/5 169/6/5 174/6/5
f 176/6/5 171/6/5 170/6/5
f 176/7/5 170/7/5 175/7/5
f 177/1/5 99/1/5 171/1/5
f 177/6/5 171/6/5 176/6/5
f 178/1/5 173/1/5 172/1/5
f 179/4/5 174/4/5 173/4/5
f 179/1/5 173/1/5 178/1/5
f 180/3/5 175/3/5 174/3/5
f 180/4/5 174/4/5 179/4/5
f 181/4/5 176/4/5 175/4/5
f 181/3/5 175/3/5 180/3/5
f 182/5/5 177/5/5 176/5/5
f 182/4/5 176/4/5 181/4/5
f 183/1/5 99/1/5 177/1/5
f 183/5/5 177/5/5 182/5/5
f 184/3/5 179/3/5 178/3/5
f 185/7/5 180/7/5 179/7/5
f 185/3/5 179/3/5 184/3/5
f 186/6/5 181/6/5 180/6/5
f 186/7/5 180/7/5 185/7/5
f 187/1/5 182/1/5 181/1/5
f 187/6/5 181/6/5 186/6/5
f 188/4/5 183/4/5 182/4/5
f 188/1/5 182/1/5 187/1/5
f 189/1/5 99/1/5 183/1/5
f 189/4/5 183/4/5 188/4/5
f 190/1/5 99/1/5 189/1/5
f 191/6/5 186/6/5 185/6/5
f 191/6/5 185/6/5 184/6/5
f 192/6/5 186/6/5 191/6/5
f 193/7/5 187/7/5 186/7/5
f 193/6/5 186/6/5 192/6/5
f 194/5/5 188/5/5 187/5/5
f 194/7/5 187/7/5 193/7/5
f 195/6/5 190/6/5 189/6/5
f 195/5/5 188/5/5 194/5/5
f 195/6/5 189/6/5 188/6/5
f 196/1/5 99/1/5 190/1/5
f 196/6/5 190/6/5 195/6/5
f 197/4/5 192/4/5 191/4/5
f 198/7/5 193/7/5 192/7/5
f 198/4/5 192/4/5 197/4/5
f 199/3/5 194/3/5 193/3/5
f 199/7/5 193/7/5 198/7/5
f 200/1/5 195/1/5 194/1/5
f 200/3/5 194/3/5 199/3/5
f 201/5/5 196/5/5 195/5/5
f 201/1/5 195/1/5 200/1/5
f 202/1/5 99/1/5 196/1/5
f 202/5/5 196/5/5 201/5/5
f 203/1/5 99/1/5 202/1/5
f 204/1/5 99/1/5 203/1/5
f 205/5/5 204/5/5 203/5/5
f 205/1/5 99/1/5 204/1/5
f 206/2/5 94/2/5 99/2/5
f 206/1/5 99/1/5 205/1/5
f 207/3/5 198/3/5 197/3/5
f 208/4/5 199/4/5 198/4/5
f 208/3/5 198/3/5 207/3/5
f 209/1/5 200/1/5 199/1/5
f 209/4/5 199/4/5 208/4/5
f 210/6/5 201/6/5 200/6/5
f 210/1/5 200/1/5 209/1/5
f 211/3/5 202/3/5 201/3/5
f 211/6/5 201/6/5 210/6/5
f 212/1/5 203/1/5 202/1/5
f 212/3/5 202/3/5 211/3/5
f 213/5/5 205/5/5 203/5/5
f 213/1/5 203/1/5 212/1/5
f 214/4/5 206/4/5 205/4/5
f 214/5/5 205/5/5 213/5/5
f 215/2/5 94/2/5 206/2/5
f 215/4/5 206/4/5 214/4/5
f 216/2/5 94/2/5 215/2/5
f 217/3/6 218/3/6 227/3/6
f 218/4/6 219/4/6 228/4/6
f 227/3/6 218/3/6 228/3/6
f 219/6/6 220/6/6 229/6/6
f 228/4/6 219/4/6 229/4/6
f 220/1/6 221/1/6 230/1/6
f 229/6/6 220/6/6 230/6/6
f 221/3/6 222/3/6 231/3/6
f 230/1/6 221/1/6 231/1/6
f 222/7/6 223/7/6 232/7/6
f 231/3/6 222/3/6 232/3/6
f 223/5/6 224/5/6 233/5/6
f 232/7/6 223/7/6 233/7/6
f 224/6/6 225/6/6 234/6/6
f 233/5/6 224/5/6 234/5/6
f 225/2/6 226/2/6 235/2/6
f 234/6/6 225/6/6 235/6/6
f 227/5/6 228/5/6 236/5/6
f 228/7/6 229/7/6 237/7/6
f 236/5/6 228/5/6 237/5/6
f 229/7/6 230/7/6 237/7/6
f 237/7/6 230/7/6 238/7/6
f 230/6/6 231/6/6 239/6/6
f 238/7/6 230/7/6 239/7/6
f 231/5/6 232/5/6 240/5/6
f 239/6/6 231/6/6 240/6/6
f 232/3/6 233/3/6 241/3/6
f 240/5/6 232/5/6 241/5/6
f 233/4/6 234/4/6 242/4/6
f 241/3/6 233/3/6 242/3/6
f 234/1/6 235/1/6 243/1/6
f 242/4/6 234/4/6 243/4/6
f 235/2/6 226/2/6 244/2/6
f 243/1/6 235/1/6 244/1/6
f 236/7/6 237/7/6 245/7/6
f 237/4/6 238/4/6 246/4/6
f 245/7/6 237/7/6 246/7/6
f 238/3/6 239/3/6 247/3/6
f 246/4/6 238/4/6 247/4/6
f 239/4/6 240/4/6 248/4/6
f 247/3/6 239/3/6 248/3/6
f 240/1/6 241/1/6 249/1/6
f 248/4/6 240/4/6 249/4/6
f 241/6/6 242/6/6 250/6/6
f 249/1/6 241/1/6 250/1/6
f 242/3/6 243/3/6 251/3/6
f 250/6/6 242/6/6 251/6/6
f 243/5/6 244/5/6 252/5/6
f 251/3/6 243/3/6 252/3/6
f 244/2/6 226/2/6 253/2/6
f 252/5/6 244/5/6 253/5/6
f 245/1/6 246/1/6 254/1/6
f 246/6/6 247/6/6 255/6/6
f 254/1/6 246/1/6 255/1/6
f 247/1/6 248/1/6 256/1/6
f 255/6/6 247/6/6 256/6/6
f 248/7/6 249/7/6 257/7/6
f 256/1/6 248/1/6 257/1/6
f 249/6/6 250/6/6 258/6/6
f 257/7/6 249/7/6 258/7/6
f 250/1/6 251/1/6 259/1/6
f 258/6/6 250/6/6 259/6/6
f 251/6/6 252/6/6 260/6/6
f 259/1/6 251/1/6 260/1/6
f 252/1/6 253/1/6 261/1/6
f 260/6/6 252/6/6 261/6/6
f 253/2/6 226/2/6 262/2/6
f 261/1/6 253/1/6 262/1/6
f 254/7/6 255/7/6 263/7/6
f 255/5/6 256/5/6 264/5/6
f 263/7/6 255/7/6 264/7/6
f 256/6/6 257/6/6 265/6/6
f 264/5/6 256/5/6 265/5/6
f 257/5/6 258/5/6 266/5/6
f 265/6/6 257/6/6 266/6/6
f 258/4/6 259/4/6 267/4/6
f 266/5/6 258/5/6 267/5/6
f 259/6/6 260/6/6 268/6/6
f 267/4/6 259/4/6 268/4/6
f 260/3/6 261/3/6 269/3/6
f 268/6/6 260/6/6 269/6/6
f 261/7/6 262/7/6 270/7/6
f 269/3/6 261/3/6 270/3/6
f 262/2/6 226/2/6 271/2/6
f 270/7/6 262/7/6 271/7/6
f 263/6/6 264/6/6 272/6/6
f 264/7/6 265/7/6 273/7/6
f 272/6/6 264/6/6 273/6/6
f 265/5/6 266/5/6 274/5/6
f 273/7/6 265/7/6 274/7/6
f 266/1/6 267/1/6 275/1/6
f 274/5/6 266/5/6 275/5/6
f 267/5/6 268/5/6 276/5/6
f 275/1/6 267/1/6 276/1/6
f 268/3/6 269/3/6 277/3/6
f 276/5/6 268/5/6 277/5/6
f 269/7/6 270/7/6 278/7/6
f 277/3/6 269/3/6 278/3/6
f 270/5/6 271/5/6 279/5/6
f 278/7/6 270/7/6 279/7/6
f 271/2/6 226/2/6 280/2/6
f 279/5/6 271/5/6 280/5/6
f 272/3/6 273/3/6 281/3/6
f 273/4/6 274/4/6 282/4/6
f 281/3/6 273/3/6 282/3/6
f 274/7/6 275/7/6 283/7/6
f 282/4/6 274/4/6 283/4/6
f 275/6/6 276/6/6 284/6/6
f 283/7/6 275/7/6 284/7/6
f 276/1/6 277/1/6 285/1/6
f 284/6/6 276/6/6 285/6/6
f 277/4/6 278/4/6 286/4/6
f 285/1/6 277/1/6 286/1/6
f 278/6/6 279/6/6 287/6/6
f 286/4/6 278/4/6 287/4/6
f 279/4/6 280/4/6 288/4/6
f 287/6/6 279/6/6 288/6/6
f 280/2/6 226/2/6 289/2/6
f 288/4/6 280/4/6 289/4/6
f 281/7/6 282/7/6 290/7/6
f 282/5/6 283/5/6 291/5/6
f 290/7/6 282/7/6 291/7/6
f 283/6/6 284/6/6 292/6/6
f 291/5/6 283/5/6 292/5/6
f 284/1/6 285/1/6 293/1/6
f 292/6/6 284/6/6 293/6/6
f 285/6/6 286/6/6 294/6/6
f 293/1/6 285/1/6 294/1/6
f 286/5/6 287/5/6 295/5/6
f 294/6/6 286/6/6 295/6/6
f 287/4/6 288/4/6 296/4/6
f 295/5/6 287/5/6 296/5/6
f 288/3/6 289/3/6 297/3/6
f 296/4/6 288/4/6 297/4/6
f 289/2/6 226/2/6 298/2/6
f 297/3/6 289/3/6 298/3/6
f 290/4/6 291/4/6 299/4/6
f 291/7/6 292/7/6 300/7/6
f 299/4/6 291/4/6 300/4/6
f 292/3/6 293/3/6 301/3/6
f 300/7/6 292/7/6 301/7/6
f 293/7/6 294/7/6 302/7/6
f 301/3/6 293/3/6 302/3/6
f 294/4/6 295/4/6 303/4/6
f 302/7/6 294/7/6 303/7/6
f 295/7/6 296/7/6 304/7/6
f 303/4/6 295/4/6 304/4/6
f 296/1/6 297/1/6 305/1/6
f 304/7/6 296/7/6 305/7/6
f 297/6/6 298/6/6 306/6/6
f 305/1/6 297/1/6 306/1/6
f 298/2/6 226/2/6 307/2/6
f 306/6/6 298/6/6 307/6/6
f 299/7/6 300/7/6 308/7/6
f 300/6/6 301/6/6 309/6/6
f 308/7/6 300/7/6 309/7/6
f 301/7/6 302/7/6 310/7/6
f 309/6/6 301/6/6 310/6/6
f 302/4/6 303/4/6 311/4/6
f 310/7/6 302/7/6 311/7/6
f 303/1/6 304/1/6 312/1/6
f 311/4/6 303/4/6 312/4/6
f 304/6/6 305/6/6 313/6/6
f 312/1/6 304/1/6 313/1/6
f 305/3/6 306/3/6 314/3/6
f 313/6/6 305/6/6 314/6/6
f 306/4/6 307/4/6 315/4/6
f 314/3/6 306/3/6 315/3/6
f 307/2/6 226/2/6 316/2/6
f 315/4/6 307/4/6 316/4/6
f 308/6/6 309/6/6 317/6/6
f 309/4/6 310/4/6 318/4/6
f 317/6/6 309/6/6 318/6/6
f 310/6/6 311/6/6 319/6/6
f 318/4/6 310/4/6 319/4/6
f 311/5/6 312/5/6 320/5/6
f 319/6/6 311/6/6 320/6/6
f 312/6/6 313/6/6 321/6/6
f 320/5/6 312/5/6 321/5/6
f 313/7/6 314/7/6 322/7/6
f 321/6/6 313/6/6 322/6/6
f 314/4/6 315/4/6 323/4/6
f 322/7/6 314/7/6 323/7/6
f 315/6/6 316/6/6 324/6/6
f 323/4/6 315/4/6 324/4/6
f 316/2/6 226/2/6 325/2/6
f 324/6/6 316/6/6 325/6/6
f 317/5/6 318/5/6 326/5/6
f 318/7/6 319/7/6 327/7/6
f 326/5/6 318/5/6 327/5/6
f 319/4/6 320/4/6 328/4/6
f 327/7/6 319/7/6 328/7/6
f 320/6/6 321/6/6 329/6/6
f 328/4/6 320/4/6 329/4/6
f 321/3/6 322/3/6 330/3/6
f 329/6/6 321/6/6 330/6/6
f 322/1/6 323/1/6 331/1/6
f 330/3/6 322/3/6 331/3/6
f 323/5/6 324/5/6 332/5/6
f 331/1/6 323/1/6 332/1/6
f 324/4/6 325/4/6 333/4/6
f 332/5/6 324/5/6 333/5/6
f 325/2/6 226/2/6 334/2/6
f 333/4/6 325/4/6 334/4/6
f 326/3/6 327/3/6 335/3/6
f 327/5/6 328/5/6 336/5/6
f 335/3/6 327/3/6 336/3/6
f 328/6/6 329/6/6 337/6/6
f 336/5/6 328/5/6 337/5/6
f 329/7/6 330/7/6 338/7/6
f 337/6/6 329/6/6 338/6/6
f 330/6/6 331/6/6 339/6/6
f 338/7/6 330/7/6 339/7/6
f 331/4/6 332/4/6 340/4/6
f 339/6/6 331/6/6 340/6/6
f 332/3/6 333/3/6 341/3/6
f 340/4/6 332/4/6 341/4/6
f 333/5/6 334/5/6 342/5/6
f 341/3/6 333/3/6 342/3/6
f 334/2/6 226/2/6 343/2/6
f 342/5/6 334/5/6 343/5/6
f 335/1/6 336/1/6 344/1/6
f 336/4/6 337/4/6 345/4/6
f 344/1/6 336/1/6 345/1/6
f 337/3/6 338/3/6 346/3/6
f 345/4/6 337/4/6 346/4/6
f 338/4/6 339/4/6 347/4/6
f 346/3/6 338/3/6 347/3/6
f 339/5/6 340/5/6 348/5/6
f 347/4/6 339/4/6 348/4/6
f 340/1/6 341/1/6 349/1/6
f 348/5/6 340/5/6 349/5/6
f 341/4/6 342/4/6 350/4/6
f 349/1/6 341/1/6 350/1/6
f 342/6/6 343/6/6 351/6/6
f 350/4/6 342/4/6 351/4/6
f 343/2/6 226/2/6 352/2/6
f 351/6/6 343/6/6 352/6/6
f 344/3/6 345/3/6 353/3/6
f 345/7/6 346/7/6 354/7/6
f 353/3/6 345/3/6 354/3/6
f 346/6/6 347/6/6 355/6/6
f 354/7/6 346/7/6 355/7/6
f 347/1/6 348/1/6 356/1/6
f 355/6/6 347/6/6 356/6/6
f 348/4/6 349/4/6 357/4/6
f 356/1/6 348/1/6 357/1/6
f 349/3/6 350/3/6 358/3/6
f 357/4/6 349/4/6 358/4/6
f 350/7/6 351/7/6 359/7/6
f 358/3/6 350/3/6 359/3/6
f 351/1/6 352/1/6 360/1/6
f 359/7/6 351/7/6 360/7/6
f 352/2/6 226/2/6 361/2/6
f 360/1/6 352/1/6 361/1/6
f 353/6/6 354/6/6 362/6/6
f 354/6/6 355/6/6 362/6/6
f 362/6/6 355/6/6 363/6/6
f 355/7/6 356/7/6 364/7/6
f 363/6/6 355/6/6 364/6/6
f 356/5/6 357/5/6 365/5/6
f 364/7/6 356/7/6 365/7/6
f 357/6/6 358/6/6 366/6/6
f 365/5/6 357/5/6 366/5/6
f 358/1/6 359/1/6 367/1/6
f 366/6/6 358/6/6 367/6/6
f 359/5/6 360/5/6 368/5/6
f 367/1/6 359/1/6 368/1/6
f 360/4/6 361/4/6 369/4/6
f 368/5/6 360/5/6 369/5/6
f 361/2/6 226/2/6 370/2/6
f 369/4/6 361/4/6 370/4/6
f 362/4/6 363/4/6 371/4/6
f 363/7/6 364/7/6 372/7/6
f 371/4/6 363/4/6 372/4/6
f 364/3/6 365/3/6 373/3/6
f 372/7/6 364/7/6 373/7/6
f 365/1/6 366/1/6 374/1/6
f 373/3/6 365/3/6 374/3/6
f 366/5/6 367/5/6 375/5/6
f 374/1/6 366/1/6 375/1/6
f 367/4/6 368/4/6 376/4/6
f 375/5/6 367/5/6 376/5/6
f 368/3/6 369/3/6 377/3/6
f 376/4/6 368/4/6 377/4/6
f 369/5/6 370/5/6 378/5/6
f 377/3/6 369/3/6 378/3/6
f 370/2/6 226/2/6 379/2/6
f 378/5/6 370/5/6 379/5/6
f 371/3/6 372/3/6 380/3/6
f 372/4/6 373/4/6 381/4/6
f 380/3/6 372/3/6 381/3/6
f 373/1/6 374/1/6 382/1/6
f 381/4/6 373/4/6 382/4/6
f 374/6/6 375/6/6 383/6/6
f 382/1/6 374/1/6 383/1/6
f 375/3/6 376/3/6 384/3/6
f 383/6/6 375/6/6 384/6/6
f 376/1/6 377/1/6 385/1/6
f 384/3/6 376/3/6 385/3/6
f 377/5/6 378/5/6 386/5/6
f 385/1/6 377/1/6 386/1/6
f 378/6/6 379/6/6 387/6/6
f 386/5/6 378/5/6 387/5/6
f 379/2/6 226/2/6 388/2/6
f 387/6/6 379/6/6 388/6/6
f 388/2/6 226/2/6 389/2/6
