# MagicaVoxel @ ephtracy

# material
mtllib building_door half opened1.mtl
usemtl palette

# normals
vn -1 0 0
vn 1 0 0
vn 0 0 1
vn 0 0 -1
vn 0 -1 0
vn 0 1 0

# texcoords
vt 0.951172 0.5
vt 0.955078 0.5
vt 0.970703 0.5
vt 0.974609 0.5
vt 0.978516 0.5
vt 0.982422 0.5
vt 0.986328 0.5
vt 0.990234 0.5

# verts
v -22 0 31
v -22 0 30
v -22 0 -31
v -22 0 -33
v -22 4 30
v -22 4 -30
v -22 4 -31
v -22 4 -32
v -22 4 -33
v -22 5 -31
v -22 5 -32
v -22 12 -31
v -22 12 -32
v -22 13 -31
v -22 13 -32
v -22 34 -31
v -22 34 -32
v -22 35 -31
v -22 35 -32
v -22 36 -31
v -22 36 -32
v -22 41 31
v -22 41 30
v -22 42 31
v -22 42 30
v -22 53 32
v -22 53 31
v -22 53 30
v -22 67 33
v -22 67 32
v -22 67 31
v -22 67 30
v -22 67 -30
v -22 67 -31
v -22 67 -32
v -22 67 -33
v -22 69 33
v -22 69 31
v -22 69 -31
v -22 69 -33
v -17 43 31
v -17 43 30
v -17 45 31
v -17 45 30
v -17 46 31
v -17 46 30
v -17 47 31
v -17 47 30
v -17 52 31
v -17 52 30
v -12 25 31
v -12 25 30
v -12 29 31
v -12 29 30
v -12 30 31
v -12 30 30
v -12 34 31
v -12 34 30
v -12 35 31
v -12 35 30
v -12 39 31
v -12 39 30
v -12 43 31
v -12 43 30
v -12 52 31
v -12 52 30
v -7 43 31
v -7 43 30
v -7 52 31
v -7 52 30
v -3 25 31
v -3 25 30
v -3 29 31
v -3 29 30
v -3 30 31
v -3 30 30
v -3 34 31
v -3 34 30
v -3 35 31
v -3 35 30
v -3 39 31
v -3 39 30
v -2 43 31
v -2 43 30
v -2 44 31
v -2 44 30
v -2 45 31
v -2 45 30
v -2 47 31
v -2 47 30
v -2 52 31
v -2 52 30
v 4 43 31
v 4 43 30
v 4 45 31
v 4 45 30
v 4 51 31
v 4 51 30
v 4 52 31
v 4 52 30
v 9 43 31
v 9 43 30
v 9 44 31
v 9 44 30
v 9 45 31
v 9 45 30
v 9 47 31
v 9 47 30
v 9 51 31
v 9 51 30
v 9 52 31
v 9 52 30
v 14 43 31
v 14 43 30
v 14 52 31
v 14 52 30
v 19 43 31
v 19 43 30
v 19 52 31
v 19 52 30
v -20 25 31
v -20 25 30
v -20 29 31
v -20 29 30
v -20 30 31
v -20 30 30
v -20 34 31
v -20 34 30
v -20 35 31
v -20 35 30
v -20 39 31
v -20 39 30
v -19 43 31
v -19 43 30
v -19 49 31
v -19 49 30
v -19 52 31
v -19 52 30
v -14 43 31
v -14 43 30
v -14 44 31
v -14 44 30
v -14 45 31
v -14 45 30
v -14 46 31
v -14 46 30
v -14 47 31
v -14 47 30
v -14 48 31
v -14 48 30
v -14 52 31
v -14 52 30
v -11 25 31
v -11 25 30
v -11 29 31
v -11 29 30
v -11 30 31
v -11 30 30
v -11 34 31
v -11 34 30
v -11 35 31
v -11 35 30
v -11 39 31
v -11 39 30
v -9 43 31
v -9 43 30
v -9 52 31
v -9 52 30
v -4 43 31
v -4 43 30
v -4 52 31
v -4 52 30
v 0 0 31
v 0 0 30
v 0 4 30
v 0 42 31
v 0 42 30
v 2 43 31
v 2 43 30
v 2 45 31
v 2 45 30
v 2 46 31
v 2 46 30
v 2 48 31
v 2 48 30
v 2 52 31
v 2 52 30
v 7 43 31
v 7 43 30
v 7 44 31
v 7 44 30
v 7 45 31
v 7 45 30
v 7 52 31
v 7 52 30
v 12 43 31
v 12 43 30
v 12 51 31
v 12 51 30
v 12 52 31
v 12 52 30
v 17 43 31
v 17 43 30
v 17 45 31
v 17 45 30
v 17 49 31
v 17 49 30
v 17 52 31
v 17 52 30
v 22 0 30
v 22 0 -31
v 22 0 -33
v 22 4 30
v 22 4 -30
v 22 4 -31
v 22 4 -32
v 22 4 -33
v 22 10 -31
v 22 10 -32
v 22 11 -31
v 22 11 -32
v 22 23 -31
v 22 23 -32
v 22 24 -31
v 22 24 -32
v 22 40 -31
v 22 40 -32
v 22 41 -31
v 22 41 -32
v 22 42 31
v 22 42 30
v 22 53 32
v 22 53 31
v 22 53 30
v 22 63 -31
v 22 63 -32
v 22 64 -31
v 22 64 -32
v 22 67 33
v 22 67 32
v 22 67 31
v 22 67 30
v 22 67 -30
v 22 67 -31
v 22 67 -32
v 22 67 -33
v 22 69 33
v 22 69 31
v 22 69 -31
v 22 69 -33
v -22 67 33
v -22 69 33
v 22 67 33
v 22 69 33
v -22 53 32
v -22 67 32
v -18 62 32
v -18 63 32
v -16 62 32
v -16 63 32
v -14 62 32
v -14 63 32
v -13 58 32
v -13 59 32
v -12 62 32
v -12 63 32
v -11 58 32
v -11 59 32
v -6 64 32
v -6 65 32
v -4 65 32
v -4 66 32
v -3 64 32
v -3 65 32
v -1 61 32
v -1 62 32
v -1 65 32
v -1 66 32
v 1 61 32
v 1 62 32
v 2 57 32
v 2 58 32
v 3 55 32
v 3 56 32
v 4 57 32
v 4 58 32
v 5 55 32
v 5 56 32
v 6 63 32
v 6 64 32
v 8 53 32
v 8 54 32
v 8 63 32
v 8 64 32
v 9 64 32
v 9 65 32
v 10 53 32
v 10 54 32
v 10 55 32
v 10 56 32
v 11 64 32
v 11 65 32
v 12 55 32
v 12 56 32
v 13 56 32
v 13 57 32
v 14 55 32
v 14 56 32
v 15 56 32
v 15 57 32
v 16 55 32
v 16 56 32
v 17 61 32
v 17 62 32
v 19 61 32
v 19 62 32
v 22 53 32
v 22 67 32
v -22 0 31
v -22 41 31
v -22 42 31
v -22 53 31
v -21 44 31
v -21 51 31
v -20 2 31
v -20 3 31
v -20 4 31
v -20 24 31
v -20 25 31
v -20 29 31
v -20 30 31
v -20 34 31
v -20 35 31
v -20 39 31
v -20 44 31
v -20 49 31
v -20 51 31
v -20 53 31
v -19 2 31
v -19 3 31
v -19 4 31
v -19 5 31
v -19 43 31
v -19 49 31
v -19 52 31
v -19 53 31
v -18 3 31
v -18 5 31
v -18 18 31
v -18 24 31
v -17 3 31
v -17 9 31
v -17 18 31
v -17 23 31
v -17 43 31
v -17 45 31
v -17 46 31
v -17 47 31
v -17 52 31
v -16 9 31
v -16 11 31
v -16 18 31
v -16 21 31
v -16 23 31
v -16 25 31
v -16 39 31
v -16 40 31
v -16 43 31
v -16 45 31
v -16 46 31
v -16 47 31
v -16 51 31
v -16 52 31
v -15 7 31
v -15 11 31
v -15 18 31
v -15 21 31
v -15 22 31
v -15 25 31
v -15 34 31
v -15 35 31
v -15 39 31
v -15 40 31
v -15 43 31
v -15 44 31
v -15 45 31
v -15 46 31
v -15 47 31
v -15 48 31
v -15 51 31
v -15 53 31
v -14 4 31
v -14 7 31
v -14 42 31
v -14 43 31
v -14 44 31
v -14 45 31
v -14 46 31
v -14 47 31
v -14 48 31
v -14 52 31
v -14 53 31
v -13 4 31
v -13 15 31
v -13 39 31
v -13 40 31
v -13 42 31
v -13 43 31
v -12 15 31
v -12 22 31
v -12 25 31
v -12 29 31
v -12 30 31
v -12 34 31
v -12 35 31
v -12 39 31
v -12 40 31
v -12 43 31
v -12 52 31
v -11 6 31
v -11 20 31
v -11 25 31
v -11 29 31
v -11 30 31
v -11 34 31
v -11 35 31
v -11 39 31
v -10 2 31
v -10 3 31
v -10 21 31
v -10 24 31
v -10 34 31
v -10 35 31
v -10 39 31
v -10 41 31
v -9 2 31
v -9 3 31
v -9 4 31
v -9 5 31
v -9 6 31
v -9 17 31
v -9 20 31
v -9 21 31
v -9 34 31
v -9 35 31
v -9 40 31
v -9 41 31
v -9 43 31
v -9 52 31
v -8 4 31
v -8 5 31
v -8 7 31
v -8 10 31
v -8 13 31
v -8 17 31
v -8 23 31
v -8 24 31
v -8 34 31
v -8 35 31
v -7 1 31
v -7 2 31
v -7 3 31
v -7 7 31
v -7 9 31
v -7 10 31
v -7 11 31
v -7 13 31
v -7 20 31
v -7 23 31
v -7 43 31
v -7 52 31
v -6 1 31
v -6 2 31
v -6 3 31
v -6 29 31
v -6 30 31
v -5 2 31
v -5 9 31
v -5 20 31
v -5 25 31
v -5 29 31
v -5 30 31
v -5 34 31
v -5 35 31
v -5 39 31
v -5 40 31
v -4 2 31
v -4 3 31
v -4 5 31
v -4 6 31
v -4 7 31
v -4 8 31
v -4 10 31
v -4 11 31
v -4 18 31
v -4 43 31
v -4 52 31
v -3 2 31
v -3 3 31
v -3 4 31
v -3 5 31
v -3 6 31
v -3 8 31
v -3 10 31
v -3 11 31
v -3 18 31
v -3 24 31
v -3 25 31
v -3 29 31
v -3 30 31
v -3 34 31
v -3 35 31
v -3 39 31
v -2 4 31
v -2 5 31
v -2 7 31
v -2 24 31
v -2 43 31
v -2 44 31
v -2 45 31
v -2 47 31
v -2 52 31
v -1 0 31
v -1 41 31
v -1 43 31
v -1 44 31
v -1 45 31
v -1 47 31
v -1 51 31
v -1 52 31
v 0 0 31
v 0 42 31
v 0 43 31
v 0 44 31
v 0 45 31
v 1 42 31
v 1 45 31
v 1 46 31
v 1 48 31
v 1 51 31
v 1 53 31
v 2 43 31
v 2 45 31
v 2 46 31
v 2 48 31
v 2 52 31
v 3 52 31
v 3 53 31
v 4 43 31
v 4 45 31
v 4 51 31
v 4 52 31
v 5 43 31
v 5 44 31
v 5 45 31
v 5 46 31
v 6 43 31
v 6 44 31
v 6 45 31
v 6 46 31
v 6 51 31
v 7 43 31
v 7 44 31
v 7 45 31
v 7 52 31
v 8 53 31
v 9 42 31
v 9 43 31
v 9 44 31
v 9 45 31
v 9 47 31
v 9 51 31
v 9 52 31
v 10 42 31
v 10 43 31
v 10 45 31
v 10 47 31
v 10 51 31
v 10 52 31
v 10 53 31
v 11 43 31
v 11 44 31
v 11 51 31
v 11 52 31
v 11 53 31
v 12 43 31
v 12 51 31
v 12 52 31
v 12 53 31
v 14 43 31
v 14 52 31
v 15 42 31
v 15 48 31
v 15 50 31
v 15 51 31
v 16 42 31
v 16 45 31
v 16 48 31
v 16 49 31
v 16 50 31
v 16 51 31
v 17 42 31
v 17 43 31
v 17 45 31
v 17 49 31
v 17 52 31
v 18 42 31
v 18 43 31
v 19 43 31
v 19 52 31
v 22 42 31
v 22 53 31
v 0 0 30
v 0 4 30
v 22 0 30
v 22 4 30
v -22 4 -30
v -22 67 -30
v 22 4 -30
v 22 67 -30
v -22 4 30
v -22 41 30
v -22 42 30
v -22 53 30
v -22 67 30
v -21 44 30
v -21 51 30
v -20 4 30
v -20 24 30
v -20 25 30
v -20 29 30
v -20 30 30
v -20 34 30
v -20 35 30
v -20 39 30
v -20 44 30
v -20 49 30
v -20 51 30
v -20 53 30
v -19 4 30
v -19 5 30
v -19 43 30
v -19 49 30
v -19 52 30
v -19 53 30
v -18 4 30
v -18 5 30
v -18 18 30
v -18 24 30
v -17 4 30
v -17 9 30
v -17 18 30
v -17 23 30
v -17 43 30
v -17 45 30
v -17 46 30
v -17 47 30
v -17 52 30
v -16 9 30
v -16 11 30
v -16 18 30
v -16 21 30
v -16 23 30
v -16 25 30
v -16 39 30
v -16 40 30
v -16 43 30
v -16 45 30
v -16 46 30
v -16 47 30
v -16 51 30
v -16 52 30
v -15 7 30
v -15 11 30
v -15 18 30
v -15 21 30
v -15 22 30
v -15 25 30
v -15 34 30
v -15 35 30
v -15 39 30
v -15 40 30
v -15 43 30
v -15 44 30
v -15 45 30
v -15 46 30
v -15 47 30
v -15 48 30
v -15 51 30
v -15 53 30
v -14 4 30
v -14 7 30
v -14 42 30
v -14 43 30
v -14 44 30
v -14 45 30
v -14 46 30
v -14 47 30
v -14 48 30
v -14 52 30
v -14 53 30
v -13 4 30
v -13 15 30
v -13 39 30
v -13 40 30
v -13 42 30
v -13 43 30
v -12 15 30
v -12 22 30
v -12 25 30
v -12 29 30
v -12 30 30
v -12 34 30
v -12 35 30
v -12 39 30
v -12 40 30
v -12 43 30
v -12 52 30
v -11 6 30
v -11 20 30
v -11 25 30
v -11 29 30
v -11 30 30
v -11 34 30
v -11 35 30
v -11 39 30
v -10 21 30
v -10 24 30
v -10 34 30
v -10 35 30
v -10 39 30
v -10 41 30
v -9 4 30
v -9 5 30
v -9 6 30
v -9 17 30
v -9 20 30
v -9 21 30
v -9 34 30
v -9 35 30
v -9 40 30
v -9 41 30
v -9 43 30
v -9 52 30
v -8 4 30
v -8 5 30
v -8 7 30
v -8 10 30
v -8 13 30
v -8 17 30
v -8 23 30
v -8 24 30
v -8 34 30
v -8 35 30
v -7 4 30
v -7 7 30
v -7 9 30
v -7 10 30
v -7 11 30
v -7 13 30
v -7 20 30
v -7 23 30
v -7 43 30
v -7 52 30
v -6 29 30
v -6 30 30
v -5 4 30
v -5 9 30
v -5 20 30
v -5 25 30
v -5 29 30
v -5 30 30
v -5 34 30
v -5 35 30
v -5 39 30
v -5 40 30
v -4 5 30
v -4 6 30
v -4 7 30
v -4 8 30
v -4 10 30
v -4 11 30
v -4 18 30
v -4 43 30
v -4 52 30
v -3 4 30
v -3 5 30
v -3 6 30
v -3 8 30
v -3 10 30
v -3 11 30
v -3 18 30
v -3 24 30
v -3 25 30
v -3 29 30
v -3 30 30
v -3 34 30
v -3 35 30
v -3 39 30
v -2 4 30
v -2 5 30
v -2 7 30
v -2 24 30
v -2 43 30
v -2 44 30
v -2 45 30
v -2 47 30
v -2 52 30
v -1 4 30
v -1 41 30
v -1 43 30
v -1 44 30
v -1 45 30
v -1 47 30
v -1 51 30
v -1 52 30
v 0 4 30
v 0 42 30
v 0 43 30
v 0 44 30
v 0 45 30
v 1 42 30
v 1 45 30
v 1 46 30
v 1 48 30
v 1 51 30
v 1 53 30
v 2 43 30
v 2 45 30
v 2 46 30
v 2 48 30
v 2 52 30
v 3 52 30
v 3 53 30
v 4 43 30
v 4 45 30
v 4 51 30
v 4 52 30
v 5 43 30
v 5 44 30
v 5 45 30
v 5 46 30
v 6 43 30
v 6 44 30
v 6 45 30
v 6 46 30
v 6 51 30
v 7 43 30
v 7 44 30
v 7 45 30
v 7 52 30
v 9 42 30
v 9 43 30
v 9 44 30
v 9 45 30
v 9 47 30
v 9 51 30
v 9 52 30
v 10 42 30
v 10 43 30
v 10 45 30
v 10 47 30
v 10 51 30
v 10 52 30
v 11 43 30
v 11 44 30
v 11 51 30
v 11 52 30
v 11 53 30
v 12 43 30
v 12 51 30
v 12 52 30
v 12 53 30
v 14 43 30
v 14 52 30
v 15 42 30
v 15 48 30
v 15 50 30
v 15 51 30
v 16 42 30
v 16 45 30
v 16 48 30
v 16 49 30
v 16 50 30
v 16 51 30
v 17 42 30
v 17 43 30
v 17 45 30
v 17 49 30
v 17 52 30
v 18 42 30
v 18 43 30
v 19 43 30
v 19 52 30
v 22 42 30
v 22 53 30
v 22 67 30
v -22 4 -32
v -22 5 -32
v -22 12 -32
v -22 13 -32
v -22 34 -32
v -22 35 -32
v -22 36 -32
v -22 67 -32
v -21 5 -32
v -21 6 -32
v -21 12 -32
v -21 13 -32
v -21 35 -32
v -21 36 -32
v -21 42 -32
v -21 43 -32
v -21 62 -32
v -21 63 -32
v -20 4 -32
v -20 5 -32
v -20 34 -32
v -20 35 -32
v -19 5 -32
v -19 6 -32
v -19 33 -32
v -19 34 -32
v -19 42 -32
v -19 43 -32
v -19 62 -32
v -19 63 -32
v -18 34 -32
v -18 35 -32
v -17 33 -32
v -17 34 -32
v -17 48 -32
v -17 49 -32
v -16 16 -32
v -16 17 -32
v -16 47 -32
v -16 48 -32
v -16 58 -32
v -16 59 -32
v -15 15 -32
v -15 16 -32
v -15 48 -32
v -15 49 -32
v -14 16 -32
v -14 17 -32
v -14 18 -32
v -14 47 -32
v -14 48 -32
v -14 58 -32
v -14 59 -32
v -14 60 -32
v -14 61 -32
v -13 15 -32
v -13 16 -32
v -13 48 -32
v -13 49 -32
v -13 59 -32
v -13 60 -32
v -12 4 -32
v -12 5 -32
v -12 17 -32
v -12 18 -32
v -12 19 -32
v -12 20 -32
v -12 26 -32
v -12 27 -32
v -12 56 -32
v -12 57 -32
v -12 60 -32
v -12 61 -32
v -12 64 -32
v -12 65 -32
v -11 25 -32
v -11 26 -32
v -11 48 -32
v -11 49 -32
v -11 55 -32
v -11 56 -32
v -11 59 -32
v -11 60 -32
v -10 4 -32
v -10 5 -32
v -10 9 -32
v -10 10 -32
v -10 19 -32
v -10 20 -32
v -10 26 -32
v -10 27 -32
v -10 42 -32
v -10 43 -32
v -10 56 -32
v -10 57 -32
v -10 63 -32
v -10 64 -32
v -9 10 -32
v -9 11 -32
v -9 25 -32
v -9 26 -32
v -9 41 -32
v -9 42 -32
v -9 55 -32
v -9 56 -32
v -9 64 -32
v -9 65 -32
v -8 9 -32
v -8 10 -32
v -8 23 -32
v -8 24 -32
v -8 42 -32
v -8 43 -32
v -7 10 -32
v -7 11 -32
v -7 24 -32
v -7 25 -32
v -7 36 -32
v -7 37 -32
v -7 41 -32
v -7 42 -32
v -7 51 -32
v -7 52 -32
v -7 63 -32
v -7 64 -32
v -6 16 -32
v -6 17 -32
v -6 23 -32
v -6 24 -32
v -5 24 -32
v -5 25 -32
v -5 36 -32
v -5 37 -32
v -5 49 -32
v -5 50 -32
v -5 51 -32
v -5 52 -32
v -4 16 -32
v -4 17 -32
v -4 32 -32
v -4 33 -32
v -4 47 -32
v -4 48 -32
v -3 5 -32
v -3 6 -32
v -3 30 -32
v -3 31 -32
v -3 48 -32
v -3 49 -32
v -3 50 -32
v -2 32 -32
v -2 33 -32
v -2 47 -32
v -2 48 -32
v -2 60 -32
v -2 61 -32
v -1 5 -32
v -1 6 -32
v -1 30 -32
v -1 31 -32
v -1 48 -32
v -1 49 -32
v -1 58 -32
v -1 59 -32
v -1 61 -32
v -1 62 -32
v 0 8 -32
v 0 9 -32
v 0 10 -32
v 0 59 -32
v 0 60 -32
v 0 61 -32
v 1 9 -32
v 1 10 -32
v 1 57 -32
v 1 58 -32
v 1 59 -32
v 1 61 -32
v 1 62 -32
v 2 8 -32
v 2 9 -32
v 2 28 -32
v 2 29 -32
v 2 37 -32
v 2 38 -32
v 2 59 -32
v 2 60 -32
v 3 22 -32
v 3 23 -32
v 3 36 -32
v 3 37 -32
v 3 57 -32
v 3 58 -32
v 4 23 -32
v 4 24 -32
v 4 28 -32
v 4 29 -32
v 4 30 -32
v 4 31 -32
v 4 37 -32
v 4 38 -32
v 4 44 -32
v 4 45 -32
v 5 10 -32
v 5 11 -32
v 5 21 -32
v 5 22 -32
v 5 23 -32
v 5 36 -32
v 5 37 -32
v 6 11 -32
v 6 12 -32
v 6 23 -32
v 6 24 -32
v 6 30 -32
v 6 31 -32
v 6 44 -32
v 6 45 -32
v 7 10 -32
v 7 11 -32
v 7 21 -32
v 7 22 -32
v 7 34 -32
v 7 35 -32
v 7 36 -32
v 7 37 -32
v 7 64 -32
v 7 65 -32
v 8 11 -32
v 8 12 -32
v 8 50 -32
v 8 51 -32
v 9 33 -32
v 9 34 -32
v 9 35 -32
v 9 49 -32
v 9 50 -32
v 9 64 -32
v 9 65 -32
v 10 5 -32
v 10 6 -32
v 10 50 -32
v 10 51 -32
v 11 33 -32
v 11 34 -32
v 11 49 -32
v 11 50 -32
v 12 5 -32
v 12 6 -32
v 13 18 -32
v 13 19 -32
v 14 47 -32
v 14 48 -32
v 15 18 -32
v 15 19 -32
v 15 20 -32
v 15 38 -32
v 15 39 -32
v 15 48 -32
v 15 49 -32
v 16 19 -32
v 16 20 -32
v 16 26 -32
v 16 27 -32
v 16 47 -32
v 16 48 -32
v 16 56 -32
v 16 57 -32
v 17 24 -32
v 17 25 -32
v 17 26 -32
v 17 38 -32
v 17 39 -32
v 17 48 -32
v 17 49 -32
v 17 54 -32
v 17 55 -32
v 17 61 -32
v 17 62 -32
v 18 16 -32
v 18 17 -32
v 18 24 -32
v 18 25 -32
v 18 26 -32
v 18 27 -32
v 18 56 -32
v 18 57 -32
v 18 61 -32
v 18 62 -32
v 19 24 -32
v 19 25 -32
v 19 26 -32
v 19 54 -32
v 19 55 -32
v 20 16 -32
v 20 17 -32
v 20 23 -32
v 20 24 -32
v 20 40 -32
v 20 41 -32
v 21 10 -32
v 21 11 -32
v 21 24 -32
v 21 25 -32
v 21 63 -32
v 21 64 -32
v 22 4 -32
v 22 10 -32
v 22 11 -32
v 22 23 -32
v 22 24 -32
v 22 40 -32
v 22 41 -32
v 22 63 -32
v 22 64 -32
v 22 67 -32
v -22 0 -33
v -22 4 -33
v -22 67 -33
v -22 69 -33
v 22 0 -33
v 22 4 -33
v 22 67 -33
v 22 69 -33
v -22 0 31
v -1 0 31
v 0 0 31
v -22 0 30
v -1 0 30
v 0 0 30
v 22 0 30
v -22 0 -31
v 22 0 -31
v -22 0 -33
v 22 0 -33
v -20 29 31
v -12 29 31
v -11 29 31
v -6 29 31
v -5 29 31
v -3 29 31
v -20 29 30
v -12 29 30
v -11 29 30
v -6 29 30
v -5 29 30
v -3 29 30
v -20 34 31
v -15 34 31
v -12 34 31
v -11 34 31
v -10 34 31
v -9 34 31
v -8 34 31
v -5 34 31
v -3 34 31
v -20 34 30
v -15 34 30
v -12 34 30
v -11 34 30
v -10 34 30
v -9 34 30
v -8 34 30
v -5 34 30
v -3 34 30
v -20 39 31
v -16 39 31
v -15 39 31
v -13 39 31
v -12 39 31
v -11 39 31
v -10 39 31
v -5 39 31
v -3 39 31
v -20 39 30
v -16 39 30
v -15 39 30
v -13 39 30
v -12 39 30
v -11 39 30
v -10 39 30
v -5 39 30
v -3 39 30
v 0 42 31
v 1 42 31
v 9 42 31
v 10 42 31
v 15 42 31
v 16 42 31
v 17 42 31
v 18 42 31
v 22 42 31
v 0 42 30
v 1 42 30
v 9 42 30
v 10 42 30
v 15 42 30
v 16 42 30
v 17 42 30
v 18 42 30
v 22 42 30
v -19 52 31
v -17 52 31
v -14 52 31
v -12 52 31
v -9 52 31
v -7 52 31
v -4 52 31
v -2 52 31
v 2 52 31
v 3 52 31
v 4 52 31
v 7 52 31
v 9 52 31
v 12 52 31
v 14 52 31
v 17 52 31
v 19 52 31
v -19 52 30
v -17 52 30
v -14 52 30
v -12 52 30
v -9 52 30
v -7 52 30
v -4 52 30
v -2 52 30
v 2 52 30
v 3 52 30
v 4 52 30
v 7 52 30
v 9 52 30
v 12 52 30
v 14 52 30
v 17 52 30
v 19 52 30
v -22 53 32
v 8 53 32
v 10 53 32
v 22 53 32
v -22 53 31
v -20 53 31
v -19 53 31
v -15 53 31
v -14 53 31
v 1 53 31
v 3 53 31
v 8 53 31
v 10 53 31
v 11 53 31
v 12 53 31
v 22 53 31
v -22 67 33
v 22 67 33
v -22 67 32
v 22 67 32
v -22 67 30
v 22 67 30
v -22 67 -30
v 22 67 -30
v -22 67 -32
v 22 67 -32
v -22 67 -33
v 22 67 -33
v -22 4 30
v -20 4 30
v -19 4 30
v -18 4 30
v -17 4 30
v -14 4 30
v -13 4 30
v -9 4 30
v -8 4 30
v -7 4 30
v -5 4 30
v -3 4 30
v -2 4 30
v -1 4 30
v 0 4 30
v 22 4 30
v -22 4 -30
v 22 4 -30
v -22 4 -32
v -20 4 -32
v -12 4 -32
v -10 4 -32
v 22 4 -32
v -22 4 -33
v 22 4 -33
v -20 25 31
v -16 25 31
v -15 25 31
v -12 25 31
v -11 25 31
v -5 25 31
v -3 25 31
v -20 25 30
v -16 25 30
v -15 25 30
v -12 25 30
v -11 25 30
v -5 25 30
v -3 25 30
v -20 30 31
v -12 30 31
v -11 30 31
v -6 30 31
v -5 30 31
v -3 30 31
v -20 30 30
v -12 30 30
v -11 30 30
v -6 30 30
v -5 30 30
v -3 30 30
v -20 35 31
v -15 35 31
v -12 35 31
v -11 35 31
v -10 35 31
v -9 35 31
v -8 35 31
v -5 35 31
v -3 35 31
v -20 35 30
v -15 35 30
v -12 35 30
v -11 35 30
v -10 35 30
v -9 35 30
v -8 35 30
v -5 35 30
v -3 35 30
v -19 43 31
v -17 43 31
v -14 43 31
v -13 43 31
v -12 43 31
v -9 43 31
v -7 43 31
v -4 43 31
v -2 43 31
v 2 43 31
v 4 43 31
v 7 43 31
v 9 43 31
v 12 43 31
v 14 43 31
v 17 43 31
v 18 43 31
v 19 43 31
v -19 43 30
v -17 43 30
v -14 43 30
v -13 43 30
v -12 43 30
v -9 43 30
v -7 43 30
v -4 43 30
v -2 43 30
v 2 43 30
v 4 43 30
v 7 43 30
v 9 43 30
v 12 43 30
v 14 43 30
v 17 43 30
v 18 43 30
v 19 43 30
v -22 69 33
v 22 69 33
v -22 69 31
v 22 69 31
v -22 69 -31
v 22 69 -31
v -22 69 -33
v 22 69 -33

# faces
f 5/1/1 2/1/1 1/1/1
f 5/3/1 3/3/1 2/3/1
f 6/3/1 3/3/1 5/3/1
f 7/8/1 4/8/1 3/8/1
f 7/3/1 3/3/1 6/3/1
f 8/8/1 4/8/1 7/8/1
f 9/8/1 4/8/1 8/8/1
f 10/3/1 7/3/1 6/3/1
f 10/4/1 8/4/1 7/4/1
f 11/4/1 8/4/1 10/4/1
f 12/3/1 10/3/1 6/3/1
f 12/3/1 11/3/1 10/3/1
f 13/3/1 11/3/1 12/3/1
f 14/3/1 12/3/1 6/3/1
f 14/6/1 13/6/1 12/6/1
f 15/6/1 13/6/1 14/6/1
f 16/3/1 14/3/1 6/3/1
f 16/3/1 15/3/1 14/3/1
f 17/3/1 15/3/1 16/3/1
f 18/3/1 16/3/1 6/3/1
f 18/4/1 17/4/1 16/4/1
f 19/4/1 17/4/1 18/4/1
f 20/3/1 18/3/1 6/3/1
f 20/5/1 19/5/1 18/5/1
f 21/5/1 19/5/1 20/5/1
f 22/1/1 5/1/1 1/1/1
f 23/1/1 5/1/1 22/1/1
f 24/2/1 23/2/1 22/2/1
f 25/2/1 23/2/1 24/2/1
f 27/1/1 25/1/1 24/1/1
f 28/1/1 25/1/1 27/1/1
f 30/3/1 27/3/1 26/3/1
f 30/3/1 28/3/1 27/3/1
f 31/3/1 28/3/1 30/3/1
f 32/3/1 28/3/1 31/3/1
f 33/3/1 20/3/1 6/3/1
f 33/3/1 21/3/1 20/3/1
f 34/3/1 21/3/1 33/3/1
f 35/3/1 21/3/1 34/3/1
f 37/8/1 31/8/1 30/8/1
f 37/8/1 30/8/1 29/8/1
f 38/3/1 34/3/1 33/3/1
f 38/8/1 31/8/1 37/8/1
f 38/3/1 33/3/1 32/3/1
f 38/3/1 32/3/1 31/3/1
f 39/8/1 35/8/1 34/8/1
f 39/3/1 34/3/1 38/3/1
f 39/8/1 36/8/1 35/8/1
f 40/8/1 36/8/1 39/8/1
f 43/1/1 42/1/1 41/1/1
f 44/1/1 42/1/1 43/1/1
f 45/7/1 44/7/1 43/7/1
f 46/7/1 44/7/1 45/7/1
f 47/1/1 46/1/1 45/1/1
f 48/1/1 46/1/1 47/1/1
f 49/7/1 48/7/1 47/7/1
f 50/7/1 48/7/1 49/7/1
f 53/1/1 52/1/1 51/1/1
f 54/1/1 52/1/1 53/1/1
f 57/1/1 56/1/1 55/1/1
f 58/1/1 56/1/1 57/1/1
f 61/1/1 60/1/1 59/1/1
f 62/1/1 60/1/1 61/1/1
f 65/1/1 64/1/1 63/1/1
f 66/1/1 64/1/1 65/1/1
f 69/1/1 68/1/1 67/1/1
f 70/1/1 68/1/1 69/1/1
f 73/1/1 72/1/1 71/1/1
f 74/1/1 72/1/1 73/1/1
f 77/1/1 76/1/1 75/1/1
f 78/1/1 76/1/1 77/1/1
f 81/1/1 80/1/1 79/1/1
f 82/1/1 80/1/1 81/1/1
f 85/1/1 84/1/1 83/1/1
f 86/1/1 84/1/1 85/1/1
f 87/7/1 86/7/1 85/7/1
f 88/7/1 86/7/1 87/7/1
f 89/1/1 88/1/1 87/1/1
f 90/1/1 88/1/1 89/1/1
f 91/7/1 90/7/1 89/7/1
f 92/7/1 90/7/1 91/7/1
f 95/1/1 94/1/1 93/1/1
f 96/1/1 94/1/1 95/1/1
f 97/7/1 96/7/1 95/7/1
f 98/7/1 96/7/1 97/7/1
f 99/1/1 98/1/1 97/1/1
f 100/1/1 98/1/1 99/1/1
f 103/1/1 102/1/1 101/1/1
f 104/1/1 102/1/1 103/1/1
f 105/7/1 104/7/1 103/7/1
f 106/7/1 104/7/1 105/7/1
f 107/1/1 106/1/1 105/1/1
f 108/1/1 106/1/1 107/1/1
f 109/7/1 108/7/1 107/7/1
f 110/7/1 108/7/1 109/7/1
f 111/1/1 110/1/1 109/1/1
f 112/1/1 110/1/1 111/1/1
f 115/1/1 114/1/1 113/1/1
f 116/1/1 114/1/1 115/1/1
f 119/1/1 118/1/1 117/1/1
f 120/1/1 118/1/1 119/1/1
f 121/1/2 122/1/2 123/1/2
f 123/1/2 122/1/2 124/1/2
f 125/1/2 126/1/2 127/1/2
f 127/1/2 126/1/2 128/1/2
f 129/1/2 130/1/2 131/1/2
f 131/1/2 130/1/2 132/1/2
f 133/1/2 134/1/2 135/1/2
f 135/1/2 134/1/2 136/1/2
f 135/7/2 136/7/2 137/7/2
f 137/7/2 136/7/2 138/7/2
f 139/1/2 140/1/2 141/1/2
f 141/1/2 140/1/2 142/1/2
f 141/7/2 142/7/2 143/7/2
f 143/7/2 142/7/2 144/7/2
f 143/1/2 144/1/2 145/1/2
f 145/1/2 144/1/2 146/1/2
f 145/7/2 146/7/2 147/7/2
f 147/7/2 146/7/2 148/7/2
f 147/1/2 148/1/2 149/1/2
f 149/1/2 148/1/2 150/1/2
f 149/7/2 150/7/2 151/7/2
f 151/7/2 150/7/2 152/7/2
f 153/1/2 154/1/2 155/1/2
f 155/1/2 154/1/2 156/1/2
f 157/1/2 158/1/2 159/1/2
f 159/1/2 158/1/2 160/1/2
f 161/1/2 162/1/2 163/1/2
f 163/1/2 162/1/2 164/1/2
f 165/1/2 166/1/2 167/1/2
f 167/1/2 166/1/2 168/1/2
f 169/1/2 170/1/2 171/1/2
f 171/1/2 170/1/2 172/1/2
f 173/2/2 174/2/2 175/2/2
f 173/2/2 175/2/2 176/2/2
f 176/2/2 175/2/2 177/2/2
f 178/1/2 179/1/2 180/1/2
f 180/1/2 179/1/2 181/1/2
f 180/7/2 181/7/2 182/7/2
f 182/7/2 181/7/2 183/7/2
f 182/1/2 183/1/2 184/1/2
f 184/1/2 183/1/2 185/1/2
f 184/7/2 185/7/2 186/7/2
f 186/7/2 185/7/2 187/7/2
f 188/1/2 189/1/2 190/1/2
f 190/1/2 189/1/2 191/1/2
f 190/7/2 191/7/2 192/7/2
f 192/7/2 191/7/2 193/7/2
f 192/1/2 193/1/2 194/1/2
f 194/1/2 193/1/2 195/1/2
f 196/7/2 197/7/2 198/7/2
f 198/7/2 197/7/2 199/7/2
f 198/1/2 199/1/2 200/1/2
f 200/1/2 199/1/2 201/1/2
f 202/1/2 203/1/2 204/1/2
f 204/1/2 203/1/2 205/1/2
f 204/7/2 205/7/2 206/7/2
f 206/7/2 205/7/2 207/7/2
f 206/1/2 207/1/2 208/1/2
f 208/1/2 207/1/2 209/1/2
f 210/3/2 211/3/2 213/3/2
f 213/3/2 211/3/2 214/3/2
f 211/8/2 212/8/2 215/8/2
f 214/3/2 211/3/2 215/3/2
f 215/8/2 212/8/2 216/8/2
f 216/8/2 212/8/2 217/8/2
f 214/3/2 215/3/2 218/3/2
f 215/3/2 216/3/2 218/3/2
f 218/3/2 216/3/2 219/3/2
f 214/3/2 218/3/2 220/3/2
f 218/6/2 219/6/2 220/6/2
f 220/6/2 219/6/2 221/6/2
f 214/3/2 220/3/2 222/3/2
f 220/3/2 221/3/2 222/3/2
f 222/3/2 221/3/2 223/3/2
f 214/3/2 222/3/2 224/3/2
f 222/4/2 223/4/2 224/4/2
f 224/4/2 223/4/2 225/4/2
f 214/3/2 224/3/2 226/3/2
f 224/3/2 225/3/2 226/3/2
f 226/3/2 225/3/2 227/3/2
f 214/3/2 226/3/2 228/3/2
f 226/4/2 227/4/2 228/4/2
f 228/4/2 227/4/2 229/4/2
f 230/1/2 231/1/2 233/1/2
f 233/1/2 231/1/2 234/1/2
f 214/3/2 228/3/2 235/3/2
f 228/3/2 229/3/2 235/3/2
f 235/3/2 229/3/2 236/3/2
f 214/3/2 235/3/2 237/3/2
f 235/4/2 236/4/2 237/4/2
f 237/4/2 236/4/2 238/4/2
f 233/3/2 234/3/2 240/3/2
f 232/3/2 233/3/2 240/3/2
f 240/3/2 234/3/2 241/3/2
f 241/3/2 234/3/2 242/3/2
f 237/3/2 238/3/2 243/3/2
f 214/3/2 237/3/2 243/3/2
f 243/3/2 238/3/2 244/3/2
f 244/3/2 238/3/2 245/3/2
f 239/8/2 240/8/2 247/8/2
f 240/8/2 241/8/2 247/8/2
f 243/3/2 244/3/2 248/3/2
f 247/8/2 241/8/2 248/8/2
f 242/3/2 243/3/2 248/3/2
f 241/3/2 242/3/2 248/3/2
f 244/8/2 245/8/2 249/8/2
f 248/3/2 244/3/2 249/3/2
f 245/8/2 246/8/2 249/8/2
f 249/8/2 246/8/2 250/8/2
f 253/8/3 252/8/3 251/8/3
f 254/8/3 252/8/3 253/8/3
f 257/3/3 256/3/3 255/3/3
f 258/3/3 256/3/3 257/3/3
f 259/3/3 257/3/3 255/3/3
f 259/6/3 258/6/3 257/6/3
f 260/3/3 256/3/3 258/3/3
f 260/6/3 258/6/3 259/6/3
f 261/3/3 259/3/3 255/3/3
f 261/3/3 260/3/3 259/3/3
f 262/3/3 256/3/3 260/3/3
f 262/3/3 260/3/3 261/3/3
f 263/3/3 261/3/3 255/3/3
f 264/3/3 261/3/3 263/3/3
f 265/7/3 262/7/3 261/7/3
f 265/3/3 261/3/3 264/3/3
f 266/3/3 256/3/3 262/3/3
f 266/7/3 262/7/3 265/7/3
f 267/7/3 264/7/3 263/7/3
f 267/3/3 263/3/3 255/3/3
f 268/3/3 265/3/3 264/3/3
f 268/7/3 264/7/3 267/7/3
f 268/3/3 266/3/3 265/3/3
f 269/3/3 256/3/3 266/3/3
f 269/3/3 266/3/3 268/3/3
f 269/3/3 268/3/3 267/3/3
f 270/3/3 256/3/3 269/3/3
f 271/4/3 270/4/3 269/4/3
f 271/3/3 256/3/3 270/3/3
f 272/3/3 256/3/3 271/3/3
f 273/3/3 269/3/3 267/3/3
f 273/4/3 271/4/3 269/4/3
f 274/5/3 272/5/3 271/5/3
f 274/4/3 271/4/3 273/4/3
f 275/3/3 273/3/3 267/3/3
f 275/3/3 274/3/3 273/3/3
f 276/3/3 274/3/3 275/3/3
f 277/5/3 272/5/3 274/5/3
f 277/3/3 274/3/3 276/3/3
f 278/3/3 256/3/3 272/3/3
f 278/5/3 272/5/3 277/5/3
f 279/7/3 276/7/3 275/7/3
f 279/3/3 275/3/3 267/3/3
f 280/3/3 277/3/3 276/3/3
f 280/7/3 276/7/3 279/7/3
f 280/3/3 278/3/3 277/3/3
f 281/3/3 267/3/3 255/3/3
f 281/3/3 279/3/3 267/3/3
f 281/3/3 280/3/3 279/3/3
f 282/3/3 280/3/3 281/3/3
f 283/3/3 281/3/3 255/3/3
f 284/3/3 281/3/3 283/3/3
f 285/5/3 282/5/3 281/5/3
f 285/3/3 281/3/3 284/3/3
f 286/3/3 280/3/3 282/3/3
f 286/5/3 282/5/3 285/5/3
f 287/6/3 284/6/3 283/6/3
f 287/3/3 283/3/3 255/3/3
f 288/3/3 285/3/3 284/3/3
f 288/6/3 284/6/3 287/6/3
f 288/3/3 286/3/3 285/3/3
f 289/3/3 278/3/3 280/3/3
f 289/3/3 286/3/3 288/3/3
f 289/3/3 288/3/3 287/3/3
f 289/3/3 280/3/3 286/3/3
f 290/3/3 278/3/3 289/3/3
f 291/3/3 287/3/3 255/3/3
f 291/3/3 289/3/3 287/3/3
f 292/3/3 289/3/3 291/3/3
f 293/6/3 290/6/3 289/6/3
f 293/3/3 289/3/3 292/3/3
f 294/3/3 278/3/3 290/3/3
f 294/6/3 290/6/3 293/6/3
f 295/3/3 293/3/3 292/3/3
f 295/3/3 278/3/3 294/3/3
f 295/3/3 294/3/3 293/3/3
f 296/3/3 278/3/3 295/3/3
f 297/6/3 292/6/3 291/6/3
f 298/3/3 295/3/3 292/3/3
f 298/6/3 292/6/3 297/6/3
f 299/3/3 295/3/3 298/3/3
f 300/3/3 295/3/3 299/3/3
f 301/5/3 296/5/3 295/5/3
f 301/3/3 295/3/3 300/3/3
f 302/3/3 278/3/3 296/3/3
f 302/5/3 296/5/3 301/5/3
f 303/4/3 300/4/3 299/4/3
f 303/3/3 298/3/3 297/3/3
f 303/3/3 299/3/3 298/3/3
f 304/3/3 301/3/3 300/3/3
f 304/4/3 300/4/3 303/4/3
f 304/3/3 302/3/3 301/3/3
f 305/3/3 304/3/3 303/3/3
f 305/3/3 302/3/3 304/3/3
f 306/3/3 302/3/3 305/3/3
f 307/3/3 303/3/3 297/3/3
f 307/3/3 305/3/3 303/3/3
f 308/5/3 306/5/3 305/5/3
f 308/3/3 305/3/3 307/3/3
f 309/4/3 308/4/3 307/4/3
f 309/5/3 306/5/3 308/5/3
f 310/3/3 302/3/3 306/3/3
f 310/5/3 306/5/3 309/5/3
f 311/4/3 309/4/3 307/4/3
f 311/3/3 307/3/3 297/3/3
f 312/3/3 310/3/3 309/3/3
f 312/4/3 309/4/3 311/4/3
f 313/3/3 302/3/3 310/3/3
f 313/3/3 310/3/3 312/3/3
f 313/3/3 312/3/3 311/3/3
f 314/3/3 302/3/3 313/3/3
f 315/3/3 313/3/3 311/3/3
f 315/5/3 314/5/3 313/5/3
f 316/3/3 302/3/3 314/3/3
f 316/5/3 314/5/3 315/5/3
f 317/3/3 311/3/3 297/3/3
f 317/3/3 315/3/3 311/3/3
f 317/3/3 316/3/3 315/3/3
f 318/3/3 256/3/3 278/3/3
f 318/3/3 316/3/3 317/3/3
f 318/3/3 302/3/3 316/3/3
f 318/3/3 278/3/3 302/3/3
f 323/1/3 322/1/3 321/1/3
f 324/1/3 322/1/3 323/1/3
f 325/1/3 320/1/3 319/1/3
f 326/1/3 320/1/3 325/1/3
f 327/1/3 320/1/3 326/1/3
f 328/1/3 320/1/3 327/1/3
f 329/1/3 320/1/3 328/1/3
f 330/1/3 320/1/3 329/1/3
f 331/1/3 320/1/3 330/1/3
f 332/1/3 320/1/3 331/1/3
f 333/1/3 320/1/3 332/1/3
f 334/1/3 320/1/3 333/1/3
f 335/1/3 323/1/3 321/1/3
f 335/7/3 324/7/3 323/7/3
f 336/7/3 324/7/3 335/7/3
f 337/1/3 322/1/3 324/1/3
f 337/7/3 324/7/3 336/7/3
f 338/1/3 322/1/3 337/1/3
f 339/1/3 325/1/3 319/1/3
f 339/7/3 326/7/3 325/7/3
f 340/1/3 327/1/3 326/1/3
f 340/7/3 326/7/3 339/7/3
f 341/7/3 328/7/3 327/7/3
f 341/1/3 327/1/3 340/1/3
f 342/7/3 328/7/3 341/7/3
f 343/1/3 336/1/3 335/1/3
f 343/1/3 335/1/3 321/1/3
f 344/7/3 338/7/3 337/7/3
f 344/1/3 336/1/3 343/1/3
f 344/7/3 337/7/3 336/7/3
f 345/7/3 338/7/3 344/7/3
f 346/7/3 338/7/3 345/7/3
f 347/1/3 341/1/3 340/1/3
f 347/1/3 340/1/3 339/1/3
f 347/1/3 342/1/3 341/1/3
f 348/7/3 328/7/3 342/7/3
f 348/1/3 342/1/3 347/1/3
f 349/7/3 328/7/3 348/7/3
f 350/1/3 329/1/3 328/1/3
f 350/7/3 328/7/3 349/7/3
f 351/1/3 347/1/3 339/1/3
f 351/7/3 349/7/3 348/7/3
f 351/7/3 348/7/3 347/7/3
f 352/7/3 349/7/3 351/7/3
f 353/1/3 350/1/3 349/1/3
f 353/7/3 349/7/3 352/7/3
f 354/1/3 350/1/3 353/1/3
f 355/1/3 343/1/3 321/1/3
f 359/1/3 346/1/3 345/1/3
f 360/1/3 352/1/3 351/1/3
f 360/7/3 353/7/3 352/7/3
f 360/7/3 354/7/3 353/7/3
f 361/7/3 354/7/3 360/7/3
f 362/7/3 354/7/3 361/7/3
f 363/7/3 354/7/3 362/7/3
f 364/1/3 350/1/3 354/1/3
f 364/7/3 354/7/3 363/7/3
f 365/1/3 329/1/3 350/1/3
f 365/1/3 350/1/3 364/1/3
f 366/1/3 320/1/3 334/1/3
f 367/1/3 320/1/3 366/1/3
f 368/1/3 355/1/3 321/1/3
f 368/1/3 356/1/3 355/1/3
f 369/7/3 357/7/3 356/7/3
f 369/1/3 356/1/3 368/1/3
f 370/1/3 358/1/3 357/1/3
f 370/7/3 357/7/3 369/7/3
f 371/7/3 359/7/3 358/7/3
f 371/1/3 358/1/3 370/1/3
f 372/7/3 359/7/3 371/7/3
f 373/1/3 346/1/3 359/1/3
f 373/7/3 359/7/3 372/7/3
f 374/1/3 360/1/3 351/1/3
f 374/1/3 361/1/3 360/1/3
f 375/7/3 362/7/3 361/7/3
f 375/1/3 361/1/3 374/1/3
f 376/1/3 363/1/3 362/1/3
f 376/7/3 362/7/3 375/7/3
f 377/7/3 364/7/3 363/7/3
f 377/1/3 363/1/3 376/1/3
f 377/7/3 365/7/3 364/7/3
f 378/7/3 365/7/3 377/7/3
f 379/7/3 365/7/3 378/7/3
f 380/1/3 333/1/3 332/1/3
f 381/1/3 333/1/3 380/1/3
f 382/7/3 367/7/3 366/7/3
f 383/1/3 320/1/3 367/1/3
f 383/7/3 367/7/3 382/7/3
f 384/7/3 371/7/3 370/7/3
f 384/7/3 369/7/3 368/7/3
f 384/7/3 370/7/3 369/7/3
f 384/7/3 372/7/3 371/7/3
f 384/1/3 368/1/3 321/1/3
f 385/7/3 372/7/3 384/7/3
f 386/7/3 372/7/3 385/7/3
f 387/7/3 372/7/3 386/7/3
f 388/7/3 372/7/3 387/7/3
f 389/7/3 372/7/3 388/7/3
f 390/1/3 373/1/3 372/1/3
f 390/7/3 372/7/3 389/7/3
f 391/1/3 346/1/3 373/1/3
f 391/1/3 373/1/3 390/1/3
f 392/1/3 374/1/3 351/1/3
f 393/7/3 376/7/3 375/7/3
f 393/1/3 374/1/3 392/1/3
f 393/7/3 375/7/3 374/7/3
f 393/7/3 378/7/3 377/7/3
f 393/7/3 377/7/3 376/7/3
f 394/2/3 321/2/3 320/2/3
f 394/1/3 384/1/3 321/1/3
f 394/1/3 385/1/3 384/1/3
f 395/1/3 385/1/3 394/1/3
f 396/7/3 386/7/3 385/7/3
f 396/1/3 385/1/3 395/1/3
f 397/1/3 387/1/3 386/1/3
f 397/7/3 386/7/3 396/7/3
f 398/7/3 388/7/3 387/7/3
f 398/1/3 387/1/3 397/1/3
f 399/1/3 389/1/3 388/1/3
f 399/7/3 388/7/3 398/7/3
f 400/7/3 391/7/3 390/7/3
f 400/1/3 389/1/3 399/1/3
f 400/7/3 390/7/3 389/7/3
f 401/7/3 391/7/3 400/7/3
f 402/7/3 391/7/3 401/7/3
f 403/1/3 392/1/3 351/1/3
f 403/7/3 393/7/3 392/7/3
f 404/7/3 378/7/3 393/7/3
f 404/7/3 393/7/3 403/7/3
f 405/1/3 383/1/3 382/1/3
f 406/1/3 320/1/3 383/1/3
f 406/1/3 383/1/3 405/1/3
f 407/7/3 395/7/3 394/7/3
f 407/2/3 394/2/3 320/2/3
f 408/7/3 395/7/3 407/7/3
f 409/7/3 378/7/3 404/7/3
f 409/1/3 404/1/3 403/1/3
f 410/1/3 379/1/3 378/1/3
f 410/7/3 378/7/3 409/7/3
f 411/1/3 379/1/3 410/1/3
f 412/1/3 331/1/3 330/1/3
f 413/1/3 331/1/3 412/1/3
f 414/7/3 381/7/3 380/7/3
f 415/7/3 381/7/3 414/7/3
f 416/7/3 406/7/3 405/7/3
f 417/1/3 320/1/3 406/1/3
f 417/7/3 406/7/3 416/7/3
f 418/1/3 408/1/3 407/1/3
f 419/1/3 402/1/3 401/1/3
f 420/1/3 417/1/3 416/1/3
f 420/1/3 409/1/3 403/1/3
f 420/1/3 411/1/3 410/1/3
f 420/1/3 416/1/3 415/1/3
f 420/1/3 413/1/3 412/1/3
f 420/1/3 414/1/3 413/1/3
f 420/1/3 415/1/3 414/1/3
f 420/1/3 412/1/3 411/1/3
f 420/1/3 410/1/3 409/1/3
f 421/1/3 417/1/3 420/1/3
f 422/1/3 417/1/3 421/1/3
f 423/1/3 417/1/3 422/1/3
f 424/1/3 417/1/3 423/1/3
f 425/1/3 417/1/3 424/1/3
f 426/1/3 417/1/3 425/1/3
f 427/1/3 417/1/3 426/1/3
f 428/1/3 403/1/3 351/1/3
f 428/1/3 339/1/3 319/1/3
f 428/1/3 351/1/3 339/1/3
f 428/1/3 420/1/3 403/1/3
f 429/1/3 420/1/3 428/1/3
f 430/1/3 422/1/3 421/1/3
f 431/1/3 422/1/3 430/1/3
f 432/1/3 426/1/3 425/1/3
f 433/1/3 426/1/3 432/1/3
f 434/1/3 417/1/3 427/1/3
f 435/1/3 320/1/3 417/1/3
f 435/1/3 417/1/3 434/1/3
f 435/2/3 407/2/3 320/2/3
f 436/1/3 428/1/3 319/1/3
f 436/7/3 429/7/3 428/7/3
f 437/1/3 420/1/3 429/1/3
f 437/7/3 429/7/3 436/7/3
f 438/1/3 420/1/3 437/1/3
f 439/1/3 420/1/3 438/1/3
f 440/7/3 421/7/3 420/7/3
f 440/1/3 420/1/3 439/1/3
f 441/7/3 421/7/3 440/7/3
f 442/1/3 430/1/3 421/1/3
f 442/7/3 421/7/3 441/7/3
f 443/7/3 431/7/3 430/7/3
f 443/1/3 430/1/3 442/1/3
f 444/7/3 433/7/3 432/7/3
f 445/7/3 433/7/3 444/7/3
f 446/7/3 435/7/3 434/7/3
f 447/2/3 407/2/3 435/2/3
f 447/7/3 435/7/3 446/7/3
f 448/1/3 418/1/3 407/1/3
f 448/1/3 419/1/3 418/1/3
f 449/1/3 402/1/3 419/1/3
f 449/1/3 419/1/3 448/1/3
f 450/7/3 439/7/3 438/7/3
f 450/1/3 437/1/3 436/1/3
f 450/1/3 438/1/3 437/1/3
f 451/1/3 441/1/3 440/1/3
f 451/7/3 439/7/3 450/7/3
f 451/1/3 440/1/3 439/1/3
f 452/1/3 441/1/3 451/1/3
f 453/1/3 441/1/3 452/1/3
f 454/1/3 441/1/3 453/1/3
f 455/7/3 442/7/3 441/7/3
f 455/1/3 441/1/3 454/1/3
f 455/7/3 443/7/3 442/7/3
f 456/7/3 431/7/3 443/7/3
f 456/7/3 443/7/3 455/7/3
f 457/1/3 422/1/3 431/1/3
f 457/7/3 431/7/3 456/7/3
f 458/1/3 445/1/3 444/1/3
f 459/1/3 445/1/3 458/1/3
f 460/1/3 436/1/3 319/1/3
f 460/1/3 450/1/3 436/1/3
f 460/1/3 451/1/3 450/1/3
f 460/1/3 452/1/3 451/1/3
f 461/1/3 452/1/3 460/1/3
f 462/1/3 452/1/3 461/1/3
f 463/7/3 453/7/3 452/7/3
f 463/1/3 452/1/3 462/1/3
f 464/7/3 453/7/3 463/7/3
f 465/1/3 454/1/3 453/1/3
f 465/7/3 453/7/3 464/7/3
f 466/1/3 454/1/3 465/1/3
f 467/7/3 455/7/3 454/7/3
f 467/1/3 454/1/3 466/1/3
f 467/7/3 456/7/3 455/7/3
f 468/7/3 456/7/3 467/7/3
f 469/1/3 457/1/3 456/1/3
f 469/7/3 456/7/3 468/7/3
f 470/1/3 448/1/3 407/1/3
f 471/1/3 402/1/3 449/1/3
f 472/1/3 460/1/3 319/1/3
f 472/7/3 461/7/3 460/7/3
f 473/1/3 462/1/3 461/1/3
f 473/7/3 461/7/3 472/7/3
f 474/7/3 464/7/3 463/7/3
f 474/1/3 462/1/3 473/1/3
f 474/7/3 463/7/3 462/7/3
f 475/1/3 424/1/3 423/1/3
f 476/1/3 424/1/3 475/1/3
f 477/1/3 473/1/3 472/1/3
f 477/7/3 474/7/3 473/7/3
f 478/1/3 466/1/3 465/1/3
f 478/7/3 474/7/3 477/7/3
f 478/1/3 465/1/3 464/1/3
f 478/7/3 464/7/3 474/7/3
f 479/1/3 469/1/3 468/1/3
f 479/7/3 468/7/3 467/7/3
f 479/7/3 467/7/3 466/7/3
f 480/1/3 457/1/3 469/1/3
f 480/1/3 469/1/3 479/1/3
f 480/1/3 422/1/3 457/1/3
f 481/7/3 476/7/3 475/7/3
f 482/7/3 476/7/3 481/7/3
f 483/7/3 459/7/3 458/7/3
f 484/7/3 459/7/3 483/7/3
f 485/7/3 446/7/3 434/7/3
f 486/1/3 447/1/3 446/1/3
f 486/7/3 446/7/3 485/7/3
f 487/1/3 477/1/3 472/1/3
f 487/1/3 478/1/3 477/1/3
f 488/1/3 478/1/3 487/1/3
f 489/1/3 478/1/3 488/1/3
f 490/1/3 478/1/3 489/1/3
f 491/1/3 478/1/3 490/1/3
f 492/1/3 478/1/3 491/1/3
f 493/1/3 466/1/3 478/1/3
f 493/1/3 478/1/3 492/1/3
f 494/7/3 479/7/3 466/7/3
f 494/1/3 466/1/3 493/1/3
f 494/7/3 480/7/3 479/7/3
f 495/7/3 480/7/3 494/7/3
f 496/1/3 470/1/3 407/1/3
f 496/1/3 471/1/3 470/1/3
f 497/1/3 402/1/3 471/1/3
f 497/1/3 471/1/3 496/1/3
f 498/1/3 487/1/3 472/1/3
f 498/7/3 488/7/3 487/7/3
f 499/1/3 489/1/3 488/1/3
f 499/7/3 488/7/3 498/7/3
f 500/1/3 489/1/3 499/1/3
f 501/7/3 490/7/3 489/7/3
f 501/1/3 489/1/3 500/1/3
f 502/1/3 491/1/3 490/1/3
f 502/7/3 490/7/3 501/7/3
f 503/1/3 493/1/3 492/1/3
f 503/7/3 492/7/3 491/7/3
f 504/7/3 494/7/3 493/7/3
f 504/1/3 493/1/3 503/1/3
f 505/1/3 495/1/3 494/1/3
f 505/7/3 494/7/3 504/7/3
f 506/7/3 480/7/3 495/7/3
f 506/1/3 495/1/3 505/1/3
f 507/7/3 480/7/3 506/7/3
f 508/7/3 480/7/3 507/7/3
f 509/1/3 482/1/3 481/1/3
f 510/1/3 482/1/3 509/1/3
f 511/1/3 484/1/3 483/1/3
f 512/1/3 484/1/3 511/1/3
f 513/1/3 486/1/3 485/1/3
f 514/7/3 501/7/3 500/7/3
f 514/1/3 500/1/3 499/1/3
f 514/1/3 499/1/3 498/1/3
f 515/1/3 502/1/3 501/1/3
f 515/7/3 501/7/3 514/7/3
f 516/1/3 491/1/3 502/1/3
f 516/1/3 502/1/3 515/1/3
f 516/7/3 505/7/3 504/7/3
f 516/7/3 504/7/3 503/7/3
f 516/7/3 503/7/3 491/7/3
f 516/7/3 506/7/3 505/7/3
f 516/7/3 507/7/3 506/7/3
f 517/1/3 513/1/3 512/1/3
f 517/7/3 507/7/3 516/7/3
f 517/1/3 511/1/3 510/1/3
f 517/1/3 510/1/3 509/1/3
f 517/1/3 508/1/3 507/1/3
f 517/1/3 512/1/3 511/1/3
f 517/1/3 509/1/3 508/1/3
f 518/1/3 496/1/3 407/1/3
f 522/1/3 402/1/3 497/1/3
f 523/1/3 515/1/3 514/1/3
f 523/1/3 516/1/3 515/1/3
f 523/1/3 514/1/3 498/1/3
f 523/1/3 472/1/3 319/1/3
f 523/1/3 498/1/3 472/1/3
f 523/1/3 517/1/3 516/1/3
f 524/1/3 447/1/3 486/1/3
f 524/1/3 517/1/3 523/1/3
f 524/2/3 407/2/3 447/2/3
f 524/1/3 486/1/3 513/1/3
f 524/1/3 513/1/3 517/1/3
f 525/1/3 518/1/3 407/1/3
f 525/1/3 519/1/3 518/1/3
f 526/7/3 520/7/3 519/7/3
f 526/1/3 519/1/3 525/1/3
f 527/1/3 521/1/3 520/1/3
f 527/7/3 520/7/3 526/7/3
f 528/7/3 522/7/3 521/7/3
f 528/1/3 521/1/3 527/1/3
f 529/7/3 522/7/3 528/7/3
f 530/1/3 402/1/3 522/1/3
f 530/7/3 522/7/3 529/7/3
f 531/2/3 524/2/3 523/2/3
f 532/2/3 407/2/3 524/2/3
f 532/2/3 524/2/3 531/2/3
f 532/1/3 525/1/3 407/1/3
f 533/7/3 526/7/3 525/7/3
f 533/1/3 525/1/3 532/1/3
f 534/1/3 527/1/3 526/1/3
f 534/7/3 526/7/3 533/7/3
f 535/7/3 529/7/3 528/7/3
f 535/1/3 527/1/3 534/1/3
f 535/7/3 528/7/3 527/7/3
f 536/7/3 533/7/3 532/7/3
f 536/7/3 534/7/3 533/7/3
f 536/7/3 535/7/3 534/7/3
f 537/7/3 529/7/3 535/7/3
f 537/7/3 535/7/3 536/7/3
f 538/7/3 529/7/3 537/7/3
f 539/7/3 529/7/3 538/7/3
f 540/1/3 530/1/3 529/1/3
f 540/7/3 529/7/3 539/7/3
f 541/1/3 402/1/3 530/1/3
f 541/1/3 530/1/3 540/1/3
f 542/1/3 537/1/3 536/1/3
f 543/7/3 538/7/3 537/7/3
f 543/1/3 537/1/3 542/1/3
f 544/1/3 539/1/3 538/1/3
f 544/7/3 538/7/3 543/7/3
f 545/7/3 540/7/3 539/7/3
f 545/1/3 539/1/3 544/1/3
f 545/7/3 541/7/3 540/7/3
f 546/7/3 541/7/3 545/7/3
f 547/7/3 541/7/3 546/7/3
f 548/7/3 541/7/3 547/7/3
f 549/1/3 542/1/3 536/1/3
f 552/1/3 548/1/3 547/1/3
f 553/1/3 549/1/3 536/1/3
f 553/1/3 550/1/3 549/1/3
f 554/1/3 550/1/3 553/1/3
f 555/7/3 551/7/3 550/7/3
f 555/1/3 550/1/3 554/1/3
f 556/7/3 551/7/3 555/7/3
f 557/7/3 554/7/3 553/7/3
f 557/1/3 553/1/3 536/1/3
f 558/1/3 556/1/3 555/1/3
f 558/7/3 554/7/3 557/7/3
f 558/1/3 555/1/3 554/1/3
f 559/1/3 556/1/3 558/1/3
f 560/7/3 551/7/3 556/7/3
f 560/1/3 556/1/3 559/1/3
f 561/1/3 552/1/3 551/1/3
f 561/7/3 551/7/3 560/7/3
f 562/1/3 557/1/3 536/1/3
f 562/1/3 558/1/3 557/1/3
f 563/7/3 559/7/3 558/7/3
f 563/1/3 558/1/3 562/1/3
f 564/1/3 560/1/3 559/1/3
f 564/7/3 559/7/3 563/7/3
f 564/1/3 561/1/3 560/1/3
f 565/1/3 548/1/3 552/1/3
f 565/1/3 561/1/3 564/1/3
f 565/1/3 552/1/3 561/1/3
f 566/1/3 548/1/3 565/1/3
f 567/1/3 562/1/3 536/1/3
f 568/1/3 562/1/3 567/1/3
f 573/1/3 566/1/3 565/1/3
f 574/7/3 568/7/3 567/7/3
f 575/1/3 569/1/3 568/1/3
f 575/7/3 568/7/3 574/7/3
f 576/7/3 570/7/3 569/7/3
f 576/1/3 571/1/3 570/1/3
f 577/7/3 572/7/3 571/7/3
f 577/1/3 571/1/3 576/1/3
f 578/1/3 573/1/3 572/1/3
f 578/7/3 572/7/3 577/7/3
f 579/1/3 566/1/3 573/1/3
f 579/1/3 573/1/3 578/1/3
f 580/1/3 566/1/3 579/1/3
f 581/1/3 569/1/3 575/1/3
f 581/1/3 575/1/3 574/1/3
f 582/7/3 576/7/3 569/7/3
f 582/1/3 569/1/3 581/1/3
f 582/7/3 577/7/3 576/7/3
f 582/7/3 579/7/3 578/7/3
f 582/7/3 578/7/3 577/7/3
f 583/7/3 579/7/3 582/7/3
f 584/1/3 580/1/3 579/1/3
f 584/7/3 579/7/3 583/7/3
f 585/1/3 580/1/3 584/1/3
f 586/1/3 581/1/3 574/1/3
f 586/7/3 583/7/3 582/7/3
f 586/7/3 582/7/3 581/7/3
f 587/1/3 584/1/3 583/1/3
f 587/7/3 583/7/3 586/7/3
f 588/7/3 585/7/3 584/7/3
f 588/1/3 584/1/3 587/1/3
f 589/7/3 585/7/3 588/7/3
f 590/1/3 586/1/3 574/1/3
f 591/1/3 589/1/3 588/1/3
f 592/1/3 590/1/3 574/1/3
f 592/1/3 591/1/3 590/1/3
f 593/1/3 591/1/3 592/1/3
f 594/1/3 591/1/3 593/1/3
f 595/1/3 591/1/3 594/1/3
f 596/7/3 593/7/3 592/7/3
f 597/7/3 593/7/3 596/7/3
f 598/1/3 594/1/3 593/1/3
f 598/7/3 593/7/3 597/7/3
f 599/1/3 594/1/3 598/1/3
f 600/7/3 595/7/3 594/7/3
f 600/1/3 594/1/3 599/1/3
f 601/1/3 591/1/3 595/1/3
f 601/7/3 595/7/3 600/7/3
f 602/1/3 597/1/3 596/1/3
f 603/1/3 597/1/3 602/1/3
f 604/7/3 599/7/3 598/7/3
f 604/1/3 597/1/3 603/1/3
f 604/7/3 598/7/3 597/7/3
f 605/1/3 600/1/3 599/1/3
f 605/7/3 599/7/3 604/7/3
f 605/1/3 601/1/3 600/1/3
f 606/1/3 589/1/3 591/1/3
f 606/1/3 601/1/3 605/1/3
f 606/1/3 591/1/3 601/1/3
f 607/7/3 603/7/3 602/7/3
f 608/7/3 603/7/3 607/7/3
f 609/1/3 608/1/3 607/1/3
f 610/1/3 589/1/3 606/1/3
f 611/1/3 609/1/3 607/1/3
f 611/1/3 610/1/3 609/1/3
f 612/1/3 589/1/3 610/1/3
f 612/1/3 610/1/3 611/1/3
f 615/3/3 614/3/3 613/3/3
f 616/3/3 614/3/3 615/3/3
f 619/3/3 618/3/3 617/3/3
f 620/3/3 618/3/3 619/3/3
f 623/1/4 624/1/4 626/1/4
f 626/1/4 624/1/4 627/1/4
f 621/1/4 622/1/4 628/1/4
f 628/1/4 622/1/4 629/1/4
f 629/1/4 622/1/4 630/1/4
f 630/1/4 622/1/4 631/1/4
f 631/1/4 622/1/4 632/1/4
f 632/1/4 622/1/4 633/1/4
f 633/1/4 622/1/4 634/1/4
f 634/1/4 622/1/4 635/1/4
f 623/1/4 626/1/4 636/1/4
f 626/7/4 627/7/4 636/7/4
f 636/7/4 627/7/4 637/7/4
f 627/1/4 624/1/4 638/1/4
f 637/7/4 627/7/4 638/7/4
f 624/3/4 625/3/4 639/3/4
f 638/1/4 624/1/4 639/1/4
f 628/7/4 629/7/4 640/7/4
f 640/7/4 629/7/4 641/7/4
f 636/1/4 637/1/4 642/1/4
f 623/1/4 636/1/4 642/1/4
f 637/7/4 638/7/4 643/7/4
f 642/1/4 637/1/4 643/1/4
f 638/7/4 639/7/4 643/7/4
f 643/7/4 639/7/4 644/7/4
f 639/3/4 625/3/4 645/3/4
f 644/7/4 639/7/4 645/7/4
f 640/1/4 641/1/4 646/1/4
f 641/7/4 629/7/4 647/7/4
f 646/1/4 641/1/4 647/1/4
f 647/7/4 629/7/4 648/7/4
f 629/1/4 630/1/4 649/1/4
f 648/7/4 629/7/4 649/7/4
f 647/7/4 648/7/4 650/7/4
f 646/7/4 647/7/4 650/7/4
f 650/7/4 648/7/4 651/7/4
f 648/1/4 649/1/4 652/1/4
f 651/7/4 648/7/4 652/7/4
f 652/1/4 649/1/4 653/1/4
f 623/1/4 642/1/4 654/1/4
f 644/1/4 645/1/4 658/1/4
f 650/1/4 651/1/4 659/1/4
f 651/7/4 652/7/4 659/7/4
f 652/7/4 653/7/4 659/7/4
f 659/7/4 653/7/4 660/7/4
f 660/7/4 653/7/4 661/7/4
f 661/7/4 653/7/4 662/7/4
f 653/1/4 649/1/4 663/1/4
f 662/7/4 653/7/4 663/7/4
f 649/1/4 630/1/4 664/1/4
f 663/1/4 649/1/4 664/1/4
f 635/1/4 622/1/4 665/1/4
f 665/1/4 622/1/4 666/1/4
f 623/1/4 654/1/4 667/1/4
f 654/1/4 655/1/4 667/1/4
f 655/7/4 656/7/4 668/7/4
f 667/1/4 655/1/4 668/1/4
f 656/1/4 657/1/4 669/1/4
f 668/7/4 656/7/4 669/7/4
f 657/7/4 658/7/4 670/7/4
f 669/1/4 657/1/4 670/1/4
f 670/7/4 658/7/4 671/7/4
f 658/1/4 645/1/4 672/1/4
f 671/7/4 658/7/4 672/7/4
f 650/1/4 659/1/4 673/1/4
f 659/1/4 660/1/4 673/1/4
f 660/7/4 661/7/4 674/7/4
f 673/1/4 660/1/4 674/1/4
f 661/1/4 662/1/4 675/1/4
f 674/7/4 661/7/4 675/7/4
f 663/7/4 664/7/4 676/7/4
f 675/1/4 662/1/4 676/1/4
f 662/7/4 663/7/4 676/7/4
f 676/7/4 664/7/4 677/7/4
f 677/7/4 664/7/4 678/7/4
f 633/1/4 634/1/4 679/1/4
f 679/1/4 634/1/4 680/1/4
f 665/7/4 666/7/4 681/7/4
f 666/1/4 622/1/4 682/1/4
f 681/7/4 666/7/4 682/7/4
f 669/7/4 670/7/4 683/7/4
f 667/7/4 668/7/4 683/7/4
f 668/7/4 669/7/4 683/7/4
f 670/7/4 671/7/4 683/7/4
f 623/1/4 667/1/4 683/1/4
f 683/7/4 671/7/4 684/7/4
f 684/7/4 671/7/4 685/7/4
f 685/7/4 671/7/4 686/7/4
f 686/7/4 671/7/4 687/7/4
f 687/7/4 671/7/4 688/7/4
f 671/1/4 672/1/4 689/1/4
f 688/7/4 671/7/4 689/7/4
f 645/3/4 625/3/4 690/3/4
f 689/1/4 672/1/4 690/1/4
f 672/1/4 645/1/4 690/1/4
f 650/1/4 673/1/4 691/1/4
f 673/7/4 674/7/4 692/7/4
f 691/1/4 673/1/4 692/1/4
f 674/7/4 675/7/4 692/7/4
f 676/7/4 677/7/4 692/7/4
f 675/7/4 676/7/4 692/7/4
f 622/2/4 623/2/4 693/2/4
f 623/1/4 683/1/4 693/1/4
f 683/1/4 684/1/4 693/1/4
f 693/1/4 684/1/4 694/1/4
f 684/7/4 685/7/4 695/7/4
f 694/1/4 684/1/4 695/1/4
f 685/1/4 686/1/4 696/1/4
f 695/7/4 685/7/4 696/7/4
f 686/7/4 687/7/4 697/7/4
f 696/1/4 686/1/4 697/1/4
f 687/1/4 688/1/4 698/1/4
f 697/7/4 687/7/4 698/7/4
f 689/7/4 690/7/4 699/7/4
f 698/1/4 688/1/4 699/1/4
f 688/7/4 689/7/4 699/7/4
f 699/7/4 690/7/4 700/7/4
f 690/3/4 625/3/4 701/3/4
f 700/7/4 690/7/4 701/7/4
f 691/7/4 692/7/4 702/7/4
f 692/7/4 677/7/4 703/7/4
f 702/7/4 692/7/4 703/7/4
f 681/1/4 682/1/4 704/1/4
f 682/1/4 622/1/4 705/1/4
f 704/1/4 682/1/4 705/1/4
f 622/2/4 693/2/4 706/2/4
f 693/7/4 694/7/4 706/7/4
f 706/7/4 694/7/4 707/7/4
f 703/7/4 677/7/4 708/7/4
f 702/1/4 703/1/4 708/1/4
f 677/1/4 678/1/4 709/1/4
f 708/7/4 677/7/4 709/7/4
f 709/1/4 678/1/4 710/1/4
f 631/1/4 632/1/4 711/1/4
f 711/1/4 632/1/4 712/1/4
f 679/7/4 680/7/4 713/7/4
f 713/7/4 680/7/4 714/7/4
f 704/7/4 705/7/4 715/7/4
f 705/1/4 622/1/4 716/1/4
f 715/7/4 705/7/4 716/7/4
f 706/1/4 707/1/4 717/1/4
f 700/1/4 701/1/4 718/1/4
f 714/1/4 715/1/4 719/1/4
f 709/1/4 710/1/4 719/1/4
f 702/1/4 708/1/4 719/1/4
f 715/1/4 716/1/4 719/1/4
f 711/1/4 712/1/4 719/1/4
f 712/1/4 713/1/4 719/1/4
f 713/1/4 714/1/4 719/1/4
f 710/1/4 711/1/4 719/1/4
f 708/1/4 709/1/4 719/1/4
f 719/1/4 716/1/4 720/1/4
f 720/1/4 716/1/4 721/1/4
f 721/1/4 716/1/4 722/1/4
f 722/1/4 716/1/4 723/1/4
f 723/1/4 716/1/4 724/1/4
f 724/1/4 716/1/4 725/1/4
f 725/1/4 716/1/4 726/1/4
f 720/1/4 721/1/4 727/1/4
f 727/1/4 721/1/4 728/1/4
f 724/1/4 725/1/4 729/1/4
f 729/1/4 725/1/4 730/1/4
f 726/1/4 716/1/4 731/1/4
f 716/1/4 622/1/4 732/1/4
f 731/1/4 716/1/4 732/1/4
f 622/2/4 706/2/4 732/2/4
f 702/1/4 719/1/4 733/1/4
f 733/1/4 719/1/4 734/1/4
f 719/7/4 720/7/4 735/7/4
f 734/1/4 719/1/4 735/1/4
f 735/7/4 720/7/4 736/7/4
f 720/1/4 727/1/4 737/1/4
f 736/7/4 720/7/4 737/7/4
f 727/7/4 728/7/4 738/7/4
f 737/1/4 727/1/4 738/1/4
f 729/7/4 730/7/4 739/7/4
f 739/7/4 730/7/4 740/7/4
f 731/7/4 732/7/4 741/7/4
f 732/2/4 706/2/4 742/2/4
f 741/7/4 732/7/4 742/7/4
f 717/1/4 718/1/4 743/1/4
f 706/1/4 717/1/4 743/1/4
f 718/1/4 701/1/4 744/1/4
f 743/1/4 718/1/4 744/1/4
f 733/7/4 734/7/4 745/7/4
f 735/1/4 736/1/4 746/1/4
f 745/7/4 734/7/4 746/7/4
f 734/1/4 735/1/4 746/1/4
f 746/1/4 736/1/4 747/1/4
f 747/1/4 736/1/4 748/1/4
f 748/1/4 736/1/4 749/1/4
f 736/7/4 737/7/4 750/7/4
f 749/1/4 736/1/4 750/1/4
f 737/7/4 738/7/4 750/7/4
f 738/7/4 728/7/4 751/7/4
f 750/7/4 738/7/4 751/7/4
f 728/1/4 721/1/4 752/1/4
f 751/7/4 728/7/4 752/7/4
f 739/1/4 740/1/4 753/1/4
f 753/1/4 740/1/4 754/1/4
f 745/1/4 746/1/4 755/1/4
f 746/1/4 747/1/4 755/1/4
f 747/7/4 748/7/4 756/7/4
f 755/1/4 747/1/4 756/1/4
f 756/7/4 748/7/4 757/7/4
f 748/1/4 749/1/4 758/1/4
f 757/7/4 748/7/4 758/7/4
f 758/1/4 749/1/4 759/1/4
f 749/7/4 750/7/4 760/7/4
f 759/1/4 749/1/4 760/1/4
f 750/7/4 751/7/4 760/7/4
f 760/7/4 751/7/4 761/7/4
f 751/1/4 752/1/4 762/1/4
f 761/7/4 751/7/4 762/7/4
f 706/1/4 743/1/4 763/1/4
f 744/1/4 701/1/4 764/1/4
f 722/1/4 723/1/4 765/1/4
f 765/1/4 723/1/4 766/1/4
f 756/7/4 757/7/4 767/7/4
f 755/7/4 756/7/4 767/7/4
f 758/1/4 759/1/4 768/1/4
f 767/7/4 757/7/4 768/7/4
f 757/1/4 758/1/4 768/1/4
f 761/1/4 762/1/4 769/1/4
f 760/7/4 761/7/4 769/7/4
f 759/7/4 760/7/4 769/7/4
f 762/1/4 752/1/4 770/1/4
f 769/1/4 762/1/4 770/1/4
f 752/1/4 721/1/4 770/1/4
f 765/7/4 766/7/4 771/7/4
f 771/7/4 766/7/4 772/7/4
f 753/7/4 754/7/4 773/7/4
f 773/7/4 754/7/4 774/7/4
f 731/7/4 741/7/4 775/7/4
f 741/1/4 742/1/4 776/1/4
f 775/7/4 741/7/4 776/7/4
f 767/1/4 768/1/4 777/1/4
f 777/1/4 768/1/4 778/1/4
f 778/1/4 768/1/4 779/1/4
f 779/1/4 768/1/4 780/1/4
f 768/1/4 759/1/4 781/1/4
f 780/1/4 768/1/4 781/1/4
f 759/7/4 769/7/4 782/7/4
f 781/1/4 759/1/4 782/1/4
f 769/7/4 770/7/4 782/7/4
f 782/7/4 770/7/4 783/7/4
f 706/1/4 763/1/4 784/1/4
f 763/1/4 764/1/4 784/1/4
f 764/1/4 701/1/4 785/1/4
f 784/1/4 764/1/4 785/1/4
f 767/1/4 777/1/4 786/1/4
f 777/7/4 778/7/4 787/7/4
f 786/1/4 777/1/4 787/1/4
f 778/1/4 779/1/4 788/1/4
f 787/7/4 778/7/4 788/7/4
f 780/1/4 781/1/4 789/1/4
f 779/7/4 780/7/4 789/7/4
f 781/7/4 782/7/4 790/7/4
f 789/1/4 781/1/4 790/1/4
f 782/1/4 783/1/4 791/1/4
f 790/7/4 782/7/4 791/7/4
f 783/7/4 770/7/4 792/7/4
f 791/1/4 783/1/4 792/1/4
f 792/7/4 770/7/4 793/7/4
f 793/7/4 770/7/4 794/7/4
f 771/1/4 772/1/4 795/1/4
f 795/1/4 772/1/4 796/1/4
f 773/1/4 774/1/4 797/1/4
f 797/1/4 774/1/4 798/1/4
f 775/1/4 776/1/4 799/1/4
f 786/7/4 787/7/4 800/7/4
f 787/1/4 788/1/4 801/1/4
f 800/7/4 787/7/4 801/7/4
f 788/1/4 779/1/4 802/1/4
f 801/1/4 788/1/4 802/1/4
f 790/7/4 791/7/4 802/7/4
f 789/7/4 790/7/4 802/7/4
f 779/7/4 789/7/4 802/7/4
f 791/7/4 792/7/4 802/7/4
f 792/7/4 793/7/4 802/7/4
f 795/1/4 796/1/4 803/1/4
f 802/7/4 793/7/4 803/7/4
f 793/1/4 794/1/4 803/1/4
f 798/1/4 799/1/4 803/1/4
f 794/1/4 795/1/4 803/1/4
f 797/1/4 798/1/4 803/1/4
f 796/1/4 797/1/4 803/1/4
f 706/1/4 784/1/4 804/1/4
f 785/1/4 701/1/4 808/1/4
f 800/1/4 801/1/4 809/1/4
f 801/1/4 802/1/4 809/1/4
f 802/1/4 803/1/4 809/1/4
f 742/2/4 706/2/4 810/2/4
f 809/1/4 803/1/4 810/1/4
f 799/1/4 776/1/4 810/1/4
f 776/1/4 742/1/4 810/1/4
f 803/1/4 799/1/4 810/1/4
f 804/1/4 805/1/4 811/1/4
f 706/1/4 804/1/4 811/1/4
f 805/7/4 806/7/4 812/7/4
f 811/1/4 805/1/4 812/1/4
f 806/1/4 807/1/4 813/1/4
f 812/7/4 806/7/4 813/7/4
f 807/7/4 808/7/4 814/7/4
f 813/1/4 807/1/4 814/1/4
f 814/7/4 808/7/4 815/7/4
f 808/1/4 701/1/4 816/1/4
f 815/7/4 808/7/4 816/7/4
f 809/2/4 810/2/4 817/2/4
f 706/1/4 811/1/4 818/1/4
f 817/2/4 810/2/4 818/2/4
f 810/2/4 706/2/4 818/2/4
f 811/7/4 812/7/4 819/7/4
f 818/1/4 811/1/4 819/1/4
f 812/1/4 813/1/4 820/1/4
f 819/7/4 812/7/4 820/7/4
f 814/7/4 815/7/4 821/7/4
f 820/1/4 813/1/4 821/1/4
f 813/7/4 814/7/4 821/7/4
f 818/7/4 819/7/4 822/7/4
f 819/7/4 820/7/4 822/7/4
f 820/7/4 821/7/4 822/7/4
f 821/7/4 815/7/4 823/7/4
f 822/7/4 821/7/4 823/7/4
f 823/7/4 815/7/4 824/7/4
f 824/7/4 815/7/4 825/7/4
f 815/1/4 816/1/4 826/1/4
f 825/7/4 815/7/4 826/7/4
f 701/3/4 625/3/4 827/3/4
f 826/1/4 816/1/4 827/1/4
f 816/1/4 701/1/4 827/1/4
f 822/1/4 823/1/4 828/1/4
f 823/7/4 824/7/4 829/7/4
f 828/1/4 823/1/4 829/1/4
f 824/1/4 825/1/4 830/1/4
f 829/7/4 824/7/4 830/7/4
f 825/7/4 826/7/4 831/7/4
f 830/1/4 825/1/4 831/1/4
f 826/7/4 827/7/4 831/7/4
f 831/7/4 827/7/4 832/7/4
f 832/7/4 827/7/4 833/7/4
f 827/3/4 625/3/4 834/3/4
f 833/7/4 827/7/4 834/7/4
f 822/1/4 828/1/4 835/1/4
f 833/1/4 834/1/4 838/1/4
f 822/1/4 835/1/4 839/1/4
f 835/1/4 836/1/4 839/1/4
f 839/1/4 836/1/4 840/1/4
f 836/7/4 837/7/4 841/7/4
f 840/1/4 836/1/4 841/1/4
f 841/7/4 837/7/4 842/7/4
f 839/7/4 840/7/4 843/7/4
f 822/1/4 839/1/4 843/1/4
f 841/1/4 842/1/4 844/1/4
f 843/7/4 840/7/4 844/7/4
f 840/1/4 841/1/4 844/1/4
f 844/1/4 842/1/4 845/1/4
f 842/7/4 837/7/4 846/7/4
f 845/1/4 842/1/4 846/1/4
f 837/1/4 838/1/4 847/1/4
f 846/7/4 837/7/4 847/7/4
f 822/1/4 843/1/4 848/1/4
f 843/1/4 844/1/4 848/1/4
f 844/7/4 845/7/4 849/7/4
f 848/1/4 844/1/4 849/1/4
f 845/1/4 846/1/4 850/1/4
f 849/7/4 845/7/4 850/7/4
f 846/1/4 847/1/4 850/1/4
f 838/1/4 834/1/4 851/1/4
f 850/1/4 847/1/4 851/1/4
f 847/1/4 838/1/4 851/1/4
f 822/1/4 848/1/4 852/1/4
f 852/1/4 848/1/4 853/1/4
f 851/1/4 834/1/4 858/1/4
f 852/7/4 853/7/4 859/7/4
f 853/1/4 854/1/4 860/1/4
f 859/7/4 853/7/4 860/7/4
f 854/7/4 855/7/4 861/7/4
f 855/1/4 856/1/4 861/1/4
f 856/7/4 857/7/4 862/7/4
f 861/1/4 856/1/4 862/1/4
f 857/1/4 858/1/4 863/1/4
f 862/7/4 857/7/4 863/7/4
f 858/1/4 834/1/4 864/1/4
f 863/1/4 858/1/4 864/1/4
f 860/1/4 854/1/4 865/1/4
f 859/1/4 860/1/4 865/1/4
f 854/7/4 861/7/4 866/7/4
f 865/1/4 854/1/4 866/1/4
f 861/7/4 862/7/4 866/7/4
f 862/7/4 863/7/4 866/7/4
f 863/7/4 864/7/4 866/7/4
f 866/7/4 864/7/4 867/7/4
f 864/1/4 834/1/4 868/1/4
f 867/7/4 864/7/4 868/7/4
f 834/3/4 625/3/4 869/3/4
f 868/1/4 834/1/4 869/1/4
f 859/1/4 865/1/4 870/1/4
f 866/7/4 867/7/4 870/7/4
f 865/7/4 866/7/4 870/7/4
f 867/1/4 868/1/4 871/1/4
f 870/7/4 867/7/4 871/7/4
f 868/7/4 869/7/4 872/7/4
f 871/1/4 868/1/4 872/1/4
f 869/3/4 625/3/4 873/3/4
f 872/7/4 869/7/4 873/7/4
f 859/1/4 870/1/4 874/1/4
f 872/1/4 873/1/4 875/1/4
f 859/1/4 874/1/4 876/1/4
f 874/1/4 875/1/4 876/1/4
f 876/1/4 875/1/4 877/1/4
f 877/1/4 875/1/4 878/1/4
f 878/1/4 875/1/4 879/1/4
f 876/7/4 877/7/4 880/7/4
f 880/7/4 877/7/4 881/7/4
f 877/1/4 878/1/4 882/1/4
f 881/7/4 877/7/4 882/7/4
f 882/1/4 878/1/4 883/1/4
f 878/7/4 879/7/4 884/7/4
f 883/1/4 878/1/4 884/1/4
f 879/1/4 875/1/4 885/1/4
f 884/7/4 879/7/4 885/7/4
f 880/1/4 881/1/4 886/1/4
f 886/1/4 881/1/4 887/1/4
f 882/7/4 883/7/4 888/7/4
f 887/1/4 881/1/4 888/1/4
f 881/7/4 882/7/4 888/7/4
f 883/1/4 884/1/4 889/1/4
f 888/7/4 883/7/4 889/7/4
f 884/1/4 885/1/4 889/1/4
f 875/1/4 873/1/4 890/1/4
f 889/1/4 885/1/4 890/1/4
f 885/1/4 875/1/4 890/1/4
f 886/7/4 887/7/4 891/7/4
f 891/7/4 887/7/4 892/7/4
f 891/1/4 892/1/4 893/1/4
f 890/1/4 873/1/4 894/1/4
f 891/1/4 893/1/4 895/1/4
f 893/1/4 894/1/4 895/1/4
f 873/3/4 625/3/4 896/3/4
f 895/1/4 894/1/4 896/1/4
f 894/1/4 873/1/4 896/1/4
f 896/3/4 625/3/4 897/3/4
f 898/4/4 899/4/4 906/4/4
f 899/3/4 900/3/4 906/3/4
f 906/3/4 900/3/4 907/3/4
f 900/6/4 901/6/4 908/6/4
f 907/3/4 900/3/4 908/3/4
f 901/3/4 902/3/4 909/3/4
f 908/6/4 901/6/4 909/6/4
f 903/5/4 904/5/4 910/5/4
f 902/4/4 903/4/4 910/4/4
f 904/3/4 905/3/4 911/3/4
f 910/5/4 904/5/4 911/5/4
f 911/3/4 905/3/4 912/3/4
f 912/3/4 905/3/4 913/3/4
f 913/3/4 905/3/4 914/3/4
f 914/3/4 905/3/4 915/3/4
f 898/4/4 906/4/4 916/4/4
f 906/5/4 907/5/4 917/5/4
f 916/4/4 906/4/4 917/4/4
f 902/4/4 910/4/4 918/4/4
f 909/3/4 902/3/4 918/3/4
f 907/3/4 908/3/4 918/3/4
f 908/3/4 909/3/4 918/3/4
f 910/3/4 911/3/4 919/3/4
f 918/4/4 910/4/4 919/4/4
f 911/3/4 912/3/4 919/3/4
f 917/5/4 907/5/4 920/5/4
f 916/3/4 917/3/4 920/3/4
f 907/3/4 918/3/4 921/3/4
f 920/5/4 907/5/4 921/5/4
f 921/3/4 918/3/4 922/3/4
f 918/5/4 919/5/4 923/5/4
f 922/3/4 918/3/4 923/3/4
f 919/3/4 912/3/4 924/3/4
f 912/6/4 913/6/4 924/6/4
f 913/3/4 914/3/4 925/3/4
f 924/6/4 913/6/4 925/6/4
f 914/6/4 915/6/4 926/6/4
f 925/3/4 914/3/4 926/3/4
f 915/3/4 905/3/4 927/3/4
f 926/6/4 915/6/4 927/6/4
f 923/5/4 919/5/4 928/5/4
f 922/7/4 923/7/4 928/7/4
f 924/3/4 925/3/4 929/3/4
f 928/5/4 919/5/4 929/5/4
f 919/3/4 924/3/4 929/3/4
f 925/3/4 926/3/4 929/3/4
f 926/3/4 927/3/4 929/3/4
f 921/3/4 922/3/4 930/3/4
f 922/7/4 928/7/4 930/7/4
f 920/3/4 921/3/4 930/3/4
f 928/3/4 929/3/4 931/3/4
f 930/7/4 928/7/4 931/7/4
f 929/3/4 927/3/4 932/3/4
f 931/3/4 929/3/4 932/3/4
f 932/3/4 927/3/4 933/3/4
f 930/3/4 931/3/4 934/3/4
f 920/3/4 930/3/4 934/3/4
f 931/3/4 932/3/4 934/3/4
f 934/3/4 932/3/4 935/3/4
f 935/3/4 932/3/4 936/3/4
f 932/5/4 933/5/4 937/5/4
f 936/3/4 932/3/4 937/3/4
f 933/3/4 927/3/4 938/3/4
f 938/3/4 927/3/4 939/3/4
f 920/3/4 934/3/4 940/3/4
f 934/7/4 935/7/4 941/7/4
f 940/3/4 934/3/4 941/3/4
f 937/5/4 933/5/4 942/5/4
f 936/4/4 937/4/4 942/4/4
f 933/3/4 938/3/4 943/3/4
f 942/5/4 933/5/4 943/5/4
f 941/7/4 935/7/4 944/7/4
f 940/5/4 941/5/4 944/5/4
f 935/3/4 936/3/4 945/3/4
f 944/7/4 935/7/4 945/7/4
f 945/3/4 936/3/4 946/3/4
f 936/4/4 942/4/4 947/4/4
f 946/3/4 936/3/4 947/3/4
f 942/3/4 943/3/4 948/3/4
f 947/4/4 942/4/4 948/4/4
f 943/3/4 938/3/4 949/3/4
f 948/3/4 943/3/4 949/3/4
f 938/6/4 939/6/4 949/6/4
f 939/3/4 927/3/4 950/3/4
f 949/6/4 939/6/4 950/6/4
f 950/3/4 927/3/4 951/3/4
f 951/3/4 927/3/4 952/3/4
f 940/5/4 944/5/4 953/5/4
f 920/3/4 940/3/4 953/3/4
f 944/3/4 945/3/4 954/3/4
f 953/5/4 944/5/4 954/5/4
f 947/3/4 948/3/4 955/3/4
f 948/3/4 949/3/4 955/3/4
f 946/3/4 947/3/4 955/3/4
f 950/3/4 951/3/4 955/3/4
f 949/3/4 950/3/4 955/3/4
f 955/3/4 951/3/4 956/3/4
f 956/3/4 951/3/4 957/3/4
f 951/7/4 952/7/4 958/7/4
f 957/3/4 951/3/4 958/3/4
f 916/3/4 920/3/4 959/3/4
f 953/3/4 954/3/4 959/3/4
f 920/3/4 953/3/4 959/3/4
f 959/3/4 954/3/4 960/3/4
f 954/3/4 945/3/4 961/3/4
f 960/3/4 954/3/4 961/3/4
f 945/6/4 946/6/4 961/6/4
f 946/3/4 955/3/4 962/3/4
f 961/6/4 946/6/4 962/6/4
f 962/3/4 955/3/4 963/3/4
f 963/3/4 955/3/4 964/3/4
f 964/3/4 955/3/4 965/3/4
f 965/3/4 955/3/4 966/3/4
f 956/3/4 957/3/4 967/3/4
f 967/3/4 957/3/4 968/3/4
f 958/7/4 952/7/4 969/7/4
f 957/5/4 958/5/4 969/5/4
f 952/3/4 927/3/4 970/3/4
f 969/7/4 952/7/4 970/7/4
f 927/3/4 905/3/4 971/3/4
f 970/3/4 927/3/4 971/3/4
f 971/3/4 905/3/4 972/3/4
f 964/3/4 965/3/4 973/3/4
f 965/5/4 966/5/4 974/5/4
f 973/3/4 965/3/4 974/3/4
f 966/3/4 955/3/4 975/3/4
f 955/5/4 956/5/4 975/5/4
f 956/3/4 967/3/4 976/3/4
f 975/5/4 956/5/4 976/5/4
f 976/3/4 967/3/4 977/3/4
f 967/5/4 968/5/4 978/5/4
f 977/3/4 967/3/4 978/3/4
f 957/5/4 969/5/4 979/5/4
f 968/3/4 957/3/4 979/3/4
f 969/3/4 970/3/4 980/3/4
f 979/5/4 969/5/4 980/5/4
f 970/3/4 971/3/4 980/3/4
f 959/5/4 960/5/4 981/5/4
f 960/3/4 961/3/4 982/3/4
f 981/5/4 960/5/4 982/5/4
f 961/3/4 962/3/4 982/3/4
f 962/3/4 963/3/4 982/3/4
f 982/3/4 963/3/4 983/3/4
f 983/3/4 963/3/4 984/3/4
f 963/5/4 964/5/4 985/5/4
f 984/3/4 963/3/4 985/3/4
f 964/3/4 973/3/4 986/3/4
f 985/5/4 964/5/4 986/5/4
f 974/5/4 966/5/4 987/5/4
f 973/4/4 974/4/4 987/4/4
f 976/3/4 977/3/4 988/3/4
f 987/5/4 966/5/4 988/5/4
f 966/3/4 975/3/4 988/3/4
f 975/3/4 976/3/4 988/3/4
f 988/3/4 977/3/4 989/3/4
f 989/3/4 977/3/4 990/3/4
f 978/5/4 968/5/4 991/5/4
f 977/4/4 978/4/4 991/4/4
f 968/3/4 979/3/4 992/3/4
f 991/5/4 968/5/4 992/5/4
f 979/3/4 980/3/4 992/3/4
f 980/3/4 971/3/4 993/3/4
f 992/3/4 980/3/4 993/3/4
f 971/5/4 972/5/4 994/5/4
f 993/3/4 971/3/4 994/3/4
f 985/3/4 986/3/4 995/3/4
f 983/5/4 984/5/4 995/5/4
f 984/3/4 985/3/4 995/3/4
f 995/3/4 986/3/4 996/3/4
f 973/4/4 987/4/4 997/4/4
f 996/3/4 986/3/4 997/3/4
f 986/3/4 973/3/4 997/3/4
f 988/3/4 989/3/4 998/3/4
f 997/4/4 987/4/4 998/4/4
f 987/3/4 988/3/4 998/3/4
f 998/3/4 989/3/4 999/3/4
f 989/6/4 990/6/4 1000/6/4
f 999/3/4 989/3/4 1000/3/4
f 977/4/4 991/4/4 1001/4/4
f 990/3/4 977/3/4 1001/3/4
f 991/3/4 992/3/4 1002/3/4
f 1001/4/4 991/4/4 1002/4/4
f 992/3/4 993/3/4 1002/3/4
f 994/5/4 972/5/4 1003/5/4
f 993/4/4 994/4/4 1003/4/4
f 972/3/4 905/3/4 1004/3/4
f 1003/5/4 972/5/4 1004/5/4
f 983/5/4 995/5/4 1005/5/4
f 981/3/4 982/3/4 1005/3/4
f 982/3/4 983/3/4 1005/3/4
f 995/6/4 996/6/4 1006/6/4
f 1005/5/4 995/5/4 1006/5/4
f 998/3/4 999/3/4 1007/3/4
f 996/3/4 997/3/4 1007/3/4
f 997/3/4 998/3/4 1007/3/4
f 1007/3/4 999/3/4 1008/3/4
f 1000/6/4 990/6/4 1009/6/4
f 999/5/4 1000/5/4 1009/5/4
f 990/3/4 1001/3/4 1010/3/4
f 1009/6/4 990/6/4 1010/6/4
f 1001/3/4 1002/3/4 1010/3/4
f 1006/6/4 996/6/4 1011/6/4
f 1005/3/4 1006/3/4 1011/3/4
f 996/3/4 1007/3/4 1012/3/4
f 1011/6/4 996/6/4 1012/6/4
f 1008/3/4 999/3/4 1013/3/4
f 1007/4/4 1008/4/4 1013/4/4
f 1013/3/4 999/3/4 1014/3/4
f 1014/3/4 999/3/4 1015/3/4
f 1015/3/4 999/3/4 1016/3/4
f 999/5/4 1009/5/4 1017/5/4
f 1016/3/4 999/3/4 1017/3/4
f 1009/3/4 1010/3/4 1018/3/4
f 1017/5/4 1009/5/4 1018/5/4
f 1010/3/4 1002/3/4 1019/3/4
f 1018/3/4 1010/3/4 1019/3/4
f 1019/3/4 1002/3/4 1020/3/4
f 1002/3/4 993/3/4 1021/3/4
f 1020/3/4 1002/3/4 1021/3/4
f 993/4/4 1003/4/4 1021/4/4
f 1003/3/4 1004/3/4 1022/3/4
f 1021/4/4 1003/4/4 1022/4/4
f 1012/3/4 1007/3/4 1023/3/4
f 1011/3/4 1012/3/4 1023/3/4
f 1023/3/4 1007/3/4 1024/3/4
f 1007/4/4 1013/4/4 1025/4/4
f 1024/3/4 1007/3/4 1025/3/4
f 1013/5/4 1014/5/4 1026/5/4
f 1025/4/4 1013/4/4 1026/4/4
f 1024/3/4 1025/3/4 1027/3/4
f 1026/5/4 1014/5/4 1027/5/4
f 1025/3/4 1026/3/4 1027/3/4
f 1014/3/4 1015/3/4 1028/3/4
f 1027/5/4 1014/5/4 1028/5/4
f 1015/5/4 1016/5/4 1029/5/4
f 1028/3/4 1015/3/4 1029/3/4
f 1017/3/4 1018/3/4 1030/3/4
f 1029/5/4 1016/5/4 1030/5/4
f 1016/3/4 1017/3/4 1030/3/4
f 1018/3/4 1019/3/4 1030/3/4
f 1030/3/4 1019/3/4 1031/3/4
f 1031/3/4 1019/3/4 1032/3/4
f 1019/5/4 1020/5/4 1033/5/4
f 1032/3/4 1019/3/4 1033/3/4
f 1021/3/4 1022/3/4 1034/3/4
f 1033/5/4 1020/5/4 1034/5/4
f 1020/3/4 1021/3/4 1034/3/4
f 1011/3/4 1023/3/4 1035/3/4
f 1023/5/4 1024/5/4 1035/5/4
f 1027/3/4 1028/3/4 1036/3/4
f 1035/5/4 1024/5/4 1036/5/4
f 1028/3/4 1029/3/4 1036/3/4
f 1029/3/4 1030/3/4 1036/3/4
f 1024/3/4 1027/3/4 1036/3/4
f 1030/3/4 1031/3/4 1036/3/4
f 1036/3/4 1031/3/4 1037/3/4
f 1037/3/4 1031/3/4 1038/3/4
f 1038/3/4 1031/3/4 1039/3/4
f 1039/3/4 1031/3/4 1040/3/4
f 1011/3/4 1035/3/4 1041/3/4
f 981/3/4 1005/3/4 1041/3/4
f 1005/3/4 1011/3/4 1041/3/4
f 1035/3/4 1036/3/4 1041/3/4
f 1036/3/4 1037/3/4 1041/3/4
f 1041/3/4 1037/3/4 1042/3/4
f 1042/3/4 1037/3/4 1043/3/4
f 1043/3/4 1037/3/4 1044/3/4
f 1040/3/4 1031/3/4 1045/3/4
f 1039/5/4 1040/5/4 1045/5/4
f 1031/6/4 1032/6/4 1046/6/4
f 1045/3/4 1031/3/4 1046/3/4
f 1032/3/4 1033/3/4 1047/3/4
f 1046/6/4 1032/6/4 1047/6/4
f 1033/3/4 1034/3/4 1047/3/4
f 1044/3/4 1037/3/4 1048/3/4
f 1037/5/4 1038/5/4 1048/5/4
f 1038/3/4 1039/3/4 1049/3/4
f 1048/5/4 1038/5/4 1049/5/4
f 1039/5/4 1045/5/4 1050/5/4
f 1049/3/4 1039/3/4 1050/3/4
f 1045/7/4 1046/7/4 1051/7/4
f 1050/5/4 1045/5/4 1051/5/4
f 1047/3/4 1034/3/4 1052/3/4
f 1034/3/4 1022/3/4 1052/3/4
f 1046/3/4 1047/3/4 1052/3/4
f 1052/3/4 1022/3/4 1053/3/4
f 1041/5/4 1042/5/4 1054/5/4
f 981/3/4 1041/3/4 1054/3/4
f 1042/3/4 1043/3/4 1055/3/4
f 1054/5/4 1042/5/4 1055/5/4
f 1043/6/4 1044/6/4 1056/6/4
f 1055/3/4 1043/3/4 1056/3/4
f 1049/3/4 1050/3/4 1057/3/4
f 1056/6/4 1044/6/4 1057/6/4
f 1048/3/4 1049/3/4 1057/3/4
f 1050/3/4 1051/3/4 1057/3/4
f 1044/3/4 1048/3/4 1057/3/4
f 1051/7/4 1046/7/4 1058/7/4
f 1057/3/4 1051/3/4 1058/3/4
f 1046/3/4 1052/3/4 1059/3/4
f 1058/7/4 1046/7/4 1059/7/4
f 1059/3/4 1052/3/4 1060/3/4
f 1060/3/4 1052/3/4 1061/3/4
f 1052/5/4 1053/5/4 1062/5/4
f 1053/3/4 1022/3/4 1062/3/4
f 1062/3/4 1022/3/4 1063/3/4
f 1056/3/4 1057/3/4 1064/3/4
f 1055/3/4 1056/3/4 1064/3/4
f 1054/3/4 1055/3/4 1064/3/4
f 1057/3/4 1058/3/4 1064/3/4
f 1059/3/4 1060/3/4 1064/3/4
f 1058/3/4 1059/3/4 1064/3/4
f 1064/3/4 1060/3/4 1065/3/4
f 1065/3/4 1060/3/4 1066/3/4
f 1060/6/4 1061/6/4 1067/6/4
f 1061/3/4 1052/3/4 1067/3/4
f 1052/5/4 1062/5/4 1068/5/4
f 1067/3/4 1052/3/4 1068/3/4
f 1062/7/4 1063/7/4 1069/7/4
f 1068/5/4 1062/5/4 1069/5/4
f 1065/4/4 1066/4/4 1070/4/4
f 1064/5/4 1065/5/4 1070/5/4
f 1066/3/4 1060/3/4 1071/3/4
f 1070/4/4 1066/4/4 1071/4/4
f 1071/3/4 1060/3/4 1072/3/4
f 1067/6/4 1068/6/4 1073/6/4
f 1072/3/4 1060/3/4 1073/3/4
f 1060/6/4 1067/6/4 1073/6/4
f 1073/6/4 1068/6/4 1074/6/4
f 1069/7/4 1063/7/4 1075/7/4
f 1068/3/4 1069/3/4 1075/3/4
f 1063/3/4 1022/3/4 1076/3/4
f 1075/7/4 1063/7/4 1076/7/4
f 1064/5/4 1070/5/4 1077/5/4
f 1054/3/4 1064/3/4 1077/3/4
f 1071/3/4 1072/3/4 1078/3/4
f 1077/5/4 1070/5/4 1078/5/4
f 1070/3/4 1071/3/4 1078/3/4
f 1078/3/4 1072/3/4 1079/3/4
f 1079/3/4 1072/3/4 1080/3/4
f 1080/3/4 1072/3/4 1081/3/4
f 1081/3/4 1072/3/4 1082/3/4
f 1074/6/4 1068/6/4 1083/6/4
f 1073/3/4 1074/3/4 1083/3/4
f 1068/3/4 1075/3/4 1084/3/4
f 1083/6/4 1068/6/4 1084/6/4
f 1075/3/4 1076/3/4 1084/3/4
f 1077/3/4 1078/3/4 1085/3/4
f 1078/3/4 1079/3/4 1085/3/4
f 1085/3/4 1079/3/4 1086/3/4
f 1080/3/4 1081/3/4 1087/3/4
f 1081/5/4 1082/5/4 1088/5/4
f 1087/3/4 1081/3/4 1088/3/4
f 1072/7/4 1073/7/4 1089/7/4
f 1082/3/4 1072/3/4 1089/3/4
f 1073/3/4 1083/3/4 1090/3/4
f 1089/7/4 1073/7/4 1090/7/4
f 1083/3/4 1084/3/4 1090/3/4
f 1086/3/4 1079/3/4 1091/3/4
f 1085/5/4 1086/5/4 1091/5/4
f 1091/3/4 1079/3/4 1092/3/4
f 1079/6/4 1080/6/4 1093/6/4
f 1092/3/4 1079/3/4 1093/3/4
f 1080/3/4 1087/3/4 1094/3/4
f 1093/6/4 1080/6/4 1094/6/4
f 1094/3/4 1087/3/4 1095/3/4
f 1095/3/4 1087/3/4 1096/3/4
f 1088/5/4 1082/5/4 1097/5/4
f 1087/4/4 1088/4/4 1097/4/4
f 1082/3/4 1089/3/4 1098/3/4
f 1097/5/4 1082/5/4 1098/5/4
f 1089/3/4 1090/3/4 1098/3/4
f 1098/3/4 1090/3/4 1099/3/4
f 1099/3/4 1090/3/4 1100/3/4
f 1077/3/4 1085/3/4 1101/3/4
f 1101/3/4 1085/3/4 1102/3/4
f 1102/3/4 1085/3/4 1103/3/4
f 1085/5/4 1091/5/4 1104/5/4
f 1103/3/4 1085/3/4 1104/3/4
f 1091/7/4 1092/7/4 1105/7/4
f 1104/5/4 1091/5/4 1105/5/4
f 1087/4/4 1097/4/4 1106/4/4
f 1096/3/4 1087/3/4 1106/3/4
f 1097/3/4 1098/3/4 1107/3/4
f 1106/4/4 1097/4/4 1107/4/4
f 1098/3/4 1099/3/4 1107/3/4
f 1102/3/4 1103/3/4 1108/3/4
f 1101/4/4 1102/4/4 1108/4/4
f 1108/3/4 1103/3/4 1109/3/4
f 1105/7/4 1092/7/4 1110/7/4
f 1104/3/4 1105/3/4 1110/3/4
f 1092/3/4 1093/3/4 1111/3/4
f 1110/7/4 1092/7/4 1111/7/4
f 1094/3/4 1095/3/4 1111/3/4
f 1093/3/4 1094/3/4 1111/3/4
f 1095/4/4 1096/4/4 1112/4/4
f 1111/3/4 1095/3/4 1112/3/4
f 1096/3/4 1106/3/4 1113/3/4
f 1112/4/4 1096/4/4 1113/4/4
f 1107/3/4 1099/3/4 1114/3/4
f 1099/6/4 1100/6/4 1114/6/4
f 1100/3/4 1090/3/4 1115/3/4
f 1114/6/4 1100/6/4 1115/6/4
f 1101/4/4 1108/4/4 1116/4/4
f 1077/3/4 1101/3/4 1116/3/4
f 1108/5/4 1109/5/4 1117/5/4
f 1116/4/4 1108/4/4 1117/4/4
f 1109/3/4 1103/3/4 1118/3/4
f 1103/6/4 1104/6/4 1118/6/4
f 1110/3/4 1111/3/4 1119/3/4
f 1118/6/4 1104/6/4 1119/6/4
f 1104/3/4 1110/3/4 1119/3/4
f 1112/3/4 1113/3/4 1119/3/4
f 1111/3/4 1112/3/4 1119/3/4
f 1113/3/4 1106/3/4 1120/3/4
f 1119/3/4 1113/3/4 1120/3/4
f 1120/3/4 1106/3/4 1121/3/4
f 1106/5/4 1107/5/4 1122/5/4
f 1121/3/4 1106/3/4 1122/3/4
f 1107/3/4 1114/3/4 1123/3/4
f 1122/5/4 1107/5/4 1123/5/4
f 1114/3/4 1115/3/4 1123/3/4
f 1022/3/4 1004/3/4 1124/3/4
f 1123/3/4 1115/3/4 1124/3/4
f 1076/3/4 1022/3/4 1124/3/4
f 1090/3/4 1084/3/4 1124/3/4
f 1084/3/4 1076/3/4 1124/3/4
f 1115/3/4 1090/3/4 1124/3/4
f 1004/3/4 905/3/4 1125/3/4
f 1124/3/4 1004/3/4 1125/3/4
f 1117/5/4 1109/5/4 1126/5/4
f 1116/3/4 1117/3/4 1126/3/4
f 1119/3/4 1120/3/4 1127/3/4
f 1126/5/4 1109/5/4 1127/5/4
f 1109/3/4 1118/3/4 1127/3/4
f 1118/3/4 1119/3/4 1127/3/4
f 1122/3/4 1123/3/4 1128/3/4
f 1123/3/4 1124/3/4 1128/3/4
f 1121/3/4 1122/3/4 1128/3/4
f 1128/3/4 1124/3/4 1129/3/4
f 1127/3/4 1120/3/4 1130/3/4
f 1126/3/4 1127/3/4 1130/3/4
f 1120/6/4 1121/6/4 1131/6/4
f 1130/3/4 1120/3/4 1131/3/4
f 1121/3/4 1128/3/4 1132/3/4
f 1131/6/4 1121/6/4 1132/6/4
f 1132/3/4 1128/3/4 1133/3/4
f 1128/5/4 1129/5/4 1134/5/4
f 1133/3/4 1128/3/4 1134/3/4
f 1129/3/4 1124/3/4 1135/3/4
f 1124/4/4 1125/4/4 1135/4/4
f 1125/3/4 905/3/4 1136/3/4
f 1135/4/4 1125/4/4 1136/4/4
f 1054/3/4 1077/3/4 1137/3/4
f 981/3/4 1054/3/4 1137/3/4
f 1077/3/4 1116/3/4 1137/3/4
f 1116/3/4 1126/3/4 1137/3/4
f 1126/3/4 1130/3/4 1137/3/4
f 1137/3/4 1130/3/4 1138/3/4
f 1134/5/4 1129/5/4 1139/5/4
f 1133/4/4 1134/4/4 1139/4/4
f 1129/3/4 1135/3/4 1140/3/4
f 1139/5/4 1129/5/4 1140/5/4
f 1135/3/4 1136/3/4 1140/3/4
f 1138/3/4 1130/3/4 1141/3/4
f 1130/7/4 1131/7/4 1141/7/4
f 1131/3/4 1132/3/4 1142/3/4
f 1141/7/4 1131/7/4 1142/7/4
f 1132/3/4 1133/3/4 1142/3/4
f 1133/4/4 1139/4/4 1143/4/4
f 1142/3/4 1133/3/4 1143/3/4
f 1139/3/4 1140/3/4 1144/3/4
f 1143/4/4 1139/4/4 1144/4/4
f 981/3/4 1137/3/4 1145/3/4
f 1137/6/4 1138/6/4 1145/6/4
f 1141/3/4 1142/3/4 1146/3/4
f 1145/6/4 1138/6/4 1146/6/4
f 1138/3/4 1141/3/4 1146/3/4
f 1143/3/4 1144/3/4 1146/3/4
f 1142/3/4 1143/3/4 1146/3/4
f 1145/3/4 1146/3/4 1147/3/4
f 1146/3/4 1144/3/4 1147/3/4
f 1147/3/4 1144/3/4 1148/3/4
f 1148/3/4 1144/3/4 1149/3/4
f 1149/3/4 1144/3/4 1150/3/4
f 1145/3/4 1147/3/4 1151/3/4
f 1147/7/4 1148/7/4 1151/7/4
f 1148/3/4 1149/3/4 1152/3/4
f 1151/7/4 1148/7/4 1152/7/4
f 1152/3/4 1149/3/4 1153/3/4
f 1153/3/4 1149/3/4 1154/3/4
f 1154/3/4 1149/3/4 1155/3/4
f 1150/3/4 1144/3/4 1156/3/4
f 1149/5/4 1150/5/4 1156/5/4
f 1156/3/4 1144/3/4 1157/3/4
f 1151/3/4 1152/3/4 1158/3/4
f 1152/6/4 1153/6/4 1158/6/4
f 1153/3/4 1154/3/4 1159/3/4
f 1158/6/4 1153/6/4 1159/6/4
f 1159/3/4 1154/3/4 1160/3/4
f 1160/3/4 1154/3/4 1161/3/4
f 1155/3/4 1149/3/4 1162/3/4
f 1149/5/4 1156/5/4 1162/5/4
f 1156/4/4 1157/4/4 1163/4/4
f 1162/5/4 1156/5/4 1163/5/4
f 1140/3/4 1136/3/4 1164/3/4
f 1144/3/4 1140/3/4 1164/3/4
f 1157/3/4 1144/3/4 1164/3/4
f 1164/3/4 1136/3/4 1165/3/4
f 1159/3/4 1160/3/4 1166/3/4
f 1158/3/4 1159/3/4 1166/3/4
f 1166/3/4 1160/3/4 1167/3/4
f 1160/5/4 1161/5/4 1168/5/4
f 1167/3/4 1160/3/4 1168/3/4
f 1161/3/4 1154/3/4 1169/3/4
f 1154/7/4 1155/7/4 1169/7/4
f 1162/3/4 1163/3/4 1170/3/4
f 1169/7/4 1155/7/4 1170/7/4
f 1155/3/4 1162/3/4 1170/3/4
f 1163/4/4 1157/4/4 1171/4/4
f 1170/3/4 1163/3/4 1171/3/4
f 1157/3/4 1164/3/4 1172/3/4
f 1171/4/4 1157/4/4 1172/4/4
f 1172/3/4 1164/3/4 1173/3/4
f 1173/3/4 1164/3/4 1174/3/4
f 1165/3/4 1136/3/4 1175/3/4
f 1175/3/4 1136/3/4 1176/3/4
f 1145/3/4 1151/3/4 1177/3/4
f 1158/3/4 1166/3/4 1177/3/4
f 1151/3/4 1158/3/4 1177/3/4
f 1177/3/4 1166/3/4 1178/3/4
f 1166/5/4 1167/5/4 1179/5/4
f 1178/3/4 1166/3/4 1179/3/4
f 1167/4/4 1168/4/4 1180/4/4
f 1179/5/4 1167/5/4 1180/5/4
f 1168/5/4 1161/5/4 1181/5/4
f 1180/4/4 1168/4/4 1181/4/4
f 1169/3/4 1170/3/4 1182/3/4
f 1181/5/4 1161/5/4 1182/5/4
f 1161/3/4 1169/3/4 1182/3/4
f 1170/3/4 1171/3/4 1182/3/4
f 1171/3/4 1172/3/4 1182/3/4
f 1172/3/4 1173/3/4 1182/3/4
f 1174/3/4 1164/3/4 1183/3/4
f 1164/5/4 1165/5/4 1183/5/4
f 1165/3/4 1175/3/4 1184/3/4
f 1183/5/4 1165/5/4 1184/5/4
f 1175/5/4 1176/5/4 1185/5/4
f 1184/3/4 1175/3/4 1185/3/4
f 1176/3/4 1136/3/4 1186/3/4
f 1185/5/4 1176/5/4 1186/5/4
f 1179/3/4 1180/3/4 1187/3/4
f 1178/3/4 1179/3/4 1187/3/4
f 1180/4/4 1181/4/4 1188/4/4
f 1187/3/4 1180/3/4 1188/3/4
f 1181/3/4 1182/3/4 1189/3/4
f 1188/4/4 1181/4/4 1189/4/4
f 1182/3/4 1173/3/4 1190/3/4
f 1189/3/4 1182/3/4 1190/3/4
f 1173/6/4 1174/6/4 1190/6/4
f 1185/3/4 1186/3/4 1191/3/4
f 1190/6/4 1174/6/4 1191/6/4
f 1184/3/4 1185/3/4 1191/3/4
f 1183/3/4 1184/3/4 1191/3/4
f 1174/3/4 1183/3/4 1191/3/4
f 1145/3/4 1177/3/4 1192/3/4
f 1177/5/4 1178/5/4 1192/5/4
f 1178/3/4 1187/3/4 1193/3/4
f 1192/5/4 1178/5/4 1193/5/4
f 1193/3/4 1187/3/4 1194/3/4
f 1187/5/4 1188/5/4 1195/5/4
f 1194/3/4 1187/3/4 1195/3/4
f 1189/3/4 1190/3/4 1196/3/4
f 1188/3/4 1189/3/4 1196/3/4
f 1190/3/4 1191/3/4 1196/3/4
f 1196/3/4 1191/3/4 1197/3/4
f 1145/3/4 1192/3/4 1198/3/4
f 1193/3/4 1194/3/4 1198/3/4
f 1192/3/4 1193/3/4 1198/3/4
f 1198/3/4 1194/3/4 1199/3/4
f 1195/5/4 1188/5/4 1200/5/4
f 1194/4/4 1195/4/4 1200/4/4
f 1188/3/4 1196/3/4 1201/3/4
f 1200/5/4 1188/5/4 1201/5/4
f 1197/3/4 1191/3/4 1202/3/4
f 1191/3/4 1186/3/4 1202/3/4
f 1186/3/4 1136/3/4 1202/3/4
f 1202/3/4 1136/3/4 1203/3/4
f 981/3/4 1145/3/4 1204/3/4
f 1145/3/4 1198/3/4 1204/3/4
f 1198/6/4 1199/6/4 1205/6/4
f 1204/3/4 1198/3/4 1205/3/4
f 1199/3/4 1194/3/4 1206/3/4
f 1205/6/4 1199/6/4 1206/6/4
f 1194/4/4 1200/4/4 1207/4/4
f 1206/3/4 1194/3/4 1207/3/4
f 1200/3/4 1201/3/4 1208/3/4
f 1207/4/4 1200/4/4 1208/4/4
f 1201/3/4 1196/3/4 1209/3/4
f 1208/3/4 1201/3/4 1209/3/4
f 1196/4/4 1197/4/4 1209/4/4
f 1197/3/4 1202/3/4 1210/3/4
f 1209/4/4 1197/4/4 1210/4/4
f 1202/4/4 1203/4/4 1211/4/4
f 1210/3/4 1202/3/4 1211/3/4
f 1203/3/4 1136/3/4 1212/3/4
f 1211/4/4 1203/4/4 1212/4/4
f 1136/3/4 905/3/4 1213/3/4
f 1212/3/4 1136/3/4 1213/3/4
f 1214/8/4 1215/8/4 1218/8/4
f 1218/8/4 1215/8/4 1219/8/4
f 1216/8/4 1217/8/4 1220/8/4
f 1220/8/4 1217/8/4 1221/8/4
f 1225/1/5 1223/1/5 1222/1/5
f 1226/2/5 1224/2/5 1223/2/5
f 1226/1/5 1223/1/5 1225/1/5
f 1227/2/5 1224/2/5 1226/2/5
f 1229/3/5 1226/3/5 1225/3/5
f 1229/3/5 1228/3/5 1227/3/5
f 1229/3/5 1227/3/5 1226/3/5
f 1230/3/5 1228/3/5 1229/3/5
f 1231/8/5 1230/8/5 1229/8/5
f 1232/8/5 1230/8/5 1231/8/5
f 1239/1/5 1234/1/5 1233/1/5
f 1240/1/5 1234/1/5 1239/1/5
f 1241/1/5 1236/1/5 1235/1/5
f 1242/7/5 1237/7/5 1236/7/5
f 1242/1/5 1236/1/5 1241/1/5
f 1243/1/5 1238/1/5 1237/1/5
f 1243/7/5 1237/7/5 1242/7/5
f 1244/1/5 1238/1/5 1243/1/5
f 1254/1/5 1246/1/5 1245/1/5
f 1255/7/5 1247/7/5 1246/7/5
f 1255/1/5 1246/1/5 1254/1/5
f 1256/7/5 1247/7/5 1255/7/5
f 1257/1/5 1249/1/5 1248/1/5
f 1258/7/5 1250/7/5 1249/7/5
f 1258/1/5 1249/1/5 1257/1/5
f 1259/1/5 1251/1/5 1250/1/5
f 1259/7/5 1250/7/5 1258/7/5
f 1260/7/5 1252/7/5 1251/7/5
f 1260/1/5 1251/1/5 1259/1/5
f 1261/1/5 1253/1/5 1252/1/5
f 1261/7/5 1252/7/5 1260/7/5
f 1262/1/5 1253/1/5 1261/1/5
f 1272/1/5 1264/1/5 1263/1/5
f 1273/7/5 1265/7/5 1264/7/5
f 1273/1/5 1264/1/5 1272/1/5
f 1274/1/5 1266/1/5 1265/1/5
f 1274/7/5 1265/7/5 1273/7/5
f 1275/7/5 1267/7/5 1266/7/5
f 1275/1/5 1266/1/5 1274/1/5
f 1276/7/5 1267/7/5 1275/7/5
f 1277/1/5 1269/1/5 1268/1/5
f 1278/7/5 1270/7/5 1269/7/5
f 1278/1/5 1269/1/5 1277/1/5
f 1279/1/5 1271/1/5 1270/1/5
f 1279/7/5 1270/7/5 1278/7/5
f 1280/1/5 1271/1/5 1279/1/5
f 1290/7/5 1282/7/5 1281/7/5
f 1291/1/5 1283/1/5 1282/1/5
f 1291/7/5 1282/7/5 1290/7/5
f 1292/7/5 1284/7/5 1283/7/5
f 1292/1/5 1283/1/5 1291/1/5
f 1293/1/5 1285/1/5 1284/1/5
f 1293/7/5 1284/7/5 1292/7/5
f 1294/7/5 1286/7/5 1285/7/5
f 1294/1/5 1285/1/5 1293/1/5
f 1295/1/5 1287/1/5 1286/1/5
f 1295/7/5 1286/7/5 1294/7/5
f 1296/7/5 1288/7/5 1287/7/5
f 1296/1/5 1287/1/5 1295/1/5
f 1297/1/5 1289/1/5 1288/1/5
f 1297/7/5 1288/7/5 1296/7/5
f 1298/1/5 1289/1/5 1297/1/5
f 1316/1/5 1300/1/5 1299/1/5
f 1317/1/5 1300/1/5 1316/1/5
f 1318/1/5 1302/1/5 1301/1/5
f 1319/1/5 1302/1/5 1318/1/5
f 1320/1/5 1304/1/5 1303/1/5
f 1321/1/5 1304/1/5 1320/1/5
f 1322/1/5 1306/1/5 1305/1/5
f 1323/1/5 1306/1/5 1322/1/5
f 1324/7/5 1308/7/5 1307/7/5
f 1325/1/5 1309/1/5 1308/1/5
f 1325/7/5 1308/7/5 1324/7/5
f 1326/1/5 1309/1/5 1325/1/5
f 1327/1/5 1311/1/5 1310/1/5
f 1328/1/5 1311/1/5 1327/1/5
f 1329/1/5 1313/1/5 1312/1/5
f 1330/1/5 1313/1/5 1329/1/5
f 1331/1/5 1315/1/5 1314/1/5
f 1332/1/5 1315/1/5 1331/1/5
f 1337/3/5 1334/3/5 1333/3/5
f 1338/3/5 1334/3/5 1337/3/5
f 1339/3/5 1334/3/5 1338/3/5
f 1340/3/5 1334/3/5 1339/3/5
f 1341/3/5 1334/3/5 1340/3/5
f 1342/3/5 1334/3/5 1341/3/5
f 1343/3/5 1334/3/5 1342/3/5
f 1344/6/5 1335/6/5 1334/6/5
f 1344/3/5 1334/3/5 1343/3/5
f 1345/3/5 1336/3/5 1335/3/5
f 1345/6/5 1335/6/5 1344/6/5
f 1346/3/5 1336/3/5 1345/3/5
f 1347/3/5 1336/3/5 1346/3/5
f 1348/3/5 1336/3/5 1347/3/5
f 1351/8/5 1350/8/5 1349/8/5
f 1352/8/5 1350/8/5 1351/8/5
f 1355/3/5 1354/3/5 1353/3/5
f 1356/3/5 1354/3/5 1355/3/5
f 1359/8/5 1358/8/5 1357/8/5
f 1360/8/5 1358/8/5 1359/8/5
f 1361/3/6 1362/3/6 1377/3/6
f 1375/3/6 1376/3/6 1377/3/6
f 1374/3/6 1375/3/6 1377/3/6
f 1373/3/6 1374/3/6 1377/3/6
f 1372/3/6 1373/3/6 1377/3/6
f 1371/3/6 1372/3/6 1377/3/6
f 1370/3/6 1371/3/6 1377/3/6
f 1369/3/6 1370/3/6 1377/3/6
f 1368/3/6 1369/3/6 1377/3/6
f 1367/3/6 1368/3/6 1377/3/6
f 1366/3/6 1367/3/6 1377/3/6
f 1365/3/6 1366/3/6 1377/3/6
f 1364/3/6 1365/3/6 1377/3/6
f 1363/3/6 1364/3/6 1377/3/6
f 1362/3/6 1363/3/6 1377/3/6
f 1377/3/6 1376/3/6 1378/3/6
f 1379/8/6 1380/8/6 1384/8/6
f 1382/8/6 1383/8/6 1384/8/6
f 1381/8/6 1382/8/6 1384/8/6
f 1380/8/6 1381/8/6 1384/8/6
f 1384/8/6 1383/8/6 1385/8/6
f 1386/1/6 1387/1/6 1393/1/6
f 1387/7/6 1388/7/6 1394/7/6
f 1393/1/6 1387/1/6 1394/1/6
f 1388/1/6 1389/1/6 1395/1/6
f 1394/7/6 1388/7/6 1395/7/6
f 1395/1/6 1389/1/6 1396/1/6
f 1390/1/6 1391/1/6 1397/1/6
f 1391/7/6 1392/7/6 1398/7/6
f 1397/1/6 1391/1/6 1398/1/6
f 1398/7/6 1392/7/6 1399/7/6
f 1400/1/6 1401/1/6 1406/1/6
f 1406/1/6 1401/1/6 1407/1/6
f 1402/1/6 1403/1/6 1408/1/6
f 1403/7/6 1404/7/6 1409/7/6
f 1408/1/6 1403/1/6 1409/1/6
f 1404/1/6 1405/1/6 1410/1/6
f 1409/7/6 1404/7/6 1410/7/6
f 1410/1/6 1405/1/6 1411/1/6
f 1412/1/6 1413/1/6 1421/1/6
f 1413/7/6 1414/7/6 1422/7/6
f 1421/1/6 1413/1/6 1422/1/6
f 1422/7/6 1414/7/6 1423/7/6
f 1415/1/6 1416/1/6 1424/1/6
f 1416/7/6 1417/7/6 1425/7/6
f 1424/1/6 1416/1/6 1425/1/6
f 1417/1/6 1418/1/6 1426/1/6
f 1425/7/6 1417/7/6 1426/7/6
f 1418/7/6 1419/7/6 1427/7/6
f 1426/1/6 1418/1/6 1427/1/6
f 1419/1/6 1420/1/6 1428/1/6
f 1427/7/6 1419/7/6 1428/7/6
f 1428/1/6 1420/1/6 1429/1/6
f 1430/1/6 1431/1/6 1448/1/6
f 1448/1/6 1431/1/6 1449/1/6
f 1432/7/6 1433/7/6 1450/7/6
f 1433/1/6 1434/1/6 1451/1/6
f 1450/7/6 1433/7/6 1451/7/6
f 1451/1/6 1434/1/6 1452/1/6
f 1435/1/6 1436/1/6 1453/1/6
f 1453/1/6 1436/1/6 1454/1/6
f 1437/1/6 1438/1/6 1455/1/6
f 1455/1/6 1438/1/6 1456/1/6
f 1439/1/6 1440/1/6 1457/1/6
f 1457/1/6 1440/1/6 1458/1/6
f 1441/1/6 1442/1/6 1459/1/6
f 1459/1/6 1442/1/6 1460/1/6
f 1443/1/6 1444/1/6 1461/1/6
f 1461/1/6 1444/1/6 1462/1/6
f 1445/7/6 1446/7/6 1463/7/6
f 1446/1/6 1447/1/6 1464/1/6
f 1463/7/6 1446/7/6 1464/7/6
f 1464/1/6 1447/1/6 1465/1/6
f 1466/8/6 1467/8/6 1468/8/6
f 1468/8/6 1467/8/6 1469/8/6
f 1468/3/6 1469/3/6 1470/3/6
f 1470/3/6 1469/3/6 1471/3/6
f 1470/8/6 1471/8/6 1472/8/6
f 1472/8/6 1471/8/6 1473/8/6
