# MagicaVoxel @ ephtracy

# material
mtllib panel1.mtl
usemtl palette

# normals
vn -1 0 0
vn 1 0 0
vn 0 0 1
vn 0 0 -1
vn 0 -1 0
vn 0 1 0

# texcoords
vt 0.00585938 0.5
vt 0.00976563 0.5
vt 0.0136719 0.5
vt 0.0175781 0.5
vt 0.0214844 0.5
vt 0.0253906 0.5

# verts
v -0.5 0 30.5
v -0.5 0 23.5
v -0.5 0 22.5
v -0.5 0 19.5
v -0.5 0 18.5
v -0.5 0 15.5
v -0.5 0 -0.5
v -0.5 0 -2.5
v -0.5 0 -3.5
v -0.5 0 -15.5
v -0.5 0 -16.5
v -0.5 0 -30.5
v -0.5 1 28.5
v -0.5 1 27.5
v -0.5 1 -12.5
v -0.5 1 -13.5
v -0.5 2 13.5
v -0.5 2 12.5
v -0.5 2 2.5
v -0.5 2 1.5
v -0.5 2 -17.5
v -0.5 2 -18.5
v -0.5 3 -27.5
v -0.5 3 -28.5
v -0.5 4 28.5
v -0.5 4 27.5
v -0.5 4 19.5
v -0.5 4 18.5
v -0.5 4 2.5
v -0.5 4 1.5
v -0.5 4 -2.5
v -0.5 4 -3.5
v -0.5 4 -12.5
v -0.5 4 -13.5
v -0.5 4 -17.5
v -0.5 4 -18.5
v -0.5 4 -27.5
v -0.5 4 -28.5
v -0.5 5 13.5
v -0.5 5 12.5
v -0.5 7 23.5
v -0.5 7 22.5
v -0.5 7 -27.5
v -0.5 7 -28.5
v -0.5 10 -29.5
v -0.5 10 -30.5
v -0.5 12 -16.5
v -0.5 12 -17.5
v -0.5 12 -26.5
v -0.5 12 -27.5
v -0.5 13 -26.5
v -0.5 13 -27.5
v -0.5 14 -28.5
v -0.5 14 -29.5
v -0.5 15 -15.5
v -0.5 15 -16.5
v -0.5 15 -17.5
v -0.5 15 -18.5
v -0.5 16 24.5
v -0.5 16 23.5
v -0.5 17 -28.5
v -0.5 17 -29.5
v -0.5 18 18.5
v -0.5 18 17.5
v -0.5 19 -16.5
v -0.5 19 -17.5
v -0.5 20 -29.5
v -0.5 20 -30.5
v -0.5 22 -17.5
v -0.5 22 -18.5
v -0.5 22 -19.5
v -0.5 22 -25.5
v -0.5 22 -26.5
v -0.5 23 13.5
v -0.5 23 12.5
v -0.5 24 28.5
v -0.5 24 27.5
v -0.5 24 -12.5
v -0.5 24 -13.5
v -0.5 24 -17.5
v -0.5 24 -18.5
v -0.5 25 -2.5
v -0.5 25 -3.5
v -0.5 25 -18.5
v -0.5 25 -19.5
v -0.5 26 23.5
v -0.5 26 22.5
v -0.5 26 2.5
v -0.5 26 1.5
v -0.5 26 -27.5
v -0.5 26 -28.5
v -0.5 27 28.5
v -0.5 27 27.5
v -0.5 27 18.5
v -0.5 27 17.5
v -0.5 27 13.5
v -0.5 27 12.5
v -0.5 27 2.5
v -0.5 27 1.5
v -0.5 27 -2.5
v -0.5 27 -3.5
v -0.5 27 -12.5
v -0.5 27 -13.5
v -0.5 27 -23.5
v -0.5 27 -24.5
v -0.5 28 -23.5
v -0.5 28 -24.5
v -0.5 28 -25.5
v -0.5 28 -26.5
v -0.5 29 30.5
v -0.5 29 29.5
v -0.5 29 25.5
v -0.5 29 24.5
v -0.5 29 23.5
v -0.5 29 -26.5
v -0.5 29 -27.5
v -0.5 31 25.5
v -0.5 31 24.5
v -0.5 32 -24.5
v -0.5 32 -25.5
v -0.5 33 30.5
v -0.5 33 29.5
v -0.5 33 23.5
v -0.5 33 22.5
v -0.5 33 -22.5
v -0.5 33 -23.5
v -0.5 33 -27.5
v -0.5 33 -28.5
v -0.5 34 30.5
v -0.5 34 29.5
v -0.5 34 -24.5
v -0.5 34 -25.5
v -0.5 34 -26.5
v -0.5 34 -27.5
v -0.5 35 26.5
v -0.5 35 25.5
v -0.5 36 -19.5
v -0.5 36 -20.5
v -0.5 37 24.5
v -0.5 37 23.5
v -0.5 37 -22.5
v -0.5 37 -23.5
v -0.5 37 -24.5
v -0.5 37 -25.5
v -0.5 38 25.5
v -0.5 38 24.5
v -0.5 39 29.5
v -0.5 39 28.5
v -0.5 39 -23.5
v -0.5 39 -24.5
v -0.5 39 -25.5
v -0.5 39 -26.5
v -0.5 40 29.5
v -0.5 40 28.5
v -0.5 40 -22.5
v -0.5 40 -23.5
v -0.5 40 -25.5
v -0.5 40 -26.5
v -0.5 41 3.5
v -0.5 41 2.5
v -0.5 41 -23.5
v -0.5 41 -24.5
v -0.5 41 -28.5
v -0.5 41 -29.5
v -0.5 42 30.5
v -0.5 42 29.5
v -0.5 42 27.5
v -0.5 42 26.5
v -0.5 42 -24.5
v -0.5 42 -25.5
v -0.5 42 -28.5
v -0.5 42 -29.5
v -0.5 43 26.5
v -0.5 43 25.5
v -0.5 43 18.5
v -0.5 43 17.5
v -0.5 44 30.5
v -0.5 44 29.5
v -0.5 45 3.5
v -0.5 45 2.5
v -0.5 45 -18.5
v -0.5 45 -19.5
v -0.5 46 28.5
v -0.5 46 27.5
v -0.5 46 25.5
v -0.5 46 24.5
v -0.5 46 -12.5
v -0.5 46 -13.5
v -0.5 46 -17.5
v -0.5 46 -18.5
v -0.5 46 -24.5
v -0.5 46 -25.5
v -0.5 47 3.5
v -0.5 47 2.5
v -0.5 47 -2.5
v -0.5 47 -3.5
v -0.5 47 -19.5
v -0.5 47 -20.5
v -0.5 48 28.5
v -0.5 48 27.5
v -0.5 48 26.5
v -0.5 48 24.5
v -0.5 48 23.5
v -0.5 48 2.5
v -0.5 48 1.5
v -0.5 48 -15.5
v -0.5 48 -16.5
v -0.5 49 24.5
v -0.5 49 23.5
v -0.5 49 13.5
v -0.5 49 12.5
v -0.5 49 -3.5
v -0.5 49 -4.5
v -0.5 49 -28.5
v -0.5 49 -29.5
v -0.5 50 5.5
v -0.5 50 4.5
v -0.5 50 -8.5
v -0.5 50 -9.5
v -0.5 51 18.5
v -0.5 51 17.5
v -0.5 51 13.5
v -0.5 51 12.5
v -0.5 51 6.5
v -0.5 51 5.5
v -0.5 51 4.5
v -0.5 51 3.5
v -0.5 51 2.5
v -0.5 51 1.5
v -0.5 51 -2.5
v -0.5 51 -3.5
v -0.5 51 -12.5
v -0.5 51 -13.5
v -0.5 51 -17.5
v -0.5 51 -18.5
v -0.5 51 -27.5
v -0.5 51 -28.5
v -0.5 52 29.5
v -0.5 52 28.5
v -0.5 52 27.5
v -0.5 52 9.5
v -0.5 52 6.5
v -0.5 52 5.5
v -0.5 52 4.5
v -0.5 52 3.5
v -0.5 52 2.5
v -0.5 52 1.5
v -0.5 52 -6.5
v -0.5 52 -7.5
v -0.5 53 30.5
v -0.5 53 29.5
v -0.5 53 26.5
v -0.5 53 25.5
v -0.5 53 13.5
v -0.5 53 9.5
v -0.5 53 8.5
v -0.5 53 7.5
v -0.5 53 6.5
v -0.5 53 5.5
v -0.5 53 -16.5
v -0.5 53 -17.5
v -0.5 53 -28.5
v -0.5 53 -29.5
v -0.5 54 30.5
v -0.5 54 27.5
v -0.5 54 26.5
v -0.5 54 24.5
v -0.5 54 15.5
v -0.5 54 13.5
v -0.5 54 8.5
v -0.5 54 7.5
v -0.5 54 6.5
v -0.5 54 5.5
v -0.5 54 4.5
v -0.5 54 3.5
v -0.5 54 1.5
v -0.5 54 -0.5
v -0.5 54 -3.5
v -0.5 54 -4.5
v -0.5 54 -6.5
v -0.5 54 -7.5
v -0.5 54 -8.5
v -0.5 54 -9.5
v -0.5 54 -15.5
v -0.5 54 -17.5
v -0.5 54 -29.5
v -0.5 54 -30.5
v 0.5 0 30.5
v 0.5 0 23.5
v 0.5 0 22.5
v 0.5 0 19.5
v 0.5 0 18.5
v 0.5 0 15.5
v 0.5 0 -0.5
v 0.5 0 -2.5
v 0.5 0 -3.5
v 0.5 0 -15.5
v 0.5 0 -16.5
v 0.5 0 -30.5
v 0.5 1 28.5
v 0.5 1 27.5
v 0.5 1 -12.5
v 0.5 1 -13.5
v 0.5 2 13.5
v 0.5 2 12.5
v 0.5 2 2.5
v 0.5 2 1.5
v 0.5 2 -17.5
v 0.5 2 -18.5
v 0.5 3 -27.5
v 0.5 3 -28.5
v 0.5 4 28.5
v 0.5 4 27.5
v 0.5 4 19.5
v 0.5 4 18.5
v 0.5 4 2.5
v 0.5 4 1.5
v 0.5 4 -2.5
v 0.5 4 -3.5
v 0.5 4 -12.5
v 0.5 4 -13.5
v 0.5 4 -17.5
v 0.5 4 -18.5
v 0.5 4 -27.5
v 0.5 4 -28.5
v 0.5 5 13.5
v 0.5 5 12.5
v 0.5 7 23.5
v 0.5 7 22.5
v 0.5 7 -27.5
v 0.5 7 -28.5
v 0.5 10 -29.5
v 0.5 10 -30.5
v 0.5 12 -16.5
v 0.5 12 -17.5
v 0.5 12 -26.5
v 0.5 12 -27.5
v 0.5 13 -26.5
v 0.5 13 -27.5
v 0.5 14 -28.5
v 0.5 14 -29.5
v 0.5 15 -15.5
v 0.5 15 -16.5
v 0.5 15 -17.5
v 0.5 15 -18.5
v 0.5 16 24.5
v 0.5 16 23.5
v 0.5 17 -28.5
v 0.5 17 -29.5
v 0.5 18 18.5
v 0.5 18 17.5
v 0.5 19 -16.5
v 0.5 19 -17.5
v 0.5 20 -29.5
v 0.5 20 -30.5
v 0.5 22 -17.5
v 0.5 22 -18.5
v 0.5 22 -19.5
v 0.5 22 -25.5
v 0.5 22 -26.5
v 0.5 23 13.5
v 0.5 23 12.5
v 0.5 24 28.5
v 0.5 24 27.5
v 0.5 24 -12.5
v 0.5 24 -13.5
v 0.5 24 -17.5
v 0.5 24 -18.5
v 0.5 25 -2.5
v 0.5 25 -3.5
v 0.5 25 -18.5
v 0.5 25 -19.5
v 0.5 26 23.5
v 0.5 26 22.5
v 0.5 26 2.5
v 0.5 26 1.5
v 0.5 26 -27.5
v 0.5 26 -28.5
v 0.5 27 28.5
v 0.5 27 27.5
v 0.5 27 18.5
v 0.5 27 17.5
v 0.5 27 13.5
v 0.5 27 12.5
v 0.5 27 2.5
v 0.5 27 1.5
v 0.5 27 -2.5
v 0.5 27 -3.5
v 0.5 27 -12.5
v 0.5 27 -13.5
v 0.5 27 -23.5
v 0.5 27 -24.5
v 0.5 28 -23.5
v 0.5 28 -24.5
v 0.5 28 -25.5
v 0.5 28 -26.5
v 0.5 29 30.5
v 0.5 29 29.5
v 0.5 29 25.5
v 0.5 29 24.5
v 0.5 29 23.5
v 0.5 29 -26.5
v 0.5 29 -27.5
v 0.5 31 25.5
v 0.5 31 24.5
v 0.5 32 -24.5
v 0.5 32 -25.5
v 0.5 33 30.5
v 0.5 33 29.5
v 0.5 33 23.5
v 0.5 33 22.5
v 0.5 33 -22.5
v 0.5 33 -23.5
v 0.5 33 -27.5
v 0.5 33 -28.5
v 0.5 34 30.5
v 0.5 34 29.5
v 0.5 34 -24.5
v 0.5 34 -25.5
v 0.5 34 -26.5
v 0.5 34 -27.5
v 0.5 35 26.5
v 0.5 35 25.5
v 0.5 36 -19.5
v 0.5 36 -20.5
v 0.5 37 24.5
v 0.5 37 23.5
v 0.5 37 -22.5
v 0.5 37 -23.5
v 0.5 37 -24.5
v 0.5 37 -25.5
v 0.5 38 25.5
v 0.5 38 24.5
v 0.5 39 29.5
v 0.5 39 28.5
v 0.5 39 -23.5
v 0.5 39 -24.5
v 0.5 39 -25.5
v 0.5 39 -26.5
v 0.5 40 29.5
v 0.5 40 28.5
v 0.5 40 -22.5
v 0.5 40 -23.5
v 0.5 40 -25.5
v 0.5 40 -26.5
v 0.5 41 3.5
v 0.5 41 2.5
v 0.5 41 -23.5
v 0.5 41 -24.5
v 0.5 41 -28.5
v 0.5 41 -29.5
v 0.5 42 30.5
v 0.5 42 29.5
v 0.5 42 27.5
v 0.5 42 26.5
v 0.5 42 -24.5
v 0.5 42 -25.5
v 0.5 42 -28.5
v 0.5 42 -29.5
v 0.5 43 26.5
v 0.5 43 25.5
v 0.5 43 18.5
v 0.5 43 17.5
v 0.5 44 30.5
v 0.5 44 29.5
v 0.5 45 3.5
v 0.5 45 2.5
v 0.5 45 -18.5
v 0.5 45 -19.5
v 0.5 46 28.5
v 0.5 46 27.5
v 0.5 46 25.5
v 0.5 46 24.5
v 0.5 46 -12.5
v 0.5 46 -13.5
v 0.5 46 -17.5
v 0.5 46 -18.5
v 0.5 46 -24.5
v 0.5 46 -25.5
v 0.5 47 3.5
v 0.5 47 2.5
v 0.5 47 -2.5
v 0.5 47 -3.5
v 0.5 47 -19.5
v 0.5 47 -20.5
v 0.5 48 28.5
v 0.5 48 27.5
v 0.5 48 26.5
v 0.5 48 24.5
v 0.5 48 23.5
v 0.5 48 2.5
v 0.5 48 1.5
v 0.5 48 -15.5
v 0.5 48 -16.5
v 0.5 49 24.5
v 0.5 49 23.5
v 0.5 49 13.5
v 0.5 49 12.5
v 0.5 49 -3.5
v 0.5 49 -4.5
v 0.5 49 -28.5
v 0.5 49 -29.5
v 0.5 50 5.5
v 0.5 50 4.5
v 0.5 50 -8.5
v 0.5 50 -9.5
v 0.5 51 18.5
v 0.5 51 17.5
v 0.5 51 13.5
v 0.5 51 12.5
v 0.5 51 6.5
v 0.5 51 5.5
v 0.5 51 4.5
v 0.5 51 3.5
v 0.5 51 2.5
v 0.5 51 1.5
v 0.5 51 -2.5
v 0.5 51 -3.5
v 0.5 51 -12.5
v 0.5 51 -13.5
v 0.5 51 -17.5
v 0.5 51 -18.5
v 0.5 51 -27.5
v 0.5 51 -28.5
v 0.5 52 29.5
v 0.5 52 28.5
v 0.5 52 27.5
v 0.5 52 9.5
v 0.5 52 6.5
v 0.5 52 5.5
v 0.5 52 4.5
v 0.5 52 3.5
v 0.5 52 2.5
v 0.5 52 1.5
v 0.5 52 -6.5
v 0.5 52 -7.5
v 0.5 53 30.5
v 0.5 53 29.5
v 0.5 53 26.5
v 0.5 53 25.5
v 0.5 53 13.5
v 0.5 53 9.5
v 0.5 53 8.5
v 0.5 53 7.5
v 0.5 53 6.5
v 0.5 53 5.5
v 0.5 53 -16.5
v 0.5 53 -17.5
v 0.5 53 -28.5
v 0.5 53 -29.5
v 0.5 54 30.5
v 0.5 54 27.5
v 0.5 54 26.5
v 0.5 54 24.5
v 0.5 54 15.5
v 0.5 54 13.5
v 0.5 54 8.5
v 0.5 54 7.5
v 0.5 54 6.5
v 0.5 54 5.5
v 0.5 54 4.5
v 0.5 54 3.5
v 0.5 54 1.5
v 0.5 54 -0.5
v 0.5 54 -3.5
v 0.5 54 -4.5
v 0.5 54 -6.5
v 0.5 54 -7.5
v 0.5 54 -8.5
v 0.5 54 -9.5
v 0.5 54 -15.5
v 0.5 54 -17.5
v 0.5 54 -29.5
v 0.5 54 -30.5
v -0.5 0 30.5
v -0.5 29 30.5
v -0.5 33 30.5
v -0.5 34 30.5
v -0.5 42 30.5
v -0.5 44 30.5
v -0.5 53 30.5
v -0.5 54 30.5
v 0.5 0 30.5
v 0.5 29 30.5
v 0.5 33 30.5
v 0.5 34 30.5
v 0.5 42 30.5
v 0.5 44 30.5
v 0.5 53 30.5
v 0.5 54 30.5
v -0.5 0 -30.5
v -0.5 10 -30.5
v -0.5 20 -30.5
v -0.5 54 -30.5
v 0.5 0 -30.5
v 0.5 10 -30.5
v 0.5 20 -30.5
v 0.5 54 -30.5
v -0.5 0 30.5
v 0.5 0 30.5
v -0.5 0 23.5
v 0.5 0 23.5
v -0.5 0 22.5
v 0.5 0 22.5
v -0.5 0 19.5
v 0.5 0 19.5
v -0.5 0 18.5
v 0.5 0 18.5
v -0.5 0 15.5
v 0.5 0 15.5
v -0.5 0 -0.5
v 0.5 0 -0.5
v -0.5 0 -2.5
v 0.5 0 -2.5
v -0.5 0 -3.5
v 0.5 0 -3.5
v -0.5 0 -15.5
v 0.5 0 -15.5
v -0.5 0 -16.5
v 0.5 0 -16.5
v -0.5 0 -30.5
v 0.5 0 -30.5
v -0.5 54 30.5
v 0.5 54 30.5
v -0.5 54 27.5
v 0.5 54 27.5
v -0.5 54 26.5
v 0.5 54 26.5
v -0.5 54 24.5
v 0.5 54 24.5
v -0.5 54 15.5
v 0.5 54 15.5
v -0.5 54 13.5
v 0.5 54 13.5
v -0.5 54 8.5
v 0.5 54 8.5
v -0.5 54 7.5
v 0.5 54 7.5
v -0.5 54 6.5
v 0.5 54 6.5
v -0.5 54 5.5
v 0.5 54 5.5
v -0.5 54 4.5
v 0.5 54 4.5
v -0.5 54 3.5
v 0.5 54 3.5
v -0.5 54 1.5
v 0.5 54 1.5
v -0.5 54 -0.5
v 0.5 54 -0.5
v -0.5 54 -3.5
v 0.5 54 -3.5
v -0.5 54 -4.5
v 0.5 54 -4.5
v -0.5 54 -6.5
v 0.5 54 -6.5
v -0.5 54 -7.5
v 0.5 54 -7.5
v -0.5 54 -8.5
v 0.5 54 -8.5
v -0.5 54 -9.5
v 0.5 54 -9.5
v -0.5 54 -15.5
v 0.5 54 -15.5
v -0.5 54 -17.5
v 0.5 54 -17.5
v -0.5 54 -29.5
v 0.5 54 -29.5
v -0.5 54 -30.5
v 0.5 54 -30.5

# faces
f 13/1/1 2/1/1 1/1/1
f 14/1/1 2/1/1 13/1/1
f 15/1/1 10/1/1 9/1/1
f 16/1/1 10/1/1 15/1/1
f 17/2/1 7/2/1 6/2/1
f 18/2/1 7/2/1 17/2/1
f 19/2/1 7/2/1 18/2/1
f 20/2/1 7/2/1 19/2/1
f 21/1/1 12/1/1 11/1/1
f 22/1/1 12/1/1 21/1/1
f 23/1/1 12/1/1 22/1/1
f 24/1/1 12/1/1 23/1/1
f 25/1/1 13/1/1 1/1/1
f 25/3/1 14/3/1 13/3/1
f 26/1/1 2/1/1 14/1/1
f 26/3/1 14/3/1 25/3/1
f 27/1/1 4/1/1 3/1/1
f 27/3/1 5/3/1 4/3/1
f 28/1/1 6/1/1 5/1/1
f 28/3/1 5/3/1 27/3/1
f 29/2/1 19/2/1 18/2/1
f 29/3/1 20/3/1 19/3/1
f 30/2/1 7/2/1 20/2/1
f 30/3/1 20/3/1 29/3/1
f 31/1/1 8/1/1 7/1/1
f 31/3/1 9/3/1 8/3/1
f 32/1/1 15/1/1 9/1/1
f 32/3/1 9/3/1 31/3/1
f 33/3/1 16/3/1 15/3/1
f 33/1/1 15/1/1 32/1/1
f 34/1/1 10/1/1 16/1/1
f 34/3/1 16/3/1 33/3/1
f 35/1/1 21/1/1 11/1/1
f 35/3/1 22/3/1 21/3/1
f 36/1/1 23/1/1 22/1/1
f 36/3/1 22/3/1 35/3/1
f 37/3/1 24/3/1 23/3/1
f 37/1/1 23/1/1 36/1/1
f 38/1/1 12/1/1 24/1/1
f 38/3/1 24/3/1 37/3/1
f 39/2/1 17/2/1 6/2/1
f 39/3/1 18/3/1 17/3/1
f 40/2/1 29/2/1 18/2/1
f 40/3/1 18/3/1 39/3/1
f 40/2/1 30/2/1 29/2/1
f 41/3/1 3/3/1 2/3/1
f 41/1/1 2/1/1 26/1/1
f 41/1/1 26/1/1 25/1/1
f 42/1/1 27/1/1 3/1/1
f 42/3/1 3/3/1 41/3/1
f 42/1/1 28/1/1 27/1/1
f 43/1/1 37/1/1 36/1/1
f 43/1/1 36/1/1 35/1/1
f 43/1/1 38/1/1 37/1/1
f 44/1/1 12/1/1 38/1/1
f 44/1/1 38/1/1 43/1/1
f 45/1/1 12/1/1 44/1/1
f 46/1/1 12/1/1 45/1/1
f 47/1/1 35/1/1 11/1/1
f 47/3/1 11/3/1 10/3/1
f 47/1/1 43/1/1 35/1/1
f 48/1/1 43/1/1 47/1/1
f 49/1/1 43/1/1 48/1/1
f 50/3/1 44/3/1 43/3/1
f 50/1/1 43/1/1 49/1/1
f 51/1/1 49/1/1 48/1/1
f 51/3/1 50/3/1 49/3/1
f 52/3/1 44/3/1 50/3/1
f 52/3/1 50/3/1 51/3/1
f 53/1/1 45/1/1 44/1/1
f 53/3/1 44/3/1 52/3/1
f 54/5/1 46/5/1 45/5/1
f 54/1/1 45/1/1 53/1/1
f 55/1/1 34/1/1 33/1/1
f 55/1/1 33/1/1 32/1/1
f 55/1/1 32/1/1 31/1/1
f 55/3/1 48/3/1 47/3/1
f 55/3/1 47/3/1 10/3/1
f 55/1/1 10/1/1 34/1/1
f 56/3/1 48/3/1 55/3/1
f 57/1/1 51/1/1 48/1/1
f 57/3/1 48/3/1 56/3/1
f 58/1/1 51/1/1 57/1/1
f 59/1/1 41/1/1 25/1/1
f 60/5/1 42/5/1 41/5/1
f 60/1/1 41/1/1 59/1/1
f 61/3/1 54/3/1 53/3/1
f 61/3/1 53/3/1 52/3/1
f 62/5/1 46/5/1 54/5/1
f 62/3/1 54/3/1 61/3/1
f 63/1/1 28/1/1 42/1/1
f 63/1/1 6/1/1 28/1/1
f 64/1/1 6/1/1 63/1/1
f 65/4/1 56/4/1 55/4/1
f 65/3/1 57/3/1 56/3/1
f 66/4/1 58/4/1 57/4/1
f 66/3/1 57/3/1 65/3/1
f 67/5/1 46/5/1 62/5/1
f 67/4/1 62/4/1 61/4/1
f 68/5/1 46/5/1 67/5/1
f 69/4/1 58/4/1 66/4/1
f 69/5/1 66/5/1 65/5/1
f 70/1/1 51/1/1 58/1/1
f 70/4/1 58/4/1 69/4/1
f 71/1/1 51/1/1 70/1/1
f 72/1/1 51/1/1 71/1/1
f 73/4/1 52/4/1 51/4/1
f 73/1/1 51/1/1 72/1/1
f 74/2/1 39/2/1 6/2/1
f 74/2/1 40/2/1 39/2/1
f 75/2/1 30/2/1 40/2/1
f 75/2/1 40/2/1 74/2/1
f 76/1/1 25/1/1 1/1/1
f 76/1/1 59/1/1 25/1/1
f 77/1/1 59/1/1 76/1/1
f 78/1/1 55/1/1 31/1/1
f 79/1/1 55/1/1 78/1/1
f 80/5/1 69/5/1 65/5/1
f 80/3/1 70/3/1 69/3/1
f 80/3/1 71/3/1 70/3/1
f 81/3/1 71/3/1 80/3/1
f 82/1/1 31/1/1 7/1/1
f 82/1/1 78/1/1 31/1/1
f 83/1/1 78/1/1 82/1/1
f 84/3/1 71/3/1 81/3/1
f 84/1/1 81/1/1 80/1/1
f 85/1/1 72/1/1 71/1/1
f 85/3/1 71/3/1 84/3/1
f 86/5/1 42/5/1 60/5/1
f 86/3/1 60/3/1 59/3/1
f 87/1/1 63/1/1 42/1/1
f 87/5/1 42/5/1 86/5/1
f 88/2/1 30/2/1 75/2/1
f 89/2/1 7/2/1 30/2/1
f 89/2/1 30/2/1 88/2/1
f 90/4/1 52/4/1 73/4/1
f 90/3/1 61/3/1 52/3/1
f 91/4/1 67/4/1 61/4/1
f 91/3/1 61/3/1 90/3/1
f 92/1/1 76/1/1 1/1/1
f 92/3/1 77/3/1 76/3/1
f 93/1/1 59/1/1 77/1/1
f 93/3/1 77/3/1 92/3/1
f 94/1/1 63/1/1 87/1/1
f 94/3/1 64/3/1 63/3/1
f 95/1/1 6/1/1 64/1/1
f 95/3/1 64/3/1 94/3/1
f 96/2/1 74/2/1 6/2/1
f 96/3/1 75/3/1 74/3/1
f 97/2/1 88/2/1 75/2/1
f 97/3/1 75/3/1 96/3/1
f 98/3/1 89/3/1 88/3/1
f 98/2/1 88/2/1 97/2/1
f 99/2/1 7/2/1 89/2/1
f 99/3/1 89/3/1 98/3/1
f 100/3/1 83/3/1 82/3/1
f 100/1/1 82/1/1 7/1/1
f 101/1/1 78/1/1 83/1/1
f 101/3/1 83/3/1 100/3/1
f 102/3/1 79/3/1 78/3/1
f 102/1/1 78/1/1 101/1/1
f 103/1/1 55/1/1 79/1/1
f 103/3/1 79/3/1 102/3/1
f 104/1/1 72/1/1 85/1/1
f 105/1/1 72/1/1 104/1/1
f 106/1/1 104/1/1 85/1/1
f 106/3/1 105/3/1 104/3/1
f 107/1/1 72/1/1 105/1/1
f 107/3/1 105/3/1 106/3/1
f 108/3/1 73/3/1 72/3/1
f 108/1/1 72/1/1 107/1/1
f 109/4/1 90/4/1 73/4/1
f 109/3/1 73/3/1 108/3/1
f 110/1/1 92/1/1 1/1/1
f 110/1/1 93/1/1 92/1/1
f 111/1/1 93/1/1 110/1/1
f 112/1/1 59/1/1 93/1/1
f 112/1/1 93/1/1 111/1/1
f 113/3/1 86/3/1 59/3/1
f 113/1/1 59/1/1 112/1/1
f 113/3/1 87/3/1 86/3/1
f 114/3/1 87/3/1 113/3/1
f 115/4/1 90/4/1 109/4/1
f 115/4/1 109/4/1 108/4/1
f 116/5/1 91/5/1 90/5/1
f 116/4/1 90/4/1 115/4/1
f 117/1/1 112/1/1 111/1/1
f 117/3/1 113/3/1 112/3/1
f 118/5/1 114/5/1 113/5/1
f 118/3/1 113/3/1 117/3/1
f 119/5/1 107/5/1 106/5/1
f 119/1/1 108/1/1 107/1/1
f 120/4/1 115/4/1 108/4/1
f 120/1/1 108/1/1 119/1/1
f 121/3/1 111/3/1 110/3/1
f 122/1/1 117/1/1 111/1/1
f 122/3/1 111/3/1 121/3/1
f 123/5/1 114/5/1 118/5/1
f 123/3/1 87/3/1 114/3/1
f 124/1/1 95/1/1 94/1/1
f 124/3/1 87/3/1 123/3/1
f 124/1/1 94/1/1 87/1/1
f 125/1/1 106/1/1 85/1/1
f 126/5/1 119/5/1 106/5/1
f 126/1/1 106/1/1 125/1/1
f 127/5/1 91/5/1 116/5/1
f 127/3/1 116/3/1 115/3/1
f 128/4/1 67/4/1 91/4/1
f 128/5/1 91/5/1 127/5/1
f 129/4/1 122/4/1 121/4/1
f 130/1/1 117/1/1 122/1/1
f 130/4/1 122/4/1 129/4/1
f 131/3/1 120/3/1 119/3/1
f 131/5/1 119/5/1 126/5/1
f 132/4/1 115/4/1 120/4/1
f 132/3/1 120/3/1 131/3/1
f 133/3/1 127/3/1 115/3/1
f 133/4/1 115/4/1 132/4/1
f 133/3/1 128/3/1 127/3/1
f 134/3/1 128/3/1 133/3/1
f 135/1/1 117/1/1 130/1/1
f 136/4/1 118/4/1 117/4/1
f 136/1/1 117/1/1 135/1/1
f 137/4/1 85/4/1 84/4/1
f 137/1/1 125/1/1 85/1/1
f 138/1/1 125/1/1 137/1/1
f 139/4/1 118/4/1 136/4/1
f 139/5/1 123/5/1 118/5/1
f 140/1/1 124/1/1 123/1/1
f 140/5/1 123/5/1 139/5/1
f 141/1/1 125/1/1 138/1/1
f 141/4/1 126/4/1 125/4/1
f 142/5/1 131/5/1 126/5/1
f 142/4/1 126/4/1 141/4/1
f 143/4/1 132/4/1 131/4/1
f 143/5/1 131/5/1 142/5/1
f 143/4/1 133/4/1 132/4/1
f 144/4/1 133/4/1 143/4/1
f 145/3/1 136/3/1 135/3/1
f 145/4/1 140/4/1 139/4/1
f 145/4/1 139/4/1 136/4/1
f 146/4/1 140/4/1 145/4/1
f 147/6/1 130/6/1 129/6/1
f 147/1/1 135/1/1 130/1/1
f 148/1/1 135/1/1 147/1/1
f 149/3/1 142/3/1 141/3/1
f 149/5/1 144/5/1 143/5/1
f 149/5/1 143/5/1 142/5/1
f 150/5/1 144/5/1 149/5/1
f 151/4/1 133/4/1 144/4/1
f 151/5/1 144/5/1 150/5/1
f 152/1/1 134/1/1 133/1/1
f 152/4/1 133/4/1 151/4/1
f 153/3/1 148/3/1 147/3/1
f 153/6/1 147/6/1 129/6/1
f 154/1/1 135/1/1 148/1/1
f 154/3/1 148/3/1 153/3/1
f 155/1/1 141/1/1 138/1/1
f 155/3/1 150/3/1 149/3/1
f 155/3/1 149/3/1 141/3/1
f 156/3/1 150/3/1 155/3/1
f 157/3/1 152/3/1 151/3/1
f 157/5/1 151/5/1 150/5/1
f 158/1/1 134/1/1 152/1/1
f 158/3/1 152/3/1 157/3/1
f 159/2/1 98/2/1 97/2/1
f 159/2/1 97/2/1 96/2/1
f 159/2/1 99/2/1 98/2/1
f 160/2/1 99/2/1 159/2/1
f 161/3/1 150/3/1 156/3/1
f 161/1/1 156/1/1 155/1/1
f 162/5/1 157/5/1 150/5/1
f 162/3/1 150/3/1 161/3/1
f 163/3/1 128/3/1 134/3/1
f 163/4/1 67/4/1 128/4/1
f 164/3/1 68/3/1 67/3/1
f 164/4/1 67/4/1 163/4/1
f 165/6/1 153/6/1 129/6/1
f 166/5/1 154/5/1 153/5/1
f 166/6/1 153/6/1 165/6/1
f 167/1/1 135/1/1 154/1/1
f 168/3/1 145/3/1 135/3/1
f 168/1/1 135/1/1 167/1/1
f 169/5/1 157/5/1 162/5/1
f 169/1/1 162/1/1 161/1/1
f 170/1/1 158/1/1 157/1/1
f 170/5/1 157/5/1 169/5/1
f 171/3/1 163/3/1 134/3/1
f 171/3/1 164/3/1 163/3/1
f 172/3/1 68/3/1 164/3/1
f 172/3/1 164/3/1 171/3/1
f 173/3/1 145/3/1 168/3/1
f 173/3/1 168/3/1 167/3/1
f 174/6/1 146/6/1 145/6/1
f 174/3/1 145/3/1 173/3/1
f 175/1/1 124/1/1 140/1/1
f 175/1/1 95/1/1 124/1/1
f 176/1/1 6/1/1 95/1/1
f 176/1/1 95/1/1 175/1/1
f 177/4/1 166/4/1 165/4/1
f 178/5/1 154/5/1 166/5/1
f 178/4/1 166/4/1 177/4/1
f 179/3/1 160/3/1 159/3/1
f 179/2/1 159/2/1 96/2/1
f 180/2/1 99/2/1 160/2/1
f 180/3/1 160/3/1 179/3/1
f 181/1/1 84/1/1 80/1/1
f 181/4/1 137/4/1 84/4/1
f 182/3/1 138/3/1 137/3/1
f 182/4/1 137/4/1 181/4/1
f 183/5/1 154/5/1 178/5/1
f 183/1/1 167/1/1 154/1/1
f 184/3/1 173/3/1 167/3/1
f 184/1/1 167/1/1 183/1/1
f 185/6/1 146/6/1 174/6/1
f 185/6/1 174/6/1 173/6/1
f 186/4/1 140/4/1 146/4/1
f 186/6/1 146/6/1 185/6/1
f 187/1/1 102/1/1 101/1/1
f 187/1/1 101/1/1 100/1/1
f 187/1/1 103/1/1 102/1/1
f 188/1/1 55/1/1 103/1/1
f 188/1/1 103/1/1 187/1/1
f 189/1/1 181/1/1 80/1/1
f 189/5/1 80/5/1 65/5/1
f 189/1/1 182/1/1 181/1/1
f 190/1/1 182/1/1 189/1/1
f 191/1/1 169/1/1 161/1/1
f 191/3/1 170/3/1 169/3/1
f 192/1/1 158/1/1 170/1/1
f 192/3/1 170/3/1 191/3/1
f 193/2/1 179/2/1 96/2/1
f 193/2/1 180/2/1 179/2/1
f 194/2/1 99/2/1 180/2/1
f 194/2/1 180/2/1 193/2/1
f 195/1/1 187/1/1 100/1/1
f 195/1/1 100/1/1 7/1/1
f 196/1/1 187/1/1 195/1/1
f 197/1/1 182/1/1 190/1/1
f 197/3/1 138/3/1 182/3/1
f 198/1/1 191/1/1 161/1/1
f 198/3/1 138/3/1 197/3/1
f 198/1/1 155/1/1 138/1/1
f 198/1/1 161/1/1 155/1/1
f 198/1/1 192/1/1 191/1/1
f 199/5/1 183/5/1 178/5/1
f 199/3/1 184/3/1 183/3/1
f 200/3/1 173/3/1 184/3/1
f 200/3/1 184/3/1 199/3/1
f 201/6/1 185/6/1 173/6/1
f 201/3/1 173/3/1 200/3/1
f 202/4/1 140/4/1 186/4/1
f 202/3/1 186/3/1 185/3/1
f 203/1/1 175/1/1 140/1/1
f 203/4/1 140/4/1 202/4/1
f 204/2/1 99/2/1 194/2/1
f 204/3/1 194/3/1 193/3/1
f 205/2/1 7/2/1 99/2/1
f 205/2/1 99/2/1 204/2/1
f 206/1/1 55/1/1 188/1/1
f 206/4/1 65/4/1 55/4/1
f 207/5/1 189/5/1 65/5/1
f 207/4/1 65/4/1 206/4/1
f 208/3/1 202/3/1 185/3/1
f 208/3/1 203/3/1 202/3/1
f 209/1/1 175/1/1 203/1/1
f 209/3/1 203/3/1 208/3/1
f 210/2/1 96/2/1 6/2/1
f 210/2/1 193/2/1 96/2/1
f 211/2/1 193/2/1 210/2/1
f 212/1/1 187/1/1 196/1/1
f 212/3/1 196/3/1 195/3/1
f 213/1/1 187/1/1 212/1/1
f 214/5/1 172/5/1 171/5/1
f 214/3/1 171/3/1 134/3/1
f 215/3/1 68/3/1 172/3/1
f 215/5/1 172/5/1 214/5/1
f 216/2/1 193/2/1 211/2/1
f 217/2/1 193/2/1 216/2/1
f 218/1/1 187/1/1 213/1/1
f 219/1/1 187/1/1 218/1/1
f 220/1/1 175/1/1 209/1/1
f 220/1/1 209/1/1 208/1/1
f 220/3/1 176/3/1 175/3/1
f 221/1/1 6/1/1 176/1/1
f 221/3/1 176/3/1 220/3/1
f 222/3/1 211/3/1 210/3/1
f 222/2/1 210/2/1 6/2/1
f 223/2/1 216/2/1 211/2/1
f 223/3/1 211/3/1 222/3/1
f 224/2/1 216/2/1 223/2/1
f 225/3/1 217/3/1 216/3/1
f 225/2/1 216/2/1 224/2/1
f 226/2/1 193/2/1 217/2/1
f 226/3/1 217/3/1 225/3/1
f 227/3/1 205/3/1 204/3/1
f 227/2/1 193/2/1 226/2/1
f 227/3/1 204/3/1 193/3/1
f 228/3/1 205/3/1 227/3/1
f 229/2/1 7/2/1 205/2/1
f 229/3/1 205/3/1 228/3/1
f 230/3/1 213/3/1 212/3/1
f 230/1/1 195/1/1 7/1/1
f 230/3/1 212/3/1 195/3/1
f 231/3/1 213/3/1 230/3/1
f 232/1/1 187/1/1 219/1/1
f 232/3/1 188/3/1 187/3/1
f 233/1/1 206/1/1 188/1/1
f 233/3/1 188/3/1 232/3/1
f 234/5/1 189/5/1 207/5/1
f 234/3/1 190/3/1 189/3/1
f 235/1/1 197/1/1 190/1/1
f 235/3/1 190/3/1 234/3/1
f 235/1/1 198/1/1 197/1/1
f 236/1/1 134/1/1 158/1/1
f 236/1/1 198/1/1 235/1/1
f 236/3/1 214/3/1 134/3/1
f 236/1/1 192/1/1 198/1/1
f 236/1/1 158/1/1 192/1/1
f 236/3/1 215/3/1 214/3/1
f 237/3/1 215/3/1 236/3/1
f 238/5/1 199/5/1 178/5/1
f 238/6/1 178/6/1 177/6/1
f 239/6/1 200/6/1 199/6/1
f 239/5/1 199/5/1 238/5/1
f 240/4/1 201/4/1 200/4/1
f 240/6/1 200/6/1 239/6/1
f 241/2/1 224/2/1 223/2/1
f 241/2/1 223/2/1 222/2/1
f 242/3/1 228/3/1 227/3/1
f 242/2/1 224/2/1 241/2/1
f 242/3/1 225/3/1 224/3/1
f 242/3/1 226/3/1 225/3/1
f 242/3/1 227/3/1 226/3/1
f 243/3/1 228/3/1 242/3/1
f 244/3/1 228/3/1 243/3/1
f 245/3/1 228/3/1 244/3/1
f 246/2/1 229/2/1 228/2/1
f 246/3/1 228/3/1 245/3/1
f 247/2/1 7/2/1 229/2/1
f 247/2/1 229/2/1 246/2/1
f 248/1/1 218/1/1 213/1/1
f 249/1/1 218/1/1 248/1/1
f 250/6/1 238/6/1 177/6/1
f 251/3/1 239/3/1 238/3/1
f 251/6/1 238/6/1 250/6/1
f 251/3/1 240/3/1 239/3/1
f 252/6/1 185/6/1 201/6/1
f 252/4/1 201/4/1 240/4/1
f 253/3/1 208/3/1 185/3/1
f 253/6/1 185/6/1 252/6/1
f 254/2/1 241/2/1 222/2/1
f 254/2/1 222/2/1 6/2/1
f 255/3/1 242/3/1 241/3/1
f 255/2/1 241/2/1 254/2/1
f 255/3/1 243/3/1 242/3/1
f 256/3/1 243/3/1 255/3/1
f 257/3/1 243/3/1 256/3/1
f 258/3/1 243/3/1 257/3/1
f 259/5/1 244/5/1 243/5/1
f 259/3/1 243/3/1 258/3/1
f 260/3/1 207/3/1 206/3/1
f 260/5/1 234/5/1 207/5/1
f 261/1/1 235/1/1 234/1/1
f 261/5/1 234/5/1 260/5/1
f 261/1/1 236/1/1 235/1/1
f 261/1/1 237/1/1 236/1/1
f 262/3/1 215/3/1 237/3/1
f 262/1/1 237/1/1 261/1/1
f 263/3/1 68/3/1 215/3/1
f 263/3/1 215/3/1 262/3/1
f 264/3/1 251/3/1 250/3/1
f 265/3/1 240/3/1 251/3/1
f 265/3/1 251/3/1 264/3/1
f 265/4/1 252/4/1 240/4/1
f 266/3/1 253/3/1 252/3/1
f 266/4/1 252/4/1 265/4/1
f 267/3/1 208/3/1 253/3/1
f 267/3/1 253/3/1 266/3/1
f 267/1/1 221/1/1 220/1/1
f 267/1/1 220/1/1 208/1/1
f 268/1/1 6/1/1 221/1/1
f 268/1/1 221/1/1 267/1/1
f 268/2/1 254/2/1 6/2/1
f 269/3/1 255/3/1 254/3/1
f 269/2/1 254/2/1 268/2/1
f 269/3/1 256/3/1 255/3/1
f 270/4/1 257/4/1 256/4/1
f 270/3/1 256/3/1 269/3/1
f 271/3/1 258/3/1 257/3/1
f 271/4/1 257/4/1 270/4/1
f 272/4/1 259/4/1 258/4/1
f 272/3/1 258/3/1 271/3/1
f 273/5/1 244/5/1 259/5/1
f 273/4/1 259/4/1 272/4/1
f 274/4/1 245/4/1 244/4/1
f 274/5/1 244/5/1 273/5/1
f 275/3/1 246/3/1 245/3/1
f 275/4/1 245/4/1 274/4/1
f 275/3/1 247/3/1 246/3/1
f 276/2/1 7/2/1 247/2/1
f 276/3/1 247/3/1 275/3/1
f 277/1/1 231/1/1 230/1/1
f 277/2/1 7/2/1 276/2/1
f 277/1/1 230/1/1 7/1/1
f 278/3/1 213/3/1 231/3/1
f 278/1/1 231/1/1 277/1/1
f 279/1/1 248/1/1 213/1/1
f 279/3/1 213/3/1 278/3/1
f 280/3/1 249/3/1 248/3/1
f 280/1/1 248/1/1 279/1/1
f 281/1/1 218/1/1 249/1/1
f 281/3/1 249/3/1 280/3/1
f 282/3/1 219/3/1 218/3/1
f 282/1/1 218/1/1 281/1/1
f 283/1/1 232/1/1 219/1/1
f 283/3/1 219/3/1 282/3/1
f 283/1/1 233/1/1 232/1/1
f 284/3/1 260/3/1 206/3/1
f 284/1/1 233/1/1 283/1/1
f 284/1/1 206/1/1 233/1/1
f 284/3/1 261/3/1 260/3/1
f 285/1/1 262/1/1 261/1/1
f 285/3/1 261/3/1 284/3/1
f 285/1/1 263/1/1 262/1/1
f 286/3/1 68/3/1 263/3/1
f 286/1/1 263/1/1 285/1/1
f 287/3/1 68/3/1 286/3/1
f 288/1/2 289/1/2 300/1/2
f 300/1/2 289/1/2 301/1/2
f 296/1/2 297/1/2 302/1/2
f 302/1/2 297/1/2 303/1/2
f 293/2/2 294/2/2 304/2/2
f 304/2/2 294/2/2 305/2/2
f 305/2/2 294/2/2 306/2/2
f 306/2/2 294/2/2 307/2/2
f 298/1/2 299/1/2 308/1/2
f 308/1/2 299/1/2 309/1/2
f 309/1/2 299/1/2 310/1/2
f 310/1/2 299/1/2 311/1/2
f 288/1/2 300/1/2 312/1/2
f 300/3/2 301/3/2 312/3/2
f 301/1/2 289/1/2 313/1/2
f 312/3/2 301/3/2 313/3/2
f 290/1/2 291/1/2 314/1/2
f 291/3/2 292/3/2 314/3/2
f 292/1/2 293/1/2 315/1/2
f 314/3/2 292/3/2 315/3/2
f 305/2/2 306/2/2 316/2/2
f 306/3/2 307/3/2 316/3/2
f 307/2/2 294/2/2 317/2/2
f 316/3/2 307/3/2 317/3/2
f 294/1/2 295/1/2 318/1/2
f 295/3/2 296/3/2 318/3/2
f 296/1/2 302/1/2 319/1/2
f 318/3/2 296/3/2 319/3/2
f 302/3/2 303/3/2 320/3/2
f 319/1/2 302/1/2 320/1/2
f 303/1/2 297/1/2 321/1/2
f 320/3/2 303/3/2 321/3/2
f 298/1/2 308/1/2 322/1/2
f 308/3/2 309/3/2 322/3/2
f 309/1/2 310/1/2 323/1/2
f 322/3/2 309/3/2 323/3/2
f 310/3/2 311/3/2 324/3/2
f 323/1/2 310/1/2 324/1/2
f 311/1/2 299/1/2 325/1/2
f 324/3/2 311/3/2 325/3/2
f 293/2/2 304/2/2 326/2/2
f 304/3/2 305/3/2 326/3/2
f 305/2/2 316/2/2 327/2/2
f 326/3/2 305/3/2 327/3/2
f 316/2/2 317/2/2 327/2/2
f 289/3/2 290/3/2 328/3/2
f 313/1/2 289/1/2 328/1/2
f 312/1/2 313/1/2 328/1/2
f 290/1/2 314/1/2 329/1/2
f 328/3/2 290/3/2 329/3/2
f 314/1/2 315/1/2 329/1/2
f 323/1/2 324/1/2 330/1/2
f 322/1/2 323/1/2 330/1/2
f 324/1/2 325/1/2 330/1/2
f 325/1/2 299/1/2 331/1/2
f 330/1/2 325/1/2 331/1/2
f 331/1/2 299/1/2 332/1/2
f 332/1/2 299/1/2 333/1/2
f 298/1/2 322/1/2 334/1/2
f 297/3/2 298/3/2 334/3/2
f 322/1/2 330/1/2 334/1/2
f 334/1/2 330/1/2 335/1/2
f 335/1/2 330/1/2 336/1/2
f 330/3/2 331/3/2 337/3/2
f 336/1/2 330/1/2 337/1/2
f 335/1/2 336/1/2 338/1/2
f 336/3/2 337/3/2 338/3/2
f 337/3/2 331/3/2 339/3/2
f 338/3/2 337/3/2 339/3/2
f 331/1/2 332/1/2 340/1/2
f 339/3/2 331/3/2 340/3/2
f 332/5/2 333/5/2 341/5/2
f 340/1/2 332/1/2 341/1/2
f 320/1/2 321/1/2 342/1/2
f 319/1/2 320/1/2 342/1/2
f 318/1/2 319/1/2 342/1/2
f 334/3/2 335/3/2 342/3/2
f 297/3/2 334/3/2 342/3/2
f 321/1/2 297/1/2 342/1/2
f 342/3/2 335/3/2 343/3/2
f 335/1/2 338/1/2 344/1/2
f 343/3/2 335/3/2 344/3/2
f 344/1/2 338/1/2 345/1/2
f 312/1/2 328/1/2 346/1/2
f 328/5/2 329/5/2 347/5/2
f 346/1/2 328/1/2 347/1/2
f 340/3/2 341/3/2 348/3/2
f 339/3/2 340/3/2 348/3/2
f 341/5/2 333/5/2 349/5/2
f 348/3/2 341/3/2 349/3/2
f 329/1/2 315/1/2 350/1/2
f 315/1/2 293/1/2 350/1/2
f 350/1/2 293/1/2 351/1/2
f 342/4/2 343/4/2 352/4/2
f 343/3/2 344/3/2 352/3/2
f 344/4/2 345/4/2 353/4/2
f 352/3/2 344/3/2 353/3/2
f 349/5/2 333/5/2 354/5/2
f 348/4/2 349/4/2 354/4/2
f 354/5/2 333/5/2 355/5/2
f 353/4/2 345/4/2 356/4/2
f 352/5/2 353/5/2 356/5/2
f 345/1/2 338/1/2 357/1/2
f 356/4/2 345/4/2 357/4/2
f 357/1/2 338/1/2 358/1/2
f 358/1/2 338/1/2 359/1/2
f 338/4/2 339/4/2 360/4/2
f 359/1/2 338/1/2 360/1/2
f 293/2/2 326/2/2 361/2/2
f 326/2/2 327/2/2 361/2/2
f 327/2/2 317/2/2 362/2/2
f 361/2/2 327/2/2 362/2/2
f 288/1/2 312/1/2 363/1/2
f 312/1/2 346/1/2 363/1/2
f 363/1/2 346/1/2 364/1/2
f 318/1/2 342/1/2 365/1/2
f 365/1/2 342/1/2 366/1/2
f 352/5/2 356/5/2 367/5/2
f 356/3/2 357/3/2 367/3/2
f 357/3/2 358/3/2 367/3/2
f 367/3/2 358/3/2 368/3/2
f 294/1/2 318/1/2 369/1/2
f 318/1/2 365/1/2 369/1/2
f 369/1/2 365/1/2 370/1/2
f 368/3/2 358/3/2 371/3/2
f 367/1/2 368/1/2 371/1/2
f 358/1/2 359/1/2 372/1/2
f 371/3/2 358/3/2 372/3/2
f 347/5/2 329/5/2 373/5/2
f 346/3/2 347/3/2 373/3/2
f 329/1/2 350/1/2 374/1/2
f 373/5/2 329/5/2 374/5/2
f 362/2/2 317/2/2 375/2/2
f 317/2/2 294/2/2 376/2/2
f 375/2/2 317/2/2 376/2/2
f 360/4/2 339/4/2 377/4/2
f 339/3/2 348/3/2 377/3/2
f 348/4/2 354/4/2 378/4/2
f 377/3/2 348/3/2 378/3/2
f 288/1/2 363/1/2 379/1/2
f 363/3/2 364/3/2 379/3/2
f 364/1/2 346/1/2 380/1/2
f 379/3/2 364/3/2 380/3/2
f 374/1/2 350/1/2 381/1/2
f 350/3/2 351/3/2 381/3/2
f 351/1/2 293/1/2 382/1/2
f 381/3/2 351/3/2 382/3/2
f 293/2/2 361/2/2 383/2/2
f 361/3/2 362/3/2 383/3/2
f 362/2/2 375/2/2 384/2/2
f 383/3/2 362/3/2 384/3/2
f 375/3/2 376/3/2 385/3/2
f 384/2/2 375/2/2 385/2/2
f 376/2/2 294/2/2 386/2/2
f 385/3/2 376/3/2 386/3/2
f 369/3/2 370/3/2 387/3/2
f 294/1/2 369/1/2 387/1/2
f 370/1/2 365/1/2 388/1/2
f 387/3/2 370/3/2 388/3/2
f 365/3/2 366/3/2 389/3/2
f 388/1/2 365/1/2 389/1/2
f 366/1/2 342/1/2 390/1/2
f 389/3/2 366/3/2 390/3/2
f 372/1/2 359/1/2 391/1/2
f 391/1/2 359/1/2 392/1/2
f 372/1/2 391/1/2 393/1/2
f 391/3/2 392/3/2 393/3/2
f 392/1/2 359/1/2 394/1/2
f 393/3/2 392/3/2 394/3/2
f 359/3/2 360/3/2 395/3/2
f 394/1/2 359/1/2 395/1/2
f 360/4/2 377/4/2 396/4/2
f 395/3/2 360/3/2 396/3/2
f 288/1/2 379/1/2 397/1/2
f 379/1/2 380/1/2 397/1/2
f 397/1/2 380/1/2 398/1/2
f 380/1/2 346/1/2 399/1/2
f 398/1/2 380/1/2 399/1/2
f 346/3/2 373/3/2 400/3/2
f 399/1/2 346/1/2 400/1/2
f 373/3/2 374/3/2 400/3/2
f 400/3/2 374/3/2 401/3/2
f 396/4/2 377/4/2 402/4/2
f 395/4/2 396/4/2 402/4/2
f 377/5/2 378/5/2 403/5/2
f 402/4/2 377/4/2 403/4/2
f 398/1/2 399/1/2 404/1/2
f 399/3/2 400/3/2 404/3/2
f 400/5/2 401/5/2 405/5/2
f 404/3/2 400/3/2 405/3/2
f 393/5/2 394/5/2 406/5/2
f 394/1/2 395/1/2 406/1/2
f 395/4/2 402/4/2 407/4/2
f 406/1/2 395/1/2 407/1/2
f 397/3/2 398/3/2 408/3/2
f 398/1/2 404/1/2 409/1/2
f 408/3/2 398/3/2 409/3/2
f 405/5/2 401/5/2 410/5/2
f 401/3/2 374/3/2 410/3/2
f 381/1/2 382/1/2 411/1/2
f 410/3/2 374/3/2 411/3/2
f 374/1/2 381/1/2 411/1/2
f 372/1/2 393/1/2 412/1/2
f 393/5/2 406/5/2 413/5/2
f 412/1/2 393/1/2 413/1/2
f 403/5/2 378/5/2 414/5/2
f 402/3/2 403/3/2 414/3/2
f 378/4/2 354/4/2 415/4/2
f 414/5/2 378/5/2 415/5/2
f 408/4/2 409/4/2 416/4/2
f 409/1/2 404/1/2 417/1/2
f 416/4/2 409/4/2 417/4/2
f 406/3/2 407/3/2 418/3/2
f 413/5/2 406/5/2 418/5/2
f 407/4/2 402/4/2 419/4/2
f 418/3/2 407/3/2 419/3/2
f 402/3/2 414/3/2 420/3/2
f 419/4/2 402/4/2 420/4/2
f 414/3/2 415/3/2 420/3/2
f 420/3/2 415/3/2 421/3/2
f 417/1/2 404/1/2 422/1/2
f 404/4/2 405/4/2 423/4/2
f 422/1/2 404/1/2 423/1/2
f 371/4/2 372/4/2 424/4/2
f 372/1/2 412/1/2 424/1/2
f 424/1/2 412/1/2 425/1/2
f 423/4/2 405/4/2 426/4/2
f 405/5/2 410/5/2 426/5/2
f 410/1/2 411/1/2 427/1/2
f 426/5/2 410/5/2 427/5/2
f 425/1/2 412/1/2 428/1/2
f 412/4/2 413/4/2 428/4/2
f 413/5/2 418/5/2 429/5/2
f 428/4/2 413/4/2 429/4/2
f 418/4/2 419/4/2 430/4/2
f 429/5/2 418/5/2 430/5/2
f 419/4/2 420/4/2 430/4/2
f 430/4/2 420/4/2 431/4/2
f 422/3/2 423/3/2 432/3/2
f 426/4/2 427/4/2 432/4/2
f 423/4/2 426/4/2 432/4/2
f 432/4/2 427/4/2 433/4/2
f 416/6/2 417/6/2 434/6/2
f 417/1/2 422/1/2 434/1/2
f 434/1/2 422/1/2 435/1/2
f 428/3/2 429/3/2 436/3/2
f 430/5/2 431/5/2 436/5/2
f 429/5/2 430/5/2 436/5/2
f 436/5/2 431/5/2 437/5/2
f 431/4/2 420/4/2 438/4/2
f 437/5/2 431/5/2 438/5/2
f 420/1/2 421/1/2 439/1/2
f 438/4/2 420/4/2 439/4/2
f 434/3/2 435/3/2 440/3/2
f 416/6/2 434/6/2 440/6/2
f 435/1/2 422/1/2 441/1/2
f 440/3/2 435/3/2 441/3/2
f 425/1/2 428/1/2 442/1/2
f 436/3/2 437/3/2 442/3/2
f 428/3/2 436/3/2 442/3/2
f 442/3/2 437/3/2 443/3/2
f 438/3/2 439/3/2 444/3/2
f 437/5/2 438/5/2 444/5/2
f 439/1/2 421/1/2 445/1/2
f 444/3/2 439/3/2 445/3/2
f 384/2/2 385/2/2 446/2/2
f 383/2/2 384/2/2 446/2/2
f 385/2/2 386/2/2 446/2/2
f 446/2/2 386/2/2 447/2/2
f 443/3/2 437/3/2 448/3/2
f 442/1/2 443/1/2 448/1/2
f 437/5/2 444/5/2 449/5/2
f 448/3/2 437/3/2 449/3/2
f 421/3/2 415/3/2 450/3/2
f 415/4/2 354/4/2 450/4/2
f 354/3/2 355/3/2 451/3/2
f 450/4/2 354/4/2 451/4/2
f 416/6/2 440/6/2 452/6/2
f 440/5/2 441/5/2 453/5/2
f 452/6/2 440/6/2 453/6/2
f 441/1/2 422/1/2 454/1/2
f 422/3/2 432/3/2 455/3/2
f 454/1/2 422/1/2 455/1/2
f 449/5/2 444/5/2 456/5/2
f 448/1/2 449/1/2 456/1/2
f 444/1/2 445/1/2 457/1/2
f 456/5/2 444/5/2 457/5/2
f 421/3/2 450/3/2 458/3/2
f 450/3/2 451/3/2 458/3/2
f 451/3/2 355/3/2 459/3/2
f 458/3/2 451/3/2 459/3/2
f 455/3/2 432/3/2 460/3/2
f 454/3/2 455/3/2 460/3/2
f 432/6/2 433/6/2 461/6/2
f 460/3/2 432/3/2 461/3/2
f 427/1/2 411/1/2 462/1/2
f 411/1/2 382/1/2 462/1/2
f 382/1/2 293/1/2 463/1/2
f 462/1/2 382/1/2 463/1/2
f 452/4/2 453/4/2 464/4/2
f 453/5/2 441/5/2 465/5/2
f 464/4/2 453/4/2 465/4/2
f 446/3/2 447/3/2 466/3/2
f 383/2/2 446/2/2 466/2/2
f 447/2/2 386/2/2 467/2/2
f 466/3/2 447/3/2 467/3/2
f 367/1/2 371/1/2 468/1/2
f 371/4/2 424/4/2 468/4/2
f 424/3/2 425/3/2 469/3/2
f 468/4/2 424/4/2 469/4/2
f 465/5/2 441/5/2 470/5/2
f 441/1/2 454/1/2 470/1/2
f 454/3/2 460/3/2 471/3/2
f 470/1/2 454/1/2 471/1/2
f 461/6/2 433/6/2 472/6/2
f 460/6/2 461/6/2 472/6/2
f 433/4/2 427/4/2 473/4/2
f 472/6/2 433/6/2 473/6/2
f 388/1/2 389/1/2 474/1/2
f 387/1/2 388/1/2 474/1/2
f 389/1/2 390/1/2 474/1/2
f 390/1/2 342/1/2 475/1/2
f 474/1/2 390/1/2 475/1/2
f 367/1/2 468/1/2 476/1/2
f 352/5/2 367/5/2 476/5/2
f 468/1/2 469/1/2 476/1/2
f 476/1/2 469/1/2 477/1/2
f 448/1/2 456/1/2 478/1/2
f 456/3/2 457/3/2 478/3/2
f 457/1/2 445/1/2 479/1/2
f 478/3/2 457/3/2 479/3/2
f 383/2/2 466/2/2 480/2/2
f 466/2/2 467/2/2 480/2/2
f 467/2/2 386/2/2 481/2/2
f 480/2/2 467/2/2 481/2/2
f 387/1/2 474/1/2 482/1/2
f 294/1/2 387/1/2 482/1/2
f 482/1/2 474/1/2 483/1/2
f 477/1/2 469/1/2 484/1/2
f 469/3/2 425/3/2 484/3/2
f 448/1/2 478/1/2 485/1/2
f 484/3/2 425/3/2 485/3/2
f 425/1/2 442/1/2 485/1/2
f 442/1/2 448/1/2 485/1/2
f 478/1/2 479/1/2 485/1/2
f 465/5/2 470/5/2 486/5/2
f 470/3/2 471/3/2 486/3/2
f 471/3/2 460/3/2 487/3/2
f 486/3/2 471/3/2 487/3/2
f 460/6/2 472/6/2 488/6/2
f 487/3/2 460/3/2 488/3/2
f 473/4/2 427/4/2 489/4/2
f 472/3/2 473/3/2 489/3/2
f 427/1/2 462/1/2 490/1/2
f 489/4/2 427/4/2 490/4/2
f 481/2/2 386/2/2 491/2/2
f 480/3/2 481/3/2 491/3/2
f 386/2/2 294/2/2 492/2/2
f 491/2/2 386/2/2 492/2/2
f 475/1/2 342/1/2 493/1/2
f 342/4/2 352/4/2 493/4/2
f 352/5/2 476/5/2 494/5/2
f 493/4/2 352/4/2 494/4/2
f 472/3/2 489/3/2 495/3/2
f 489/3/2 490/3/2 495/3/2
f 490/1/2 462/1/2 496/1/2
f 495/3/2 490/3/2 496/3/2
f 293/2/2 383/2/2 497/2/2
f 383/2/2 480/2/2 497/2/2
f 497/2/2 480/2/2 498/2/2
f 483/1/2 474/1/2 499/1/2
f 482/3/2 483/3/2 499/3/2
f 499/1/2 474/1/2 500/1/2
f 458/5/2 459/5/2 501/5/2
f 421/3/2 458/3/2 501/3/2
f 459/3/2 355/3/2 502/3/2
f 501/5/2 459/5/2 502/5/2
f 498/2/2 480/2/2 503/2/2
f 503/2/2 480/2/2 504/2/2
f 500/1/2 474/1/2 505/1/2
f 505/1/2 474/1/2 506/1/2
f 496/1/2 462/1/2 507/1/2
f 495/1/2 496/1/2 507/1/2
f 462/3/2 463/3/2 507/3/2
f 463/1/2 293/1/2 508/1/2
f 507/3/2 463/3/2 508/3/2
f 497/3/2 498/3/2 509/3/2
f 293/2/2 497/2/2 509/2/2
f 498/2/2 503/2/2 510/2/2
f 509/3/2 498/3/2 510/3/2
f 510/2/2 503/2/2 511/2/2
f 503/3/2 504/3/2 512/3/2
f 511/2/2 503/2/2 512/2/2
f 504/2/2 480/2/2 513/2/2
f 512/3/2 504/3/2 513/3/2
f 491/3/2 492/3/2 514/3/2
f 513/2/2 480/2/2 514/2/2
f 480/3/2 491/3/2 514/3/2
f 514/3/2 492/3/2 515/3/2
f 492/2/2 294/2/2 516/2/2
f 515/3/2 492/3/2 516/3/2
f 499/3/2 500/3/2 517/3/2
f 294/1/2 482/1/2 517/1/2
f 482/3/2 499/3/2 517/3/2
f 517/3/2 500/3/2 518/3/2
f 506/1/2 474/1/2 519/1/2
f 474/3/2 475/3/2 519/3/2
f 475/1/2 493/1/2 520/1/2
f 519/3/2 475/3/2 520/3/2
f 494/5/2 476/5/2 521/5/2
f 476/3/2 477/3/2 521/3/2
f 477/1/2 484/1/2 522/1/2
f 521/3/2 477/3/2 522/3/2
f 484/1/2 485/1/2 522/1/2
f 445/1/2 421/1/2 523/1/2
f 522/1/2 485/1/2 523/1/2
f 421/3/2 501/3/2 523/3/2
f 485/1/2 479/1/2 523/1/2
f 479/1/2 445/1/2 523/1/2
f 501/3/2 502/3/2 523/3/2
f 523/3/2 502/3/2 524/3/2
f 465/5/2 486/5/2 525/5/2
f 464/6/2 465/6/2 525/6/2
f 486/6/2 487/6/2 526/6/2
f 525/5/2 486/5/2 526/5/2
f 487/4/2 488/4/2 527/4/2
f 526/6/2 487/6/2 527/6/2
f 510/2/2 511/2/2 528/2/2
f 509/2/2 510/2/2 528/2/2
f 514/3/2 515/3/2 529/3/2
f 528/2/2 511/2/2 529/2/2
f 511/3/2 512/3/2 529/3/2
f 512/3/2 513/3/2 529/3/2
f 513/3/2 514/3/2 529/3/2
f 529/3/2 515/3/2 530/3/2
f 530/3/2 515/3/2 531/3/2
f 531/3/2 515/3/2 532/3/2
f 515/2/2 516/2/2 533/2/2
f 532/3/2 515/3/2 533/3/2
f 516/2/2 294/2/2 534/2/2
f 533/2/2 516/2/2 534/2/2
f 500/1/2 505/1/2 535/1/2
f 535/1/2 505/1/2 536/1/2
f 464/6/2 525/6/2 537/6/2
f 525/3/2 526/3/2 538/3/2
f 537/6/2 525/6/2 538/6/2
f 526/3/2 527/3/2 538/3/2
f 488/6/2 472/6/2 539/6/2
f 527/4/2 488/4/2 539/4/2
f 472/3/2 495/3/2 540/3/2
f 539/6/2 472/6/2 540/6/2
f 509/2/2 528/2/2 541/2/2
f 293/2/2 509/2/2 541/2/2
f 528/3/2 529/3/2 542/3/2
f 541/2/2 528/2/2 542/2/2
f 529/3/2 530/3/2 542/3/2
f 542/3/2 530/3/2 543/3/2
f 543/3/2 530/3/2 544/3/2
f 544/3/2 530/3/2 545/3/2
f 530/5/2 531/5/2 546/5/2
f 545/3/2 530/3/2 546/3/2
f 493/3/2 494/3/2 547/3/2
f 494/5/2 521/5/2 547/5/2
f 521/1/2 522/1/2 548/1/2
f 547/5/2 521/5/2 548/5/2
f 522/1/2 523/1/2 548/1/2
f 523/1/2 524/1/2 548/1/2
f 524/3/2 502/3/2 549/3/2
f 548/1/2 524/1/2 549/1/2
f 502/3/2 355/3/2 550/3/2
f 549/3/2 502/3/2 550/3/2
f 537/3/2 538/3/2 551/3/2
f 538/3/2 527/3/2 552/3/2
f 551/3/2 538/3/2 552/3/2
f 527/4/2 539/4/2 552/4/2
f 539/3/2 540/3/2 553/3/2
f 552/4/2 539/4/2 553/4/2
f 540/3/2 495/3/2 554/3/2
f 553/3/2 540/3/2 554/3/2
f 507/1/2 508/1/2 554/1/2
f 495/1/2 507/1/2 554/1/2
f 508/1/2 293/1/2 555/1/2
f 554/1/2 508/1/2 555/1/2
f 293/2/2 541/2/2 555/2/2
f 541/3/2 542/3/2 556/3/2
f 555/2/2 541/2/2 556/2/2
f 542/3/2 543/3/2 556/3/2
f 543/4/2 544/4/2 557/4/2
f 556/3/2 543/3/2 557/3/2
f 544/3/2 545/3/2 558/3/2
f 557/4/2 544/4/2 558/4/2
f 545/4/2 546/4/2 559/4/2
f 558/3/2 545/3/2 559/3/2
f 546/5/2 531/5/2 560/5/2
f 559/4/2 546/4/2 560/4/2
f 531/4/2 532/4/2 561/4/2
f 560/5/2 531/5/2 561/5/2
f 532/3/2 533/3/2 562/3/2
f 561/4/2 532/4/2 562/4/2
f 533/3/2 534/3/2 562/3/2
f 534/2/2 294/2/2 563/2/2
f 562/3/2 534/3/2 563/3/2
f 517/1/2 518/1/2 564/1/2
f 563/2/2 294/2/2 564/2/2
f 294/1/2 517/1/2 564/1/2
f 518/3/2 500/3/2 565/3/2
f 564/1/2 518/1/2 565/1/2
f 500/1/2 535/1/2 566/1/2
f 565/3/2 500/3/2 566/3/2
f 535/3/2 536/3/2 567/3/2
f 566/1/2 535/1/2 567/1/2
f 536/1/2 505/1/2 568/1/2
f 567/3/2 536/3/2 568/3/2
f 505/3/2 506/3/2 569/3/2
f 568/1/2 505/1/2 569/1/2
f 506/1/2 519/1/2 570/1/2
f 569/3/2 506/3/2 570/3/2
f 519/1/2 520/1/2 570/1/2
f 493/3/2 547/3/2 571/3/2
f 570/1/2 520/1/2 571/1/2
f 520/1/2 493/1/2 571/1/2
f 547/3/2 548/3/2 571/3/2
f 548/1/2 549/1/2 572/1/2
f 571/3/2 548/3/2 572/3/2
f 549/1/2 550/1/2 572/1/2
f 550/3/2 355/3/2 573/3/2
f 572/1/2 550/1/2 573/1/2
f 573/3/2 355/3/2 574/3/2
f 583/1/3 576/1/3 575/1/3
f 584/3/3 577/3/3 576/3/3
f 584/1/3 576/1/3 583/1/3
f 585/4/3 578/4/3 577/4/3
f 585/3/3 577/3/3 584/3/3
f 586/6/3 579/6/3 578/6/3
f 586/4/3 578/4/3 585/4/3
f 587/4/3 580/4/3 579/4/3
f 587/6/3 579/6/3 586/6/3
f 588/6/3 581/6/3 580/6/3
f 588/4/3 580/4/3 587/4/3
f 589/3/3 582/3/3 581/3/3
f 589/6/3 581/6/3 588/6/3
f 590/3/3 582/3/3 589/3/3
f 591/1/4 592/1/4 595/1/4
f 592/5/4 593/5/4 596/5/4
f 595/1/4 592/1/4 596/1/4
f 593/3/4 594/3/4 597/3/4
f 596/5/4 593/5/4 597/5/4
f 597/3/4 594/3/4 598/3/4
f 601/1/5 600/1/5 599/1/5
f 602/1/5 600/1/5 601/1/5
f 603/3/5 602/3/5 601/3/5
f 604/3/5 602/3/5 603/3/5
f 605/1/5 604/1/5 603/1/5
f 606/1/5 604/1/5 605/1/5
f 607/3/5 606/3/5 605/3/5
f 608/3/5 606/3/5 607/3/5
f 609/1/5 608/1/5 607/1/5
f 610/1/5 608/1/5 609/1/5
f 611/2/5 610/2/5 609/2/5
f 612/2/5 610/2/5 611/2/5
f 613/1/5 612/1/5 611/1/5
f 614/1/5 612/1/5 613/1/5
f 615/3/5 614/3/5 613/3/5
f 616/3/5 614/3/5 615/3/5
f 617/1/5 616/1/5 615/1/5
f 618/1/5 616/1/5 617/1/5
f 619/3/5 618/3/5 617/3/5
f 620/3/5 618/3/5 619/3/5
f 621/1/5 620/1/5 619/1/5
f 622/1/5 620/1/5 621/1/5
f 623/3/6 624/3/6 625/3/6
f 625/3/6 624/3/6 626/3/6
f 625/4/6 626/4/6 627/4/6
f 627/4/6 626/4/6 628/4/6
f 627/3/6 628/3/6 629/3/6
f 629/3/6 628/3/6 630/3/6
f 629/1/6 630/1/6 631/1/6
f 631/1/6 630/1/6 632/1/6
f 631/2/6 632/2/6 633/2/6
f 633/2/6 632/2/6 634/2/6
f 633/3/6 634/3/6 635/3/6
f 635/3/6 634/3/6 636/3/6
f 635/4/6 636/4/6 637/4/6
f 637/4/6 636/4/6 638/4/6
f 637/3/6 638/3/6 639/3/6
f 639/3/6 638/3/6 640/3/6
f 639/4/6 640/4/6 641/4/6
f 641/4/6 640/4/6 642/4/6
f 641/5/6 642/5/6 643/5/6
f 643/5/6 642/5/6 644/5/6
f 643/4/6 644/4/6 645/4/6
f 645/4/6 644/4/6 646/4/6
f 645/3/6 646/3/6 647/3/6
f 647/3/6 646/3/6 648/3/6
f 647/2/6 648/2/6 649/2/6
f 649/2/6 648/2/6 650/2/6
f 649/1/6 650/1/6 651/1/6
f 651/1/6 650/1/6 652/1/6
f 651/3/6 652/3/6 653/3/6
f 653/3/6 652/3/6 654/3/6
f 653/1/6 654/1/6 655/1/6
f 655/1/6 654/1/6 656/1/6
f 655/3/6 656/3/6 657/3/6
f 657/3/6 656/3/6 658/3/6
f 657/1/6 658/1/6 659/1/6
f 659/1/6 658/1/6 660/1/6
f 659/3/6 660/3/6 661/3/6
f 661/3/6 660/3/6 662/3/6
f 661/1/6 662/1/6 663/1/6
f 663/1/6 662/1/6 664/1/6
f 663/3/6 664/3/6 665/3/6
f 665/3/6 664/3/6 666/3/6
f 665/1/6 666/1/6 667/1/6
f 667/1/6 666/1/6 668/1/6
f 667/3/6 668/3/6 669/3/6
f 669/3/6 668/3/6 670/3/6
