# MagicaVoxel @ ephtracy

# material
mtllib panel2.mtl
usemtl palette

# normals
vn -1 0 0
vn 1 0 0
vn 0 0 1
vn 0 0 -1
vn 0 -1 0
vn 0 1 0

# texcoords
vt 0.00585938 0.5
vt 0.0136719 0.5
vt 0.0175781 0.5
vt 0.0214844 0.5
vt 0.0253906 0.5

# verts
v -0.5 0 30.5
v -0.5 0 23.5
v -0.5 0 22.5
v -0.5 0 19.5
v -0.5 0 18.5
v -0.5 0 15.5
v -0.5 0 -0.5
v -0.5 0 -1.5
v -0.5 0 -2.5
v -0.5 0 -3.5
v -0.5 0 -15.5
v -0.5 0 -16.5
v -0.5 0 -30.5
v -0.5 1 28.5
v -0.5 1 27.5
v -0.5 1 23.5
v -0.5 1 22.5
v -0.5 1 -12.5
v -0.5 1 -13.5
v -0.5 2 -17.5
v -0.5 2 -18.5
v -0.5 3 -27.5
v -0.5 3 -28.5
v -0.5 4 28.5
v -0.5 4 27.5
v -0.5 4 19.5
v -0.5 4 18.5
v -0.5 4 -2.5
v -0.5 4 -3.5
v -0.5 4 -12.5
v -0.5 4 -13.5
v -0.5 4 -17.5
v -0.5 4 -18.5
v -0.5 4 -27.5
v -0.5 4 -28.5
v -0.5 7 16.5
v -0.5 7 15.5
v -0.5 8 -0.5
v -0.5 8 -1.5
v -0.5 10 -29.5
v -0.5 10 -30.5
v -0.5 12 -26.5
v -0.5 12 -27.5
v -0.5 13 -26.5
v -0.5 13 -27.5
v -0.5 15 -15.5
v -0.5 15 -16.5
v -0.5 18 18.5
v -0.5 18 17.5
v -0.5 20 -29.5
v -0.5 20 -30.5
v -0.5 21 16.5
v -0.5 21 15.5
v -0.5 22 -16.5
v -0.5 22 -17.5
v -0.5 24 28.5
v -0.5 24 27.5
v -0.5 24 -1.5
v -0.5 24 -2.5
v -0.5 24 -12.5
v -0.5 24 -13.5
v -0.5 25 -2.5
v -0.5 25 -3.5
v -0.5 27 28.5
v -0.5 27 27.5
v -0.5 27 18.5
v -0.5 27 17.5
v -0.5 27 -2.5
v -0.5 27 -3.5
v -0.5 27 -12.5
v -0.5 27 -13.5
v -0.5 27 -18.5
v -0.5 27 -19.5
v -0.5 28 -27.5
v -0.5 28 -28.5
v -0.5 29 -15.5
v -0.5 29 -16.5
v -0.5 29 -26.5
v -0.5 29 -27.5
v -0.5 32 -24.5
v -0.5 32 -25.5
v -0.5 33 -22.5
v -0.5 33 -23.5
v -0.5 33 -27.5
v -0.5 33 -28.5
v -0.5 34 -24.5
v -0.5 34 -25.5
v -0.5 34 -26.5
v -0.5 34 -27.5
v -0.5 35 26.5
v -0.5 35 25.5
v -0.5 35 17.5
v -0.5 35 16.5
v -0.5 36 -19.5
v -0.5 36 -20.5
v -0.5 36 -27.5
v -0.5 36 -28.5
v -0.5 37 -22.5
v -0.5 37 -23.5
v -0.5 37 -24.5
v -0.5 37 -25.5
v -0.5 40 -18.5
v -0.5 40 -19.5
v -0.5 40 -22.5
v -0.5 40 -23.5
v -0.5 41 30.5
v -0.5 41 29.5
v -0.5 42 30.5
v -0.5 42 29.5
v -0.5 42 -24.5
v -0.5 42 -25.5
v -0.5 43 26.5
v -0.5 43 25.5
v -0.5 43 18.5
v -0.5 43 17.5
v -0.5 44 30.5
v -0.5 44 29.5
v -0.5 44 -1.5
v -0.5 44 -2.5
v -0.5 46 -12.5
v -0.5 46 -13.5
v -0.5 46 -17.5
v -0.5 46 -18.5
v -0.5 46 -24.5
v -0.5 46 -25.5
v -0.5 47 29.5
v -0.5 47 28.5
v -0.5 47 -2.5
v -0.5 47 -3.5
v -0.5 47 -19.5
v -0.5 47 -20.5
v -0.5 48 28.5
v -0.5 48 27.5
v -0.5 49 27.5
v -0.5 49 26.5
v -0.5 49 -3.5
v -0.5 49 -4.5
v -0.5 50 -8.5
v -0.5 50 -9.5
v -0.5 51 25.5
v -0.5 51 24.5
v -0.5 51 18.5
v -0.5 51 17.5
v -0.5 51 -1.5
v -0.5 51 -2.5
v -0.5 51 -3.5
v -0.5 51 -12.5
v -0.5 51 -13.5
v -0.5 51 -17.5
v -0.5 51 -18.5
v -0.5 52 29.5
v -0.5 52 28.5
v -0.5 52 27.5
v -0.5 52 -3.5
v -0.5 52 -4.5
v -0.5 52 -6.5
v -0.5 52 -7.5
v -0.5 53 30.5
v -0.5 53 29.5
v -0.5 53 26.5
v -0.5 53 25.5
v -0.5 53 -16.5
v -0.5 53 -17.5
v -0.5 54 30.5
v -0.5 54 27.5
v -0.5 54 26.5
v -0.5 54 24.5
v -0.5 54 17.5
v -0.5 54 16.5
v -0.5 54 15.5
v -0.5 54 -0.5
v -0.5 54 -1.5
v -0.5 54 -6.5
v -0.5 54 -7.5
v -0.5 54 -8.5
v -0.5 54 -9.5
v -0.5 54 -16.5
v -0.5 54 -17.5
v -0.5 54 -29.5
v -0.5 54 -30.5
v 0.5 0 30.5
v 0.5 0 23.5
v 0.5 0 22.5
v 0.5 0 19.5
v 0.5 0 18.5
v 0.5 0 15.5
v 0.5 0 -0.5
v 0.5 0 -1.5
v 0.5 0 -2.5
v 0.5 0 -3.5
v 0.5 0 -15.5
v 0.5 0 -16.5
v 0.5 0 -30.5
v 0.5 1 28.5
v 0.5 1 27.5
v 0.5 1 23.5
v 0.5 1 22.5
v 0.5 1 -12.5
v 0.5 1 -13.5
v 0.5 2 -17.5
v 0.5 2 -18.5
v 0.5 3 -27.5
v 0.5 3 -28.5
v 0.5 4 28.5
v 0.5 4 27.5
v 0.5 4 19.5
v 0.5 4 18.5
v 0.5 4 -2.5
v 0.5 4 -3.5
v 0.5 4 -12.5
v 0.5 4 -13.5
v 0.5 4 -17.5
v 0.5 4 -18.5
v 0.5 4 -27.5
v 0.5 4 -28.5
v 0.5 7 16.5
v 0.5 7 15.5
v 0.5 8 -0.5
v 0.5 8 -1.5
v 0.5 10 -29.5
v 0.5 10 -30.5
v 0.5 12 -26.5
v 0.5 12 -27.5
v 0.5 13 -26.5
v 0.5 13 -27.5
v 0.5 15 -15.5
v 0.5 15 -16.5
v 0.5 18 18.5
v 0.5 18 17.5
v 0.5 20 -29.5
v 0.5 20 -30.5
v 0.5 21 16.5
v 0.5 21 15.5
v 0.5 22 -16.5
v 0.5 22 -17.5
v 0.5 24 28.5
v 0.5 24 27.5
v 0.5 24 -1.5
v 0.5 24 -2.5
v 0.5 24 -12.5
v 0.5 24 -13.5
v 0.5 25 -2.5
v 0.5 25 -3.5
v 0.5 27 28.5
v 0.5 27 27.5
v 0.5 27 18.5
v 0.5 27 17.5
v 0.5 27 -2.5
v 0.5 27 -3.5
v 0.5 27 -12.5
v 0.5 27 -13.5
v 0.5 27 -18.5
v 0.5 27 -19.5
v 0.5 28 -27.5
v 0.5 28 -28.5
v 0.5 29 -15.5
v 0.5 29 -16.5
v 0.5 29 -26.5
v 0.5 29 -27.5
v 0.5 32 -24.5
v 0.5 32 -25.5
v 0.5 33 -22.5
v 0.5 33 -23.5
v 0.5 33 -27.5
v 0.5 33 -28.5
v 0.5 34 -24.5
v 0.5 34 -25.5
v 0.5 34 -26.5
v 0.5 34 -27.5
v 0.5 35 26.5
v 0.5 35 25.5
v 0.5 35 17.5
v 0.5 35 16.5
v 0.5 36 -19.5
v 0.5 36 -20.5
v 0.5 36 -27.5
v 0.5 36 -28.5
v 0.5 37 -22.5
v 0.5 37 -23.5
v 0.5 37 -24.5
v 0.5 37 -25.5
v 0.5 40 -18.5
v 0.5 40 -19.5
v 0.5 40 -22.5
v 0.5 40 -23.5
v 0.5 41 30.5
v 0.5 41 29.5
v 0.5 42 30.5
v 0.5 42 29.5
v 0.5 42 -24.5
v 0.5 42 -25.5
v 0.5 43 26.5
v 0.5 43 25.5
v 0.5 43 18.5
v 0.5 43 17.5
v 0.5 44 30.5
v 0.5 44 29.5
v 0.5 44 -1.5
v 0.5 44 -2.5
v 0.5 46 -12.5
v 0.5 46 -13.5
v 0.5 46 -17.5
v 0.5 46 -18.5
v 0.5 46 -24.5
v 0.5 46 -25.5
v 0.5 47 29.5
v 0.5 47 28.5
v 0.5 47 -2.5
v 0.5 47 -3.5
v 0.5 47 -19.5
v 0.5 47 -20.5
v 0.5 48 28.5
v 0.5 48 27.5
v 0.5 49 27.5
v 0.5 49 26.5
v 0.5 49 -3.5
v 0.5 49 -4.5
v 0.5 50 -8.5
v 0.5 50 -9.5
v 0.5 51 25.5
v 0.5 51 24.5
v 0.5 51 18.5
v 0.5 51 17.5
v 0.5 51 -1.5
v 0.5 51 -2.5
v 0.5 51 -3.5
v 0.5 51 -12.5
v 0.5 51 -13.5
v 0.5 51 -17.5
v 0.5 51 -18.5
v 0.5 52 29.5
v 0.5 52 28.5
v 0.5 52 27.5
v 0.5 52 -3.5
v 0.5 52 -4.5
v 0.5 52 -6.5
v 0.5 52 -7.5
v 0.5 53 30.5
v 0.5 53 29.5
v 0.5 53 26.5
v 0.5 53 25.5
v 0.5 53 -16.5
v 0.5 53 -17.5
v 0.5 54 30.5
v 0.5 54 27.5
v 0.5 54 26.5
v 0.5 54 24.5
v 0.5 54 17.5
v 0.5 54 16.5
v 0.5 54 15.5
v 0.5 54 -0.5
v 0.5 54 -1.5
v 0.5 54 -6.5
v 0.5 54 -7.5
v 0.5 54 -8.5
v 0.5 54 -9.5
v 0.5 54 -16.5
v 0.5 54 -17.5
v 0.5 54 -29.5
v 0.5 54 -30.5
v -0.5 0 30.5
v -0.5 41 30.5
v -0.5 42 30.5
v -0.5 44 30.5
v -0.5 53 30.5
v -0.5 54 30.5
v 0.5 0 30.5
v 0.5 41 30.5
v 0.5 42 30.5
v 0.5 44 30.5
v 0.5 53 30.5
v 0.5 54 30.5
v -0.5 0 -0.5
v -0.5 8 -0.5
v -0.5 54 -0.5
v 0.5 0 -0.5
v 0.5 8 -0.5
v 0.5 54 -0.5
v -0.5 0 15.5
v -0.5 7 15.5
v -0.5 21 15.5
v -0.5 54 15.5
v 0.5 0 15.5
v 0.5 7 15.5
v 0.5 21 15.5
v 0.5 54 15.5
v -0.5 0 -30.5
v -0.5 10 -30.5
v -0.5 20 -30.5
v -0.5 54 -30.5
v 0.5 0 -30.5
v 0.5 10 -30.5
v 0.5 20 -30.5
v 0.5 54 -30.5
v -0.5 0 30.5
v 0.5 0 30.5
v -0.5 0 23.5
v 0.5 0 23.5
v -0.5 0 22.5
v 0.5 0 22.5
v -0.5 0 19.5
v 0.5 0 19.5
v -0.5 0 18.5
v 0.5 0 18.5
v -0.5 0 15.5
v 0.5 0 15.5
v -0.5 0 -0.5
v 0.5 0 -0.5
v -0.5 0 -1.5
v 0.5 0 -1.5
v -0.5 0 -2.5
v 0.5 0 -2.5
v -0.5 0 -3.5
v 0.5 0 -3.5
v -0.5 0 -15.5
v 0.5 0 -15.5
v -0.5 0 -16.5
v 0.5 0 -16.5
v -0.5 0 -30.5
v 0.5 0 -30.5
v -0.5 54 30.5
v 0.5 54 30.5
v -0.5 54 27.5
v 0.5 54 27.5
v -0.5 54 26.5
v 0.5 54 26.5
v -0.5 54 24.5
v 0.5 54 24.5
v -0.5 54 17.5
v 0.5 54 17.5
v -0.5 54 16.5
v 0.5 54 16.5
v -0.5 54 15.5
v 0.5 54 15.5
v -0.5 54 -0.5
v 0.5 54 -0.5
v -0.5 54 -1.5
v 0.5 54 -1.5
v -0.5 54 -6.5
v 0.5 54 -6.5
v -0.5 54 -7.5
v 0.5 54 -7.5
v -0.5 54 -8.5
v 0.5 54 -8.5
v -0.5 54 -9.5
v 0.5 54 -9.5
v -0.5 54 -16.5
v 0.5 54 -16.5
v -0.5 54 -17.5
v 0.5 54 -17.5
v -0.5 54 -29.5
v 0.5 54 -29.5
v -0.5 54 -30.5
v 0.5 54 -30.5

# faces
f 14/1/1 2/1/1 1/1/1
f 15/1/1 2/1/1 14/1/1
f 16/2/1 3/2/1 2/2/1
f 16/1/1 2/1/1 15/1/1
f 17/1/1 4/1/1 3/1/1
f 17/2/1 3/2/1 16/2/1
f 18/1/1 11/1/1 10/1/1
f 19/1/1 11/1/1 18/1/1
f 20/1/1 13/1/1 12/1/1
f 21/1/1 13/1/1 20/1/1
f 22/1/1 13/1/1 21/1/1
f 23/1/1 13/1/1 22/1/1
f 24/2/1 15/2/1 14/2/1
f 24/1/1 14/1/1 1/1/1
f 25/1/1 16/1/1 15/1/1
f 25/2/1 15/2/1 24/2/1
f 25/1/1 17/1/1 16/1/1
f 26/2/1 5/2/1 4/2/1
f 26/1/1 17/1/1 25/1/1
f 26/1/1 4/1/1 17/1/1
f 27/1/1 6/1/1 5/1/1
f 27/2/1 5/2/1 26/2/1
f 28/1/1 9/1/1 8/1/1
f 28/2/1 10/2/1 9/2/1
f 29/1/1 18/1/1 10/1/1
f 29/2/1 10/2/1 28/2/1
f 30/2/1 19/2/1 18/2/1
f 30/1/1 18/1/1 29/1/1
f 31/1/1 11/1/1 19/1/1
f 31/2/1 19/2/1 30/2/1
f 32/2/1 21/2/1 20/2/1
f 32/1/1 20/1/1 12/1/1
f 33/1/1 22/1/1 21/1/1
f 33/2/1 21/2/1 32/2/1
f 34/2/1 23/2/1 22/2/1
f 34/1/1 22/1/1 33/1/1
f 35/1/1 13/1/1 23/1/1
f 35/2/1 23/2/1 34/2/1
f 36/1/1 25/1/1 24/1/1
f 36/1/1 26/1/1 25/1/1
f 36/1/1 6/1/1 27/1/1
f 36/1/1 27/1/1 26/1/1
f 37/1/1 6/1/1 36/1/1
f 38/2/1 8/2/1 7/2/1
f 39/1/1 30/1/1 29/1/1
f 39/2/1 8/2/1 38/2/1
f 39/1/1 31/1/1 30/1/1
f 39/1/1 29/1/1 28/1/1
f 39/1/1 28/1/1 8/1/1
f 40/1/1 34/1/1 33/1/1
f 40/1/1 13/1/1 35/1/1
f 40/1/1 35/1/1 34/1/1
f 40/1/1 33/1/1 32/1/1
f 41/1/1 13/1/1 40/1/1
f 42/1/1 40/1/1 32/1/1
f 43/1/1 40/1/1 42/1/1
f 44/1/1 42/1/1 32/1/1
f 44/2/1 43/2/1 42/2/1
f 45/1/1 40/1/1 43/1/1
f 45/2/1 43/2/1 44/2/1
f 46/1/1 31/1/1 39/1/1
f 46/2/1 12/2/1 11/2/1
f 46/1/1 11/1/1 31/1/1
f 47/1/1 32/1/1 12/1/1
f 47/2/1 12/2/1 46/2/1
f 47/1/1 44/1/1 32/1/1
f 48/1/1 36/1/1 24/1/1
f 49/1/1 36/1/1 48/1/1
f 50/1/1 40/1/1 45/1/1
f 50/4/1 41/4/1 40/4/1
f 51/4/1 41/4/1 50/4/1
f 52/1/1 36/1/1 49/1/1
f 52/5/1 37/5/1 36/5/1
f 53/5/1 37/5/1 52/5/1
f 54/1/1 44/1/1 47/1/1
f 54/3/1 47/3/1 46/3/1
f 55/1/1 44/1/1 54/1/1
f 56/1/1 24/1/1 1/1/1
f 56/1/1 48/1/1 24/1/1
f 57/1/1 48/1/1 56/1/1
f 58/3/1 39/3/1 38/3/1
f 58/1/1 46/1/1 39/1/1
f 59/1/1 46/1/1 58/1/1
f 60/1/1 46/1/1 59/1/1
f 61/1/1 46/1/1 60/1/1
f 62/2/1 59/2/1 58/2/1
f 62/1/1 60/1/1 59/1/1
f 63/1/1 60/1/1 62/1/1
f 64/2/1 57/2/1 56/2/1
f 64/1/1 56/1/1 1/1/1
f 65/1/1 48/1/1 57/1/1
f 65/2/1 57/2/1 64/2/1
f 66/2/1 49/2/1 48/2/1
f 66/1/1 48/1/1 65/1/1
f 67/1/1 52/1/1 49/1/1
f 67/2/1 49/2/1 66/2/1
f 68/2/1 63/2/1 62/2/1
f 68/2/1 62/2/1 58/2/1
f 69/1/1 60/1/1 63/1/1
f 69/2/1 63/2/1 68/2/1
f 70/2/1 61/2/1 60/2/1
f 70/1/1 60/1/1 69/1/1
f 71/1/1 46/1/1 61/1/1
f 71/2/1 61/2/1 70/2/1
f 72/1/1 44/1/1 55/1/1
f 73/1/1 44/1/1 72/1/1
f 74/3/1 45/3/1 44/3/1
f 74/1/1 50/1/1 45/1/1
f 75/1/1 50/1/1 74/1/1
f 76/1/1 46/1/1 71/1/1
f 76/3/1 54/3/1 46/3/1
f 76/1/1 70/1/1 69/1/1
f 76/1/1 69/1/1 68/1/1
f 76/1/1 71/1/1 70/1/1
f 77/4/1 55/4/1 54/4/1
f 77/3/1 54/3/1 76/3/1
f 78/1/1 44/1/1 73/1/1
f 78/3/1 74/3/1 44/3/1
f 79/4/1 75/4/1 74/4/1
f 79/3/1 74/3/1 78/3/1
f 80/1/1 78/1/1 73/1/1
f 81/1/1 78/1/1 80/1/1
f 82/1/1 80/1/1 73/1/1
f 83/1/1 80/1/1 82/1/1
f 84/4/1 75/4/1 79/4/1
f 84/2/1 79/2/1 78/2/1
f 85/1/1 50/1/1 75/1/1
f 85/4/1 75/4/1 84/4/1
f 86/1/1 80/1/1 83/1/1
f 86/2/1 81/2/1 80/2/1
f 87/1/1 78/1/1 81/1/1
f 87/2/1 81/2/1 86/2/1
f 88/2/1 84/2/1 78/2/1
f 88/1/1 78/1/1 87/1/1
f 88/2/1 85/2/1 84/2/1
f 89/2/1 85/2/1 88/2/1
f 90/1/1 65/1/1 64/1/1
f 90/1/1 66/1/1 65/1/1
f 90/1/1 67/1/1 66/1/1
f 91/1/1 67/1/1 90/1/1
f 92/1/1 52/1/1 67/1/1
f 92/1/1 67/1/1 91/1/1
f 93/3/1 53/3/1 52/3/1
f 93/1/1 52/1/1 92/1/1
f 94/3/1 73/3/1 72/3/1
f 94/1/1 82/1/1 73/1/1
f 95/1/1 82/1/1 94/1/1
f 96/2/1 85/2/1 89/2/1
f 96/1/1 89/1/1 88/1/1
f 96/1/1 88/1/1 87/1/1
f 97/1/1 50/1/1 85/1/1
f 97/2/1 85/2/1 96/2/1
f 98/1/1 82/1/1 95/1/1
f 98/3/1 83/3/1 82/3/1
f 99/1/1 86/1/1 83/1/1
f 99/3/1 83/3/1 98/3/1
f 100/3/1 87/3/1 86/3/1
f 100/1/1 86/1/1 99/1/1
f 101/1/1 96/1/1 87/1/1
f 101/3/1 87/3/1 100/3/1
f 101/1/1 97/1/1 96/1/1
f 102/1/1 72/1/1 55/1/1
f 102/3/1 94/3/1 72/3/1
f 103/2/1 95/2/1 94/2/1
f 103/3/1 94/3/1 102/3/1
f 104/2/1 99/2/1 98/2/1
f 104/1/1 98/1/1 95/1/1
f 105/1/1 100/1/1 99/1/1
f 105/2/1 99/2/1 104/2/1
f 106/1/1 64/1/1 1/1/1
f 106/1/1 90/1/1 64/1/1
f 107/1/1 90/1/1 106/1/1
f 108/5/1 107/5/1 106/5/1
f 109/1/1 90/1/1 107/1/1
f 109/5/1 107/5/1 108/5/1
f 110/1/1 100/1/1 105/1/1
f 110/4/1 101/4/1 100/4/1
f 110/1/1 105/1/1 104/1/1
f 111/1/1 97/1/1 101/1/1
f 111/4/1 101/4/1 110/4/1
f 112/1/1 90/1/1 109/1/1
f 112/2/1 91/2/1 90/2/1
f 113/1/1 92/1/1 91/1/1
f 113/2/1 91/2/1 112/2/1
f 114/1/1 92/1/1 113/1/1
f 115/4/1 93/4/1 92/4/1
f 115/1/1 92/1/1 114/1/1
f 116/3/1 109/3/1 108/3/1
f 117/1/1 112/1/1 109/1/1
f 117/3/1 109/3/1 116/3/1
f 118/2/1 68/2/1 58/2/1
f 118/3/1 58/3/1 38/3/1
f 119/1/1 76/1/1 68/1/1
f 119/2/1 68/2/1 118/2/1
f 119/1/1 77/1/1 76/1/1
f 120/1/1 77/1/1 119/1/1
f 121/1/1 77/1/1 120/1/1
f 122/4/1 55/4/1 77/4/1
f 122/1/1 102/1/1 55/1/1
f 122/1/1 103/1/1 102/1/1
f 123/1/1 103/1/1 122/1/1
f 124/2/1 111/2/1 110/2/1
f 124/1/1 110/1/1 104/1/1
f 125/1/1 97/1/1 111/1/1
f 125/2/1 111/2/1 124/2/1
f 126/1/1 112/1/1 117/1/1
f 126/5/1 117/5/1 116/5/1
f 127/1/1 112/1/1 126/1/1
f 128/1/1 120/1/1 119/1/1
f 128/3/1 119/3/1 118/3/1
f 129/1/1 120/1/1 128/1/1
f 130/2/1 95/2/1 103/2/1
f 130/1/1 103/1/1 123/1/1
f 131/1/1 124/1/1 104/1/1
f 131/2/1 95/2/1 130/2/1
f 131/1/1 104/1/1 95/1/1
f 131/1/1 125/1/1 124/1/1
f 132/1/1 112/1/1 127/1/1
f 132/4/1 127/4/1 126/4/1
f 133/1/1 112/1/1 132/1/1
f 134/5/1 133/5/1 132/5/1
f 134/1/1 112/1/1 133/1/1
f 135/5/1 113/5/1 112/5/1
f 135/1/1 112/1/1 134/1/1
f 136/1/1 120/1/1 129/1/1
f 136/2/1 129/2/1 128/2/1
f 137/1/1 120/1/1 136/1/1
f 138/1/1 120/1/1 137/1/1
f 139/1/1 120/1/1 138/1/1
f 140/5/1 113/5/1 135/5/1
f 140/1/1 114/1/1 113/1/1
f 141/1/1 114/1/1 140/1/1
f 142/2/1 115/2/1 114/2/1
f 142/1/1 114/1/1 141/1/1
f 143/4/1 93/4/1 115/4/1
f 143/2/1 115/2/1 142/2/1
f 144/3/1 118/3/1 38/3/1
f 144/3/1 128/3/1 118/3/1
f 145/2/1 136/2/1 128/2/1
f 145/3/1 128/3/1 144/3/1
f 145/2/1 137/2/1 136/2/1
f 146/2/1 137/2/1 145/2/1
f 147/1/1 120/1/1 139/1/1
f 147/2/1 121/2/1 120/2/1
f 148/1/1 77/1/1 121/1/1
f 148/2/1 121/2/1 147/2/1
f 149/2/1 123/2/1 122/2/1
f 149/4/1 122/4/1 77/4/1
f 150/1/1 130/1/1 123/1/1
f 150/2/1 123/2/1 149/2/1
f 150/1/1 131/1/1 130/1/1
f 151/5/1 126/5/1 116/5/1
f 151/4/1 132/4/1 126/4/1
f 152/5/1 134/5/1 132/5/1
f 152/4/1 132/4/1 151/4/1
f 153/3/1 135/3/1 134/3/1
f 153/5/1 134/5/1 152/5/1
f 154/2/1 137/2/1 146/2/1
f 154/1/1 146/1/1 145/1/1
f 154/1/1 145/1/1 144/1/1
f 155/1/1 138/1/1 137/1/1
f 155/2/1 137/2/1 154/2/1
f 156/1/1 138/1/1 155/1/1
f 157/1/1 138/1/1 156/1/1
f 158/5/1 151/5/1 116/5/1
f 159/2/1 153/2/1 152/2/1
f 159/5/1 151/5/1 158/5/1
f 159/2/1 152/2/1 151/2/1
f 160/3/1 135/3/1 153/3/1
f 160/5/1 140/5/1 135/5/1
f 161/2/1 141/2/1 140/2/1
f 161/5/1 140/5/1 160/5/1
f 162/4/1 149/4/1 77/4/1
f 162/1/1 77/1/1 148/1/1
f 162/1/1 148/1/1 147/1/1
f 163/1/1 150/1/1 149/1/1
f 163/4/1 149/4/1 162/4/1
f 164/2/1 159/2/1 158/2/1
f 165/2/1 153/2/1 159/2/1
f 165/2/1 159/2/1 164/2/1
f 165/3/1 160/3/1 153/3/1
f 166/2/1 161/2/1 160/2/1
f 166/3/1 160/3/1 165/3/1
f 167/2/1 141/2/1 161/2/1
f 167/2/1 161/2/1 166/2/1
f 167/1/1 143/1/1 142/1/1
f 167/1/1 142/1/1 141/1/1
f 168/4/1 93/4/1 143/4/1
f 168/1/1 143/1/1 167/1/1
f 169/3/1 53/3/1 93/3/1
f 169/4/1 93/4/1 168/4/1
f 170/3/1 53/3/1 169/3/1
f 171/3/1 144/3/1 38/3/1
f 172/1/1 155/1/1 154/1/1
f 172/3/1 144/3/1 171/3/1
f 172/1/1 154/1/1 144/1/1
f 172/1/1 156/1/1 155/1/1
f 173/2/1 157/2/1 156/2/1
f 173/1/1 156/1/1 172/1/1
f 174/1/1 138/1/1 157/1/1
f 174/2/1 157/2/1 173/2/1
f 175/2/1 139/2/1 138/2/1
f 175/1/1 138/1/1 174/1/1
f 176/1/1 147/1/1 139/1/1
f 176/2/1 139/2/1 175/2/1
f 176/1/1 162/1/1 147/1/1
f 177/2/1 163/2/1 162/2/1
f 177/1/1 162/1/1 176/1/1
f 178/1/1 150/1/1 163/1/1
f 178/2/1 163/2/1 177/2/1
f 179/2/1 51/2/1 50/2/1
f 179/1/1 150/1/1 178/1/1
f 179/1/1 97/1/1 125/1/1
f 179/1/1 50/1/1 97/1/1
f 179/1/1 131/1/1 150/1/1
f 179/1/1 125/1/1 131/1/1
f 180/2/1 51/2/1 179/2/1
f 181/1/2 182/1/2 194/1/2
f 194/1/2 182/1/2 195/1/2
f 182/2/2 183/2/2 196/2/2
f 195/1/2 182/1/2 196/1/2
f 183/1/2 184/1/2 197/1/2
f 196/2/2 183/2/2 197/2/2
f 190/1/2 191/1/2 198/1/2
f 198/1/2 191/1/2 199/1/2
f 192/1/2 193/1/2 200/1/2
f 200/1/2 193/1/2 201/1/2
f 201/1/2 193/1/2 202/1/2
f 202/1/2 193/1/2 203/1/2
f 194/2/2 195/2/2 204/2/2
f 181/1/2 194/1/2 204/1/2
f 195/1/2 196/1/2 205/1/2
f 204/2/2 195/2/2 205/2/2
f 196/1/2 197/1/2 205/1/2
f 184/2/2 185/2/2 206/2/2
f 205/1/2 197/1/2 206/1/2
f 197/1/2 184/1/2 206/1/2
f 185/1/2 186/1/2 207/1/2
f 206/2/2 185/2/2 207/2/2
f 188/1/2 189/1/2 208/1/2
f 189/2/2 190/2/2 208/2/2
f 190/1/2 198/1/2 209/1/2
f 208/2/2 190/2/2 209/2/2
f 198/2/2 199/2/2 210/2/2
f 209/1/2 198/1/2 210/1/2
f 199/1/2 191/1/2 211/1/2
f 210/2/2 199/2/2 211/2/2
f 200/2/2 201/2/2 212/2/2
f 192/1/2 200/1/2 212/1/2
f 201/1/2 202/1/2 213/1/2
f 212/2/2 201/2/2 213/2/2
f 202/2/2 203/2/2 214/2/2
f 213/1/2 202/1/2 214/1/2
f 203/1/2 193/1/2 215/1/2
f 214/2/2 203/2/2 215/2/2
f 204/1/2 205/1/2 216/1/2
f 205/1/2 206/1/2 216/1/2
f 207/1/2 186/1/2 216/1/2
f 206/1/2 207/1/2 216/1/2
f 216/1/2 186/1/2 217/1/2
f 187/2/2 188/2/2 218/2/2
f 209/1/2 210/1/2 219/1/2
f 218/2/2 188/2/2 219/2/2
f 210/1/2 211/1/2 219/1/2
f 208/1/2 209/1/2 219/1/2
f 188/1/2 208/1/2 219/1/2
f 213/1/2 214/1/2 220/1/2
f 215/1/2 193/1/2 220/1/2
f 214/1/2 215/1/2 220/1/2
f 212/1/2 213/1/2 220/1/2
f 220/1/2 193/1/2 221/1/2
f 212/1/2 220/1/2 222/1/2
f 222/1/2 220/1/2 223/1/2
f 212/1/2 222/1/2 224/1/2
f 222/2/2 223/2/2 224/2/2
f 223/1/2 220/1/2 225/1/2
f 224/2/2 223/2/2 225/2/2
f 219/1/2 211/1/2 226/1/2
f 191/2/2 192/2/2 226/2/2
f 211/1/2 191/1/2 226/1/2
f 192/1/2 212/1/2 227/1/2
f 226/2/2 192/2/2 227/2/2
f 212/1/2 224/1/2 227/1/2
f 204/1/2 216/1/2 228/1/2
f 228/1/2 216/1/2 229/1/2
f 225/1/2 220/1/2 230/1/2
f 220/4/2 221/4/2 230/4/2
f 230/4/2 221/4/2 231/4/2
f 229/1/2 216/1/2 232/1/2
f 216/5/2 217/5/2 232/5/2
f 232/5/2 217/5/2 233/5/2
f 227/1/2 224/1/2 234/1/2
f 226/3/2 227/3/2 234/3/2
f 234/1/2 224/1/2 235/1/2
f 181/1/2 204/1/2 236/1/2
f 204/1/2 228/1/2 236/1/2
f 236/1/2 228/1/2 237/1/2
f 218/3/2 219/3/2 238/3/2
f 219/1/2 226/1/2 238/1/2
f 238/1/2 226/1/2 239/1/2
f 239/1/2 226/1/2 240/1/2
f 240/1/2 226/1/2 241/1/2
f 238/2/2 239/2/2 242/2/2
f 239/1/2 240/1/2 242/1/2
f 242/1/2 240/1/2 243/1/2
f 236/2/2 237/2/2 244/2/2
f 181/1/2 236/1/2 244/1/2
f 237/1/2 228/1/2 245/1/2
f 244/2/2 237/2/2 245/2/2
f 228/2/2 229/2/2 246/2/2
f 245/1/2 228/1/2 246/1/2
f 229/1/2 232/1/2 247/1/2
f 246/2/2 229/2/2 247/2/2
f 242/2/2 243/2/2 248/2/2
f 238/2/2 242/2/2 248/2/2
f 243/1/2 240/1/2 249/1/2
f 248/2/2 243/2/2 249/2/2
f 240/2/2 241/2/2 250/2/2
f 249/1/2 240/1/2 250/1/2
f 241/1/2 226/1/2 251/1/2
f 250/2/2 241/2/2 251/2/2
f 235/1/2 224/1/2 252/1/2
f 252/1/2 224/1/2 253/1/2
f 224/3/2 225/3/2 254/3/2
f 225/1/2 230/1/2 254/1/2
f 254/1/2 230/1/2 255/1/2
f 251/1/2 226/1/2 256/1/2
f 226/3/2 234/3/2 256/3/2
f 249/1/2 250/1/2 256/1/2
f 248/1/2 249/1/2 256/1/2
f 250/1/2 251/1/2 256/1/2
f 234/4/2 235/4/2 257/4/2
f 256/3/2 234/3/2 257/3/2
f 253/1/2 224/1/2 258/1/2
f 224/3/2 254/3/2 258/3/2
f 254/4/2 255/4/2 259/4/2
f 258/3/2 254/3/2 259/3/2
f 253/1/2 258/1/2 260/1/2
f 260/1/2 258/1/2 261/1/2
f 253/1/2 260/1/2 262/1/2
f 262/1/2 260/1/2 263/1/2
f 259/4/2 255/4/2 264/4/2
f 258/2/2 259/2/2 264/2/2
f 255/1/2 230/1/2 265/1/2
f 264/4/2 255/4/2 265/4/2
f 263/1/2 260/1/2 266/1/2
f 260/2/2 261/2/2 266/2/2
f 261/1/2 258/1/2 267/1/2
f 266/2/2 261/2/2 267/2/2
f 258/2/2 264/2/2 268/2/2
f 267/1/2 258/1/2 268/1/2
f 264/2/2 265/2/2 268/2/2
f 268/2/2 265/2/2 269/2/2
f 244/1/2 245/1/2 270/1/2
f 245/1/2 246/1/2 270/1/2
f 246/1/2 247/1/2 270/1/2
f 270/1/2 247/1/2 271/1/2
f 247/1/2 232/1/2 272/1/2
f 271/1/2 247/1/2 272/1/2
f 232/3/2 233/3/2 273/3/2
f 272/1/2 232/1/2 273/1/2
f 252/3/2 253/3/2 274/3/2
f 253/1/2 262/1/2 274/1/2
f 274/1/2 262/1/2 275/1/2
f 269/2/2 265/2/2 276/2/2
f 268/1/2 269/1/2 276/1/2
f 267/1/2 268/1/2 276/1/2
f 265/1/2 230/1/2 277/1/2
f 276/2/2 265/2/2 277/2/2
f 275/1/2 262/1/2 278/1/2
f 262/3/2 263/3/2 278/3/2
f 263/1/2 266/1/2 279/1/2
f 278/3/2 263/3/2 279/3/2
f 266/3/2 267/3/2 280/3/2
f 279/1/2 266/1/2 280/1/2
f 267/1/2 276/1/2 281/1/2
f 280/3/2 267/3/2 281/3/2
f 276/1/2 277/1/2 281/1/2
f 235/1/2 252/1/2 282/1/2
f 252/3/2 274/3/2 282/3/2
f 274/2/2 275/2/2 283/2/2
f 282/3/2 274/3/2 283/3/2
f 278/2/2 279/2/2 284/2/2
f 275/1/2 278/1/2 284/1/2
f 279/1/2 280/1/2 285/1/2
f 284/2/2 279/2/2 285/2/2
f 181/1/2 244/1/2 286/1/2
f 244/1/2 270/1/2 286/1/2
f 286/1/2 270/1/2 287/1/2
f 286/5/2 287/5/2 288/5/2
f 287/1/2 270/1/2 289/1/2
f 288/5/2 287/5/2 289/5/2
f 285/1/2 280/1/2 290/1/2
f 280/4/2 281/4/2 290/4/2
f 284/1/2 285/1/2 290/1/2
f 281/1/2 277/1/2 291/1/2
f 290/4/2 281/4/2 291/4/2
f 289/1/2 270/1/2 292/1/2
f 270/2/2 271/2/2 292/2/2
f 271/1/2 272/1/2 293/1/2
f 292/2/2 271/2/2 293/2/2
f 293/1/2 272/1/2 294/1/2
f 272/4/2 273/4/2 295/4/2
f 294/1/2 272/1/2 295/1/2
f 288/3/2 289/3/2 296/3/2
f 289/1/2 292/1/2 297/1/2
f 296/3/2 289/3/2 297/3/2
f 238/2/2 248/2/2 298/2/2
f 218/3/2 238/3/2 298/3/2
f 248/1/2 256/1/2 299/1/2
f 298/2/2 248/2/2 299/2/2
f 256/1/2 257/1/2 299/1/2
f 299/1/2 257/1/2 300/1/2
f 300/1/2 257/1/2 301/1/2
f 257/4/2 235/4/2 302/4/2
f 235/1/2 282/1/2 302/1/2
f 282/1/2 283/1/2 302/1/2
f 302/1/2 283/1/2 303/1/2
f 290/2/2 291/2/2 304/2/2
f 284/1/2 290/1/2 304/1/2
f 291/1/2 277/1/2 305/1/2
f 304/2/2 291/2/2 305/2/2
f 297/1/2 292/1/2 306/1/2
f 296/5/2 297/5/2 306/5/2
f 306/1/2 292/1/2 307/1/2
f 299/1/2 300/1/2 308/1/2
f 298/3/2 299/3/2 308/3/2
f 308/1/2 300/1/2 309/1/2
f 283/2/2 275/2/2 310/2/2
f 303/1/2 283/1/2 310/1/2
f 284/1/2 304/1/2 311/1/2
f 310/2/2 275/2/2 311/2/2
f 275/1/2 284/1/2 311/1/2
f 304/1/2 305/1/2 311/1/2
f 307/1/2 292/1/2 312/1/2
f 306/4/2 307/4/2 312/4/2
f 312/1/2 292/1/2 313/1/2
f 312/5/2 313/5/2 314/5/2
f 313/1/2 292/1/2 314/1/2
f 292/5/2 293/5/2 315/5/2
f 314/1/2 292/1/2 315/1/2
f 309/1/2 300/1/2 316/1/2
f 308/2/2 309/2/2 316/2/2
f 316/1/2 300/1/2 317/1/2
f 317/1/2 300/1/2 318/1/2
f 318/1/2 300/1/2 319/1/2
f 315/5/2 293/5/2 320/5/2
f 293/1/2 294/1/2 320/1/2
f 320/1/2 294/1/2 321/1/2
f 294/2/2 295/2/2 322/2/2
f 321/1/2 294/1/2 322/1/2
f 295/4/2 273/4/2 323/4/2
f 322/2/2 295/2/2 323/2/2
f 218/3/2 298/3/2 324/3/2
f 298/3/2 308/3/2 324/3/2
f 308/2/2 316/2/2 325/2/2
f 324/3/2 308/3/2 325/3/2
f 316/2/2 317/2/2 325/2/2
f 325/2/2 317/2/2 326/2/2
f 319/1/2 300/1/2 327/1/2
f 300/2/2 301/2/2 327/2/2
f 301/1/2 257/1/2 328/1/2
f 327/2/2 301/2/2 328/2/2
f 302/2/2 303/2/2 329/2/2
f 257/4/2 302/4/2 329/4/2
f 303/1/2 310/1/2 330/1/2
f 329/2/2 303/2/2 330/2/2
f 310/1/2 311/1/2 330/1/2
f 296/5/2 306/5/2 331/5/2
f 306/4/2 312/4/2 331/4/2
f 312/5/2 314/5/2 332/5/2
f 331/4/2 312/4/2 332/4/2
f 314/3/2 315/3/2 333/3/2
f 332/5/2 314/5/2 333/5/2
f 326/2/2 317/2/2 334/2/2
f 325/1/2 326/1/2 334/1/2
f 324/1/2 325/1/2 334/1/2
f 317/1/2 318/1/2 335/1/2
f 334/2/2 317/2/2 335/2/2
f 335/1/2 318/1/2 336/1/2
f 336/1/2 318/1/2 337/1/2
f 296/5/2 331/5/2 338/5/2
f 332/2/2 333/2/2 339/2/2
f 338/5/2 331/5/2 339/5/2
f 331/2/2 332/2/2 339/2/2
f 333/3/2 315/3/2 340/3/2
f 315/5/2 320/5/2 340/5/2
f 320/2/2 321/2/2 341/2/2
f 340/5/2 320/5/2 341/5/2
f 257/4/2 329/4/2 342/4/2
f 328/1/2 257/1/2 342/1/2
f 327/1/2 328/1/2 342/1/2
f 329/1/2 330/1/2 343/1/2
f 342/4/2 329/4/2 343/4/2
f 338/2/2 339/2/2 344/2/2
f 339/2/2 333/2/2 345/2/2
f 344/2/2 339/2/2 345/2/2
f 333/3/2 340/3/2 345/3/2
f 340/2/2 341/2/2 346/2/2
f 345/3/2 340/3/2 346/3/2
f 341/2/2 321/2/2 347/2/2
f 346/2/2 341/2/2 347/2/2
f 322/1/2 323/1/2 347/1/2
f 321/1/2 322/1/2 347/1/2
f 323/4/2 273/4/2 348/4/2
f 347/1/2 323/1/2 348/1/2
f 273/3/2 233/3/2 349/3/2
f 348/4/2 273/4/2 349/4/2
f 349/3/2 233/3/2 350/3/2
f 218/3/2 324/3/2 351/3/2
f 334/1/2 335/1/2 352/1/2
f 351/3/2 324/3/2 352/3/2
f 324/1/2 334/1/2 352/1/2
f 335/1/2 336/1/2 352/1/2
f 336/2/2 337/2/2 353/2/2
f 352/1/2 336/1/2 353/1/2
f 337/1/2 318/1/2 354/1/2
f 353/2/2 337/2/2 354/2/2
f 318/2/2 319/2/2 355/2/2
f 354/1/2 318/1/2 355/1/2
f 319/1/2 327/1/2 356/1/2
f 355/2/2 319/2/2 356/2/2
f 327/1/2 342/1/2 356/1/2
f 342/2/2 343/2/2 357/2/2
f 356/1/2 342/1/2 357/1/2
f 343/1/2 330/1/2 358/1/2
f 357/2/2 343/2/2 358/2/2
f 230/2/2 231/2/2 359/2/2
f 358/1/2 330/1/2 359/1/2
f 305/1/2 277/1/2 359/1/2
f 277/1/2 230/1/2 359/1/2
f 330/1/2 311/1/2 359/1/2
f 311/1/2 305/1/2 359/1/2
f 359/2/2 231/2/2 360/2/2
f 367/1/3 362/1/3 361/1/3
f 368/5/3 363/5/3 362/5/3
f 368/1/3 362/1/3 367/1/3
f 369/3/3 364/3/3 363/3/3
f 369/5/3 363/5/3 368/5/3
f 370/5/3 365/5/3 364/5/3
f 370/3/3 364/3/3 369/3/3
f 371/2/3 366/2/3 365/2/3
f 371/5/3 365/5/3 370/5/3
f 372/2/3 366/2/3 371/2/3
f 376/2/3 374/2/3 373/2/3
f 377/3/3 375/3/3 374/3/3
f 377/2/3 374/2/3 376/2/3
f 378/3/3 375/3/3 377/3/3
f 379/1/4 380/1/4 383/1/4
f 380/5/4 381/5/4 384/5/4
f 383/1/4 380/1/4 384/1/4
f 381/3/4 382/3/4 385/3/4
f 384/5/4 381/5/4 385/5/4
f 385/3/4 382/3/4 386/3/4
f 387/1/4 388/1/4 391/1/4
f 388/4/4 389/4/4 392/4/4
f 391/1/4 388/1/4 392/1/4
f 389/2/4 390/2/4 393/2/4
f 392/4/4 389/4/4 393/4/4
f 393/2/4 390/2/4 394/2/4
f 397/1/5 396/1/5 395/1/5
f 398/1/5 396/1/5 397/1/5
f 399/2/5 398/2/5 397/2/5
f 400/2/5 398/2/5 399/2/5
f 401/1/5 400/1/5 399/1/5
f 402/1/5 400/1/5 401/1/5
f 403/2/5 402/2/5 401/2/5
f 404/2/5 402/2/5 403/2/5
f 405/1/5 404/1/5 403/1/5
f 406/1/5 404/1/5 405/1/5
f 409/2/5 408/2/5 407/2/5
f 410/2/5 408/2/5 409/2/5
f 411/1/5 410/1/5 409/1/5
f 412/1/5 410/1/5 411/1/5
f 413/2/5 412/2/5 411/2/5
f 414/2/5 412/2/5 413/2/5
f 415/1/5 414/1/5 413/1/5
f 416/1/5 414/1/5 415/1/5
f 417/2/5 416/2/5 415/2/5
f 418/2/5 416/2/5 417/2/5
f 419/1/5 418/1/5 417/1/5
f 420/1/5 418/1/5 419/1/5
f 421/2/6 422/2/6 423/2/6
f 423/2/6 422/2/6 424/2/6
f 423/3/6 424/3/6 425/3/6
f 425/3/6 424/3/6 426/3/6
f 425/2/6 426/2/6 427/2/6
f 427/2/6 426/2/6 428/2/6
f 427/1/6 428/1/6 429/1/6
f 429/1/6 428/1/6 430/1/6
f 429/4/6 430/4/6 431/4/6
f 431/4/6 430/4/6 432/4/6
f 431/3/6 432/3/6 433/3/6
f 433/3/6 432/3/6 434/3/6
f 435/3/6 436/3/6 437/3/6
f 437/3/6 436/3/6 438/3/6
f 437/1/6 438/1/6 439/1/6
f 439/1/6 438/1/6 440/1/6
f 439/2/6 440/2/6 441/2/6
f 441/2/6 440/2/6 442/2/6
f 441/1/6 442/1/6 443/1/6
f 443/1/6 442/1/6 444/1/6
f 443/2/6 444/2/6 445/2/6
f 445/2/6 444/2/6 446/2/6
f 445/1/6 446/1/6 447/1/6
f 447/1/6 446/1/6 448/1/6
f 447/2/6 448/2/6 449/2/6
f 449/2/6 448/2/6 450/2/6
f 449/1/6 450/1/6 451/1/6
f 451/1/6 450/1/6 452/1/6
f 451/2/6 452/2/6 453/2/6
f 453/2/6 452/2/6 454/2/6
