# MagicaVoxel @ ephtracy

# material
mtllib signal-type2.mtl
usemtl palette

# normals
vn -1 0 0
vn 1 0 0
vn 0 0 1
vn 0 0 -1
vn 0 -1 0
vn 0 1 0

# texcoords
vt 0.00585938 0.5
vt 0.00976563 0.5
vt 0.0332031 0.5
vt 0.0371094 0.5
vt 0.0410156 0.5

# verts
v -4 83 14.5
v -4 83 13.5
v -4 83 10.5
v -4 83 9.5
v -4 83 6.5
v -4 83 5.5
v -4 83 2.5
v -4 83 1.5
v -4 83 -1.5
v -4 83 -2.5
v -4 83 -5.5
v -4 83 -6.5
v -4 83 -9.5
v -4 83 -10.5
v -4 83 -13.5
v -4 83 -14.5
v -4 84 14.5
v -4 84 13.5
v -4 84 10.5
v -4 84 9.5
v -4 84 6.5
v -4 84 5.5
v -4 84 2.5
v -4 84 1.5
v -4 84 -1.5
v -4 84 -2.5
v -4 84 -5.5
v -4 84 -6.5
v -4 84 -9.5
v -4 84 -10.5
v -4 84 -13.5
v -4 84 -14.5
v -4 85 13.5
v -4 85 10.5
v -4 85 5.5
v -4 85 2.5
v -4 85 -2.5
v -4 85 -5.5
v -4 85 -10.5
v -4 85 -13.5
v -3 80 15.5
v -3 80 14.5
v -3 80 9.5
v -3 80 8.5
v -3 80 7.5
v -3 80 6.5
v -3 80 1.5
v -3 80 0.5
v -3 80 -0.5
v -3 80 -1.5
v -3 80 -6.5
v -3 80 -7.5
v -3 80 -8.5
v -3 80 -9.5
v -3 80 -14.5
v -3 80 -15.5
v -3 83 15.5
v -3 83 14.5
v -3 83 9.5
v -3 83 8.5
v -3 83 7.5
v -3 83 6.5
v -3 83 1.5
v -3 83 0.5
v -3 83 -0.5
v -3 83 -1.5
v -3 83 -6.5
v -3 83 -7.5
v -3 83 -8.5
v -3 83 -9.5
v -3 83 -14.5
v -3 83 -15.5
v -2 79 14.5
v -2 79 13.5
v -2 79 10.5
v -2 79 9.5
v -2 79 6.5
v -2 79 5.5
v -2 79 2.5
v -2 79 1.5
v -2 79 -1.5
v -2 79 -2.5
v -2 79 -5.5
v -2 79 -6.5
v -2 79 -9.5
v -2 79 -10.5
v -2 79 -13.5
v -2 79 -14.5
v -2 80 14.5
v -2 80 13.5
v -2 80 10.5
v -2 80 9.5
v -2 80 6.5
v -2 80 5.5
v -2 80 2.5
v -2 80 1.5
v -2 80 -1.5
v -2 80 -2.5
v -2 80 -5.5
v -2 80 -6.5
v -2 80 -9.5
v -2 80 -10.5
v -2 80 -13.5
v -2 80 -14.5
v -1 78 15.5
v -1 78 -15.5
v -1 79 14.5
v -1 79 13.5
v -1 79 10.5
v -1 79 9.5
v -1 79 6.5
v -1 79 5.5
v -1 79 4.5
v -1 79 3.5
v -1 79 2.5
v -1 79 1.5
v -1 79 -1.5
v -1 79 -2.5
v -1 79 -5.5
v -1 79 -6.5
v -1 79 -9.5
v -1 79 -10.5
v -1 79 -13.5
v -1 79 -14.5
v -1 80 15.5
v -1 80 14.5
v -1 80 13.5
v -1 80 10.5
v -1 80 9.5
v -1 80 8.5
v -1 80 7.5
v -1 80 6.5
v -1 80 5.5
v -1 80 4.5
v -1 80 3.5
v -1 80 2.5
v -1 80 1.5
v -1 80 0.5
v -1 80 -0.5
v -1 80 -1.5
v -1 80 -2.5
v -1 80 -5.5
v -1 80 -6.5
v -1 80 -7.5
v -1 80 -8.5
v -1 80 -9.5
v -1 80 -10.5
v -1 80 -13.5
v -1 80 -14.5
v -1 80 -15.5
v -1 81 6.5
v -1 81 3.5
v -1 81 2.5
v -1 81 1.5
v -1 82 6.5
v -1 82 3.5
v -1 82 2.5
v -1 82 1.5
v -1 83 15.5
v -1 83 14.5
v -1 83 13.5
v -1 83 10.5
v -1 83 9.5
v -1 83 8.5
v -1 83 7.5
v -1 83 6.5
v -1 83 5.5
v -1 83 4.5
v -1 83 3.5
v -1 83 2.5
v -1 83 1.5
v -1 83 0.5
v -1 83 -0.5
v -1 83 -1.5
v -1 83 -2.5
v -1 83 -5.5
v -1 83 -6.5
v -1 83 -7.5
v -1 83 -8.5
v -1 83 -9.5
v -1 83 -10.5
v -1 83 -13.5
v -1 83 -14.5
v -1 83 -15.5
v -1 84 14.5
v -1 84 13.5
v -1 84 10.5
v -1 84 9.5
v -1 84 6.5
v -1 84 5.5
v -1 84 4.5
v -1 84 3.5
v -1 84 2.5
v -1 84 1.5
v -1 84 -1.5
v -1 84 -2.5
v -1 84 -5.5
v -1 84 -6.5
v -1 84 -9.5
v -1 84 -10.5
v -1 84 -13.5
v -1 84 -14.5
v -1 85 15.5
v -1 85 13.5
v -1 85 10.5
v -1 85 5.5
v -1 85 2.5
v -1 85 -2.5
v -1 85 -5.5
v -1 85 -10.5
v -1 85 -13.5
v -1 85 -15.5
v 0 85 15.5
v 0 85 14.5
v 0 85 -14.5
v 0 85 -15.5
v 0 86 15.5
v 0 86 14.5
v 0 86 -14.5
v 0 86 -15.5
v 3 85 15.5
v 3 85 14.5
v 3 85 -14.5
v 3 85 -15.5
v 3 86 15.5
v 3 86 14.5
v 3 86 -14.5
v 3 86 -15.5
v 1 85 15.5
v 1 85 14.5
v 1 85 -14.5
v 1 85 -15.5
v 1 86 15.5
v 1 86 14.5
v 1 86 -14.5
v 1 86 -15.5
v 4 78 15.5
v 4 78 -15.5
v 4 85 14.5
v 4 85 -14.5
v 4 86 15.5
v 4 86 14.5
v 4 86 -14.5
v 4 86 -15.5
v -3 80 15.5
v -3 83 15.5
v -1 78 15.5
v -1 80 15.5
v -1 83 15.5
v -1 85 15.5
v 0 85 15.5
v 0 86 15.5
v 1 85 15.5
v 1 86 15.5
v 3 85 15.5
v 3 86 15.5
v 4 78 15.5
v 4 86 15.5
v -4 83 14.5
v -4 84 14.5
v -3 83 14.5
v -2 79 14.5
v -2 80 14.5
v -1 79 14.5
v -1 80 14.5
v -1 83 14.5
v -1 84 14.5
v -4 84 13.5
v -4 85 13.5
v -1 84 13.5
v -1 85 13.5
v -4 83 10.5
v -4 84 10.5
v -2 79 10.5
v -2 80 10.5
v -1 79 10.5
v -1 80 10.5
v -1 83 10.5
v -1 84 10.5
v -3 80 9.5
v -3 83 9.5
v -2 80 9.5
v -1 80 9.5
v -1 83 9.5
v -3 80 7.5
v -3 83 7.5
v -1 80 7.5
v -1 83 7.5
v -4 83 6.5
v -4 84 6.5
v -3 83 6.5
v -2 79 6.5
v -2 80 6.5
v -1 79 6.5
v -1 80 6.5
v -1 83 6.5
v -1 84 6.5
v -4 84 5.5
v -4 85 5.5
v -1 84 5.5
v -1 85 5.5
v -4 83 2.5
v -4 84 2.5
v -2 79 2.5
v -2 80 2.5
v -1 79 2.5
v -1 80 2.5
v -1 83 2.5
v -1 84 2.5
v -3 80 1.5
v -3 83 1.5
v -2 80 1.5
v -1 80 1.5
v -1 81 1.5
v -1 82 1.5
v -1 83 1.5
v -3 80 -0.5
v -3 83 -0.5
v -1 80 -0.5
v -1 83 -0.5
v -4 83 -1.5
v -4 84 -1.5
v -3 83 -1.5
v -2 79 -1.5
v -2 80 -1.5
v -1 79 -1.5
v -1 80 -1.5
v -1 83 -1.5
v -1 84 -1.5
v -4 84 -2.5
v -4 85 -2.5
v -1 84 -2.5
v -1 85 -2.5
v -4 83 -5.5
v -4 84 -5.5
v -2 79 -5.5
v -2 80 -5.5
v -1 79 -5.5
v -1 80 -5.5
v -1 83 -5.5
v -1 84 -5.5
v -3 80 -6.5
v -3 83 -6.5
v -2 80 -6.5
v -1 80 -6.5
v -1 83 -6.5
v -3 80 -8.5
v -3 83 -8.5
v -1 80 -8.5
v -1 83 -8.5
v -4 83 -9.5
v -4 84 -9.5
v -3 83 -9.5
v -2 79 -9.5
v -2 80 -9.5
v -1 79 -9.5
v -1 80 -9.5
v -1 83 -9.5
v -1 84 -9.5
v -4 84 -10.5
v -4 85 -10.5
v -1 84 -10.5
v -1 85 -10.5
v -4 83 -13.5
v -4 84 -13.5
v -2 79 -13.5
v -2 80 -13.5
v -1 79 -13.5
v -1 80 -13.5
v -1 83 -13.5
v -1 84 -13.5
v -3 80 -14.5
v -3 83 -14.5
v -2 80 -14.5
v -1 80 -14.5
v -1 83 -14.5
v 0 85 -14.5
v 0 86 -14.5
v 1 85 -14.5
v 1 86 -14.5
v 3 85 -14.5
v 3 86 -14.5
v 4 85 -14.5
v 4 86 -14.5
v -3 80 14.5
v -3 83 14.5
v -2 80 14.5
v -1 80 14.5
v -1 83 14.5
v 0 85 14.5
v 0 86 14.5
v 1 85 14.5
v 1 86 14.5
v 3 85 14.5
v 3 86 14.5
v 4 85 14.5
v 4 86 14.5
v -4 83 13.5
v -4 84 13.5
v -2 79 13.5
v -2 80 13.5
v -1 79 13.5
v -1 80 13.5
v -1 83 13.5
v -1 84 13.5
v -4 84 10.5
v -4 85 10.5
v -1 84 10.5
v -1 85 10.5
v -4 83 9.5
v -4 84 9.5
v -3 83 9.5
v -2 79 9.5
v -2 80 9.5
v -1 79 9.5
v -1 80 9.5
v -1 83 9.5
v -1 84 9.5
v -3 80 8.5
v -3 83 8.5
v -1 80 8.5
v -1 83 8.5
v -3 80 6.5
v -3 83 6.5
v -2 80 6.5
v -1 80 6.5
v -1 81 6.5
v -1 82 6.5
v -1 83 6.5
v -4 83 5.5
v -4 84 5.5
v -2 79 5.5
v -2 80 5.5
v -1 79 5.5
v -1 80 5.5
v -1 83 5.5
v -1 84 5.5
v -4 84 2.5
v -4 85 2.5
v -1 84 2.5
v -1 85 2.5
v -4 83 1.5
v -4 84 1.5
v -3 83 1.5
v -2 79 1.5
v -2 80 1.5
v -1 79 1.5
v -1 80 1.5
v -1 83 1.5
v -1 84 1.5
v -3 80 0.5
v -3 83 0.5
v -1 80 0.5
v -1 83 0.5
v -3 80 -1.5
v -3 83 -1.5
v -2 80 -1.5
v -1 80 -1.5
v -1 83 -1.5
v -4 83 -2.5
v -4 84 -2.5
v -2 79 -2.5
v -2 80 -2.5
v -1 79 -2.5
v -1 80 -2.5
v -1 83 -2.5
v -1 84 -2.5
v -4 84 -5.5
v -4 85 -5.5
v -1 84 -5.5
v -1 85 -5.5
v -4 83 -6.5
v -4 84 -6.5
v -3 83 -6.5
v -2 79 -6.5
v -2 80 -6.5
v -1 79 -6.5
v -1 80 -6.5
v -1 83 -6.5
v -1 84 -6.5
v -3 80 -7.5
v -3 83 -7.5
v -1 80 -7.5
v -1 83 -7.5
v -3 80 -9.5
v -3 83 -9.5
v -2 80 -9.5
v -1 80 -9.5
v -1 83 -9.5
v -4 83 -10.5
v -4 84 -10.5
v -2 79 -10.5
v -2 80 -10.5
v -1 79 -10.5
v -1 80 -10.5
v -1 83 -10.5
v -1 84 -10.5
v -4 84 -13.5
v -4 85 -13.5
v -1 84 -13.5
v -1 85 -13.5
v -4 83 -14.5
v -4 84 -14.5
v -3 83 -14.5
v -2 79 -14.5
v -2 80 -14.5
v -1 79 -14.5
v -1 80 -14.5
v -1 83 -14.5
v -1 84 -14.5
v -3 80 -15.5
v -3 83 -15.5
v -1 78 -15.5
v -1 80 -15.5
v -1 83 -15.5
v -1 85 -15.5
v 0 85 -15.5
v 0 86 -15.5
v 1 85 -15.5
v 1 86 -15.5
v 3 85 -15.5
v 3 86 -15.5
v 4 78 -15.5
v 4 86 -15.5
v -1 78 15.5
v 4 78 15.5
v -1 78 -15.5
v 4 78 -15.5
v -2 79 14.5
v -1 79 14.5
v -2 79 13.5
v -1 79 13.5
v -2 79 10.5
v -1 79 10.5
v -2 79 9.5
v -1 79 9.5
v -2 79 6.5
v -1 79 6.5
v -2 79 5.5
v -1 79 5.5
v -2 79 2.5
v -1 79 2.5
v -2 79 1.5
v -1 79 1.5
v -2 79 -1.5
v -1 79 -1.5
v -2 79 -2.5
v -1 79 -2.5
v -2 79 -5.5
v -1 79 -5.5
v -2 79 -6.5
v -1 79 -6.5
v -2 79 -9.5
v -1 79 -9.5
v -2 79 -10.5
v -1 79 -10.5
v -2 79 -13.5
v -1 79 -13.5
v -2 79 -14.5
v -1 79 -14.5
v -3 80 15.5
v -1 80 15.5
v -3 80 14.5
v -2 80 14.5
v -1 80 14.5
v -3 80 9.5
v -2 80 9.5
v -1 80 9.5
v -3 80 8.5
v -1 80 8.5
v -3 80 7.5
v -1 80 7.5
v -3 80 6.5
v -2 80 6.5
v -1 80 6.5
v -3 80 1.5
v -2 80 1.5
v -1 80 1.5
v -3 80 0.5
v -1 80 0.5
v -3 80 -0.5
v -1 80 -0.5
v -3 80 -1.5
v -2 80 -1.5
v -1 80 -1.5
v -3 80 -6.5
v -2 80 -6.5
v -1 80 -6.5
v -3 80 -7.5
v -1 80 -7.5
v -3 80 -8.5
v -1 80 -8.5
v -3 80 -9.5
v -2 80 -9.5
v -1 80 -9.5
v -3 80 -14.5
v -2 80 -14.5
v -1 80 -14.5
v -3 80 -15.5
v -1 80 -15.5
v -4 83 14.5
v -3 83 14.5
v -1 83 14.5
v -4 83 13.5
v -1 83 13.5
v -4 83 10.5
v -1 83 10.5
v -4 83 9.5
v -3 83 9.5
v -1 83 9.5
v -4 83 6.5
v -3 83 6.5
v -1 83 6.5
v -4 83 5.5
v -1 83 5.5
v -4 83 2.5
v -1 83 2.5
v -4 83 1.5
v -3 83 1.5
v -1 83 1.5
v -4 83 -1.5
v -3 83 -1.5
v -1 83 -1.5
v -4 83 -2.5
v -1 83 -2.5
v -4 83 -5.5
v -1 83 -5.5
v -4 83 -6.5
v -3 83 -6.5
v -1 83 -6.5
v -4 83 -9.5
v -3 83 -9.5
v -1 83 -9.5
v -4 83 -10.5
v -1 83 -10.5
v -4 83 -13.5
v -1 83 -13.5
v -4 83 -14.5
v -3 83 -14.5
v -1 83 -14.5
v -4 84 13.5
v -1 84 13.5
v -4 84 10.5
v -1 84 10.5
v -4 84 5.5
v -1 84 5.5
v -1 84 4.5
v -1 84 3.5
v -4 84 2.5
v -1 84 2.5
v -4 84 -2.5
v -1 84 -2.5
v -4 84 -5.5
v -1 84 -5.5
v -4 84 -10.5
v -1 84 -10.5
v -4 84 -13.5
v -1 84 -13.5
v -2 80 14.5
v -1 80 14.5
v -2 80 13.5
v -1 80 13.5
v -2 80 10.5
v -1 80 10.5
v -2 80 9.5
v -1 80 9.5
v -2 80 6.5
v -1 80 6.5
v -2 80 5.5
v -1 80 5.5
v -2 80 2.5
v -1 80 2.5
v -2 80 1.5
v -1 80 1.5
v -2 80 -1.5
v -1 80 -1.5
v -2 80 -2.5
v -1 80 -2.5
v -2 80 -5.5
v -1 80 -5.5
v -2 80 -6.5
v -1 80 -6.5
v -2 80 -9.5
v -1 80 -9.5
v -2 80 -10.5
v -1 80 -10.5
v -2 80 -13.5
v -1 80 -13.5
v -2 80 -14.5
v -1 80 -14.5
v -3 83 15.5
v -1 83 15.5
v -3 83 14.5
v -1 83 14.5
v -3 83 9.5
v -1 83 9.5
v -3 83 8.5
v -1 83 8.5
v -3 83 7.5
v -1 83 7.5
v -3 83 6.5
v -1 83 6.5
v -3 83 1.5
v -1 83 1.5
v -3 83 0.5
v -1 83 0.5
v -3 83 -0.5
v -1 83 -0.5
v -3 83 -1.5
v -1 83 -1.5
v -3 83 -6.5
v -1 83 -6.5
v -3 83 -7.5
v -1 83 -7.5
v -3 83 -8.5
v -1 83 -8.5
v -3 83 -9.5
v -1 83 -9.5
v -3 83 -14.5
v -1 83 -14.5
v -3 83 -15.5
v -1 83 -15.5
v -4 84 14.5
v -1 84 14.5
v -4 84 13.5
v -1 84 13.5
v -4 84 10.5
v -1 84 10.5
v -4 84 9.5
v -1 84 9.5
v -4 84 6.5
v -1 84 6.5
v -4 84 5.5
v -1 84 5.5
v -4 84 2.5
v -1 84 2.5
v -4 84 1.5
v -1 84 1.5
v -4 84 -1.5
v -1 84 -1.5
v -4 84 -2.5
v -1 84 -2.5
v -4 84 -5.5
v -1 84 -5.5
v -4 84 -6.5
v -1 84 -6.5
v -4 84 -9.5
v -1 84 -9.5
v -4 84 -10.5
v -1 84 -10.5
v -4 84 -13.5
v -1 84 -13.5
v -4 84 -14.5
v -1 84 -14.5
v -1 85 15.5
v 0 85 15.5
v 1 85 15.5
v 3 85 15.5
v 0 85 14.5
v 1 85 14.5
v 3 85 14.5
v 4 85 14.5
v -4 85 13.5
v -1 85 13.5
v -4 85 10.5
v -1 85 10.5
v -4 85 5.5
v -1 85 5.5
v -4 85 2.5
v -1 85 2.5
v -4 85 -2.5
v -1 85 -2.5
v -4 85 -5.5
v -1 85 -5.5
v -4 85 -10.5
v -1 85 -10.5
v -4 85 -13.5
v -1 85 -13.5
v 0 85 -14.5
v 1 85 -14.5
v 3 85 -14.5
v 4 85 -14.5
v -1 85 -15.5
v 0 85 -15.5
v 1 85 -15.5
v 3 85 -15.5
v 0 86 15.5
v 1 86 15.5
v 3 86 15.5
v 4 86 15.5
v 0 86 14.5
v 1 86 14.5
v 3 86 14.5
v 4 86 14.5
v 0 86 -14.5
v 1 86 -14.5
v 3 86 -14.5
v 4 86 -14.5
v 0 86 -15.5
v 1 86 -15.5
v 3 86 -15.5
v 4 86 -15.5

# faces
f 17/2/1 2/2/1 1/2/1
f 18/2/1 2/2/1 17/2/1
f 19/2/1 4/2/1 3/2/1
f 20/2/1 4/2/1 19/2/1
f 21/2/1 6/2/1 5/2/1
f 22/2/1 6/2/1 21/2/1
f 23/2/1 8/2/1 7/2/1
f 24/2/1 8/2/1 23/2/1
f 25/2/1 10/2/1 9/2/1
f 26/2/1 10/2/1 25/2/1
f 27/2/1 12/2/1 11/2/1
f 28/2/1 12/2/1 27/2/1
f 29/2/1 14/2/1 13/2/1
f 30/2/1 14/2/1 29/2/1
f 31/2/1 16/2/1 15/2/1
f 32/2/1 16/2/1 31/2/1
f 33/2/1 19/2/1 18/2/1
f 34/2/1 19/2/1 33/2/1
f 35/2/1 23/2/1 22/2/1
f 36/2/1 23/2/1 35/2/1
f 37/2/1 27/2/1 26/2/1
f 38/2/1 27/2/1 37/2/1
f 39/2/1 31/2/1 30/2/1
f 40/2/1 31/2/1 39/2/1
f 57/2/1 42/2/1 41/2/1
f 58/2/1 42/2/1 57/2/1
f 59/2/1 44/2/1 43/2/1
f 60/2/1 44/2/1 59/2/1
f 61/2/1 46/2/1 45/2/1
f 62/2/1 46/2/1 61/2/1
f 63/2/1 48/2/1 47/2/1
f 64/2/1 48/2/1 63/2/1
f 65/2/1 50/2/1 49/2/1
f 66/2/1 50/2/1 65/2/1
f 67/2/1 52/2/1 51/2/1
f 68/2/1 52/2/1 67/2/1
f 69/2/1 54/2/1 53/2/1
f 70/2/1 54/2/1 69/2/1
f 71/2/1 56/2/1 55/2/1
f 72/2/1 56/2/1 71/2/1
f 89/2/1 74/2/1 73/2/1
f 90/2/1 74/2/1 89/2/1
f 91/2/1 76/2/1 75/2/1
f 92/2/1 76/2/1 91/2/1
f 93/2/1 78/2/1 77/2/1
f 94/2/1 78/2/1 93/2/1
f 95/2/1 80/2/1 79/2/1
f 96/2/1 80/2/1 95/2/1
f 97/2/1 82/2/1 81/2/1
f 98/2/1 82/2/1 97/2/1
f 99/2/1 84/2/1 83/2/1
f 100/2/1 84/2/1 99/2/1
f 101/2/1 86/2/1 85/2/1
f 102/2/1 86/2/1 101/2/1
f 103/2/1 88/2/1 87/2/1
f 104/2/1 88/2/1 103/2/1
f 107/2/1 106/2/1 105/2/1
f 108/2/1 106/2/1 107/2/1
f 109/2/1 106/2/1 108/2/1
f 110/2/1 106/2/1 109/2/1
f 111/2/1 106/2/1 110/2/1
f 112/2/1 106/2/1 111/2/1
f 113/2/1 106/2/1 112/2/1
f 114/2/1 106/2/1 113/2/1
f 115/2/1 106/2/1 114/2/1
f 116/2/1 106/2/1 115/2/1
f 117/2/1 106/2/1 116/2/1
f 118/2/1 106/2/1 117/2/1
f 119/2/1 106/2/1 118/2/1
f 120/2/1 106/2/1 119/2/1
f 121/2/1 106/2/1 120/2/1
f 122/2/1 106/2/1 121/2/1
f 123/2/1 106/2/1 122/2/1
f 124/2/1 106/2/1 123/2/1
f 125/2/1 107/2/1 105/2/1
f 126/2/1 107/2/1 125/2/1
f 127/5/1 109/5/1 108/5/1
f 128/5/1 109/5/1 127/5/1
f 129/2/1 111/2/1 110/2/1
f 130/2/1 111/2/1 129/2/1
f 131/2/1 111/2/1 130/2/1
f 132/2/1 111/2/1 131/2/1
f 133/1/1 113/1/1 112/1/1
f 134/5/1 114/5/1 113/5/1
f 134/1/1 113/1/1 133/1/1
f 135/1/1 115/1/1 114/1/1
f 135/5/1 114/5/1 134/5/1
f 136/1/1 115/1/1 135/1/1
f 137/2/1 117/2/1 116/2/1
f 138/2/1 117/2/1 137/2/1
f 139/2/1 117/2/1 138/2/1
f 140/2/1 117/2/1 139/2/1
f 141/4/1 119/4/1 118/4/1
f 142/4/1 119/4/1 141/4/1
f 143/2/1 121/2/1 120/2/1
f 144/2/1 121/2/1 143/2/1
f 145/2/1 121/2/1 144/2/1
f 146/2/1 121/2/1 145/2/1
f 147/3/1 123/3/1 122/3/1
f 148/3/1 123/3/1 147/3/1
f 149/2/1 106/2/1 124/2/1
f 150/2/1 106/2/1 149/2/1
f 151/1/1 133/1/1 132/1/1
f 151/1/1 134/1/1 133/1/1
f 151/1/1 135/1/1 134/1/1
f 152/5/1 136/5/1 135/5/1
f 152/1/1 135/1/1 151/1/1
f 153/1/1 137/1/1 136/1/1
f 153/5/1 136/5/1 152/5/1
f 154/1/1 137/1/1 153/1/1
f 155/5/1 152/5/1 151/5/1
f 155/5/1 153/5/1 152/5/1
f 155/5/1 154/5/1 153/5/1
f 156/5/1 154/5/1 155/5/1
f 157/5/1 154/5/1 156/5/1
f 158/5/1 154/5/1 157/5/1
f 160/5/1 128/5/1 127/5/1
f 160/5/1 127/5/1 126/5/1
f 160/5/1 129/5/1 128/5/1
f 161/5/1 129/5/1 160/5/1
f 162/5/1 129/5/1 161/5/1
f 163/5/1 129/5/1 162/5/1
f 164/2/1 131/2/1 130/2/1
f 165/2/1 131/2/1 164/2/1
f 166/1/1 156/1/1 155/1/1
f 167/1/1 156/1/1 166/1/1
f 168/1/1 156/1/1 167/1/1
f 169/5/1 157/5/1 156/5/1
f 169/1/1 156/1/1 168/1/1
f 170/1/1 158/1/1 157/1/1
f 170/5/1 157/5/1 169/5/1
f 171/1/1 158/1/1 170/1/1
f 172/2/1 139/2/1 138/2/1
f 173/2/1 139/2/1 172/2/1
f 174/4/1 142/4/1 141/4/1
f 174/4/1 143/4/1 142/4/1
f 174/4/1 141/4/1 140/4/1
f 175/4/1 143/4/1 174/4/1
f 176/4/1 143/4/1 175/4/1
f 177/4/1 143/4/1 176/4/1
f 178/2/1 145/2/1 144/2/1
f 179/2/1 145/2/1 178/2/1
f 180/3/1 148/3/1 147/3/1
f 180/3/1 149/3/1 148/3/1
f 180/3/1 147/3/1 146/3/1
f 181/3/1 149/3/1 180/3/1
f 182/3/1 149/3/1 181/3/1
f 183/3/1 149/3/1 182/3/1
f 185/2/1 160/2/1 159/2/1
f 186/5/1 162/5/1 161/5/1
f 187/5/1 162/5/1 186/5/1
f 188/2/1 165/2/1 164/2/1
f 188/2/1 164/2/1 163/2/1
f 188/2/1 166/2/1 165/2/1
f 189/2/1 166/2/1 188/2/1
f 190/1/1 168/1/1 167/1/1
f 191/5/1 169/5/1 168/5/1
f 191/1/1 168/1/1 190/1/1
f 192/1/1 170/1/1 169/1/1
f 192/5/1 169/5/1 191/5/1
f 193/1/1 170/1/1 192/1/1
f 194/2/1 173/2/1 172/2/1
f 194/2/1 172/2/1 171/2/1
f 194/2/1 174/2/1 173/2/1
f 195/2/1 174/2/1 194/2/1
f 196/4/1 176/4/1 175/4/1
f 197/4/1 176/4/1 196/4/1
f 198/2/1 179/2/1 178/2/1
f 198/2/1 178/2/1 177/2/1
f 198/2/1 180/2/1 179/2/1
f 199/2/1 180/2/1 198/2/1
f 200/3/1 182/3/1 181/3/1
f 201/3/1 182/3/1 200/3/1
f 202/2/1 184/2/1 183/2/1
f 203/2/1 185/2/1 159/2/1
f 203/2/1 186/2/1 185/2/1
f 204/2/1 186/2/1 203/2/1
f 205/2/1 190/2/1 189/2/1
f 205/2/1 189/2/1 188/2/1
f 205/2/1 188/2/1 187/2/1
f 206/2/1 190/2/1 205/2/1
f 207/2/1 196/2/1 195/2/1
f 207/2/1 195/2/1 194/2/1
f 207/2/1 194/2/1 193/2/1
f 208/2/1 196/2/1 207/2/1
f 209/2/1 199/2/1 198/2/1
f 209/2/1 200/2/1 199/2/1
f 209/2/1 198/2/1 197/2/1
f 210/2/1 200/2/1 209/2/1
f 211/2/1 202/2/1 201/2/1
f 212/2/1 184/2/1 202/2/1
f 212/2/1 202/2/1 211/2/1
f 217/2/1 214/2/1 213/2/1
f 218/2/1 214/2/1 217/2/1
f 219/2/1 216/2/1 215/2/1
f 220/2/1 216/2/1 219/2/1
f 225/2/1 222/2/1 221/2/1
f 226/2/1 222/2/1 225/2/1
f 227/2/1 224/2/1 223/2/1
f 228/2/1 224/2/1 227/2/1
f 229/2/2 230/2/2 233/2/2
f 233/2/2 230/2/2 234/2/2
f 231/2/2 232/2/2 235/2/2
f 235/2/2 232/2/2 236/2/2
f 237/2/2 238/2/2 239/2/2
f 239/2/2 238/2/2 240/2/2
f 237/2/2 239/2/2 241/2/2
f 241/2/2 239/2/2 242/2/2
f 240/2/2 238/2/2 243/2/2
f 243/2/2 238/2/2 244/2/2
f 248/2/3 246/2/3 245/2/3
f 249/2/3 246/2/3 248/2/3
f 251/2/3 248/2/3 247/2/3
f 251/2/3 250/2/3 249/2/3
f 251/2/3 249/2/3 248/2/3
f 253/2/3 251/2/3 247/2/3
f 253/2/3 252/2/3 251/2/3
f 254/2/3 252/2/3 253/2/3
f 255/2/3 253/2/3 247/2/3
f 257/2/3 255/2/3 247/2/3
f 257/2/3 256/2/3 255/2/3
f 258/2/3 256/2/3 257/2/3
f 261/2/3 260/2/3 259/2/3
f 264/2/3 263/2/3 262/2/3
f 265/2/3 263/2/3 264/2/3
f 266/2/3 260/2/3 261/2/3
f 267/2/3 260/2/3 266/2/3
f 270/2/3 269/2/3 268/2/3
f 271/2/3 269/2/3 270/2/3
f 276/2/3 275/2/3 274/2/3
f 277/2/3 275/2/3 276/2/3
f 278/2/3 273/2/3 272/2/3
f 279/2/3 273/2/3 278/2/3
f 282/2/3 281/2/3 280/2/3
f 283/2/3 281/2/3 282/2/3
f 284/2/3 281/2/3 283/2/3
f 287/2/3 286/2/3 285/2/3
f 288/2/3 286/2/3 287/2/3
f 291/2/3 290/2/3 289/2/3
f 294/2/3 293/2/3 292/2/3
f 295/2/3 293/2/3 294/2/3
f 296/2/3 290/2/3 291/2/3
f 297/2/3 290/2/3 296/2/3
f 300/2/3 299/2/3 298/2/3
f 301/2/3 299/2/3 300/2/3
f 306/2/3 305/2/3 304/2/3
f 307/2/3 305/2/3 306/2/3
f 308/2/3 303/2/3 302/2/3
f 309/2/3 303/2/3 308/2/3
f 312/2/3 311/2/3 310/2/3
f 313/2/3 311/2/3 312/2/3
f 314/2/3 311/2/3 313/2/3
f 315/2/3 311/2/3 314/2/3
f 316/2/3 311/2/3 315/2/3
f 319/2/3 318/2/3 317/2/3
f 320/2/3 318/2/3 319/2/3
f 323/2/3 322/2/3 321/2/3
f 326/2/3 325/2/3 324/2/3
f 327/2/3 325/2/3 326/2/3
f 328/2/3 322/2/3 323/2/3
f 329/2/3 322/2/3 328/2/3
f 332/2/3 331/2/3 330/2/3
f 333/2/3 331/2/3 332/2/3
f 338/2/3 337/2/3 336/2/3
f 339/2/3 337/2/3 338/2/3
f 340/2/3 335/2/3 334/2/3
f 341/2/3 335/2/3 340/2/3
f 344/2/3 343/2/3 342/2/3
f 345/2/3 343/2/3 344/2/3
f 346/2/3 343/2/3 345/2/3
f 349/2/3 348/2/3 347/2/3
f 350/2/3 348/2/3 349/2/3
f 353/2/3 352/2/3 351/2/3
f 356/2/3 355/2/3 354/2/3
f 357/2/3 355/2/3 356/2/3
f 358/2/3 352/2/3 353/2/3
f 359/2/3 352/2/3 358/2/3
f 362/2/3 361/2/3 360/2/3
f 363/2/3 361/2/3 362/2/3
f 368/2/3 367/2/3 366/2/3
f 369/2/3 367/2/3 368/2/3
f 370/2/3 365/2/3 364/2/3
f 371/2/3 365/2/3 370/2/3
f 374/2/3 373/2/3 372/2/3
f 375/2/3 373/2/3 374/2/3
f 376/2/3 373/2/3 375/2/3
f 379/2/3 378/2/3 377/2/3
f 380/2/3 378/2/3 379/2/3
f 383/2/3 382/2/3 381/2/3
f 384/2/3 382/2/3 383/2/3
f 385/2/4 386/2/4 387/2/4
f 387/2/4 386/2/4 388/2/4
f 388/2/4 386/2/4 389/2/4
f 390/2/4 391/2/4 392/2/4
f 392/2/4 391/2/4 393/2/4
f 394/2/4 395/2/4 396/2/4
f 396/2/4 395/2/4 397/2/4
f 400/2/4 401/2/4 402/2/4
f 402/2/4 401/2/4 403/2/4
f 398/2/4 399/2/4 404/2/4
f 404/2/4 399/2/4 405/2/4
f 406/2/4 407/2/4 408/2/4
f 408/2/4 407/2/4 409/2/4
f 410/2/4 411/2/4 412/2/4
f 413/2/4 414/2/4 415/2/4
f 415/2/4 414/2/4 416/2/4
f 412/2/4 411/2/4 417/2/4
f 417/2/4 411/2/4 418/2/4
f 419/2/4 420/2/4 421/2/4
f 421/2/4 420/2/4 422/2/4
f 423/2/4 424/2/4 425/2/4
f 425/2/4 424/2/4 426/2/4
f 426/2/4 424/2/4 427/2/4
f 427/2/4 424/2/4 428/2/4
f 428/2/4 424/2/4 429/2/4
f 432/2/4 433/2/4 434/2/4
f 434/2/4 433/2/4 435/2/4
f 430/2/4 431/2/4 436/2/4
f 436/2/4 431/2/4 437/2/4
f 438/2/4 439/2/4 440/2/4
f 440/2/4 439/2/4 441/2/4
f 442/2/4 443/2/4 444/2/4
f 445/2/4 446/2/4 447/2/4
f 447/2/4 446/2/4 448/2/4
f 444/2/4 443/2/4 449/2/4
f 449/2/4 443/2/4 450/2/4
f 451/2/4 452/2/4 453/2/4
f 453/2/4 452/2/4 454/2/4
f 455/2/4 456/2/4 457/2/4
f 457/2/4 456/2/4 458/2/4
f 458/2/4 456/2/4 459/2/4
f 462/2/4 463/2/4 464/2/4
f 464/2/4 463/2/4 465/2/4
f 460/2/4 461/2/4 466/2/4
f 466/2/4 461/2/4 467/2/4
f 468/2/4 469/2/4 470/2/4
f 470/2/4 469/2/4 471/2/4
f 472/2/4 473/2/4 474/2/4
f 475/2/4 476/2/4 477/2/4
f 477/2/4 476/2/4 478/2/4
f 474/2/4 473/2/4 479/2/4
f 479/2/4 473/2/4 480/2/4
f 481/2/4 482/2/4 483/2/4
f 483/2/4 482/2/4 484/2/4
f 485/2/4 486/2/4 487/2/4
f 487/2/4 486/2/4 488/2/4
f 488/2/4 486/2/4 489/2/4
f 492/2/4 493/2/4 494/2/4
f 494/2/4 493/2/4 495/2/4
f 490/2/4 491/2/4 496/2/4
f 496/2/4 491/2/4 497/2/4
f 498/2/4 499/2/4 500/2/4
f 500/2/4 499/2/4 501/2/4
f 502/2/4 503/2/4 504/2/4
f 505/2/4 506/2/4 507/2/4
f 507/2/4 506/2/4 508/2/4
f 504/2/4 503/2/4 509/2/4
f 509/2/4 503/2/4 510/2/4
f 511/2/4 512/2/4 514/2/4
f 514/2/4 512/2/4 515/2/4
f 513/2/4 514/2/4 517/2/4
f 515/2/4 516/2/4 517/2/4
f 514/2/4 515/2/4 517/2/4
f 513/2/4 517/2/4 519/2/4
f 517/2/4 518/2/4 519/2/4
f 519/2/4 518/2/4 520/2/4
f 513/2/4 519/2/4 521/2/4
f 513/2/4 521/2/4 523/2/4
f 521/2/4 522/2/4 523/2/4
f 523/2/4 522/2/4 524/2/4
f 527/2/5 526/2/5 525/2/5
f 528/2/5 526/2/5 527/2/5
f 531/2/5 530/2/5 529/2/5
f 532/2/5 530/2/5 531/2/5
f 535/2/5 534/2/5 533/2/5
f 536/2/5 534/2/5 535/2/5
f 539/2/5 538/2/5 537/2/5
f 540/2/5 538/2/5 539/2/5
f 543/2/5 542/2/5 541/2/5
f 544/2/5 542/2/5 543/2/5
f 547/2/5 546/2/5 545/2/5
f 548/2/5 546/2/5 547/2/5
f 551/2/5 550/2/5 549/2/5
f 552/2/5 550/2/5 551/2/5
f 555/2/5 554/2/5 553/2/5
f 556/2/5 554/2/5 555/2/5
f 559/2/5 558/2/5 557/2/5
f 560/2/5 558/2/5 559/2/5
f 563/2/5 562/2/5 561/2/5
f 564/2/5 562/2/5 563/2/5
f 565/2/5 562/2/5 564/2/5
f 569/2/5 567/2/5 566/2/5
f 569/2/5 568/2/5 567/2/5
f 570/2/5 568/2/5 569/2/5
f 573/2/5 572/2/5 571/2/5
f 574/2/5 572/2/5 573/2/5
f 575/2/5 572/2/5 574/2/5
f 579/2/5 577/2/5 576/2/5
f 579/2/5 578/2/5 577/2/5
f 580/2/5 578/2/5 579/2/5
f 583/2/5 582/2/5 581/2/5
f 584/2/5 582/2/5 583/2/5
f 585/2/5 582/2/5 584/2/5
f 589/2/5 587/2/5 586/2/5
f 589/2/5 588/2/5 587/2/5
f 590/2/5 588/2/5 589/2/5
f 593/2/5 592/2/5 591/2/5
f 594/2/5 592/2/5 593/2/5
f 595/2/5 592/2/5 594/2/5
f 599/2/5 597/2/5 596/2/5
f 599/2/5 598/2/5 597/2/5
f 600/2/5 598/2/5 599/2/5
f 604/2/5 602/2/5 601/2/5
f 604/2/5 603/2/5 602/2/5
f 605/2/5 603/2/5 604/2/5
f 608/2/5 607/2/5 606/2/5
f 609/2/5 607/2/5 608/2/5
f 610/2/5 607/2/5 609/2/5
f 614/2/5 612/2/5 611/2/5
f 614/2/5 613/2/5 612/2/5
f 615/2/5 613/2/5 614/2/5
f 618/2/5 617/2/5 616/2/5
f 619/2/5 617/2/5 618/2/5
f 620/2/5 617/2/5 619/2/5
f 624/2/5 622/2/5 621/2/5
f 624/2/5 623/2/5 622/2/5
f 625/2/5 623/2/5 624/2/5
f 628/2/5 627/2/5 626/2/5
f 629/2/5 627/2/5 628/2/5
f 630/2/5 627/2/5 629/2/5
f 634/2/5 632/2/5 631/2/5
f 634/2/5 633/2/5 632/2/5
f 635/2/5 633/2/5 634/2/5
f 638/2/5 637/2/5 636/2/5
f 639/2/5 637/2/5 638/2/5
f 640/2/5 637/2/5 639/2/5
f 643/2/5 642/2/5 641/2/5
f 644/2/5 642/2/5 643/2/5
f 647/2/5 646/2/5 645/2/5
f 648/2/5 647/2/5 645/2/5
f 649/2/5 648/2/5 645/2/5
f 650/2/5 648/2/5 649/2/5
f 653/2/5 652/2/5 651/2/5
f 654/2/5 652/2/5 653/2/5
f 657/2/5 656/2/5 655/2/5
f 658/2/5 656/2/5 657/2/5
f 659/2/6 660/2/6 661/2/6
f 661/2/6 660/2/6 662/2/6
f 663/2/6 664/2/6 665/2/6
f 665/2/6 664/2/6 666/2/6
f 667/2/6 668/2/6 669/2/6
f 669/2/6 668/2/6 670/2/6
f 671/2/6 672/2/6 673/2/6
f 673/2/6 672/2/6 674/2/6
f 675/2/6 676/2/6 677/2/6
f 677/2/6 676/2/6 678/2/6
f 679/2/6 680/2/6 681/2/6
f 681/2/6 680/2/6 682/2/6
f 683/2/6 684/2/6 685/2/6
f 685/2/6 684/2/6 686/2/6
f 687/2/6 688/2/6 689/2/6
f 689/2/6 688/2/6 690/2/6
f 691/2/6 692/2/6 693/2/6
f 693/2/6 692/2/6 694/2/6
f 695/2/6 696/2/6 697/2/6
f 697/2/6 696/2/6 698/2/6
f 699/2/6 700/2/6 701/2/6
f 701/2/6 700/2/6 702/2/6
f 703/2/6 704/2/6 705/2/6
f 705/2/6 704/2/6 706/2/6
f 707/2/6 708/2/6 709/2/6
f 709/2/6 708/2/6 710/2/6
f 711/2/6 712/2/6 713/2/6
f 713/2/6 712/2/6 714/2/6
f 715/2/6 716/2/6 717/2/6
f 717/2/6 716/2/6 718/2/6
f 719/2/6 720/2/6 721/2/6
f 721/2/6 720/2/6 722/2/6
f 723/2/6 724/2/6 725/2/6
f 725/2/6 724/2/6 726/2/6
f 727/2/6 728/2/6 729/2/6
f 729/2/6 728/2/6 730/2/6
f 731/2/6 732/2/6 733/2/6
f 733/2/6 732/2/6 734/2/6
f 735/2/6 736/2/6 737/2/6
f 737/2/6 736/2/6 738/2/6
f 739/2/6 740/2/6 741/2/6
f 741/2/6 740/2/6 742/2/6
f 743/2/6 744/2/6 745/2/6
f 745/2/6 744/2/6 746/2/6
f 747/2/6 748/2/6 749/2/6
f 749/2/6 748/2/6 750/2/6
f 751/2/6 752/2/6 753/2/6
f 753/2/6 752/2/6 754/2/6
f 755/2/6 756/2/6 759/2/6
f 757/2/6 758/2/6 760/2/6
f 760/2/6 758/2/6 761/2/6
f 755/2/6 759/2/6 764/2/6
f 761/2/6 762/2/6 764/2/6
f 760/2/6 761/2/6 764/2/6
f 759/2/6 760/2/6 764/2/6
f 763/2/6 764/2/6 765/2/6
f 764/2/6 762/2/6 766/2/6
f 765/2/6 764/2/6 766/2/6
f 766/2/6 762/2/6 768/2/6
f 767/2/6 768/2/6 769/2/6
f 768/2/6 762/2/6 770/2/6
f 769/2/6 768/2/6 770/2/6
f 770/2/6 762/2/6 772/2/6
f 771/2/6 772/2/6 773/2/6
f 772/2/6 762/2/6 774/2/6
f 773/2/6 772/2/6 774/2/6
f 774/2/6 762/2/6 776/2/6
f 775/2/6 776/2/6 777/2/6
f 776/2/6 762/2/6 778/2/6
f 777/2/6 776/2/6 778/2/6
f 778/2/6 762/2/6 779/2/6
f 779/2/6 762/2/6 780/2/6
f 780/2/6 762/2/6 781/2/6
f 781/2/6 762/2/6 782/2/6
f 778/2/6 779/2/6 783/2/6
f 783/2/6 779/2/6 784/2/6
f 780/2/6 781/2/6 785/2/6
f 785/2/6 781/2/6 786/2/6
f 787/2/6 788/2/6 791/2/6
f 791/2/6 788/2/6 792/2/6
f 789/2/6 790/2/6 793/2/6
f 793/2/6 790/2/6 794/2/6
f 795/2/6 796/2/6 799/2/6
f 799/2/6 796/2/6 800/2/6
f 797/2/6 798/2/6 801/2/6
f 801/2/6 798/2/6 802/2/6
