# MagicaVoxel @ ephtracy

# material
mtllib yukari_chainsaw_part3.mtl
usemtl palette

# normals
vn -1 0 0
vn 1 0 0
vn 0 0 1
vn 0 0 -1
vn 0 -1 0
vn 0 1 0

# texcoords
vt 0.970703 0.5
vt 0.974609 0.5

# verts
v -30 -15 4.5
v -30 -15 0.5
v -30 -15 -0.5
v -30 -15 -4.5
v -30 -13 4.5
v -30 -13 0.5
v -30 -13 -0.5
v -30 -13 -4.5
v -30 13 4.5
v -30 13 0.5
v -30 13 -0.5
v -30 13 -4.5
v -30 15 4.5
v -30 15 0.5
v -30 15 -0.5
v -30 15 -4.5
v 21 -13 2.5
v 21 -13 0.5
v 21 -13 -0.5
v 21 -13 -2.5
v 21 13 2.5
v 21 13 0.5
v 21 13 -0.5
v 21 13 -2.5
v 22 -13 3.5
v 22 -13 2.5
v 22 -13 -2.5
v 22 -13 -3.5
v 22 13 3.5
v 22 13 2.5
v 22 13 -2.5
v 22 13 -3.5
v 27 -13 3.5
v 27 -13 2.5
v 27 -13 -2.5
v 27 -13 -3.5
v 27 13 3.5
v 27 13 2.5
v 27 13 -2.5
v 27 13 -3.5
v 28 -15 4.5
v 28 -15 3.5
v 28 -15 -3.5
v 28 -15 -4.5
v 28 -13 4.5
v 28 -13 3.5
v 28 -13 2.5
v 28 -13 1.5
v 28 -13 -1.5
v 28 -13 -2.5
v 28 -13 -3.5
v 28 -13 -4.5
v 28 13 4.5
v 28 13 3.5
v 28 13 2.5
v 28 13 1.5
v 28 13 -1.5
v 28 13 -2.5
v 28 13 -3.5
v 28 13 -4.5
v 28 15 4.5
v 28 15 3.5
v 28 15 -3.5
v 28 15 -4.5
v 29 -15 3.5
v 29 -15 2.5
v 29 -15 -2.5
v 29 -15 -3.5
v 29 -13 3.5
v 29 -13 2.5
v 29 -13 1.5
v 29 -13 -1.5
v 29 -13 -2.5
v 29 -13 -3.5
v 29 13 3.5
v 29 13 2.5
v 29 13 1.5
v 29 13 -1.5
v 29 13 -2.5
v 29 13 -3.5
v 29 15 3.5
v 29 15 2.5
v 29 15 -2.5
v 29 15 -3.5
v 30 -15 2.5
v 30 -15 -2.5
v 30 -13 2.5
v 30 -13 -2.5
v 30 13 2.5
v 30 13 -2.5
v 30 15 2.5
v 30 15 -2.5
v -30 -15 4.5
v -30 -13 4.5
v -30 13 4.5
v -30 15 4.5
v 28 -15 4.5
v 28 -13 4.5
v 28 13 4.5
v 28 15 4.5
v 22 -13 3.5
v 22 13 3.5
v 27 -13 3.5
v 27 13 3.5
v 28 -15 3.5
v 28 -13 3.5
v 28 13 3.5
v 28 15 3.5
v 29 -15 3.5
v 29 -13 3.5
v 29 13 3.5
v 29 15 3.5
v 21 -13 2.5
v 21 13 2.5
v 22 -13 2.5
v 22 13 2.5
v 27 -13 2.5
v 27 13 2.5
v 28 -13 2.5
v 28 13 2.5
v 29 -15 2.5
v 29 -13 2.5
v 29 13 2.5
v 29 15 2.5
v 30 -15 2.5
v 30 -13 2.5
v 30 13 2.5
v 30 15 2.5
v 28 -13 1.5
v 28 13 1.5
v 29 -13 1.5
v 29 13 1.5
v 28 -13 -1.5
v 28 13 -1.5
v 29 -13 -1.5
v 29 13 -1.5
v 21 -13 -2.5
v 21 13 -2.5
v 22 -13 -2.5
v 22 13 -2.5
v 27 -13 -2.5
v 27 13 -2.5
v 28 -13 -2.5
v 28 13 -2.5
v 29 -15 -2.5
v 29 -13 -2.5
v 29 13 -2.5
v 29 15 -2.5
v 30 -15 -2.5
v 30 -13 -2.5
v 30 13 -2.5
v 30 15 -2.5
v 22 -13 -3.5
v 22 13 -3.5
v 27 -13 -3.5
v 27 13 -3.5
v 28 -15 -3.5
v 28 -13 -3.5
v 28 13 -3.5
v 28 15 -3.5
v 29 -15 -3.5
v 29 -13 -3.5
v 29 13 -3.5
v 29 15 -3.5
v -30 -15 -4.5
v -30 -13 -4.5
v -30 13 -4.5
v -30 15 -4.5
v 28 -15 -4.5
v 28 -13 -4.5
v 28 13 -4.5
v 28 15 -4.5
v -30 -15 4.5
v 28 -15 4.5
v 22 -15 3.5
v 27 -15 3.5
v 28 -15 3.5
v 29 -15 3.5
v 21 -15 2.5
v 22 -15 2.5
v 27 -15 2.5
v 28 -15 2.5
v 29 -15 2.5
v 30 -15 2.5
v 28 -15 1.5
v 29 -15 1.5
v -30 -15 0.5
v 21 -15 0.5
v -30 -15 -0.5
v 21 -15 -0.5
v 28 -15 -1.5
v 29 -15 -1.5
v 21 -15 -2.5
v 22 -15 -2.5
v 27 -15 -2.5
v 28 -15 -2.5
v 29 -15 -2.5
v 30 -15 -2.5
v 22 -15 -3.5
v 27 -15 -3.5
v 28 -15 -3.5
v 29 -15 -3.5
v -30 -15 -4.5
v 28 -15 -4.5
v -30 13 4.5
v 28 13 4.5
v 22 13 3.5
v 27 13 3.5
v 28 13 3.5
v 29 13 3.5
v 21 13 2.5
v 22 13 2.5
v 27 13 2.5
v 28 13 2.5
v 29 13 2.5
v 30 13 2.5
v 28 13 1.5
v 29 13 1.5
v -30 13 0.5
v 21 13 0.5
v -30 13 -0.5
v 21 13 -0.5
v 28 13 -1.5
v 29 13 -1.5
v 21 13 -2.5
v 22 13 -2.5
v 27 13 -2.5
v 28 13 -2.5
v 29 13 -2.5
v 30 13 -2.5
v 22 13 -3.5
v 27 13 -3.5
v 28 13 -3.5
v 29 13 -3.5
v -30 13 -4.5
v 28 13 -4.5
v -30 -13 4.5
v 28 -13 4.5
v 22 -13 3.5
v 27 -13 3.5
v 28 -13 3.5
v 29 -13 3.5
v 21 -13 2.5
v 22 -13 2.5
v 27 -13 2.5
v 28 -13 2.5
v 29 -13 2.5
v 30 -13 2.5
v 28 -13 1.5
v 29 -13 1.5
v -30 -13 0.5
v 21 -13 0.5
v -30 -13 -0.5
v 21 -13 -0.5
v 28 -13 -1.5
v 29 -13 -1.5
v 21 -13 -2.5
v 22 -13 -2.5
v 27 -13 -2.5
v 28 -13 -2.5
v 29 -13 -2.5
v 30 -13 -2.5
v 22 -13 -3.5
v 27 -13 -3.5
v 28 -13 -3.5
v 29 -13 -3.5
v -30 -13 -4.5
v 28 -13 -4.5
v -30 15 4.5
v 28 15 4.5
v 22 15 3.5
v 27 15 3.5
v 28 15 3.5
v 29 15 3.5
v 21 15 2.5
v 22 15 2.5
v 27 15 2.5
v 28 15 2.5
v 29 15 2.5
v 30 15 2.5
v 28 15 1.5
v 29 15 1.5
v -30 15 0.5
v 21 15 0.5
v -30 15 -0.5
v 21 15 -0.5
v 28 15 -1.5
v 29 15 -1.5
v 21 15 -2.5
v 22 15 -2.5
v 27 15 -2.5
v 28 15 -2.5
v 29 15 -2.5
v 30 15 -2.5
v 22 15 -3.5
v 27 15 -3.5
v 28 15 -3.5
v 29 15 -3.5
v -30 15 -4.5
v 28 15 -4.5

# faces
f 5/1/1 2/1/1 1/1/1
f 6/2/1 3/2/1 2/2/1
f 6/1/1 2/1/1 5/1/1
f 7/1/1 4/1/1 3/1/1
f 7/2/1 3/2/1 6/2/1
f 8/1/1 4/1/1 7/1/1
f 13/1/1 10/1/1 9/1/1
f 14/2/1 11/2/1 10/2/1
f 14/1/1 10/1/1 13/1/1
f 15/1/1 12/1/1 11/1/1
f 15/2/1 11/2/1 14/2/1
f 16/1/1 12/1/1 15/1/1
f 21/2/1 18/2/1 17/2/1
f 21/2/1 20/2/1 19/2/1
f 21/2/1 19/2/1 18/2/1
f 22/2/1 20/2/1 21/2/1
f 23/2/1 20/2/1 22/2/1
f 24/2/1 20/2/1 23/2/1
f 29/2/1 26/2/1 25/2/1
f 30/2/1 26/2/1 29/2/1
f 31/2/1 28/2/1 27/2/1
f 32/2/1 28/2/1 31/2/1
f 33/2/2 34/2/2 37/2/2
f 37/2/2 34/2/2 38/2/2
f 35/2/2 36/2/2 39/2/2
f 39/2/2 36/2/2 40/2/2
f 41/1/2 42/1/2 45/1/2
f 45/1/2 42/1/2 46/1/2
f 43/1/2 44/1/2 51/1/2
f 51/1/2 44/1/2 52/1/2
f 47/2/2 48/2/2 55/2/2
f 55/2/2 48/2/2 56/2/2
f 49/2/2 50/2/2 57/2/2
f 57/2/2 50/2/2 58/2/2
f 53/1/2 54/1/2 61/1/2
f 61/1/2 54/1/2 62/1/2
f 59/1/2 60/1/2 63/1/2
f 63/1/2 60/1/2 64/1/2
f 65/1/2 66/1/2 69/1/2
f 69/1/2 66/1/2 70/1/2
f 67/1/2 68/1/2 73/1/2
f 73/1/2 68/1/2 74/1/2
f 71/2/2 72/2/2 77/2/2
f 77/2/2 72/2/2 78/2/2
f 75/1/2 76/1/2 81/1/2
f 81/1/2 76/1/2 82/1/2
f 79/1/2 80/1/2 83/1/2
f 83/1/2 80/1/2 84/1/2
f 85/1/2 86/1/2 87/1/2
f 87/1/2 86/1/2 88/1/2
f 89/1/2 90/1/2 91/1/2
f 91/1/2 90/1/2 92/1/2
f 97/1/3 94/1/3 93/1/3
f 98/1/3 94/1/3 97/1/3
f 99/1/3 96/1/3 95/1/3
f 100/1/3 96/1/3 99/1/3
f 103/2/3 102/2/3 101/2/3
f 104/2/3 102/2/3 103/2/3
f 109/1/3 106/1/3 105/1/3
f 110/1/3 106/1/3 109/1/3
f 111/1/3 108/1/3 107/1/3
f 112/1/3 108/1/3 111/1/3
f 115/2/3 114/2/3 113/2/3
f 116/2/3 114/2/3 115/2/3
f 119/2/3 118/2/3 117/2/3
f 120/2/3 118/2/3 119/2/3
f 125/1/3 122/1/3 121/1/3
f 126/1/3 122/1/3 125/1/3
f 127/1/3 124/1/3 123/1/3
f 128/1/3 124/1/3 127/1/3
f 131/2/3 130/2/3 129/2/3
f 132/2/3 130/2/3 131/2/3
f 133/2/4 134/2/4 135/2/4
f 135/2/4 134/2/4 136/2/4
f 137/2/4 138/2/4 139/2/4
f 139/2/4 138/2/4 140/2/4
f 141/2/4 142/2/4 143/2/4
f 143/2/4 142/2/4 144/2/4
f 145/1/4 146/1/4 149/1/4
f 149/1/4 146/1/4 150/1/4
f 147/1/4 148/1/4 151/1/4
f 151/1/4 148/1/4 152/1/4
f 153/2/4 154/2/4 155/2/4
f 155/2/4 154/2/4 156/2/4
f 157/1/4 158/1/4 161/1/4
f 161/1/4 158/1/4 162/1/4
f 159/1/4 160/1/4 163/1/4
f 163/1/4 160/1/4 164/1/4
f 165/1/4 166/1/4 169/1/4
f 169/1/4 166/1/4 170/1/4
f 167/1/4 168/1/4 171/1/4
f 171/1/4 168/1/4 172/1/4
f 175/1/5 174/1/5 173/1/5
f 176/1/5 174/1/5 175/1/5
f 177/1/5 174/1/5 176/1/5
f 179/1/5 175/1/5 173/1/5
f 180/2/5 176/2/5 175/2/5
f 180/1/5 175/1/5 179/1/5
f 181/1/5 178/1/5 177/1/5
f 181/2/5 176/2/5 180/2/5
f 181/1/5 177/1/5 176/1/5
f 182/1/5 178/1/5 181/1/5
f 183/1/5 178/1/5 182/1/5
f 185/2/5 180/2/5 179/2/5
f 185/1/5 184/1/5 183/1/5
f 185/1/5 183/1/5 182/1/5
f 185/2/5 182/2/5 181/2/5
f 185/2/5 181/2/5 180/2/5
f 186/1/5 184/1/5 185/1/5
f 187/1/5 179/1/5 173/1/5
f 188/2/5 185/2/5 179/2/5
f 188/1/5 179/1/5 187/1/5
f 188/2/5 186/2/5 185/2/5
f 189/2/5 188/2/5 187/2/5
f 190/2/5 186/2/5 188/2/5
f 190/2/5 188/2/5 189/2/5
f 191/2/5 186/2/5 190/2/5
f 192/1/5 184/1/5 186/1/5
f 192/2/5 186/2/5 191/2/5
f 193/2/5 191/2/5 190/2/5
f 193/1/5 190/1/5 189/1/5
f 194/2/5 191/2/5 193/2/5
f 195/2/5 191/2/5 194/2/5
f 196/1/5 192/1/5 191/1/5
f 196/2/5 191/2/5 195/2/5
f 197/1/5 184/1/5 192/1/5
f 197/1/5 192/1/5 196/1/5
f 198/1/5 184/1/5 197/1/5
f 199/2/5 195/2/5 194/2/5
f 199/1/5 194/1/5 193/1/5
f 200/1/5 196/1/5 195/1/5
f 200/2/5 195/2/5 199/2/5
f 200/1/5 197/1/5 196/1/5
f 201/1/5 197/1/5 200/1/5
f 202/1/5 197/1/5 201/1/5
f 203/1/5 199/1/5 193/1/5
f 203/1/5 193/1/5 189/1/5
f 203/1/5 201/1/5 200/1/5
f 203/1/5 200/1/5 199/1/5
f 204/1/5 201/1/5 203/1/5
f 207/1/5 206/1/5 205/1/5
f 208/1/5 206/1/5 207/1/5
f 209/1/5 206/1/5 208/1/5
f 211/1/5 207/1/5 205/1/5
f 212/1/5 207/1/5 211/1/5
f 213/2/5 209/2/5 208/2/5
f 214/1/5 210/1/5 209/1/5
f 214/2/5 209/2/5 213/2/5
f 215/1/5 210/1/5 214/1/5
f 217/2/5 215/2/5 214/2/5
f 218/1/5 216/1/5 215/1/5
f 218/2/5 215/2/5 217/2/5
f 219/1/5 211/1/5 205/1/5
f 220/1/5 211/1/5 219/1/5
f 221/2/5 220/2/5 219/2/5
f 222/2/5 220/2/5 221/2/5
f 224/1/5 216/1/5 218/1/5
f 225/1/5 222/1/5 221/1/5
f 228/1/5 224/1/5 223/1/5
f 229/1/5 216/1/5 224/1/5
f 229/1/5 224/1/5 228/1/5
f 230/1/5 216/1/5 229/1/5
f 231/1/5 226/1/5 225/1/5
f 232/1/5 228/1/5 227/1/5
f 232/1/5 229/1/5 228/1/5
f 233/1/5 229/1/5 232/1/5
f 234/1/5 229/1/5 233/1/5
f 235/1/5 231/1/5 225/1/5
f 235/1/5 225/1/5 221/1/5
f 235/1/5 233/1/5 232/1/5
f 235/1/5 232/1/5 231/1/5
f 236/1/5 233/1/5 235/1/5
f 237/1/6 238/1/6 239/1/6
f 239/1/6 238/1/6 240/1/6
f 240/1/6 238/1/6 241/1/6
f 237/1/6 239/1/6 243/1/6
f 243/1/6 239/1/6 244/1/6
f 241/1/6 242/1/6 245/1/6
f 240/1/6 241/1/6 245/1/6
f 245/1/6 242/1/6 246/1/6
f 246/1/6 242/1/6 247/1/6
f 247/1/6 248/1/6 249/1/6
f 246/1/6 247/1/6 249/1/6
f 249/1/6 248/1/6 250/1/6
f 237/1/6 243/1/6 251/1/6
f 251/1/6 243/1/6 252/1/6
f 251/2/6 252/2/6 253/2/6
f 253/2/6 252/2/6 254/2/6
f 250/1/6 248/1/6 256/1/6
f 253/1/6 254/1/6 257/1/6
f 255/1/6 256/1/6 260/1/6
f 256/1/6 248/1/6 261/1/6
f 260/1/6 256/1/6 261/1/6
f 261/1/6 248/1/6 262/1/6
f 257/1/6 258/1/6 263/1/6
f 259/1/6 260/1/6 264/1/6
f 260/1/6 261/1/6 264/1/6
f 264/1/6 261/1/6 265/1/6
f 265/1/6 261/1/6 266/1/6
f 257/1/6 263/1/6 267/1/6
f 253/1/6 257/1/6 267/1/6
f 264/1/6 265/1/6 267/1/6
f 263/1/6 264/1/6 267/1/6
f 267/1/6 265/1/6 268/1/6
f 269/1/6 270/1/6 271/1/6
f 271/1/6 270/1/6 272/1/6
f 272/1/6 270/1/6 273/1/6
f 269/1/6 271/1/6 275/1/6
f 271/2/6 272/2/6 276/2/6
f 275/1/6 271/1/6 276/1/6
f 273/1/6 274/1/6 277/1/6
f 276/2/6 272/2/6 277/2/6
f 272/1/6 273/1/6 277/1/6
f 277/1/6 274/1/6 278/1/6
f 278/1/6 274/1/6 279/1/6
f 275/2/6 276/2/6 281/2/6
f 279/1/6 280/1/6 281/1/6
f 278/1/6 279/1/6 281/1/6
f 277/2/6 278/2/6 281/2/6
f 276/2/6 277/2/6 281/2/6
f 281/1/6 280/1/6 282/1/6
f 269/1/6 275/1/6 283/1/6
f 275/2/6 281/2/6 284/2/6
f 283/1/6 275/1/6 284/1/6
f 281/2/6 282/2/6 284/2/6
f 283/2/6 284/2/6 285/2/6
f 284/2/6 282/2/6 286/2/6
f 285/2/6 284/2/6 286/2/6
f 286/2/6 282/2/6 287/2/6
f 282/1/6 280/1/6 288/1/6
f 287/2/6 282/2/6 288/2/6
f 286/2/6 287/2/6 289/2/6
f 285/1/6 286/1/6 289/1/6
f 289/2/6 287/2/6 290/2/6
f 290/2/6 287/2/6 291/2/6
f 287/1/6 288/1/6 292/1/6
f 291/2/6 287/2/6 292/2/6
f 288/1/6 280/1/6 293/1/6
f 292/1/6 288/1/6 293/1/6
f 293/1/6 280/1/6 294/1/6
f 290/2/6 291/2/6 295/2/6
f 289/1/6 290/1/6 295/1/6
f 291/1/6 292/1/6 296/1/6
f 295/2/6 291/2/6 296/2/6
f 292/1/6 293/1/6 296/1/6
f 296/1/6 293/1/6 297/1/6
f 297/1/6 293/1/6 298/1/6
f 289/1/6 295/1/6 299/1/6
f 285/1/6 289/1/6 299/1/6
f 296/1/6 297/1/6 299/1/6
f 295/1/6 296/1/6 299/1/6
f 299/1/6 297/1/6 300/1/6
