# MagicaVoxel @ ephtracy

# material
mtllib Concrete Barrier.mtl
usemtl palette

# normals
vn -1 0 0
vn 1 0 0
vn 0 0 1
vn 0 0 -1
vn 0 -1 0
vn 0 1 0

# texcoords
vt 0.970703 0.5
vt 0.974609 0.5

# verts
v -45 -22 13.5
v -45 -22 2.5
v -45 -22 -2.5
v -45 -22 -13.5
v -45 -21 2.5
v -45 -21 1.5
v -45 -21 -1.5
v -45 -21 -2.5
v -45 -20 13.5
v -45 -20 12.5
v -45 -20 1.5
v -45 -20 0.5
v -45 -20 -0.5
v -45 -20 -1.5
v -45 -20 -12.5
v -45 -20 -13.5
v -45 -18 12.5
v -45 -18 11.5
v -45 -18 -11.5
v -45 -18 -12.5
v -45 -16 11.5
v -45 -16 10.5
v -45 -16 -10.5
v -45 -16 -11.5
v -45 -14 10.5
v -45 -14 9.5
v -45 -14 1.5
v -45 -14 0.5
v -45 -14 -0.5
v -45 -14 -1.5
v -45 -14 -9.5
v -45 -14 -10.5
v -45 -13 2.5
v -45 -13 1.5
v -45 -13 0.5
v -45 -13 -0.5
v -45 -13 -1.5
v -45 -13 -2.5
v -45 -12 9.5
v -45 -12 8.5
v -45 -12 2.5
v -45 -12 1.5
v -45 -12 -1.5
v -45 -12 -2.5
v -45 -12 -8.5
v -45 -12 -9.5
v -45 -11 2.5
v -45 -11 0.5
v -45 -11 -0.5
v -45 -11 -2.5
v -45 -10 8.5
v -45 -10 7.5
v -45 -10 -7.5
v -45 -10 -8.5
v -45 -9 2.5
v -45 -9 0.5
v -45 -9 -0.5
v -45 -9 -2.5
v -45 -8 7.5
v -45 -8 6.5
v -45 -8 -6.5
v -45 -8 -7.5
v -45 -6 6.5
v -45 -6 5.5
v -45 -6 -5.5
v -45 -6 -6.5
v -45 11 1.5
v -45 11 0.5
v -45 11 -0.5
v -45 11 -1.5
v -45 12 2.5
v -45 12 1.5
v -45 12 0.5
v -45 12 -0.5
v -45 12 -1.5
v -45 12 -2.5
v -45 13 2.5
v -45 13 1.5
v -45 13 -1.5
v -45 13 -2.5
v -45 14 2.5
v -45 14 0.5
v -45 14 -0.5
v -45 14 -2.5
v -45 16 2.5
v -45 16 0.5
v -45 16 -0.5
v -45 16 -2.5
v -45 22 5.5
v -45 22 0.5
v -45 22 -0.5
v -45 22 -5.5
v -14 9 5.5
v -14 9 -5.5
v -14 12 5.5
v -14 12 -5.5
v -11 -20 12.5
v -11 -20 -12.5
v -11 -18 12.5
v -11 -18 11.5
v -11 -18 -11.5
v -11 -18 -12.5
v -10 -22 13.5
v -10 -22 2.5
v -10 -22 -2.5
v -10 -22 -13.5
v -10 -21 2.5
v -10 -21 1.5
v -10 -21 -1.5
v -10 -21 -2.5
v -10 -20 13.5
v -10 -20 12.5
v -10 -20 1.5
v -10 -20 -1.5
v -10 -20 -12.5
v -10 -20 -13.5
v 16 9 5.5
v 16 9 -5.5
v 16 12 5.5
v 16 12 -5.5
v 19 -20 12.5
v 19 -20 -12.5
v 19 -18 12.5
v 19 -18 11.5
v 19 -18 -11.5
v 19 -18 -12.5
v 20 -22 13.5
v 20 -22 2.5
v 20 -22 -2.5
v 20 -22 -13.5
v 20 -21 2.5
v 20 -21 1.5
v 20 -21 -1.5
v 20 -21 -2.5
v 20 -20 13.5
v 20 -20 12.5
v 20 -20 1.5
v 20 -20 -1.5
v 20 -20 -12.5
v 20 -20 -13.5
v -21 -22 13.5
v -21 -22 2.5
v -21 -22 -2.5
v -21 -22 -13.5
v -21 -21 2.5
v -21 -21 1.5
v -21 -21 -1.5
v -21 -21 -2.5
v -21 -20 13.5
v -21 -20 12.5
v -21 -20 1.5
v -21 -20 -1.5
v -21 -20 -12.5
v -21 -20 -13.5
v -20 -20 12.5
v -20 -20 -12.5
v -20 -18 12.5
v -20 -18 11.5
v -20 -18 -11.5
v -20 -18 -12.5
v -17 9 5.5
v -17 9 -5.5
v -17 12 5.5
v -17 12 -5.5
v 9 -22 13.5
v 9 -22 2.5
v 9 -22 -2.5
v 9 -22 -13.5
v 9 -21 2.5
v 9 -21 1.5
v 9 -21 -1.5
v 9 -21 -2.5
v 9 -20 13.5
v 9 -20 12.5
v 9 -20 1.5
v 9 -20 -1.5
v 9 -20 -12.5
v 9 -20 -13.5
v 10 -20 12.5
v 10 -20 -12.5
v 10 -18 12.5
v 10 -18 11.5
v 10 -18 -11.5
v 10 -18 -12.5
v 13 9 5.5
v 13 9 -5.5
v 13 12 5.5
v 13 12 -5.5
v 45 -22 13.5
v 45 -22 2.5
v 45 -22 -2.5
v 45 -22 -13.5
v 45 -21 2.5
v 45 -21 1.5
v 45 -21 -1.5
v 45 -21 -2.5
v 45 -20 13.5
v 45 -20 12.5
v 45 -20 1.5
v 45 -20 0.5
v 45 -20 -0.5
v 45 -20 -1.5
v 45 -20 -12.5
v 45 -20 -13.5
v 45 -18 12.5
v 45 -18 11.5
v 45 -18 -11.5
v 45 -18 -12.5
v 45 -16 11.5
v 45 -16 10.5
v 45 -16 -10.5
v 45 -16 -11.5
v 45 -14 10.5
v 45 -14 9.5
v 45 -14 1.5
v 45 -14 0.5
v 45 -14 -0.5
v 45 -14 -1.5
v 45 -14 -9.5
v 45 -14 -10.5
v 45 -13 2.5
v 45 -13 1.5
v 45 -13 0.5
v 45 -13 -0.5
v 45 -13 -1.5
v 45 -13 -2.5
v 45 -12 9.5
v 45 -12 8.5
v 45 -12 2.5
v 45 -12 1.5
v 45 -12 -1.5
v 45 -12 -2.5
v 45 -12 -8.5
v 45 -12 -9.5
v 45 -11 2.5
v 45 -11 0.5
v 45 -11 -0.5
v 45 -11 -2.5
v 45 -10 8.5
v 45 -10 7.5
v 45 -10 -7.5
v 45 -10 -8.5
v 45 -9 2.5
v 45 -9 0.5
v 45 -9 -0.5
v 45 -9 -2.5
v 45 -8 7.5
v 45 -8 6.5
v 45 -8 -6.5
v 45 -8 -7.5
v 45 -6 6.5
v 45 -6 5.5
v 45 -6 -5.5
v 45 -6 -6.5
v 45 11 1.5
v 45 11 0.5
v 45 11 -0.5
v 45 11 -1.5
v 45 12 2.5
v 45 12 1.5
v 45 12 0.5
v 45 12 -0.5
v 45 12 -1.5
v 45 12 -2.5
v 45 13 2.5
v 45 13 1.5
v 45 13 -1.5
v 45 13 -2.5
v 45 14 2.5
v 45 14 0.5
v 45 14 -0.5
v 45 14 -2.5
v 45 16 2.5
v 45 16 0.5
v 45 16 -0.5
v 45 16 -2.5
v 45 22 5.5
v 45 22 0.5
v 45 22 -0.5
v 45 22 -5.5
v -45 -22 13.5
v -45 -20 13.5
v -21 -22 13.5
v -21 -20 13.5
v -10 -22 13.5
v -10 -20 13.5
v 9 -22 13.5
v 9 -20 13.5
v 20 -22 13.5
v 20 -20 13.5
v 45 -22 13.5
v 45 -20 13.5
v -45 -20 12.5
v -45 -18 12.5
v -21 -20 12.5
v -20 -20 12.5
v -20 -18 12.5
v -11 -20 12.5
v -11 -18 12.5
v -10 -20 12.5
v 9 -20 12.5
v 10 -20 12.5
v 10 -18 12.5
v 19 -20 12.5
v 19 -18 12.5
v 20 -20 12.5
v 45 -20 12.5
v 45 -18 12.5
v -45 -18 11.5
v -45 -16 11.5
v -20 -18 11.5
v -11 -18 11.5
v 10 -18 11.5
v 19 -18 11.5
v 45 -18 11.5
v 45 -16 11.5
v -45 -16 10.5
v -45 -14 10.5
v 45 -16 10.5
v 45 -14 10.5
v -45 -14 9.5
v -45 -12 9.5
v 45 -14 9.5
v 45 -12 9.5
v -45 -12 8.5
v -45 -10 8.5
v 45 -12 8.5
v 45 -10 8.5
v -45 -10 7.5
v -45 -8 7.5
v 45 -10 7.5
v 45 -8 7.5
v -45 -8 6.5
v -45 -6 6.5
v 45 -8 6.5
v 45 -6 6.5
v -45 -6 5.5
v -45 22 5.5
v -17 9 5.5
v -17 12 5.5
v -14 9 5.5
v -14 12 5.5
v 13 9 5.5
v 13 12 5.5
v 16 9 5.5
v 16 12 5.5
v 45 -6 5.5
v 45 22 5.5
v -45 -21 -1.5
v -45 -20 -1.5
v -21 -21 -1.5
v -21 -20 -1.5
v -10 -21 -1.5
v -10 -20 -1.5
v 9 -21 -1.5
v 9 -20 -1.5
v 20 -21 -1.5
v 20 -20 -1.5
v 45 -21 -1.5
v 45 -20 -1.5
v -45 -22 -2.5
v -45 -21 -2.5
v -21 -22 -2.5
v -21 -21 -2.5
v -10 -22 -2.5
v -10 -21 -2.5
v 9 -22 -2.5
v 9 -21 -2.5
v 20 -22 -2.5
v 20 -21 -2.5
v 45 -22 -2.5
v 45 -21 -2.5
v -45 -22 2.5
v -45 -21 2.5
v -21 -22 2.5
v -21 -21 2.5
v -10 -22 2.5
v -10 -21 2.5
v 9 -22 2.5
v 9 -21 2.5
v 20 -22 2.5
v 20 -21 2.5
v 45 -22 2.5
v 45 -21 2.5
v -45 -21 1.5
v -45 -20 1.5
v -21 -21 1.5
v -21 -20 1.5
v -10 -21 1.5
v -10 -20 1.5
v 9 -21 1.5
v 9 -20 1.5
v 20 -21 1.5
v 20 -20 1.5
v 45 -21 1.5
v 45 -20 1.5
v -45 -6 -5.5
v -45 22 -5.5
v -17 9 -5.5
v -17 12 -5.5
v -14 9 -5.5
v -14 12 -5.5
v 13 9 -5.5
v 13 12 -5.5
v 16 9 -5.5
v 16 12 -5.5
v 45 -6 -5.5
v 45 22 -5.5
v -45 -8 -6.5
v -45 -6 -6.5
v 45 -8 -6.5
v 45 -6 -6.5
v -45 -10 -7.5
v -45 -8 -7.5
v 45 -10 -7.5
v 45 -8 -7.5
v -45 -12 -8.5
v -45 -10 -8.5
v 45 -12 -8.5
v 45 -10 -8.5
v -45 -14 -9.5
v -45 -12 -9.5
v 45 -14 -9.5
v 45 -12 -9.5
v -45 -16 -10.5
v -45 -14 -10.5
v 45 -16 -10.5
v 45 -14 -10.5
v -45 -18 -11.5
v -45 -16 -11.5
v -20 -18 -11.5
v -11 -18 -11.5
v 10 -18 -11.5
v 19 -18 -11.5
v 45 -18 -11.5
v 45 -16 -11.5
v -45 -20 -12.5
v -45 -18 -12.5
v -21 -20 -12.5
v -20 -20 -12.5
v -20 -18 -12.5
v -11 -20 -12.5
v -11 -18 -12.5
v -10 -20 -12.5
v 9 -20 -12.5
v 10 -20 -12.5
v 10 -18 -12.5
v 19 -20 -12.5
v 19 -18 -12.5
v 20 -20 -12.5
v 45 -20 -12.5
v 45 -18 -12.5
v -45 -22 -13.5
v -45 -20 -13.5
v -21 -22 -13.5
v -21 -20 -13.5
v -10 -22 -13.5
v -10 -20 -13.5
v 9 -22 -13.5
v 9 -20 -13.5
v 20 -22 -13.5
v 20 -20 -13.5
v 45 -22 -13.5
v 45 -20 -13.5
v -45 -22 13.5
v -21 -22 13.5
v -10 -22 13.5
v 9 -22 13.5
v 20 -22 13.5
v 45 -22 13.5
v -45 -22 2.5
v -21 -22 2.5
v -10 -22 2.5
v 9 -22 2.5
v 20 -22 2.5
v 45 -22 2.5
v -45 -22 -2.5
v -21 -22 -2.5
v -10 -22 -2.5
v 9 -22 -2.5
v 20 -22 -2.5
v 45 -22 -2.5
v -45 -22 -13.5
v -21 -22 -13.5
v -10 -22 -13.5
v 9 -22 -13.5
v 20 -22 -13.5
v 45 -22 -13.5
v -45 -21 2.5
v -21 -21 2.5
v -10 -21 2.5
v 9 -21 2.5
v 20 -21 2.5
v 45 -21 2.5
v -45 -21 1.5
v -21 -21 1.5
v -10 -21 1.5
v 9 -21 1.5
v 20 -21 1.5
v 45 -21 1.5
v -45 -21 -1.5
v -21 -21 -1.5
v -10 -21 -1.5
v 9 -21 -1.5
v 20 -21 -1.5
v 45 -21 -1.5
v -45 -21 -2.5
v -21 -21 -2.5
v -10 -21 -2.5
v 9 -21 -2.5
v 20 -21 -2.5
v 45 -21 -2.5
v -21 -20 12.5
v -20 -20 12.5
v -11 -20 12.5
v -10 -20 12.5
v 9 -20 12.5
v 10 -20 12.5
v 19 -20 12.5
v 20 -20 12.5
v -45 -20 1.5
v -21 -20 1.5
v -10 -20 1.5
v 9 -20 1.5
v 20 -20 1.5
v 45 -20 1.5
v -45 -20 0.5
v -44 -20 0.5
v 44 -20 0.5
v 45 -20 0.5
v -45 -20 -0.5
v -44 -20 -0.5
v 44 -20 -0.5
v 45 -20 -0.5
v -45 -20 -1.5
v -21 -20 -1.5
v -10 -20 -1.5
v 9 -20 -1.5
v 20 -20 -1.5
v 45 -20 -1.5
v -21 -20 -12.5
v -20 -20 -12.5
v -11 -20 -12.5
v -10 -20 -12.5
v 9 -20 -12.5
v 10 -20 -12.5
v 19 -20 -12.5
v 20 -20 -12.5
v -20 -18 11.5
v -11 -18 11.5
v 10 -18 11.5
v 19 -18 11.5
v -20 -18 -11.5
v -11 -18 -11.5
v 10 -18 -11.5
v 19 -18 -11.5
v -17 12 5.5
v -14 12 5.5
v 13 12 5.5
v 16 12 5.5
v -17 12 -5.5
v -14 12 -5.5
v 13 12 -5.5
v 16 12 -5.5
v -45 -20 13.5
v -21 -20 13.5
v -10 -20 13.5
v 9 -20 13.5
v 20 -20 13.5
v 45 -20 13.5
v -45 -20 12.5
v -21 -20 12.5
v -10 -20 12.5
v 9 -20 12.5
v 20 -20 12.5
v 45 -20 12.5
v -45 -20 -12.5
v -21 -20 -12.5
v -10 -20 -12.5
v 9 -20 -12.5
v 20 -20 -12.5
v 45 -20 -12.5
v -45 -20 -13.5
v -21 -20 -13.5
v -10 -20 -13.5
v 9 -20 -13.5
v 20 -20 -13.5
v 45 -20 -13.5
v -45 -18 12.5
v -20 -18 12.5
v -11 -18 12.5
v 10 -18 12.5
v 19 -18 12.5
v 45 -18 12.5
v -45 -18 11.5
v -20 -18 11.5
v -11 -18 11.5
v 10 -18 11.5
v 19 -18 11.5
v 45 -18 11.5
v -45 -18 -11.5
v -20 -18 -11.5
v -11 -18 -11.5
v 10 -18 -11.5
v 19 -18 -11.5
v 45 -18 -11.5
v -45 -18 -12.5
v -20 -18 -12.5
v -11 -18 -12.5
v 10 -18 -12.5
v 19 -18 -12.5
v 45 -18 -12.5
v -45 -16 11.5
v 45 -16 11.5
v -45 -16 10.5
v 45 -16 10.5
v -45 -16 -10.5
v 45 -16 -10.5
v -45 -16 -11.5
v 45 -16 -11.5
v -45 -14 10.5
v 45 -14 10.5
v -45 -14 9.5
v 45 -14 9.5
v -45 -14 -9.5
v 45 -14 -9.5
v -45 -14 -10.5
v 45 -14 -10.5
v -45 -12 9.5
v 45 -12 9.5
v -45 -12 8.5
v 45 -12 8.5
v -45 -12 -8.5
v 45 -12 -8.5
v -45 -12 -9.5
v 45 -12 -9.5
v -45 -10 8.5
v 45 -10 8.5
v -45 -10 7.5
v 45 -10 7.5
v -45 -10 -7.5
v 45 -10 -7.5
v -45 -10 -8.5
v 45 -10 -8.5
v -45 -8 7.5
v 45 -8 7.5
v -45 -8 6.5
v 45 -8 6.5
v -45 -8 -6.5
v 45 -8 -6.5
v -45 -8 -7.5
v 45 -8 -7.5
v -45 -6 6.5
v 45 -6 6.5
v -45 -6 5.5
v 45 -6 5.5
v -45 -6 -5.5
v 45 -6 -5.5
v -45 -6 -6.5
v 45 -6 -6.5
v -17 9 5.5
v -14 9 5.5
v 13 9 5.5
v 16 9 5.5
v -17 9 -5.5
v -14 9 -5.5
v 13 9 -5.5
v 16 9 -5.5
v -45 22 5.5
v 45 22 5.5
v -45 22 0.5
v -44 22 0.5
v 44 22 0.5
v 45 22 0.5
v -45 22 -0.5
v -44 22 -0.5
v 44 22 -0.5
v 45 22 -0.5
v -45 22 -5.5
v 45 22 -5.5

# faces
f 5/1/1 2/1/1 1/1/1
f 8/1/1 4/1/1 3/1/1
f 9/1/1 6/1/1 5/1/1
f 9/1/1 5/1/1 1/1/1
f 10/1/1 6/1/1 9/1/1
f 11/1/1 6/1/1 10/1/1
f 14/1/1 8/1/1 7/1/1
f 15/1/1 4/1/1 8/1/1
f 15/1/1 8/1/1 14/1/1
f 16/1/1 4/1/1 15/1/1
f 17/1/1 11/1/1 10/1/1
f 17/1/1 12/1/1 11/1/1
f 18/1/1 12/1/1 17/1/1
f 19/1/1 14/1/1 13/1/1
f 19/1/1 15/1/1 14/1/1
f 20/1/1 15/1/1 19/1/1
f 21/1/1 12/1/1 18/1/1
f 22/1/1 12/1/1 21/1/1
f 23/1/1 19/1/1 13/1/1
f 24/1/1 19/1/1 23/1/1
f 25/1/1 12/1/1 22/1/1
f 26/1/1 12/1/1 25/1/1
f 27/1/1 12/1/1 26/1/1
f 28/2/1 13/2/1 12/2/1
f 28/1/1 12/1/1 27/1/1
f 29/1/1 23/1/1 13/1/1
f 29/2/1 13/2/1 28/2/1
f 30/1/1 23/1/1 29/1/1
f 31/1/1 23/1/1 30/1/1
f 32/1/1 23/1/1 31/1/1
f 33/1/1 27/1/1 26/1/1
f 34/2/1 28/2/1 27/2/1
f 34/1/1 27/1/1 33/1/1
f 34/2/1 29/2/1 28/2/1
f 34/2/1 30/2/1 29/2/1
f 35/2/1 30/2/1 34/2/1
f 36/2/1 30/2/1 35/2/1
f 37/1/1 31/1/1 30/1/1
f 37/2/1 30/2/1 36/2/1
f 38/1/1 31/1/1 37/1/1
f 39/1/1 33/1/1 26/1/1
f 40/1/1 33/1/1 39/1/1
f 41/2/1 34/2/1 33/2/1
f 41/1/1 33/1/1 40/1/1
f 42/1/1 35/1/1 34/1/1
f 42/2/1 34/2/1 41/2/1
f 43/1/1 37/1/1 36/1/1
f 43/2/1 38/2/1 37/2/1
f 44/1/1 31/1/1 38/1/1
f 44/2/1 38/2/1 43/2/1
f 45/1/1 31/1/1 44/1/1
f 46/1/1 31/1/1 45/1/1
f 47/1/1 41/1/1 40/1/1
f 47/1/1 42/1/1 41/1/1
f 48/2/1 36/2/1 35/2/1
f 48/1/1 42/1/1 47/1/1
f 48/1/1 35/1/1 42/1/1
f 49/1/1 43/1/1 36/1/1
f 49/2/1 36/2/1 48/2/1
f 49/1/1 45/1/1 44/1/1
f 49/1/1 44/1/1 43/1/1
f 50/1/1 45/1/1 49/1/1
f 51/1/1 47/1/1 40/1/1
f 52/1/1 47/1/1 51/1/1
f 53/1/1 45/1/1 50/1/1
f 54/1/1 45/1/1 53/1/1
f 55/2/1 48/2/1 47/2/1
f 55/1/1 47/1/1 52/1/1
f 55/2/1 49/2/1 48/2/1
f 55/2/1 50/2/1 49/2/1
f 56/2/1 50/2/1 55/2/1
f 57/2/1 50/2/1 56/2/1
f 58/1/1 53/1/1 50/1/1
f 58/2/1 50/2/1 57/2/1
f 59/1/1 55/1/1 52/1/1
f 59/1/1 56/1/1 55/1/1
f 60/1/1 56/1/1 59/1/1
f 61/1/1 53/1/1 58/1/1
f 61/1/1 58/1/1 57/1/1
f 62/1/1 53/1/1 61/1/1
f 63/1/1 56/1/1 60/1/1
f 64/1/1 56/1/1 63/1/1
f 65/1/1 61/1/1 57/1/1
f 66/1/1 61/1/1 65/1/1
f 67/1/1 56/1/1 64/1/1
f 68/2/1 57/2/1 56/2/1
f 68/1/1 56/1/1 67/1/1
f 69/1/1 65/1/1 57/1/1
f 69/2/1 57/2/1 68/2/1
f 70/1/1 65/1/1 69/1/1
f 71/1/1 67/1/1 64/1/1
f 72/2/1 68/2/1 67/2/1
f 72/1/1 67/1/1 71/1/1
f 72/2/1 69/2/1 68/2/1
f 72/2/1 70/2/1 69/2/1
f 73/2/1 70/2/1 72/2/1
f 74/2/1 70/2/1 73/2/1
f 75/1/1 65/1/1 70/1/1
f 75/2/1 70/2/1 74/2/1
f 76/1/1 65/1/1 75/1/1
f 77/1/1 71/1/1 64/1/1
f 77/2/1 72/2/1 71/2/1
f 78/1/1 73/1/1 72/1/1
f 78/2/1 72/2/1 77/2/1
f 79/2/1 76/2/1 75/2/1
f 79/1/1 75/1/1 74/1/1
f 80/1/1 65/1/1 76/1/1
f 80/2/1 76/2/1 79/2/1
f 81/1/1 77/1/1 64/1/1
f 81/1/1 78/1/1 77/1/1
f 82/2/1 74/2/1 73/2/1
f 82/1/1 78/1/1 81/1/1
f 82/1/1 73/1/1 78/1/1
f 83/1/1 79/1/1 74/1/1
f 83/2/1 74/2/1 82/2/1
f 83/1/1 80/1/1 79/1/1
f 84/1/1 65/1/1 80/1/1
f 84/1/1 80/1/1 83/1/1
f 85/1/1 81/1/1 64/1/1
f 85/2/1 82/2/1 81/2/1
f 85/2/1 84/2/1 83/2/1
f 85/2/1 83/2/1 82/2/1
f 86/2/1 84/2/1 85/2/1
f 87/2/1 84/2/1 86/2/1
f 88/1/1 65/1/1 84/1/1
f 88/2/1 84/2/1 87/2/1
f 89/1/1 85/1/1 64/1/1
f 89/1/1 86/1/1 85/1/1
f 90/2/1 87/2/1 86/2/1
f 90/1/1 86/1/1 89/1/1
f 91/1/1 88/1/1 87/1/1
f 91/2/1 87/2/1 90/2/1
f 92/1/1 65/1/1 88/1/1
f 92/1/1 88/1/1 91/1/1
f 95/1/1 94/1/1 93/1/1
f 96/1/1 94/1/1 95/1/1
f 99/1/1 98/1/1 97/1/1
f 100/1/1 98/1/1 99/1/1
f 101/1/1 98/1/1 100/1/1
f 102/1/1 98/1/1 101/1/1
f 107/1/1 104/1/1 103/1/1
f 110/1/1 106/1/1 105/1/1
f 111/1/1 108/1/1 107/1/1
f 111/1/1 107/1/1 103/1/1
f 112/1/1 108/1/1 111/1/1
f 113/1/1 108/1/1 112/1/1
f 114/1/1 110/1/1 109/1/1
f 115/1/1 106/1/1 110/1/1
f 115/1/1 110/1/1 114/1/1
f 116/1/1 106/1/1 115/1/1
f 119/1/1 118/1/1 117/1/1
f 120/1/1 118/1/1 119/1/1
f 123/1/1 122/1/1 121/1/1
f 124/1/1 122/1/1 123/1/1
f 125/1/1 122/1/1 124/1/1
f 126/1/1 122/1/1 125/1/1
f 131/1/1 128/1/1 127/1/1
f 134/1/1 130/1/1 129/1/1
f 135/1/1 132/1/1 131/1/1
f 135/1/1 131/1/1 127/1/1
f 136/1/1 132/1/1 135/1/1
f 137/1/1 132/1/1 136/1/1
f 138/1/1 134/1/1 133/1/1
f 139/1/1 130/1/1 134/1/1
f 139/1/1 134/1/1 138/1/1
f 140/1/1 130/1/1 139/1/1
f 141/1/2 142/1/2 145/1/2
f 143/1/2 144/1/2 148/1/2
f 145/1/2 146/1/2 149/1/2
f 141/1/2 145/1/2 149/1/2
f 149/1/2 146/1/2 150/1/2
f 150/1/2 146/1/2 151/1/2
f 147/1/2 148/1/2 152/1/2
f 148/1/2 144/1/2 153/1/2
f 152/1/2 148/1/2 153/1/2
f 153/1/2 144/1/2 154/1/2
f 155/1/2 156/1/2 157/1/2
f 157/1/2 156/1/2 158/1/2
f 158/1/2 156/1/2 159/1/2
f 159/1/2 156/1/2 160/1/2
f 161/1/2 162/1/2 163/1/2
f 163/1/2 162/1/2 164/1/2
f 165/1/2 166/1/2 169/1/2
f 167/1/2 168/1/2 172/1/2
f 169/1/2 170/1/2 173/1/2
f 165/1/2 169/1/2 173/1/2
f 173/1/2 170/1/2 174/1/2
f 174/1/2 170/1/2 175/1/2
f 171/1/2 172/1/2 176/1/2
f 172/1/2 168/1/2 177/1/2
f 176/1/2 172/1/2 177/1/2
f 177/1/2 168/1/2 178/1/2
f 179/1/2 180/1/2 181/1/2
f 181/1/2 180/1/2 182/1/2
f 182/1/2 180/1/2 183/1/2
f 183/1/2 180/1/2 184/1/2
f 185/1/2 186/1/2 187/1/2
f 187/1/2 186/1/2 188/1/2
f 189/1/2 190/1/2 193/1/2
f 191/1/2 192/1/2 196/1/2
f 193/1/2 194/1/2 197/1/2
f 189/1/2 193/1/2 197/1/2
f 197/1/2 194/1/2 198/1/2
f 198/1/2 194/1/2 199/1/2
f 195/1/2 196/1/2 202/1/2
f 196/1/2 192/1/2 203/1/2
f 202/1/2 196/1/2 203/1/2
f 203/1/2 192/1/2 204/1/2
f 198/1/2 199/1/2 205/1/2
f 199/1/2 200/1/2 205/1/2
f 205/1/2 200/1/2 206/1/2
f 201/1/2 202/1/2 207/1/2
f 202/1/2 203/1/2 207/1/2
f 207/1/2 203/1/2 208/1/2
f 206/1/2 200/1/2 209/1/2
f 209/1/2 200/1/2 210/1/2
f 201/1/2 207/1/2 211/1/2
f 211/1/2 207/1/2 212/1/2
f 210/1/2 200/1/2 213/1/2
f 213/1/2 200/1/2 214/1/2
f 214/1/2 200/1/2 215/1/2
f 200/2/2 201/2/2 216/2/2
f 215/1/2 200/1/2 216/1/2
f 201/1/2 211/1/2 217/1/2
f 216/2/2 201/2/2 217/2/2
f 217/1/2 211/1/2 218/1/2
f 218/1/2 211/1/2 219/1/2
f 219/1/2 211/1/2 220/1/2
f 214/1/2 215/1/2 221/1/2
f 215/2/2 216/2/2 222/2/2
f 221/1/2 215/1/2 222/1/2
f 216/2/2 217/2/2 222/2/2
f 217/2/2 218/2/2 222/2/2
f 222/2/2 218/2/2 223/2/2
f 223/2/2 218/2/2 224/2/2
f 218/1/2 219/1/2 225/1/2
f 224/2/2 218/2/2 225/2/2
f 225/1/2 219/1/2 226/1/2
f 214/1/2 221/1/2 227/1/2
f 227/1/2 221/1/2 228/1/2
f 221/2/2 222/2/2 229/2/2
f 228/1/2 221/1/2 229/1/2
f 222/1/2 223/1/2 230/1/2
f 229/2/2 222/2/2 230/2/2
f 224/1/2 225/1/2 231/1/2
f 225/2/2 226/2/2 231/2/2
f 226/1/2 219/1/2 232/1/2
f 231/2/2 226/2/2 232/2/2
f 232/1/2 219/1/2 233/1/2
f 233/1/2 219/1/2 234/1/2
f 228/1/2 229/1/2 235/1/2
f 229/1/2 230/1/2 235/1/2
f 223/2/2 224/2/2 236/2/2
f 235/1/2 230/1/2 236/1/2
f 230/1/2 223/1/2 236/1/2
f 224/1/2 231/1/2 237/1/2
f 236/2/2 224/2/2 237/2/2
f 232/1/2 233/1/2 237/1/2
f 231/1/2 232/1/2 237/1/2
f 237/1/2 233/1/2 238/1/2
f 228/1/2 235/1/2 239/1/2
f 239/1/2 235/1/2 240/1/2
f 238/1/2 233/1/2 241/1/2
f 241/1/2 233/1/2 242/1/2
f 235/2/2 236/2/2 243/2/2
f 240/1/2 235/1/2 243/1/2
f 236/2/2 237/2/2 243/2/2
f 237/2/2 238/2/2 243/2/2
f 243/2/2 238/2/2 244/2/2
f 244/2/2 238/2/2 245/2/2
f 238/1/2 241/1/2 246/1/2
f 245/2/2 238/2/2 246/2/2
f 240/1/2 243/1/2 247/1/2
f 243/1/2 244/1/2 247/1/2
f 247/1/2 244/1/2 248/1/2
f 246/1/2 241/1/2 249/1/2
f 245/1/2 246/1/2 249/1/2
f 249/1/2 241/1/2 250/1/2
f 248/1/2 244/1/2 251/1/2
f 251/1/2 244/1/2 252/1/2
f 245/1/2 249/1/2 253/1/2
f 253/1/2 249/1/2 254/1/2
f 252/1/2 244/1/2 255/1/2
f 244/2/2 245/2/2 256/2/2
f 255/1/2 244/1/2 256/1/2
f 245/1/2 253/1/2 257/1/2
f 256/2/2 245/2/2 257/2/2
f 257/1/2 253/1/2 258/1/2
f 252/1/2 255/1/2 259/1/2
f 255/2/2 256/2/2 260/2/2
f 259/1/2 255/1/2 260/1/2
f 256/2/2 257/2/2 260/2/2
f 257/2/2 258/2/2 260/2/2
f 260/2/2 258/2/2 261/2/2
f 261/2/2 258/2/2 262/2/2
f 258/1/2 253/1/2 263/1/2
f 262/2/2 258/2/2 263/2/2
f 263/1/2 253/1/2 264/1/2
f 252/1/2 259/1/2 265/1/2
f 259/2/2 260/2/2 265/2/2
f 260/1/2 261/1/2 266/1/2
f 265/2/2 260/2/2 266/2/2
f 263/2/2 264/2/2 267/2/2
f 262/1/2 263/1/2 267/1/2
f 264/1/2 253/1/2 268/1/2
f 267/2/2 264/2/2 268/2/2
f 252/1/2 265/1/2 269/1/2
f 265/1/2 266/1/2 269/1/2
f 261/2/2 262/2/2 270/2/2
f 269/1/2 266/1/2 270/1/2
f 266/1/2 261/1/2 270/1/2
f 262/1/2 267/1/2 271/1/2
f 270/2/2 262/2/2 271/2/2
f 267/1/2 268/1/2 271/1/2
f 268/1/2 253/1/2 272/1/2
f 271/1/2 268/1/2 272/1/2
f 252/1/2 269/1/2 273/1/2
f 269/2/2 270/2/2 273/2/2
f 271/2/2 272/2/2 273/2/2
f 270/2/2 271/2/2 273/2/2
f 273/2/2 272/2/2 274/2/2
f 274/2/2 272/2/2 275/2/2
f 272/1/2 253/1/2 276/1/2
f 275/2/2 272/2/2 276/2/2
f 252/1/2 273/1/2 277/1/2
f 273/1/2 274/1/2 277/1/2
f 274/2/2 275/2/2 278/2/2
f 277/1/2 274/1/2 278/1/2
f 275/1/2 276/1/2 279/1/2
f 278/2/2 275/2/2 279/2/2
f 276/1/2 253/1/2 280/1/2
f 279/1/2 276/1/2 280/1/2
f 283/1/3 282/1/3 281/1/3
f 284/1/3 282/1/3 283/1/3
f 287/1/3 286/1/3 285/1/3
f 288/1/3 286/1/3 287/1/3
f 291/1/3 290/1/3 289/1/3
f 292/1/3 290/1/3 291/1/3
f 295/1/3 294/1/3 293/1/3
f 296/1/3 294/1/3 295/1/3
f 297/1/3 294/1/3 296/1/3
f 300/1/3 299/1/3 298/1/3
f 301/1/3 299/1/3 300/1/3
f 302/1/3 299/1/3 301/1/3
f 303/1/3 299/1/3 302/1/3
f 306/1/3 305/1/3 304/1/3
f 307/1/3 305/1/3 306/1/3
f 308/1/3 305/1/3 307/1/3
f 311/1/3 310/1/3 309/1/3
f 312/1/3 310/1/3 311/1/3
f 313/1/3 310/1/3 312/1/3
f 314/1/3 310/1/3 313/1/3
f 315/1/3 310/1/3 314/1/3
f 316/1/3 310/1/3 315/1/3
f 319/1/3 318/1/3 317/1/3
f 320/1/3 318/1/3 319/1/3
f 323/1/3 322/1/3 321/1/3
f 324/1/3 322/1/3 323/1/3
f 327/1/3 326/1/3 325/1/3
f 328/1/3 326/1/3 327/1/3
f 331/1/3 330/1/3 329/1/3
f 332/1/3 330/1/3 331/1/3
f 335/1/3 334/1/3 333/1/3
f 336/1/3 334/1/3 335/1/3
f 339/1/3 338/1/3 337/1/3
f 340/1/3 338/1/3 339/1/3
f 341/1/3 339/1/3 337/1/3
f 342/1/3 338/1/3 340/1/3
f 343/1/3 341/1/3 337/1/3
f 343/1/3 342/1/3 341/1/3
f 344/1/3 338/1/3 342/1/3
f 344/1/3 342/1/3 343/1/3
f 345/1/3 343/1/3 337/1/3
f 346/1/3 338/1/3 344/1/3
f 347/1/3 345/1/3 337/1/3
f 347/1/3 346/1/3 345/1/3
f 348/1/3 338/1/3 346/1/3
f 348/1/3 346/1/3 347/1/3
f 351/1/3 350/1/3 349/1/3
f 352/1/3 350/1/3 351/1/3
f 355/1/3 354/1/3 353/1/3
f 356/1/3 354/1/3 355/1/3
f 359/1/3 358/1/3 357/1/3
f 360/1/3 358/1/3 359/1/3
f 363/1/3 362/1/3 361/1/3
f 364/1/3 362/1/3 363/1/3
f 367/1/3 366/1/3 365/1/3
f 368/1/3 366/1/3 367/1/3
f 371/1/3 370/1/3 369/1/3
f 372/1/3 370/1/3 371/1/3
f 373/1/4 374/1/4 375/1/4
f 375/1/4 374/1/4 376/1/4
f 377/1/4 378/1/4 379/1/4
f 379/1/4 378/1/4 380/1/4
f 381/1/4 382/1/4 383/1/4
f 383/1/4 382/1/4 384/1/4
f 385/1/4 386/1/4 387/1/4
f 387/1/4 386/1/4 388/1/4
f 389/1/4 390/1/4 391/1/4
f 391/1/4 390/1/4 392/1/4
f 393/1/4 394/1/4 395/1/4
f 395/1/4 394/1/4 396/1/4
f 397/1/4 398/1/4 399/1/4
f 399/1/4 398/1/4 400/1/4
f 397/1/4 399/1/4 401/1/4
f 400/1/4 398/1/4 402/1/4
f 397/1/4 401/1/4 403/1/4
f 401/1/4 402/1/4 403/1/4
f 402/1/4 398/1/4 404/1/4
f 403/1/4 402/1/4 404/1/4
f 397/1/4 403/1/4 405/1/4
f 404/1/4 398/1/4 406/1/4
f 397/1/4 405/1/4 407/1/4
f 405/1/4 406/1/4 407/1/4
f 406/1/4 398/1/4 408/1/4
f 407/1/4 406/1/4 408/1/4
f 409/1/4 410/1/4 411/1/4
f 411/1/4 410/1/4 412/1/4
f 413/1/4 414/1/4 415/1/4
f 415/1/4 414/1/4 416/1/4
f 417/1/4 418/1/4 419/1/4
f 419/1/4 418/1/4 420/1/4
f 421/1/4 422/1/4 423/1/4
f 423/1/4 422/1/4 424/1/4
f 425/1/4 426/1/4 427/1/4
f 427/1/4 426/1/4 428/1/4
f 429/1/4 430/1/4 431/1/4
f 431/1/4 430/1/4 432/1/4
f 432/1/4 430/1/4 433/1/4
f 433/1/4 430/1/4 434/1/4
f 434/1/4 430/1/4 435/1/4
f 435/1/4 430/1/4 436/1/4
f 437/1/4 438/1/4 439/1/4
f 439/1/4 438/1/4 440/1/4
f 440/1/4 438/1/4 441/1/4
f 442/1/4 443/1/4 444/1/4
f 444/1/4 443/1/4 445/1/4
f 445/1/4 443/1/4 446/1/4
f 446/1/4 443/1/4 447/1/4
f 448/1/4 449/1/4 450/1/4
f 450/1/4 449/1/4 451/1/4
f 451/1/4 449/1/4 452/1/4
f 453/1/4 454/1/4 455/1/4
f 455/1/4 454/1/4 456/1/4
f 457/1/4 458/1/4 459/1/4
f 459/1/4 458/1/4 460/1/4
f 461/1/4 462/1/4 463/1/4
f 463/1/4 462/1/4 464/1/4
f 471/1/5 466/1/5 465/1/5
f 472/1/5 466/1/5 471/1/5
f 473/1/5 468/1/5 467/1/5
f 474/1/5 468/1/5 473/1/5
f 475/1/5 470/1/5 469/1/5
f 476/1/5 470/1/5 475/1/5
f 483/1/5 478/1/5 477/1/5
f 484/1/5 478/1/5 483/1/5
f 485/1/5 480/1/5 479/1/5
f 486/1/5 480/1/5 485/1/5
f 487/1/5 482/1/5 481/1/5
f 488/1/5 482/1/5 487/1/5
f 495/1/5 490/1/5 489/1/5
f 496/1/5 490/1/5 495/1/5
f 497/1/5 492/1/5 491/1/5
f 498/1/5 492/1/5 497/1/5
f 499/1/5 494/1/5 493/1/5
f 500/1/5 494/1/5 499/1/5
f 507/1/5 502/1/5 501/1/5
f 508/1/5 502/1/5 507/1/5
f 509/1/5 504/1/5 503/1/5
f 510/1/5 504/1/5 509/1/5
f 511/1/5 506/1/5 505/1/5
f 512/1/5 506/1/5 511/1/5
f 522/1/5 514/1/5 513/1/5
f 523/1/5 516/1/5 515/1/5
f 524/1/5 518/1/5 517/1/5
f 525/1/5 520/1/5 519/1/5
f 527/1/5 522/1/5 521/1/5
f 528/1/5 522/1/5 527/1/5
f 529/1/5 526/1/5 525/1/5
f 530/1/5 526/1/5 529/1/5
f 531/2/5 528/2/5 527/2/5
f 532/1/5 522/1/5 528/1/5
f 532/2/5 528/2/5 531/2/5
f 533/1/5 529/1/5 525/1/5
f 533/2/5 530/2/5 529/2/5
f 534/2/5 530/2/5 533/2/5
f 535/1/5 532/1/5 531/1/5
f 536/1/5 514/1/5 522/1/5
f 536/1/5 532/1/5 535/1/5
f 536/1/5 522/1/5 532/1/5
f 537/1/5 524/1/5 523/1/5
f 537/1/5 523/1/5 515/1/5
f 538/1/5 518/1/5 524/1/5
f 538/1/5 524/1/5 537/1/5
f 539/1/5 525/1/5 519/1/5
f 539/1/5 534/1/5 533/1/5
f 539/1/5 533/1/5 525/1/5
f 540/1/5 534/1/5 539/1/5
f 541/1/5 514/1/5 536/1/5
f 542/1/5 514/1/5 541/1/5
f 543/1/5 537/1/5 515/1/5
f 544/1/5 537/1/5 543/1/5
f 545/1/5 518/1/5 538/1/5
f 546/1/5 518/1/5 545/1/5
f 547/1/5 539/1/5 519/1/5
f 548/1/5 539/1/5 547/1/5
f 553/1/5 550/1/5 549/1/5
f 554/1/5 550/1/5 553/1/5
f 555/1/5 552/1/5 551/1/5
f 556/1/5 552/1/5 555/1/5
f 561/1/5 558/1/5 557/1/5
f 562/1/5 558/1/5 561/1/5
f 563/1/5 560/1/5 559/1/5
f 564/1/5 560/1/5 563/1/5
f 565/1/6 566/1/6 571/1/6
f 571/1/6 566/1/6 572/1/6
f 567/1/6 568/1/6 573/1/6
f 573/1/6 568/1/6 574/1/6
f 569/1/6 570/1/6 575/1/6
f 575/1/6 570/1/6 576/1/6
f 577/1/6 578/1/6 583/1/6
f 583/1/6 578/1/6 584/1/6
f 579/1/6 580/1/6 585/1/6
f 585/1/6 580/1/6 586/1/6
f 581/1/6 582/1/6 587/1/6
f 587/1/6 582/1/6 588/1/6
f 589/1/6 590/1/6 595/1/6
f 595/1/6 590/1/6 596/1/6
f 591/1/6 592/1/6 597/1/6
f 597/1/6 592/1/6 598/1/6
f 593/1/6 594/1/6 599/1/6
f 599/1/6 594/1/6 600/1/6
f 601/1/6 602/1/6 607/1/6
f 607/1/6 602/1/6 608/1/6
f 603/1/6 604/1/6 609/1/6
f 609/1/6 604/1/6 610/1/6
f 605/1/6 606/1/6 611/1/6
f 611/1/6 606/1/6 612/1/6
f 613/1/6 614/1/6 615/1/6
f 615/1/6 614/1/6 616/1/6
f 617/1/6 618/1/6 619/1/6
f 619/1/6 618/1/6 620/1/6
f 621/1/6 622/1/6 623/1/6
f 623/1/6 622/1/6 624/1/6
f 625/1/6 626/1/6 627/1/6
f 627/1/6 626/1/6 628/1/6
f 629/1/6 630/1/6 631/1/6
f 631/1/6 630/1/6 632/1/6
f 633/1/6 634/1/6 635/1/6
f 635/1/6 634/1/6 636/1/6
f 637/1/6 638/1/6 639/1/6
f 639/1/6 638/1/6 640/1/6
f 641/1/6 642/1/6 643/1/6
f 643/1/6 642/1/6 644/1/6
f 645/1/6 646/1/6 647/1/6
f 647/1/6 646/1/6 648/1/6
f 649/1/6 650/1/6 651/1/6
f 651/1/6 650/1/6 652/1/6
f 653/1/6 654/1/6 655/1/6
f 655/1/6 654/1/6 656/1/6
f 657/1/6 658/1/6 659/1/6
f 659/1/6 658/1/6 660/1/6
f 661/1/6 662/1/6 665/1/6
f 665/1/6 662/1/6 666/1/6
f 663/1/6 664/1/6 667/1/6
f 667/1/6 664/1/6 668/1/6
f 669/1/6 670/1/6 671/1/6
f 671/1/6 670/1/6 672/1/6
f 672/1/6 670/1/6 673/1/6
f 673/1/6 670/1/6 674/1/6
f 671/2/6 672/2/6 675/2/6
f 672/1/6 673/1/6 676/1/6
f 675/2/6 672/2/6 676/2/6
f 673/2/6 674/2/6 677/2/6
f 676/1/6 673/1/6 677/1/6
f 677/2/6 674/2/6 678/2/6
f 675/1/6 676/1/6 679/1/6
f 676/1/6 677/1/6 679/1/6
f 677/1/6 678/1/6 679/1/6
f 679/1/6 678/1/6 680/1/6
