# MagicaVoxel @ ephtracy

# material
mtllib Sprite Bottle.mtl
usemtl palette

# normals
vn -1 0 0
vn 1 0 0
vn 0 0 1
vn 0 0 -1
vn 0 -1 0
vn 0 1 0

# texcoords
vt 0.939453 0.5
vt 0.943359 0.5
vt 0.951172 0.5
vt 0.955078 0.5
vt 0.958984 0.5
vt 0.962891 0.5
vt 0.986328 0.5
vt 0.990234 0.5

# verts
v -5.5 -15 3.5
v -5.5 -15 1.5
v -5.5 -15 -1.5
v -5.5 -15 -3.5
v -5.5 -13 1.5
v -5.5 -13 -1.5
v -5.5 -12 3.5
v -5.5 -12 -3.5
v -5.5 -8 3.5
v -5.5 -8 -3.5
v -5.5 -2 3.5
v -5.5 -2 -3.5
v -5.5 -1 -0.5
v -5.5 -1 -3.5
v -5.5 0 0.5
v -5.5 0 -0.5
v -5.5 1 3.5
v -5.5 1 0.5
v -5.5 1 -0.5
v -5.5 1 -3.5
v -5.5 2 3.5
v -5.5 2 0.5
v -5.5 2 -0.5
v -5.5 3 0.5
v -5.5 3 -0.5
v -5.5 4 -0.5
v -5.5 4 -3.5
v -5.5 5 3.5
v -5.5 5 -3.5
v -5.5 7 3.5
v -5.5 7 -3.5
v -4.5 -16 3.5
v -4.5 -16 1.5
v -4.5 -16 -1.5
v -4.5 -16 -3.5
v -4.5 -15 4.5
v -4.5 -15 3.5
v -4.5 -15 1.5
v -4.5 -15 -1.5
v -4.5 -15 -3.5
v -4.5 -15 -4.5
v -4.5 -14 1.5
v -4.5 -14 -1.5
v -4.5 -13 1.5
v -4.5 -13 -1.5
v -4.5 -12 4.5
v -4.5 -12 3.5
v -4.5 -12 -3.5
v -4.5 -12 -4.5
v -4.5 -8 4.5
v -4.5 -8 3.5
v -4.5 -8 -3.5
v -4.5 -8 -4.5
v -4.5 -2 4.5
v -4.5 -2 3.5
v -4.5 -2 -3.5
v -4.5 -2 -4.5
v -4.5 -1 4.5
v -4.5 -1 3.5
v -4.5 -1 -3.5
v -4.5 0 4.5
v -4.5 0 3.5
v -4.5 0 -3.5
v -4.5 0 -4.5
v -4.5 1 4.5
v -4.5 1 3.5
v -4.5 1 -3.5
v -4.5 2 3.5
v -4.5 2 -3.5
v -4.5 2 -4.5
v -4.5 3 -3.5
v -4.5 3 -4.5
v -4.5 4 4.5
v -4.5 4 3.5
v -4.5 4 -3.5
v -4.5 5 4.5
v -4.5 5 3.5
v -4.5 5 -3.5
v -4.5 5 -4.5
v -4.5 7 4.5
v -4.5 7 3.5
v -4.5 7 -3.5
v -4.5 7 -4.5
v -4.5 9 3.5
v -4.5 9 -3.5
v -3.5 -16 4.5
v -3.5 -16 3.5
v -3.5 -16 1.5
v -3.5 -16 0.5
v -3.5 -16 -0.5
v -3.5 -16 -1.5
v -3.5 -16 -3.5
v -3.5 -16 -4.5
v -3.5 -15 5.5
v -3.5 -15 4.5
v -3.5 -15 3.5
v -3.5 -15 0.5
v -3.5 -15 -0.5
v -3.5 -15 -3.5
v -3.5 -15 -4.5
v -3.5 -15 -5.5
v -3.5 -14 1.5
v -3.5 -14 -1.5
v -3.5 -12 5.5
v -3.5 -12 4.5
v -3.5 -12 3.5
v -3.5 -12 -3.5
v -3.5 -12 -4.5
v -3.5 -12 -5.5
v -3.5 -8 5.5
v -3.5 -8 4.5
v -3.5 -8 3.5
v -3.5 -8 -3.5
v -3.5 -8 -4.5
v -3.5 -8 -5.5
v -3.5 -2 5.5
v -3.5 -2 4.5
v -3.5 -2 -4.5
v -3.5 -2 -5.5
v -3.5 -1 5.5
v -3.5 -1 4.5
v -3.5 0 5.5
v -3.5 0 4.5
v -3.5 0 -4.5
v -3.5 1 5.5
v -3.5 1 4.5
v -3.5 1 -4.5
v -3.5 1 -5.5
v -3.5 2 5.5
v -3.5 2 4.5
v -3.5 2 -4.5
v -3.5 2 -5.5
v -3.5 3 5.5
v -3.5 3 4.5
v -3.5 3 -4.5
v -3.5 4 5.5
v -3.5 4 4.5
v -3.5 5 5.5
v -3.5 5 4.5
v -3.5 5 -4.5
v -3.5 5 -5.5
v -3.5 7 5.5
v -3.5 7 4.5
v -3.5 7 3.5
v -3.5 7 -3.5
v -3.5 7 -4.5
v -3.5 7 -5.5
v -3.5 9 4.5
v -3.5 9 3.5
v -3.5 9 -3.5
v -3.5 9 -4.5
v -3.5 10 3.5
v -3.5 10 1.5
v -3.5 10 -1.5
v -3.5 10 -3.5
v -3.5 11 1.5
v -3.5 11 -1.5
v -3.5 12 1.5
v -3.5 12 -1.5
v -3.5 13 1.5
v -3.5 13 -1.5
v -3.5 14 1.5
v -3.5 14 -1.5
v -3.5 15 1.5
v -3.5 15 -1.5
v -2.5 10 2.5
v -2.5 10 1.5
v -2.5 10 -1.5
v -2.5 10 -2.5
v -2.5 11 2.5
v -2.5 11 1.5
v -2.5 11 -1.5
v -2.5 11 -2.5
v -2.5 12 2.5
v -2.5 12 1.5
v -2.5 12 -1.5
v -2.5 12 -2.5
v -2.5 13 2.5
v -2.5 13 1.5
v -2.5 13 -1.5
v -2.5 13 -2.5
v -2.5 14 2.5
v -2.5 14 1.5
v -2.5 14 -1.5
v -2.5 14 -2.5
v -2.5 15 2.5
v -2.5 15 1.5
v -2.5 15 -1.5
v -2.5 15 -2.5
v -2.5 16 1.5
v -2.5 16 -1.5
v -1.5 -15 3.5
v -1.5 -15 2.5
v -1.5 -15 1.5
v -1.5 -15 0.5
v -1.5 -15 -0.5
v -1.5 -15 -1.5
v -1.5 -15 -2.5
v -1.5 -15 -3.5
v -1.5 -14 3.5
v -1.5 -14 2.5
v -1.5 -14 1.5
v -1.5 -14 0.5
v -1.5 -14 -0.5
v -1.5 -14 -1.5
v -1.5 -14 -2.5
v -1.5 -14 -3.5
v -1.5 -13 0.5
v -1.5 -13 -0.5
v -1.5 10 3.5
v -1.5 10 2.5
v -1.5 10 -2.5
v -1.5 10 -3.5
v -1.5 11 3.5
v -1.5 11 2.5
v -1.5 11 1.5
v -1.5 11 -1.5
v -1.5 11 -2.5
v -1.5 11 -3.5
v -1.5 12 3.5
v -1.5 12 2.5
v -1.5 12 1.5
v -1.5 12 -1.5
v -1.5 12 -2.5
v -1.5 12 -3.5
v -1.5 13 3.5
v -1.5 13 2.5
v -1.5 13 1.5
v -1.5 13 -1.5
v -1.5 13 -2.5
v -1.5 13 -3.5
v -1.5 14 3.5
v -1.5 14 2.5
v -1.5 14 1.5
v -1.5 14 -1.5
v -1.5 14 -2.5
v -1.5 14 -3.5
v -1.5 15 3.5
v -1.5 15 2.5
v -1.5 15 1.5
v -1.5 15 -1.5
v -1.5 15 -2.5
v -1.5 15 -3.5
v -1.5 16 2.5
v -1.5 16 1.5
v -1.5 16 -1.5
v -1.5 16 -2.5
v -0.5 -15 2.5
v -0.5 -15 1.5
v -0.5 -15 -1.5
v -0.5 -15 -2.5
v -0.5 -14 2.5
v -0.5 -14 1.5
v -0.5 -14 0.5
v -0.5 -14 -0.5
v -0.5 -14 -1.5
v -0.5 -14 -2.5
v -0.5 -13 1.5
v -0.5 -13 0.5
v -0.5 -13 -0.5
v -0.5 -13 -1.5
v 0.5 -16 3.5
v 0.5 -16 1.5
v 0.5 -16 -1.5
v 0.5 -16 -3.5
v 0.5 -15 3.5
v 0.5 -15 1.5
v 0.5 -15 0.5
v 0.5 -15 -0.5
v 0.5 -15 -1.5
v 0.5 -15 -3.5
v 0.5 -14 1.5
v 0.5 -14 0.5
v 0.5 -14 -0.5
v 0.5 -14 -1.5
v 1.5 -16 4.5
v 1.5 -16 3.5
v 1.5 -16 1.5
v 1.5 -16 0.5
v 1.5 -16 -0.5
v 1.5 -16 -1.5
v 1.5 -16 -3.5
v 1.5 -16 -4.5
v 1.5 -15 5.5
v 1.5 -15 4.5
v 1.5 -15 1.5
v 1.5 -15 0.5
v 1.5 -15 -0.5
v 1.5 -15 -1.5
v 1.5 -15 -4.5
v 1.5 -15 -5.5
v 1.5 -14 4.5
v 1.5 -14 3.5
v 1.5 -14 0.5
v 1.5 -14 -0.5
v 1.5 -14 -3.5
v 1.5 -14 -4.5
v 1.5 -13 5.5
v 1.5 -13 4.5
v 1.5 -13 -4.5
v 1.5 -13 -5.5
v 1.5 10 1.5
v 1.5 10 -1.5
v 1.5 16 1.5
v 1.5 16 -1.5
v 2.5 -15 1.5
v 2.5 -15 0.5
v 2.5 -15 -0.5
v 2.5 -15 -1.5
v 2.5 -14 1.5
v 2.5 -14 0.5
v 2.5 -14 -0.5
v 2.5 -14 -1.5
v 2.5 9 2.5
v 2.5 9 -2.5
v 2.5 10 2.5
v 2.5 10 -2.5
v 3.5 -15 3.5
v 3.5 -15 1.5
v 3.5 -15 -1.5
v 3.5 -15 -3.5
v 3.5 -14 1.5
v 3.5 -14 -1.5
v 3.5 -2 3.5
v 3.5 5 3.5
v 3.5 5 -3.5
v 3.5 7 3.5
v 3.5 7 -3.5
v 3.5 9 3.5
v 3.5 9 -3.5
v -3.5 -15 3.5
v -3.5 -15 1.5
v -3.5 -15 -1.5
v -3.5 -15 -3.5
v -3.5 -14 1.5
v -3.5 -14 -1.5
v -3.5 -2 1.5
v -3.5 -2 -1.5
v -3.5 0 3.5
v -3.5 1 3.5
v -3.5 2 3.5
v -3.5 3 3.5
v -3.5 4 3.5
v -3.5 5 3.5
v -3.5 5 1.5
v -3.5 5 -1.5
v -3.5 6 3.5
v -3.5 9 3.5
v -3.5 9 -3.5
v -2.5 -15 1.5
v -2.5 -15 0.5
v -2.5 -15 -0.5
v -2.5 -15 -1.5
v -2.5 -14 1.5
v -2.5 -14 0.5
v -2.5 -14 -0.5
v -2.5 -14 -1.5
v -2.5 9 2.5
v -2.5 9 -2.5
v -2.5 10 2.5
v -2.5 10 -2.5
v -1.5 -16 4.5
v -1.5 -16 3.5
v -1.5 -16 1.5
v -1.5 -16 0.5
v -1.5 -16 -0.5
v -1.5 -16 -1.5
v -1.5 -16 -3.5
v -1.5 -16 -4.5
v -1.5 -15 5.5
v -1.5 -15 4.5
v -1.5 -15 1.5
v -1.5 -15 0.5
v -1.5 -15 -0.5
v -1.5 -15 -1.5
v -1.5 -15 -4.5
v -1.5 -15 -5.5
v -1.5 -14 4.5
v -1.5 -14 3.5
v -1.5 -14 0.5
v -1.5 -14 -0.5
v -1.5 -14 -3.5
v -1.5 -14 -4.5
v -1.5 -13 5.5
v -1.5 -13 4.5
v -1.5 -13 -4.5
v -1.5 -13 -5.5
v -1.5 10 1.5
v -1.5 10 -1.5
v -1.5 16 1.5
v -1.5 16 -1.5
v -0.5 -16 3.5
v -0.5 -16 1.5
v -0.5 -16 -1.5
v -0.5 -16 -3.5
v -0.5 -15 3.5
v -0.5 -15 1.5
v -0.5 -15 0.5
v -0.5 -15 -0.5
v -0.5 -15 -1.5
v -0.5 -15 -3.5
v -0.5 -14 1.5
v -0.5 -14 0.5
v -0.5 -14 -0.5
v -0.5 -14 -1.5
v 0.5 -15 2.5
v 0.5 -15 1.5
v 0.5 -15 -1.5
v 0.5 -15 -2.5
v 0.5 -14 2.5
v 0.5 -14 1.5
v 0.5 -14 0.5
v 0.5 -14 -0.5
v 0.5 -14 -1.5
v 0.5 -14 -2.5
v 0.5 -13 1.5
v 0.5 -13 0.5
v 0.5 -13 -0.5
v 0.5 -13 -1.5
v 1.5 -15 3.5
v 1.5 -15 2.5
v 1.5 -15 1.5
v 1.5 -15 0.5
v 1.5 -15 -0.5
v 1.5 -15 -1.5
v 1.5 -15 -2.5
v 1.5 -15 -3.5
v 1.5 -14 3.5
v 1.5 -14 2.5
v 1.5 -14 1.5
v 1.5 -14 0.5
v 1.5 -14 -0.5
v 1.5 -14 -1.5
v 1.5 -14 -2.5
v 1.5 -14 -3.5
v 1.5 -13 0.5
v 1.5 -13 -0.5
v 1.5 10 3.5
v 1.5 10 2.5
v 1.5 10 -2.5
v 1.5 10 -3.5
v 1.5 11 3.5
v 1.5 11 2.5
v 1.5 11 1.5
v 1.5 11 -1.5
v 1.5 11 -2.5
v 1.5 11 -3.5
v 1.5 12 3.5
v 1.5 12 2.5
v 1.5 12 1.5
v 1.5 12 -1.5
v 1.5 12 -2.5
v 1.5 12 -3.5
v 1.5 13 3.5
v 1.5 13 2.5
v 1.5 13 1.5
v 1.5 13 -1.5
v 1.5 13 -2.5
v 1.5 13 -3.5
v 1.5 14 3.5
v 1.5 14 2.5
v 1.5 14 1.5
v 1.5 14 -1.5
v 1.5 14 -2.5
v 1.5 14 -3.5
v 1.5 15 3.5
v 1.5 15 2.5
v 1.5 15 1.5
v 1.5 15 -1.5
v 1.5 15 -2.5
v 1.5 15 -3.5
v 1.5 16 2.5
v 1.5 16 1.5
v 1.5 16 -1.5
v 1.5 16 -2.5
v 2.5 10 2.5
v 2.5 10 1.5
v 2.5 10 -1.5
v 2.5 10 -2.5
v 2.5 11 2.5
v 2.5 11 1.5
v 2.5 11 -1.5
v 2.5 11 -2.5
v 2.5 12 2.5
v 2.5 12 1.5
v 2.5 12 -1.5
v 2.5 12 -2.5
v 2.5 13 2.5
v 2.5 13 1.5
v 2.5 13 -1.5
v 2.5 13 -2.5
v 2.5 14 2.5
v 2.5 14 1.5
v 2.5 14 -1.5
v 2.5 14 -2.5
v 2.5 15 2.5
v 2.5 15 1.5
v 2.5 15 -1.5
v 2.5 15 -2.5
v 2.5 16 1.5
v 2.5 16 -1.5
v 3.5 -16 4.5
v 3.5 -16 3.5
v 3.5 -16 1.5
v 3.5 -16 0.5
v 3.5 -16 -0.5
v 3.5 -16 -1.5
v 3.5 -16 -3.5
v 3.5 -16 -4.5
v 3.5 -15 5.5
v 3.5 -15 4.5
v 3.5 -15 3.5
v 3.5 -15 0.5
v 3.5 -15 -0.5
v 3.5 -15 -3.5
v 3.5 -15 -4.5
v 3.5 -15 -5.5
v 3.5 -14 1.5
v 3.5 -14 -1.5
v 3.5 -12 5.5
v 3.5 -12 4.5
v 3.5 -12 3.5
v 3.5 -12 -3.5
v 3.5 -12 -4.5
v 3.5 -12 -5.5
v 3.5 -8 5.5
v 3.5 -8 4.5
v 3.5 -8 3.5
v 3.5 -8 -3.5
v 3.5 -8 -4.5
v 3.5 -8 -5.5
v 3.5 -2 5.5
v 3.5 -2 4.5
v 3.5 -2 -4.5
v 3.5 -2 -5.5
v 3.5 -1 4.5
v 3.5 1 5.5
v 3.5 1 4.5
v 3.5 1 -4.5
v 3.5 1 -5.5
v 3.5 2 5.5
v 3.5 2 4.5
v 3.5 2 -4.5
v 3.5 2 -5.5
v 3.5 3 4.5
v 3.5 5 5.5
v 3.5 5 4.5
v 3.5 5 -4.5
v 3.5 5 -5.5
v 3.5 7 5.5
v 3.5 7 4.5
v 3.5 7 3.5
v 3.5 7 -3.5
v 3.5 7 -4.5
v 3.5 7 -5.5
v 3.5 9 4.5
v 3.5 9 3.5
v 3.5 9 -3.5
v 3.5 9 -4.5
v 3.5 10 3.5
v 3.5 10 1.5
v 3.5 10 -1.5
v 3.5 10 -3.5
v 3.5 11 1.5
v 3.5 11 -1.5
v 3.5 12 1.5
v 3.5 12 -1.5
v 3.5 13 1.5
v 3.5 13 -1.5
v 3.5 14 1.5
v 3.5 14 -1.5
v 3.5 15 1.5
v 3.5 15 -1.5
v 4.5 -16 3.5
v 4.5 -16 1.5
v 4.5 -16 -1.5
v 4.5 -16 -3.5
v 4.5 -15 4.5
v 4.5 -15 3.5
v 4.5 -15 1.5
v 4.5 -15 -1.5
v 4.5 -15 -3.5
v 4.5 -15 -4.5
v 4.5 -14 1.5
v 4.5 -14 -1.5
v 4.5 -13 1.5
v 4.5 -13 -1.5
v 4.5 -12 4.5
v 4.5 -12 3.5
v 4.5 -12 -3.5
v 4.5 -12 -4.5
v 4.5 -8 4.5
v 4.5 -8 3.5
v 4.5 -8 -3.5
v 4.5 -8 -4.5
v 4.5 -2 4.5
v 4.5 -2 3.5
v 4.5 -2 -3.5
v 4.5 -2 -4.5
v 4.5 -1 4.5
v 4.5 -1 3.5
v 4.5 -1 -3.5
v 4.5 1 3.5
v 4.5 1 -3.5
v 4.5 1 -4.5
v 4.5 2 3.5
v 4.5 2 -3.5
v 4.5 2 -4.5
v 4.5 3 4.5
v 4.5 3 3.5
v 4.5 3 -3.5
v 4.5 5 4.5
v 4.5 5 3.5
v 4.5 5 -3.5
v 4.5 5 -4.5
v 4.5 7 4.5
v 4.5 7 3.5
v 4.5 7 -3.5
v 4.5 7 -4.5
v 4.5 9 3.5
v 4.5 9 -3.5
v 5.5 -15 3.5
v 5.5 -15 1.5
v 5.5 -15 -1.5
v 5.5 -15 -3.5
v 5.5 -13 1.5
v 5.5 -13 -1.5
v 5.5 -12 3.5
v 5.5 -12 -3.5
v 5.5 -8 3.5
v 5.5 -8 -3.5
v 5.5 -2 3.5
v 5.5 -2 -3.5
v 5.5 -1 0.5
v 5.5 -1 -0.5
v 5.5 -1 -2.5
v 5.5 -1 -3.5
v 5.5 1 3.5
v 5.5 1 2.5
v 5.5 1 0.5
v 5.5 1 -0.5
v 5.5 1 -1.5
v 5.5 1 -2.5
v 5.5 2 3.5
v 5.5 2 2.5
v 5.5 2 1.5
v 5.5 2 0.5
v 5.5 2 -0.5
v 5.5 2 -1.5
v 5.5 2 -2.5
v 5.5 3 2.5
v 5.5 3 1.5
v 5.5 3 0.5
v 5.5 3 -0.5
v 5.5 3 -2.5
v 5.5 3 -3.5
v 5.5 4 0.5
v 5.5 4 -0.5
v 5.5 5 3.5
v 5.5 5 -3.5
v 5.5 7 3.5
v 5.5 7 -3.5
v -3.5 -15 5.5
v -3.5 -12 5.5
v -3.5 -8 5.5
v -3.5 -2 5.5
v -3.5 -1 5.5
v -3.5 0 5.5
v -3.5 1 5.5
v -3.5 2 5.5
v -3.5 3 5.5
v -3.5 4 5.5
v -3.5 5 5.5
v -3.5 7 5.5
v -2.5 0 5.5
v -2.5 1 5.5
v -1.5 -15 5.5
v -1.5 -13 5.5
v -1.5 -1 5.5
v -1.5 1 5.5
v -1.5 2 5.5
v -1.5 3 5.5
v -1.5 4 5.5
v -0.5 -1 5.5
v -0.5 1 5.5
v -0.5 2 5.5
v -0.5 3 5.5
v 0.5 -1 5.5
v 0.5 0 5.5
v 0.5 1 5.5
v 0.5 2 5.5
v 1.5 -15 5.5
v 1.5 -13 5.5
v 1.5 0 5.5
v 1.5 1 5.5
v 1.5 2 5.5
v 1.5 3 5.5
v 2.5 1 5.5
v 2.5 2 5.5
v 3.5 -15 5.5
v 3.5 -12 5.5
v 3.5 -8 5.5
v 3.5 -2 5.5
v 3.5 1 5.5
v 3.5 2 5.5
v 3.5 5 5.5
v 3.5 7 5.5
v -4.5 -15 4.5
v -4.5 -12 4.5
v -4.5 -8 4.5
v -4.5 -2 4.5
v -4.5 -1 4.5
v -4.5 0 4.5
v -4.5 1 4.5
v -4.5 4 4.5
v -4.5 5 4.5
v -4.5 7 4.5
v -3.5 -16 4.5
v -3.5 -15 4.5
v -3.5 -12 4.5
v -3.5 -8 4.5
v -3.5 -2 4.5
v -3.5 -1 4.5
v -3.5 0 4.5
v -3.5 1 4.5
v -3.5 2 4.5
v -3.5 3 4.5
v -3.5 4 4.5
v -3.5 5 4.5
v -3.5 7 4.5
v -3.5 9 4.5
v -1.5 -16 4.5
v -1.5 -15 4.5
v -1.5 -14 4.5
v -1.5 -13 4.5
v 1.5 -16 4.5
v 1.5 -15 4.5
v 1.5 -14 4.5
v 1.5 -13 4.5
v 3.5 -16 4.5
v 3.5 -15 4.5
v 3.5 -12 4.5
v 3.5 -8 4.5
v 3.5 -2 4.5
v 3.5 -1 4.5
v 3.5 1 4.5
v 3.5 2 4.5
v 3.5 3 4.5
v 3.5 5 4.5
v 3.5 7 4.5
v 3.5 9 4.5
v 4.5 -15 4.5
v 4.5 -12 4.5
v 4.5 -8 4.5
v 4.5 -2 4.5
v 4.5 -1 4.5
v 4.5 3 4.5
v 4.5 5 4.5
v 4.5 7 4.5
v -5.5 -15 3.5
v -5.5 -12 3.5
v -5.5 -8 3.5
v -5.5 -2 3.5
v -5.5 1 3.5
v -5.5 2 3.5
v -5.5 5 3.5
v -5.5 7 3.5
v -4.5 -16 3.5
v -4.5 -15 3.5
v -4.5 -12 3.5
v -4.5 -8 3.5
v -4.5 -2 3.5
v -4.5 -1 3.5
v -4.5 0 3.5
v -4.5 1 3.5
v -4.5 2 3.5
v -4.5 4 3.5
v -4.5 5 3.5
v -4.5 7 3.5
v -4.5 9 3.5
v -3.5 -16 3.5
v -3.5 -15 3.5
v -3.5 -12 3.5
v -3.5 -8 3.5
v -3.5 7 3.5
v -3.5 9 3.5
v -3.5 10 3.5
v -1.5 -16 3.5
v -1.5 -14 3.5
v -1.5 10 3.5
v -1.5 11 3.5
v -1.5 12 3.5
v -1.5 13 3.5
v -1.5 14 3.5
v -1.5 15 3.5
v -0.5 -16 3.5
v -0.5 -15 3.5
v 0.5 -16 3.5
v 0.5 -15 3.5
v 1.5 -16 3.5
v 1.5 -14 3.5
v 1.5 10 3.5
v 1.5 11 3.5
v 1.5 12 3.5
v 1.5 13 3.5
v 1.5 14 3.5
v 1.5 15 3.5
v 3.5 -16 3.5
v 3.5 -15 3.5
v 3.5 -12 3.5
v 3.5 -8 3.5
v 3.5 7 3.5
v 3.5 9 3.5
v 3.5 10 3.5
v 4.5 -16 3.5
v 4.5 -15 3.5
v 4.5 -12 3.5
v 4.5 -8 3.5
v 4.5 -2 3.5
v 4.5 -1 3.5
v 4.5 1 3.5
v 4.5 2 3.5
v 4.5 3 3.5
v 4.5 5 3.5
v 4.5 7 3.5
v 4.5 9 3.5
v 5.5 -15 3.5
v 5.5 -12 3.5
v 5.5 -8 3.5
v 5.5 -2 3.5
v 5.5 1 3.5
v 5.5 2 3.5
v 5.5 5 3.5
v 5.5 7 3.5
v -2.5 10 2.5
v -2.5 11 2.5
v -2.5 12 2.5
v -2.5 13 2.5
v -2.5 14 2.5
v -2.5 15 2.5
v -1.5 10 2.5
v -1.5 11 2.5
v -1.5 12 2.5
v -1.5 13 2.5
v -1.5 14 2.5
v -1.5 15 2.5
v -1.5 16 2.5
v 1.5 10 2.5
v 1.5 11 2.5
v 1.5 12 2.5
v 1.5 13 2.5
v 1.5 14 2.5
v 1.5 15 2.5
v 1.5 16 2.5
v 2.5 10 2.5
v 2.5 11 2.5
v 2.5 12 2.5
v 2.5 13 2.5
v 2.5 14 2.5
v 2.5 15 2.5
v -3.5 -15 1.5
v -3.5 -14 1.5
v -3.5 10 1.5
v -3.5 11 1.5
v -3.5 12 1.5
v -3.5 13 1.5
v -3.5 14 1.5
v -3.5 15 1.5
v -2.5 -15 1.5
v -2.5 -14 1.5
v -2.5 10 1.5
v -2.5 11 1.5
v -2.5 12 1.5
v -2.5 13 1.5
v -2.5 14 1.5
v -2.5 15 1.5
v -2.5 16 1.5
v -1.5 -15 1.5
v -1.5 -14 1.5
v -1.5 11 1.5
v -1.5 12 1.5
v -1.5 13 1.5
v -1.5 14 1.5
v -1.5 15 1.5
v -1.5 16 1.5
v -0.5 -15 1.5
v -0.5 -14 1.5
v -0.5 -13 1.5
v 0.5 -15 1.5
v 0.5 -14 1.5
v 0.5 -13 1.5
v 1.5 -15 1.5
v 1.5 -14 1.5
v 1.5 11 1.5
v 1.5 12 1.5
v 1.5 13 1.5
v 1.5 14 1.5
v 1.5 15 1.5
v 1.5 16 1.5
v 2.5 -15 1.5
v 2.5 -14 1.5
v 2.5 10 1.5
v 2.5 11 1.5
v 2.5 12 1.5
v 2.5 13 1.5
v 2.5 14 1.5
v 2.5 15 1.5
v 2.5 16 1.5
v 3.5 -15 1.5
v 3.5 -14 1.5
v 3.5 10 1.5
v 3.5 11 1.5
v 3.5 12 1.5
v 3.5 13 1.5
v 3.5 14 1.5
v 3.5 15 1.5
v -2.5 -15 0.5
v -2.5 -14 0.5
v -1.5 -15 0.5
v -1.5 -14 0.5
v -1.5 -13 0.5
v -0.5 -14 0.5
v -0.5 -13 0.5
v 0.5 -14 0.5
v 0.5 -13 0.5
v 1.5 -15 0.5
v 1.5 -14 0.5
v 1.5 -13 0.5
v 2.5 -15 0.5
v 2.5 -14 0.5
v -3.5 -16 -0.5
v -3.5 -15 -0.5
v -1.5 -16 -0.5
v -1.5 -15 -0.5
v -1.5 -14 -0.5
v -0.5 -15 -0.5
v -0.5 -14 -0.5
v 0.5 -15 -0.5
v 0.5 -14 -0.5
v 1.5 -16 -0.5
v 1.5 -15 -0.5
v 1.5 -14 -0.5
v 3.5 -16 -0.5
v 3.5 -15 -0.5
v -5.5 -15 -1.5
v -5.5 -13 -1.5
v -4.5 -16 -1.5
v -4.5 -15 -1.5
v -4.5 -14 -1.5
v -4.5 -13 -1.5
v -3.5 -16 -1.5
v -3.5 -14 -1.5
v -1.5 -16 -1.5
v -1.5 -15 -1.5
v -1.5 10 -1.5
v -1.5 16 -1.5
v -0.5 -16 -1.5
v -0.5 -15 -1.5
v -0.5 -14 -1.5
v 0.5 -16 -1.5
v 0.5 -15 -1.5
v 0.5 -14 -1.5
v 1.5 -16 -1.5
v 1.5 -15 -1.5
v 1.5 10 -1.5
v 1.5 16 -1.5
v 3.5 -16 -1.5
v 3.5 -14 -1.5
v 4.5 -16 -1.5
v 4.5 -15 -1.5
v 4.5 -14 -1.5
v 4.5 -13 -1.5
v 5.5 -15 -1.5
v 5.5 -13 -1.5
v -2.5 9 -2.5
v -2.5 10 -2.5
v -1.5 -15 -2.5
v -1.5 -14 -2.5
v -0.5 -15 -2.5
v -0.5 -14 -2.5
v 0.5 -15 -2.5
v 0.5 -14 -2.5
v 1.5 -15 -2.5
v 1.5 -14 -2.5
v 2.5 9 -2.5
v 2.5 10 -2.5
v -3.5 -15 -3.5
v -3.5 9 -3.5
v -1.5 -15 -3.5
v -1.5 -14 -3.5
v -1.5 5 -3.5
v -1.5 7 -3.5
v 1.5 -15 -3.5
v 1.5 -14 -3.5
v 3.5 -15 -3.5
v 3.5 5 -3.5
v 3.5 7 -3.5
v 3.5 9 -3.5
v -3.5 -15 3.5
v -3.5 0 3.5
v -3.5 1 3.5
v -3.5 2 3.5
v -3.5 3 3.5
v -3.5 4 3.5
v -3.5 5 3.5
v -3.5 6 3.5
v -3.5 9 3.5
v -2.5 0 3.5
v -2.5 1 3.5
v -2.5 2 3.5
v -2.5 3 3.5
v -2.5 6 3.5
v -2.5 7 3.5
v -1.5 -15 3.5
v -1.5 -14 3.5
v -1.5 0 3.5
v -1.5 1 3.5
v -1.5 2 3.5
v -1.5 3 3.5
v -1.5 4 3.5
v -1.5 5 3.5
v -1.5 7 3.5
v 1.5 -15 3.5
v 1.5 -14 3.5
v 1.5 -2 3.5
v 1.5 5 3.5
v 1.5 7 3.5
v 3.5 -15 3.5
v 3.5 -2 3.5
v 3.5 5 3.5
v 3.5 7 3.5
v 3.5 9 3.5
v -2.5 9 2.5
v -2.5 10 2.5
v -1.5 -15 2.5
v -1.5 -14 2.5
v -0.5 -15 2.5
v -0.5 -14 2.5
v 0.5 -15 2.5
v 0.5 -14 2.5
v 1.5 -15 2.5
v 1.5 -14 2.5
v 2.5 9 2.5
v 2.5 10 2.5
v -5.5 -15 1.5
v -5.5 -13 1.5
v -4.5 -16 1.5
v -4.5 -15 1.5
v -4.5 -14 1.5
v -4.5 -13 1.5
v -3.5 -16 1.5
v -3.5 -14 1.5
v -1.5 -16 1.5
v -1.5 -15 1.5
v -1.5 10 1.5
v -1.5 16 1.5
v -0.5 -16 1.5
v -0.5 -15 1.5
v -0.5 -14 1.5
v 0.5 -16 1.5
v 0.5 -15 1.5
v 0.5 -14 1.5
v 1.5 -16 1.5
v 1.5 -15 1.5
v 1.5 10 1.5
v 1.5 16 1.5
v 3.5 -16 1.5
v 3.5 -14 1.5
v 4.5 -16 1.5
v 4.5 -15 1.5
v 4.5 -14 1.5
v 4.5 -13 1.5
v 5.5 -15 1.5
v 5.5 -13 1.5
v -3.5 -16 0.5
v -3.5 -15 0.5
v -1.5 -16 0.5
v -1.5 -15 0.5
v -1.5 -14 0.5
v -0.5 -15 0.5
v -0.5 -14 0.5
v 0.5 -15 0.5
v 0.5 -14 0.5
v 1.5 -16 0.5
v 1.5 -15 0.5
v 1.5 -14 0.5
v 3.5 -16 0.5
v 3.5 -15 0.5
v -2.5 -15 -0.5
v -2.5 -14 -0.5
v -1.5 -15 -0.5
v -1.5 -14 -0.5
v -1.5 -13 -0.5
v -0.5 -14 -0.5
v -0.5 -13 -0.5
v 0.5 -14 -0.5
v 0.5 -13 -0.5
v 1.5 -15 -0.5
v 1.5 -14 -0.5
v 1.5 -13 -0.5
v 2.5 -15 -0.5
v 2.5 -14 -0.5
v -3.5 -15 -1.5
v -3.5 -14 -1.5
v -3.5 10 -1.5
v -3.5 11 -1.5
v -3.5 12 -1.5
v -3.5 13 -1.5
v -3.5 14 -1.5
v -3.5 15 -1.5
v -2.5 -15 -1.5
v -2.5 -14 -1.5
v -2.5 10 -1.5
v -2.5 11 -1.5
v -2.5 12 -1.5
v -2.5 13 -1.5
v -2.5 14 -1.5
v -2.5 15 -1.5
v -2.5 16 -1.5
v -1.5 -15 -1.5
v -1.5 -14 -1.5
v -1.5 11 -1.5
v -1.5 12 -1.5
v -1.5 13 -1.5
v -1.5 14 -1.5
v -1.5 15 -1.5
v -1.5 16 -1.5
v -0.5 -15 -1.5
v -0.5 -14 -1.5
v -0.5 -13 -1.5
v 0.5 -15 -1.5
v 0.5 -14 -1.5
v 0.5 -13 -1.5
v 1.5 -15 -1.5
v 1.5 -14 -1.5
v 1.5 11 -1.5
v 1.5 12 -1.5
v 1.5 13 -1.5
v 1.5 14 -1.5
v 1.5 15 -1.5
v 1.5 16 -1.5
v 2.5 -15 -1.5
v 2.5 -14 -1.5
v 2.5 10 -1.5
v 2.5 11 -1.5
v 2.5 12 -1.5
v 2.5 13 -1.5
v 2.5 14 -1.5
v 2.5 15 -1.5
v 2.5 16 -1.5
v 3.5 -15 -1.5
v 3.5 -14 -1.5
v 3.5 10 -1.5
v 3.5 11 -1.5
v 3.5 12 -1.5
v 3.5 13 -1.5
v 3.5 14 -1.5
v 3.5 15 -1.5
v -2.5 10 -2.5
v -2.5 11 -2.5
v -2.5 12 -2.5
v -2.5 13 -2.5
v -2.5 14 -2.5
v -2.5 15 -2.5
v -1.5 10 -2.5
v -1.5 11 -2.5
v -1.5 12 -2.5
v -1.5 13 -2.5
v -1.5 14 -2.5
v -1.5 15 -2.5
v -1.5 16 -2.5
v 1.5 10 -2.5
v 1.5 11 -2.5
v 1.5 12 -2.5
v 1.5 13 -2.5
v 1.5 14 -2.5
v 1.5 15 -2.5
v 1.5 16 -2.5
v 2.5 10 -2.5
v 2.5 11 -2.5
v 2.5 12 -2.5
v 2.5 13 -2.5
v 2.5 14 -2.5
v 2.5 15 -2.5
v -5.5 -15 -3.5
v -5.5 -12 -3.5
v -5.5 -8 -3.5
v -5.5 -2 -3.5
v -5.5 -1 -3.5
v -5.5 1 -3.5
v -5.5 4 -3.5
v -5.5 5 -3.5
v -5.5 7 -3.5
v -4.5 -16 -3.5
v -4.5 -15 -3.5
v -4.5 -12 -3.5
v -4.5 -8 -3.5
v -4.5 -2 -3.5
v -4.5 -1 -3.5
v -4.5 0 -3.5
v -4.5 1 -3.5
v -4.5 2 -3.5
v -4.5 3 -3.5
v -4.5 4 -3.5
v -4.5 5 -3.5
v -4.5 7 -3.5
v -4.5 9 -3.5
v -3.5 -16 -3.5
v -3.5 -15 -3.5
v -3.5 -12 -3.5
v -3.5 -8 -3.5
v -3.5 7 -3.5
v -3.5 9 -3.5
v -3.5 10 -3.5
v -1.5 -16 -3.5
v -1.5 -14 -3.5
v -1.5 10 -3.5
v -1.5 11 -3.5
v -1.5 12 -3.5
v -1.5 13 -3.5
v -1.5 14 -3.5
v -1.5 15 -3.5
v -0.5 -16 -3.5
v -0.5 -15 -3.5
v 0.5 -16 -3.5
v 0.5 -15 -3.5
v 1.5 -16 -3.5
v 1.5 -14 -3.5
v 1.5 10 -3.5
v 1.5 11 -3.5
v 1.5 12 -3.5
v 1.5 13 -3.5
v 1.5 14 -3.5
v 1.5 15 -3.5
v 3.5 -16 -3.5
v 3.5 -15 -3.5
v 3.5 -12 -3.5
v 3.5 -8 -3.5
v 3.5 7 -3.5
v 3.5 9 -3.5
v 3.5 10 -3.5
v 4.5 -16 -3.5
v 4.5 -15 -3.5
v 4.5 -12 -3.5
v 4.5 -8 -3.5
v 4.5 -2 -3.5
v 4.5 -1 -3.5
v 4.5 1 -3.5
v 4.5 2 -3.5
v 4.5 3 -3.5
v 4.5 5 -3.5
v 4.5 7 -3.5
v 4.5 9 -3.5
v 5.5 -15 -3.5
v 5.5 -12 -3.5
v 5.5 -8 -3.5
v 5.5 -2 -3.5
v 5.5 -1 -3.5
v 5.5 3 -3.5
v 5.5 5 -3.5
v 5.5 7 -3.5
v -4.5 -15 -4.5
v -4.5 -12 -4.5
v -4.5 -8 -4.5
v -4.5 -2 -4.5
v -4.5 0 -4.5
v -4.5 2 -4.5
v -4.5 3 -4.5
v -4.5 5 -4.5
v -4.5 7 -4.5
v -3.5 -16 -4.5
v -3.5 -15 -4.5
v -3.5 -12 -4.5
v -3.5 -8 -4.5
v -3.5 -2 -4.5
v -3.5 0 -4.5
v -3.5 1 -4.5
v -3.5 2 -4.5
v -3.5 3 -4.5
v -3.5 5 -4.5
v -3.5 7 -4.5
v -3.5 9 -4.5
v -1.5 -16 -4.5
v -1.5 -15 -4.5
v -1.5 -14 -4.5
v -1.5 -13 -4.5
v 1.5 -16 -4.5
v 1.5 -15 -4.5
v 1.5 -14 -4.5
v 1.5 -13 -4.5
v 3.5 -16 -4.5
v 3.5 -15 -4.5
v 3.5 -12 -4.5
v 3.5 -8 -4.5
v 3.5 -2 -4.5
v 3.5 1 -4.5
v 3.5 2 -4.5
v 3.5 5 -4.5
v 3.5 7 -4.5
v 3.5 9 -4.5
v 4.5 -15 -4.5
v 4.5 -12 -4.5
v 4.5 -8 -4.5
v 4.5 -2 -4.5
v 4.5 1 -4.5
v 4.5 2 -4.5
v 4.5 5 -4.5
v 4.5 7 -4.5
v -3.5 -15 -5.5
v -3.5 -12 -5.5
v -3.5 -8 -5.5
v -3.5 -2 -5.5
v -3.5 1 -5.5
v -3.5 2 -5.5
v -3.5 5 -5.5
v -3.5 7 -5.5
v -1.5 -15 -5.5
v -1.5 -13 -5.5
v -0.5 -1 -5.5
v -0.5 0 -5.5
v -0.5 2 -5.5
v -0.5 3 -5.5
v 0.5 1 -5.5
v 0.5 2 -5.5
v 0.5 3 -5.5
v 0.5 4 -5.5
v 1.5 -15 -5.5
v 1.5 -13 -5.5
v 1.5 -1 -5.5
v 1.5 0 -5.5
v 1.5 1 -5.5
v 1.5 2 -5.5
v 1.5 3 -5.5
v 1.5 4 -5.5
v 2.5 0 -5.5
v 2.5 1 -5.5
v 2.5 2 -5.5
v 2.5 3 -5.5
v 3.5 -15 -5.5
v 3.5 -12 -5.5
v 3.5 -8 -5.5
v 3.5 -2 -5.5
v 3.5 1 -5.5
v 3.5 2 -5.5
v 3.5 5 -5.5
v 3.5 7 -5.5
v -3.5 -16 4.5
v -1.5 -16 4.5
v 1.5 -16 4.5
v 3.5 -16 4.5
v -4.5 -16 3.5
v -3.5 -16 3.5
v -1.5 -16 3.5
v -0.5 -16 3.5
v 0.5 -16 3.5
v 1.5 -16 3.5
v 3.5 -16 3.5
v 4.5 -16 3.5
v -4.5 -16 1.5
v -3.5 -16 1.5
v -1.5 -16 1.5
v -0.5 -16 1.5
v 0.5 -16 1.5
v 1.5 -16 1.5
v 3.5 -16 1.5
v 4.5 -16 1.5
v -3.5 -16 0.5
v -1.5 -16 0.5
v 1.5 -16 0.5
v 3.5 -16 0.5
v -3.5 -16 -0.5
v -1.5 -16 -0.5
v 1.5 -16 -0.5
v 3.5 -16 -0.5
v -4.5 -16 -1.5
v -3.5 -16 -1.5
v -1.5 -16 -1.5
v -0.5 -16 -1.5
v 0.5 -16 -1.5
v 1.5 -16 -1.5
v 3.5 -16 -1.5
v 4.5 -16 -1.5
v -4.5 -16 -3.5
v -3.5 -16 -3.5
v -1.5 -16 -3.5
v -0.5 -16 -3.5
v 0.5 -16 -3.5
v 1.5 -16 -3.5
v 3.5 -16 -3.5
v 4.5 -16 -3.5
v -3.5 -16 -4.5
v -1.5 -16 -4.5
v 1.5 -16 -4.5
v 3.5 -16 -4.5
v -3.5 -15 5.5
v -1.5 -15 5.5
v 1.5 -15 5.5
v 3.5 -15 5.5
v -4.5 -15 4.5
v -3.5 -15 4.5
v -1.5 -15 4.5
v 1.5 -15 4.5
v 3.5 -15 4.5
v 4.5 -15 4.5
v -5.5 -15 3.5
v -4.5 -15 3.5
v -3.5 -15 3.5
v -0.5 -15 3.5
v 0.5 -15 3.5
v 3.5 -15 3.5
v 4.5 -15 3.5
v 5.5 -15 3.5
v -5.5 -15 1.5
v -4.5 -15 1.5
v -1.5 -15 1.5
v -0.5 -15 1.5
v 0.5 -15 1.5
v 1.5 -15 1.5
v 4.5 -15 1.5
v 5.5 -15 1.5
v -3.5 -15 0.5
v -1.5 -15 0.5
v -0.5 -15 0.5
v 0.5 -15 0.5
v 1.5 -15 0.5
v 3.5 -15 0.5
v -3.5 -15 -0.5
v -1.5 -15 -0.5
v -0.5 -15 -0.5
v 0.5 -15 -0.5
v 1.5 -15 -0.5
v 3.5 -15 -0.5
v -5.5 -15 -1.5
v -4.5 -15 -1.5
v -1.5 -15 -1.5
v -0.5 -15 -1.5
v 0.5 -15 -1.5
v 1.5 -15 -1.5
v 4.5 -15 -1.5
v 5.5 -15 -1.5
v -5.5 -15 -3.5
v -4.5 -15 -3.5
v -3.5 -15 -3.5
v -0.5 -15 -3.5
v 0.5 -15 -3.5
v 3.5 -15 -3.5
v 4.5 -15 -3.5
v 5.5 -15 -3.5
v -4.5 -15 -4.5
v -3.5 -15 -4.5
v -1.5 -15 -4.5
v 1.5 -15 -4.5
v 3.5 -15 -4.5
v 4.5 -15 -4.5
v -3.5 -15 -5.5
v -1.5 -15 -5.5
v 1.5 -15 -5.5
v 3.5 -15 -5.5
v -1.5 -14 4.5
v 1.5 -14 4.5
v -1.5 -14 3.5
v 1.5 -14 3.5
v -4.5 -14 1.5
v -3.5 -14 1.5
v -0.5 -14 1.5
v 0.5 -14 1.5
v 3.5 -14 1.5
v 4.5 -14 1.5
v -1.5 -14 0.5
v -0.5 -14 0.5
v 0.5 -14 0.5
v 1.5 -14 0.5
v -1.5 -14 -0.5
v -0.5 -14 -0.5
v 0.5 -14 -0.5
v 1.5 -14 -0.5
v -4.5 -14 -1.5
v -3.5 -14 -1.5
v -0.5 -14 -1.5
v 0.5 -14 -1.5
v 3.5 -14 -1.5
v 4.5 -14 -1.5
v -1.5 -14 -3.5
v 1.5 -14 -3.5
v -1.5 -14 -4.5
v 1.5 -14 -4.5
v -1.5 -13 5.5
v 1.5 -13 5.5
v -1.5 -13 4.5
v 1.5 -13 4.5
v -5.5 -13 1.5
v -4.5 -13 1.5
v 4.5 -13 1.5
v 5.5 -13 1.5
v -5.5 -13 -1.5
v -4.5 -13 -1.5
v 4.5 -13 -1.5
v 5.5 -13 -1.5
v -1.5 -13 -4.5
v 1.5 -13 -4.5
v -1.5 -13 -5.5
v 1.5 -13 -5.5
v -3.5 -8 5.5
v 3.5 -8 5.5
v -4.5 -8 4.5
v -3.5 -8 4.5
v 3.5 -8 4.5
v 4.5 -8 4.5
v -5.5 -8 3.5
v -4.5 -8 3.5
v -3.5 -8 3.5
v 3.5 -8 3.5
v 4.5 -8 3.5
v 5.5 -8 3.5
v -5.5 -8 -3.5
v -4.5 -8 -3.5
v -3.5 -8 -3.5
v 3.5 -8 -3.5
v 4.5 -8 -3.5
v 5.5 -8 -3.5
v -4.5 -8 -4.5
v -3.5 -8 -4.5
v 3.5 -8 -4.5
v 4.5 -8 -4.5
v -3.5 -8 -5.5
v 3.5 -8 -5.5
v -3.5 9 3.5
v 3.5 9 3.5
v -2.5 9 2.5
v 2.5 9 2.5
v -2.5 9 -2.5
v 2.5 9 -2.5
v -3.5 9 -3.5
v 3.5 9 -3.5
v -2.5 10 2.5
v 2.5 10 2.5
v -1.5 10 1.5
v 1.5 10 1.5
v -1.5 10 -1.5
v 1.5 10 -1.5
v -2.5 10 -2.5
v 2.5 10 -2.5
v -1.5 12 3.5
v 1.5 12 3.5
v -2.5 12 2.5
v -1.5 12 2.5
v 1.5 12 2.5
v 2.5 12 2.5
v -3.5 12 1.5
v -2.5 12 1.5
v -1.5 12 1.5
v 1.5 12 1.5
v 2.5 12 1.5
v 3.5 12 1.5
v -3.5 12 -1.5
v -2.5 12 -1.5
v -1.5 12 -1.5
v 1.5 12 -1.5
v 2.5 12 -1.5
v 3.5 12 -1.5
v -2.5 12 -2.5
v -1.5 12 -2.5
v 1.5 12 -2.5
v 2.5 12 -2.5
v -1.5 12 -3.5
v 1.5 12 -3.5
v -1.5 14 3.5
v 1.5 14 3.5
v -2.5 14 2.5
v -1.5 14 2.5
v 1.5 14 2.5
v 2.5 14 2.5
v -3.5 14 1.5
v -2.5 14 1.5
v -1.5 14 1.5
v 1.5 14 1.5
v 2.5 14 1.5
v 3.5 14 1.5
v -3.5 14 -1.5
v -2.5 14 -1.5
v -1.5 14 -1.5
v 1.5 14 -1.5
v 2.5 14 -1.5
v 3.5 14 -1.5
v -2.5 14 -2.5
v -1.5 14 -2.5
v 1.5 14 -2.5
v 2.5 14 -2.5
v -1.5 14 -3.5
v 1.5 14 -3.5
v -3.5 -15 3.5
v -1.5 -15 3.5
v 1.5 -15 3.5
v 3.5 -15 3.5
v -1.5 -15 2.5
v -0.5 -15 2.5
v 0.5 -15 2.5
v 1.5 -15 2.5
v -3.5 -15 1.5
v -2.5 -15 1.5
v -1.5 -15 1.5
v -0.5 -15 1.5
v 0.5 -15 1.5
v 1.5 -15 1.5
v 2.5 -15 1.5
v 3.5 -15 1.5
v -2.5 -15 0.5
v -1.5 -15 0.5
v 1.5 -15 0.5
v 2.5 -15 0.5
v -2.5 -15 -0.5
v -1.5 -15 -0.5
v 1.5 -15 -0.5
v 2.5 -15 -0.5
v -3.5 -15 -1.5
v -2.5 -15 -1.5
v -1.5 -15 -1.5
v -0.5 -15 -1.5
v 0.5 -15 -1.5
v 1.5 -15 -1.5
v 2.5 -15 -1.5
v 3.5 -15 -1.5
v -1.5 -15 -2.5
v -0.5 -15 -2.5
v 0.5 -15 -2.5
v 1.5 -15 -2.5
v -3.5 -15 -3.5
v -1.5 -15 -3.5
v 1.5 -15 -3.5
v 3.5 -15 -3.5
v -1.5 -14 3.5
v 1.5 -14 3.5
v -1.5 -14 2.5
v -0.5 -14 2.5
v 0.5 -14 2.5
v 1.5 -14 2.5
v -3.5 -14 1.5
v -2.5 -14 1.5
v -1.5 -14 1.5
v -0.5 -14 1.5
v 0.5 -14 1.5
v 1.5 -14 1.5
v 2.5 -14 1.5
v 3.5 -14 1.5
v -2.5 -14 0.5
v -1.5 -14 0.5
v -0.5 -14 0.5
v 0.5 -14 0.5
v 1.5 -14 0.5
v 2.5 -14 0.5
v -2.5 -14 -0.5
v -1.5 -14 -0.5
v -0.5 -14 -0.5
v 0.5 -14 -0.5
v 1.5 -14 -0.5
v 2.5 -14 -0.5
v -3.5 -14 -1.5
v -2.5 -14 -1.5
v -1.5 -14 -1.5
v -0.5 -14 -1.5
v 0.5 -14 -1.5
v 1.5 -14 -1.5
v 2.5 -14 -1.5
v 3.5 -14 -1.5
v -1.5 -14 -2.5
v -0.5 -14 -2.5
v 0.5 -14 -2.5
v 1.5 -14 -2.5
v -1.5 -14 -3.5
v 1.5 -14 -3.5
v -0.5 -13 1.5
v 0.5 -13 1.5
v -1.5 -13 0.5
v -0.5 -13 0.5
v 0.5 -13 0.5
v 1.5 -13 0.5
v -1.5 -13 -0.5
v -0.5 -13 -0.5
v 0.5 -13 -0.5
v 1.5 -13 -0.5
v -0.5 -13 -1.5
v 0.5 -13 -1.5
v -3.5 -12 5.5
v 3.5 -12 5.5
v -4.5 -12 4.5
v -3.5 -12 4.5
v 3.5 -12 4.5
v 4.5 -12 4.5
v -5.5 -12 3.5
v -4.5 -12 3.5
v -3.5 -12 3.5
v 3.5 -12 3.5
v 4.5 -12 3.5
v 5.5 -12 3.5
v -5.5 -12 -3.5
v -4.5 -12 -3.5
v -3.5 -12 -3.5
v 3.5 -12 -3.5
v 4.5 -12 -3.5
v 5.5 -12 -3.5
v -4.5 -12 -4.5
v -3.5 -12 -4.5
v 3.5 -12 -4.5
v 4.5 -12 -4.5
v -3.5 -12 -5.5
v 3.5 -12 -5.5
v -3.5 7 5.5
v 3.5 7 5.5
v -4.5 7 4.5
v -3.5 7 4.5
v 3.5 7 4.5
v 4.5 7 4.5
v -5.5 7 3.5
v -4.5 7 3.5
v -3.5 7 3.5
v 3.5 7 3.5
v 4.5 7 3.5
v 5.5 7 3.5
v -5.5 7 -3.5
v -4.5 7 -3.5
v -3.5 7 -3.5
v 3.5 7 -3.5
v 4.5 7 -3.5
v 5.5 7 -3.5
v -4.5 7 -4.5
v -3.5 7 -4.5
v 3.5 7 -4.5
v 4.5 7 -4.5
v -3.5 7 -5.5
v 3.5 7 -5.5
v -3.5 9 4.5
v 3.5 9 4.5
v -4.5 9 3.5
v -3.5 9 3.5
v 3.5 9 3.5
v 4.5 9 3.5
v -4.5 9 -3.5
v -3.5 9 -3.5
v 3.5 9 -3.5
v 4.5 9 -3.5
v -3.5 9 -4.5
v 3.5 9 -4.5
v -3.5 10 3.5
v -1.5 10 3.5
v 1.5 10 3.5
v 3.5 10 3.5
v -2.5 10 2.5
v -1.5 10 2.5
v 1.5 10 2.5
v 2.5 10 2.5
v -3.5 10 1.5
v -2.5 10 1.5
v 2.5 10 1.5
v 3.5 10 1.5
v -3.5 10 -1.5
v -2.5 10 -1.5
v 2.5 10 -1.5
v 3.5 10 -1.5
v -2.5 10 -2.5
v -1.5 10 -2.5
v 1.5 10 -2.5
v 2.5 10 -2.5
v -3.5 10 -3.5
v -1.5 10 -3.5
v 1.5 10 -3.5
v 3.5 10 -3.5
v -1.5 11 3.5
v 1.5 11 3.5
v -2.5 11 2.5
v -1.5 11 2.5
v 1.5 11 2.5
v 2.5 11 2.5
v -3.5 11 1.5
v -2.5 11 1.5
v -1.5 11 1.5
v 1.5 11 1.5
v 2.5 11 1.5
v 3.5 11 1.5
v -3.5 11 -1.5
v -2.5 11 -1.5
v -1.5 11 -1.5
v 1.5 11 -1.5
v 2.5 11 -1.5
v 3.5 11 -1.5
v -2.5 11 -2.5
v -1.5 11 -2.5
v 1.5 11 -2.5
v 2.5 11 -2.5
v -1.5 11 -3.5
v 1.5 11 -3.5
v -1.5 13 3.5
v 1.5 13 3.5
v -2.5 13 2.5
v -1.5 13 2.5
v 1.5 13 2.5
v 2.5 13 2.5
v -3.5 13 1.5
v -2.5 13 1.5
v -1.5 13 1.5
v 1.5 13 1.5
v 2.5 13 1.5
v 3.5 13 1.5
v -3.5 13 -1.5
v -2.5 13 -1.5
v -1.5 13 -1.5
v 1.5 13 -1.5
v 2.5 13 -1.5
v 3.5 13 -1.5
v -2.5 13 -2.5
v -1.5 13 -2.5
v 1.5 13 -2.5
v 2.5 13 -2.5
v -1.5 13 -3.5
v 1.5 13 -3.5
v -1.5 15 3.5
v 1.5 15 3.5
v -2.5 15 2.5
v -1.5 15 2.5
v 1.5 15 2.5
v 2.5 15 2.5
v -3.5 15 1.5
v -2.5 15 1.5
v -1.5 15 1.5
v 1.5 15 1.5
v 2.5 15 1.5
v 3.5 15 1.5
v -3.5 15 -1.5
v -2.5 15 -1.5
v -1.5 15 -1.5
v 1.5 15 -1.5
v 2.5 15 -1.5
v 3.5 15 -1.5
v -2.5 15 -2.5
v -1.5 15 -2.5
v 1.5 15 -2.5
v 2.5 15 -2.5
v -1.5 15 -3.5
v 1.5 15 -3.5
v -1.5 16 2.5
v 1.5 16 2.5
v -2.5 16 1.5
v -1.5 16 1.5
v 1.5 16 1.5
v 2.5 16 1.5
v -2.5 16 -1.5
v -1.5 16 -1.5
v 1.5 16 -1.5
v 2.5 16 -1.5
v -1.5 16 -2.5
v 1.5 16 -2.5

# faces
f 5/4/1 2/4/1 1/4/1
f 6/4/1 4/4/1 3/4/1
f 7/4/1 5/4/1 1/4/1
f 7/4/1 6/4/1 5/4/1
f 8/4/1 4/4/1 6/4/1
f 8/4/1 6/4/1 7/4/1
f 11/4/1 10/4/1 9/4/1
f 12/4/1 10/4/1 11/4/1
f 13/8/1 12/8/1 11/8/1
f 14/8/1 12/8/1 13/8/1
f 15/8/1 13/8/1 11/8/1
f 16/6/1 14/6/1 13/6/1
f 16/8/1 13/8/1 15/8/1
f 17/8/1 15/8/1 11/8/1
f 18/6/1 16/6/1 15/6/1
f 18/8/1 15/8/1 17/8/1
f 19/6/1 14/6/1 16/6/1
f 19/6/1 16/6/1 18/6/1
f 20/6/1 14/6/1 19/6/1
f 21/5/1 18/5/1 17/5/1
f 22/6/1 19/6/1 18/6/1
f 22/5/1 18/5/1 21/5/1
f 23/7/1 20/7/1 19/7/1
f 23/6/1 19/6/1 22/6/1
f 24/2/1 22/2/1 21/2/1
f 24/7/1 23/7/1 22/7/1
f 25/7/1 20/7/1 23/7/1
f 25/7/1 23/7/1 24/7/1
f 26/2/1 25/2/1 24/2/1
f 26/7/1 20/7/1 25/7/1
f 27/7/1 20/7/1 26/7/1
f 28/2/1 24/2/1 21/2/1
f 28/2/1 26/2/1 24/2/1
f 28/2/1 27/2/1 26/2/1
f 29/2/1 27/2/1 28/2/1
f 30/4/1 29/4/1 28/4/1
f 31/4/1 29/4/1 30/4/1
f 37/4/1 33/4/1 32/4/1
f 38/4/1 33/4/1 37/4/1
f 39/4/1 35/4/1 34/4/1
f 40/4/1 35/4/1 39/4/1
f 44/4/1 43/4/1 42/4/1
f 45/4/1 43/4/1 44/4/1
f 46/4/1 37/4/1 36/4/1
f 47/4/1 37/4/1 46/4/1
f 48/4/1 41/4/1 40/4/1
f 49/4/1 41/4/1 48/4/1
f 51/4/1 48/4/1 47/4/1
f 52/4/1 48/4/1 51/4/1
f 54/4/1 51/4/1 50/4/1
f 55/4/1 51/4/1 54/4/1
f 56/4/1 53/4/1 52/4/1
f 57/4/1 53/4/1 56/4/1
f 58/8/1 55/8/1 54/8/1
f 59/8/1 55/8/1 58/8/1
f 60/8/1 57/8/1 56/8/1
f 61/3/1 59/3/1 58/3/1
f 62/3/1 59/3/1 61/3/1
f 63/8/1 57/8/1 60/8/1
f 64/8/1 57/8/1 63/8/1
f 65/8/1 62/8/1 61/8/1
f 66/8/1 62/8/1 65/8/1
f 67/6/1 64/6/1 63/6/1
f 68/3/1 66/3/1 65/3/1
f 69/6/1 64/6/1 67/6/1
f 70/6/1 64/6/1 69/6/1
f 71/7/1 70/7/1 69/7/1
f 72/7/1 70/7/1 71/7/1
f 73/3/1 68/3/1 65/3/1
f 74/3/1 68/3/1 73/3/1
f 75/2/1 72/2/1 71/2/1
f 76/2/1 74/2/1 73/2/1
f 77/2/1 74/2/1 76/2/1
f 78/2/1 72/2/1 75/2/1
f 79/2/1 72/2/1 78/2/1
f 80/4/1 77/4/1 76/4/1
f 81/4/1 77/4/1 80/4/1
f 82/4/1 79/4/1 78/4/1
f 83/4/1 79/4/1 82/4/1
f 84/4/1 82/4/1 81/4/1
f 85/4/1 82/4/1 84/4/1
f 95/4/1 87/4/1 86/4/1
f 96/4/1 87/4/1 95/4/1
f 97/4/1 89/4/1 88/4/1
f 98/4/1 91/4/1 90/4/1
f 99/4/1 93/4/1 92/4/1
f 100/4/1 93/4/1 99/4/1
f 102/4/1 98/4/1 97/4/1
f 102/4/1 97/4/1 88/4/1
f 103/4/1 91/4/1 98/4/1
f 103/4/1 98/4/1 102/4/1
f 104/4/1 95/4/1 94/4/1
f 105/4/1 95/4/1 104/4/1
f 108/4/1 101/4/1 100/4/1
f 109/4/1 101/4/1 108/4/1
f 111/4/1 106/4/1 105/4/1
f 112/4/1 106/4/1 111/4/1
f 113/4/1 108/4/1 107/4/1
f 114/4/1 108/4/1 113/4/1
f 116/4/1 111/4/1 110/4/1
f 117/4/1 111/4/1 116/4/1
f 118/4/1 115/4/1 114/4/1
f 119/4/1 115/4/1 118/4/1
f 120/8/1 117/8/1 116/8/1
f 121/8/1 117/8/1 120/8/1
f 122/3/1 121/3/1 120/3/1
f 123/3/1 121/3/1 122/3/1
f 124/8/1 119/8/1 118/8/1
f 125/8/1 123/8/1 122/8/1
f 126/8/1 123/8/1 125/8/1
f 127/8/1 119/8/1 124/8/1
f 128/8/1 119/8/1 127/8/1
f 129/3/1 126/3/1 125/3/1
f 130/3/1 126/3/1 129/3/1
f 131/5/1 128/5/1 127/5/1
f 132/5/1 128/5/1 131/5/1
f 133/2/1 130/2/1 129/2/1
f 134/2/1 130/2/1 133/2/1
f 135/2/1 132/2/1 131/2/1
f 136/3/1 134/3/1 133/3/1
f 137/3/1 134/3/1 136/3/1
f 138/2/1 137/2/1 136/2/1
f 139/2/1 137/2/1 138/2/1
f 140/2/1 132/2/1 135/2/1
f 141/2/1 132/2/1 140/2/1
f 142/4/1 139/4/1 138/4/1
f 143/4/1 139/4/1 142/4/1
f 146/4/1 141/4/1 140/4/1
f 147/4/1 141/4/1 146/4/1
f 148/4/1 144/4/1 143/4/1
f 149/4/1 144/4/1 148/4/1
f 150/4/1 146/4/1 145/4/1
f 151/4/1 146/4/1 150/4/1
f 152/4/1 150/4/1 149/4/1
f 153/4/1 150/4/1 152/4/1
f 154/4/1 150/4/1 153/4/1
f 155/4/1 150/4/1 154/4/1
f 156/4/1 154/4/1 153/4/1
f 157/4/1 154/4/1 156/4/1
f 160/4/1 159/4/1 158/4/1
f 161/4/1 159/4/1 160/4/1
f 164/4/1 163/4/1 162/4/1
f 165/4/1 163/4/1 164/4/1
f 170/4/1 167/4/1 166/4/1
f 171/4/1 167/4/1 170/4/1
f 172/4/1 169/4/1 168/4/1
f 173/4/1 169/4/1 172/4/1
f 175/4/1 172/4/1 171/4/1
f 176/4/1 172/4/1 175/4/1
f 178/4/1 175/4/1 174/4/1
f 179/4/1 175/4/1 178/4/1
f 180/4/1 177/4/1 176/4/1
f 181/4/1 177/4/1 180/4/1
f 183/4/1 180/4/1 179/4/1
f 184/4/1 180/4/1 183/4/1
f 186/4/1 183/4/1 182/4/1
f 187/4/1 183/4/1 186/4/1
f 188/4/1 185/4/1 184/4/1
f 189/4/1 185/4/1 188/4/1
f 190/4/1 188/4/1 187/4/1
f 191/4/1 188/4/1 190/4/1
f 200/4/1 193/4/1 192/4/1
f 201/4/1 193/4/1 200/4/1
f 202/4/1 195/4/1 194/4/1
f 203/4/1 195/4/1 202/4/1
f 204/4/1 197/4/1 196/4/1
f 205/4/1 197/4/1 204/4/1
f 206/4/1 199/4/1 198/4/1
f 207/4/1 199/4/1 206/4/1
f 208/4/1 204/4/1 203/4/1
f 209/4/1 204/4/1 208/4/1
f 214/4/1 211/4/1 210/4/1
f 215/4/1 211/4/1 214/4/1
f 218/4/1 213/4/1 212/4/1
f 219/4/1 213/4/1 218/4/1
f 221/4/1 216/4/1 215/4/1
f 222/4/1 216/4/1 221/4/1
f 223/4/1 218/4/1 217/4/1
f 224/4/1 218/4/1 223/4/1
f 226/4/1 221/4/1 220/4/1
f 227/4/1 221/4/1 226/4/1
f 230/4/1 225/4/1 224/4/1
f 231/4/1 225/4/1 230/4/1
f 233/4/1 228/4/1 227/4/1
f 234/4/1 228/4/1 233/4/1
f 235/4/1 230/4/1 229/4/1
f 236/4/1 230/4/1 235/4/1
f 238/4/1 233/4/1 232/4/1
f 239/4/1 233/4/1 238/4/1
f 242/4/1 237/4/1 236/4/1
f 243/4/1 237/4/1 242/4/1
f 244/4/1 240/4/1 239/4/1
f 245/4/1 240/4/1 244/4/1
f 246/4/1 242/4/1 241/4/1
f 247/4/1 242/4/1 246/4/1
f 252/4/1 249/4/1 248/4/1
f 253/4/1 249/4/1 252/4/1
f 256/4/1 251/4/1 250/4/1
f 257/4/1 251/4/1 256/4/1
f 258/4/1 254/4/1 253/4/1
f 259/4/1 254/4/1 258/4/1
f 260/4/1 256/4/1 255/4/1
f 261/4/1 256/4/1 260/4/1
f 266/4/1 263/4/1 262/4/1
f 267/4/1 263/4/1 266/4/1
f 270/4/1 265/4/1 264/4/1
f 271/4/1 265/4/1 270/4/1
f 272/4/1 268/4/1 267/4/1
f 273/4/1 268/4/1 272/4/1
f 274/4/1 270/4/1 269/4/1
f 275/4/1 270/4/1 274/4/1
f 285/4/1 277/4/1 276/4/1
f 286/4/1 279/4/1 278/4/1
f 287/4/1 279/4/1 286/4/1
f 288/4/1 281/4/1 280/4/1
f 289/4/1 281/4/1 288/4/1
f 290/4/1 283/4/1 282/4/1
f 292/4/1 285/4/1 284/4/1
f 292/4/1 277/4/1 285/4/1
f 293/4/1 277/4/1 292/4/1
f 294/4/1 288/4/1 287/4/1
f 295/4/1 288/4/1 294/4/1
f 296/4/1 291/4/1 290/4/1
f 296/4/1 290/4/1 282/4/1
f 297/4/1 291/4/1 296/4/1
f 298/4/1 292/4/1 284/4/1
f 299/4/1 292/4/1 298/4/1
f 300/4/1 291/4/1 297/4/1
f 301/4/1 291/4/1 300/4/1
f 304/4/1 303/4/1 302/4/1
f 305/4/1 303/4/1 304/4/1
f 310/4/1 307/4/1 306/4/1
f 311/4/1 307/4/1 310/4/1
f 312/4/1 309/4/1 308/4/1
f 313/4/1 309/4/1 312/4/1
f 316/4/1 315/4/1 314/4/1
f 317/4/1 315/4/1 316/4/1
f 322/4/1 319/4/1 318/4/1
f 323/4/1 321/4/1 320/4/1
f 324/4/1 322/4/1 318/4/1
f 324/4/1 323/4/1 322/4/1
f 325/4/1 323/4/1 324/4/1
f 326/4/1 321/4/1 323/4/1
f 326/4/1 323/4/1 325/4/1
f 327/4/1 326/4/1 325/4/1
f 328/4/1 326/4/1 327/4/1
f 329/4/1 328/4/1 327/4/1
f 330/4/1 328/4/1 329/4/1
f 331/4/2 332/4/2 335/4/2
f 333/4/2 334/4/2 336/4/2
f 331/4/2 335/4/2 337/4/2
f 335/4/2 336/4/2 337/4/2
f 336/4/2 334/4/2 338/4/2
f 337/4/2 336/4/2 338/4/2
f 331/4/2 337/4/2 339/4/2
f 339/4/2 337/4/2 340/4/2
f 340/4/2 337/4/2 341/4/2
f 341/4/2 337/4/2 342/4/2
f 342/4/2 337/4/2 343/4/2
f 343/4/2 337/4/2 344/4/2
f 337/8/2 338/8/2 345/8/2
f 344/4/2 337/4/2 345/4/2
f 338/4/2 334/4/2 346/4/2
f 345/8/2 338/8/2 346/8/2
f 344/4/2 345/4/2 347/4/2
f 345/4/2 346/4/2 347/4/2
f 347/4/2 346/4/2 348/4/2
f 346/4/2 334/4/2 349/4/2
f 348/4/2 346/4/2 349/4/2
f 350/4/2 351/4/2 354/4/2
f 354/4/2 351/4/2 355/4/2
f 352/4/2 353/4/2 356/4/2
f 356/4/2 353/4/2 357/4/2
f 358/4/2 359/4/2 360/4/2
f 360/4/2 359/4/2 361/4/2
f 362/4/2 363/4/2 371/4/2
f 364/4/2 365/4/2 372/4/2
f 372/4/2 365/4/2 373/4/2
f 366/4/2 367/4/2 374/4/2
f 374/4/2 367/4/2 375/4/2
f 368/4/2 369/4/2 376/4/2
f 370/4/2 371/4/2 378/4/2
f 371/4/2 363/4/2 378/4/2
f 378/4/2 363/4/2 379/4/2
f 373/4/2 374/4/2 380/4/2
f 380/4/2 374/4/2 381/4/2
f 376/4/2 377/4/2 382/4/2
f 368/4/2 376/4/2 382/4/2
f 382/4/2 377/4/2 383/4/2
f 370/4/2 378/4/2 384/4/2
f 384/4/2 378/4/2 385/4/2
f 383/4/2 377/4/2 386/4/2
f 386/4/2 377/4/2 387/4/2
f 388/4/2 389/4/2 390/4/2
f 390/4/2 389/4/2 391/4/2
f 392/4/2 393/4/2 396/4/2
f 396/4/2 393/4/2 397/4/2
f 394/4/2 395/4/2 400/4/2
f 400/4/2 395/4/2 401/4/2
f 397/4/2 398/4/2 402/4/2
f 402/4/2 398/4/2 403/4/2
f 399/4/2 400/4/2 404/4/2
f 404/4/2 400/4/2 405/4/2
f 406/4/2 407/4/2 410/4/2
f 410/4/2 407/4/2 411/4/2
f 408/4/2 409/4/2 414/4/2
f 414/4/2 409/4/2 415/4/2
f 411/4/2 412/4/2 416/4/2
f 416/4/2 412/4/2 417/4/2
f 413/4/2 414/4/2 418/4/2
f 418/4/2 414/4/2 419/4/2
f 420/4/2 421/4/2 428/4/2
f 428/4/2 421/4/2 429/4/2
f 422/4/2 423/4/2 430/4/2
f 430/4/2 423/4/2 431/4/2
f 424/4/2 425/4/2 432/4/2
f 432/4/2 425/4/2 433/4/2
f 426/4/2 427/4/2 434/4/2
f 434/4/2 427/4/2 435/4/2
f 431/4/2 432/4/2 436/4/2
f 436/4/2 432/4/2 437/4/2
f 438/4/2 439/4/2 442/4/2
f 442/4/2 439/4/2 443/4/2
f 440/4/2 441/4/2 446/4/2
f 446/4/2 441/4/2 447/4/2
f 443/4/2 444/4/2 449/4/2
f 449/4/2 444/4/2 450/4/2
f 445/4/2 446/4/2 451/4/2
f 451/4/2 446/4/2 452/4/2
f 448/4/2 449/4/2 454/4/2
f 454/4/2 449/4/2 455/4/2
f 452/4/2 453/4/2 458/4/2
f 458/4/2 453/4/2 459/4/2
f 455/4/2 456/4/2 461/4/2
f 461/4/2 456/4/2 462/4/2
f 457/4/2 458/4/2 463/4/2
f 463/4/2 458/4/2 464/4/2
f 460/4/2 461/4/2 466/4/2
f 466/4/2 461/4/2 467/4/2
f 464/4/2 465/4/2 470/4/2
f 470/4/2 465/4/2 471/4/2
f 467/4/2 468/4/2 472/4/2
f 472/4/2 468/4/2 473/4/2
f 469/4/2 470/4/2 474/4/2
f 474/4/2 470/4/2 475/4/2
f 476/4/2 477/4/2 480/4/2
f 480/4/2 477/4/2 481/4/2
f 478/4/2 479/4/2 482/4/2
f 482/4/2 479/4/2 483/4/2
f 481/4/2 482/4/2 485/4/2
f 485/4/2 482/4/2 486/4/2
f 484/4/2 485/4/2 488/4/2
f 488/4/2 485/4/2 489/4/2
f 486/4/2 487/4/2 490/4/2
f 490/4/2 487/4/2 491/4/2
f 489/4/2 490/4/2 493/4/2
f 493/4/2 490/4/2 494/4/2
f 492/4/2 493/4/2 496/4/2
f 496/4/2 493/4/2 497/4/2
f 494/4/2 495/4/2 498/4/2
f 498/4/2 495/4/2 499/4/2
f 497/4/2 498/4/2 500/4/2
f 500/4/2 498/4/2 501/4/2
f 502/4/2 503/4/2 511/4/2
f 511/4/2 503/4/2 512/4/2
f 504/4/2 505/4/2 513/4/2
f 506/4/2 507/4/2 514/4/2
f 508/4/2 509/4/2 515/4/2
f 515/4/2 509/4/2 516/4/2
f 513/4/2 514/4/2 518/4/2
f 504/4/2 513/4/2 518/4/2
f 514/4/2 507/4/2 519/4/2
f 518/4/2 514/4/2 519/4/2
f 510/4/2 511/4/2 520/4/2
f 520/4/2 511/4/2 521/4/2
f 516/4/2 517/4/2 524/4/2
f 524/4/2 517/4/2 525/4/2
f 521/4/2 522/4/2 527/4/2
f 527/4/2 522/4/2 528/4/2
f 523/4/2 524/4/2 529/4/2
f 529/4/2 524/4/2 530/4/2
f 526/4/2 527/4/2 532/4/2
f 532/4/2 527/4/2 533/4/2
f 530/4/2 531/4/2 534/4/2
f 534/4/2 531/4/2 535/4/2
f 532/8/2 533/8/2 536/8/2
f 532/8/2 536/8/2 537/8/2
f 537/8/2 536/8/2 538/8/2
f 534/8/2 535/8/2 539/8/2
f 539/8/2 535/8/2 540/8/2
f 537/5/2 538/5/2 541/5/2
f 541/5/2 538/5/2 542/5/2
f 539/5/2 540/5/2 543/5/2
f 543/5/2 540/5/2 544/5/2
f 541/2/2 542/2/2 545/2/2
f 541/2/2 545/2/2 546/2/2
f 546/2/2 545/2/2 547/2/2
f 543/2/2 544/2/2 548/2/2
f 548/2/2 544/2/2 549/2/2
f 546/4/2 547/4/2 550/4/2
f 550/4/2 547/4/2 551/4/2
f 548/4/2 549/4/2 554/4/2
f 554/4/2 549/4/2 555/4/2
f 551/4/2 552/4/2 556/4/2
f 556/4/2 552/4/2 557/4/2
f 553/4/2 554/4/2 558/4/2
f 558/4/2 554/4/2 559/4/2
f 557/4/2 558/4/2 560/4/2
f 560/4/2 558/4/2 561/4/2
f 561/4/2 558/4/2 562/4/2
f 562/4/2 558/4/2 563/4/2
f 561/4/2 562/4/2 564/4/2
f 564/4/2 562/4/2 565/4/2
f 566/4/2 567/4/2 568/4/2
f 568/4/2 567/4/2 569/4/2
f 570/4/2 571/4/2 572/4/2
f 572/4/2 571/4/2 573/4/2
f 574/4/2 575/4/2 579/4/2
f 579/4/2 575/4/2 580/4/2
f 576/4/2 577/4/2 581/4/2
f 581/4/2 577/4/2 582/4/2
f 584/4/2 585/4/2 586/4/2
f 586/4/2 585/4/2 587/4/2
f 578/4/2 579/4/2 588/4/2
f 588/4/2 579/4/2 589/4/2
f 582/4/2 583/4/2 590/4/2
f 590/4/2 583/4/2 591/4/2
f 589/4/2 590/4/2 593/4/2
f 593/4/2 590/4/2 594/4/2
f 592/4/2 593/4/2 596/4/2
f 596/4/2 593/4/2 597/4/2
f 594/4/2 595/4/2 598/4/2
f 598/4/2 595/4/2 599/4/2
f 596/8/2 597/8/2 600/8/2
f 600/8/2 597/8/2 601/8/2
f 598/8/2 599/8/2 602/8/2
f 600/3/2 601/3/2 603/3/2
f 602/8/2 599/8/2 604/8/2
f 604/8/2 599/8/2 605/8/2
f 600/3/2 603/3/2 606/3/2
f 604/3/2 605/3/2 607/3/2
f 607/3/2 605/3/2 608/3/2
f 600/3/2 606/3/2 609/3/2
f 609/3/2 606/3/2 610/3/2
f 607/2/2 608/2/2 611/2/2
f 609/2/2 610/2/2 612/2/2
f 612/2/2 610/2/2 613/2/2
f 611/2/2 608/2/2 614/2/2
f 614/2/2 608/2/2 615/2/2
f 612/4/2 613/4/2 616/4/2
f 616/4/2 613/4/2 617/4/2
f 614/4/2 615/4/2 618/4/2
f 618/4/2 615/4/2 619/4/2
f 617/4/2 618/4/2 620/4/2
f 620/4/2 618/4/2 621/4/2
f 622/4/2 623/4/2 626/4/2
f 624/4/2 625/4/2 627/4/2
f 622/4/2 626/4/2 628/4/2
f 626/4/2 627/4/2 628/4/2
f 627/4/2 625/4/2 629/4/2
f 628/4/2 627/4/2 629/4/2
f 630/4/2 631/4/2 632/4/2
f 632/4/2 631/4/2 633/4/2
f 632/8/2 633/8/2 634/8/2
f 634/8/2 633/8/2 635/8/2
f 635/8/2 633/8/2 636/8/2
f 636/8/2 633/8/2 637/8/2
f 632/8/2 634/8/2 638/8/2
f 638/8/2 634/8/2 639/8/2
f 634/3/2 635/3/2 640/3/2
f 639/8/2 634/8/2 640/8/2
f 635/8/2 636/8/2 641/8/2
f 640/3/2 635/3/2 641/3/2
f 641/8/2 636/8/2 642/8/2
f 636/3/2 637/3/2 643/3/2
f 642/8/2 636/8/2 643/8/2
f 638/3/2 639/3/2 644/3/2
f 639/5/2 640/5/2 645/5/2
f 644/3/2 639/3/2 645/3/2
f 645/5/2 640/5/2 646/5/2
f 640/3/2 641/3/2 647/3/2
f 646/5/2 640/5/2 647/5/2
f 641/5/2 642/5/2 648/5/2
f 647/3/2 641/3/2 648/3/2
f 642/3/2 643/3/2 649/3/2
f 648/5/2 642/5/2 649/5/2
f 643/3/2 637/3/2 650/3/2
f 649/3/2 643/3/2 650/3/2
f 645/3/2 646/3/2 651/3/2
f 644/2/2 645/2/2 651/2/2
f 648/2/2 649/2/2 652/2/2
f 651/3/2 646/3/2 652/3/2
f 646/2/2 647/2/2 652/2/2
f 649/2/2 650/2/2 652/2/2
f 647/2/2 648/2/2 652/2/2
f 652/2/2 650/2/2 653/2/2
f 653/2/2 650/2/2 654/2/2
f 650/3/2 637/3/2 655/3/2
f 654/2/2 650/2/2 655/2/2
f 655/3/2 637/3/2 656/3/2
f 653/3/2 654/3/2 657/3/2
f 651/2/2 652/2/2 657/2/2
f 652/2/2 653/2/2 657/2/2
f 655/2/2 656/2/2 658/2/2
f 657/3/2 654/3/2 658/3/2
f 654/2/2 655/2/2 658/2/2
f 644/2/2 651/2/2 659/2/2
f 651/2/2 657/2/2 659/2/2
f 657/2/2 658/2/2 659/2/2
f 658/2/2 656/2/2 660/2/2
f 659/2/2 658/2/2 660/2/2
f 659/4/2 660/4/2 661/4/2
f 661/4/2 660/4/2 662/4/2
f 675/3/3 668/3/3 667/3/3
f 675/8/3 669/8/3 668/8/3
f 676/3/3 670/3/3 669/3/3
f 676/8/3 669/8/3 675/8/3
f 677/4/3 664/4/3 663/4/3
f 678/4/3 664/4/3 677/4/3
f 679/8/3 667/8/3 666/8/3
f 679/3/3 675/3/3 667/3/3
f 679/3/3 676/3/3 675/3/3
f 680/3/3 670/3/3 676/3/3
f 680/3/3 676/3/3 679/3/3
f 681/2/3 671/2/3 670/2/3
f 681/3/3 670/3/3 680/3/3
f 682/3/3 672/3/3 671/3/3
f 682/2/3 671/2/3 681/2/3
f 683/2/3 673/2/3 672/2/3
f 683/3/3 672/3/3 682/3/3
f 684/8/3 679/8/3 666/8/3
f 684/8/3 680/8/3 679/8/3
f 685/5/3 681/5/3 680/5/3
f 685/8/3 680/8/3 684/8/3
f 686/2/3 682/2/3 681/2/3
f 686/5/3 681/5/3 685/5/3
f 686/2/3 683/2/3 682/2/3
f 687/2/3 683/2/3 686/2/3
f 688/3/3 685/3/3 684/3/3
f 688/8/3 684/8/3 666/8/3
f 688/3/3 687/3/3 686/3/3
f 688/3/3 686/3/3 685/3/3
f 689/3/3 687/3/3 688/3/3
f 690/3/3 687/3/3 689/3/3
f 691/3/3 687/3/3 690/3/3
f 693/4/3 664/4/3 678/4/3
f 694/8/3 689/8/3 688/8/3
f 694/3/3 690/3/3 689/3/3
f 695/5/3 691/5/3 690/5/3
f 695/3/3 690/3/3 694/3/3
f 696/3/3 687/3/3 691/3/3
f 696/5/3 691/5/3 695/5/3
f 697/2/3 683/2/3 687/2/3
f 697/3/3 687/3/3 696/3/3
f 698/8/3 695/8/3 694/8/3
f 698/3/3 696/3/3 695/3/3
f 699/2/3 697/2/3 696/2/3
f 699/3/3 696/3/3 698/3/3
f 700/4/3 693/4/3 692/4/3
f 701/4/3 664/4/3 693/4/3
f 701/4/3 693/4/3 700/4/3
f 702/4/3 666/4/3 665/4/3
f 703/8/3 698/8/3 694/8/3
f 703/4/3 666/4/3 702/4/3
f 703/8/3 688/8/3 666/8/3
f 703/8/3 694/8/3 688/8/3
f 704/5/3 699/5/3 698/5/3
f 704/8/3 698/8/3 703/8/3
f 705/2/3 697/2/3 699/2/3
f 705/5/3 699/5/3 704/5/3
f 706/2/3 673/2/3 683/2/3
f 706/2/3 697/2/3 705/2/3
f 706/2/3 683/2/3 697/2/3
f 706/4/3 674/4/3 673/4/3
f 707/4/3 674/4/3 706/4/3
f 719/4/3 709/4/3 708/4/3
f 720/4/3 709/4/3 719/4/3
f 721/4/3 711/4/3 710/4/3
f 722/8/3 712/8/3 711/8/3
f 722/4/3 711/4/3 721/4/3
f 723/3/3 713/3/3 712/3/3
f 723/8/3 712/8/3 722/8/3
f 724/8/3 714/8/3 713/8/3
f 724/3/3 713/3/3 723/3/3
f 725/3/3 715/3/3 714/3/3
f 725/8/3 714/8/3 724/8/3
f 726/3/3 715/3/3 725/3/3
f 727/3/3 715/3/3 726/3/3
f 728/2/3 716/2/3 715/2/3
f 728/3/3 715/3/3 727/3/3
f 729/4/3 717/4/3 716/4/3
f 729/2/3 716/2/3 728/2/3
f 730/4/3 717/4/3 729/4/3
f 732/4/3 719/4/3 718/4/3
f 733/4/3 719/4/3 732/4/3
f 738/4/3 735/4/3 734/4/3
f 739/4/3 735/4/3 738/4/3
f 740/4/3 737/4/3 736/4/3
f 741/4/3 737/4/3 740/4/3
f 742/4/3 721/4/3 720/4/3
f 743/4/3 721/4/3 742/4/3
f 750/4/3 731/4/3 730/4/3
f 751/4/3 731/4/3 750/4/3
f 752/4/3 742/4/3 741/4/3
f 753/4/3 742/4/3 752/4/3
f 754/4/3 744/4/3 743/4/3
f 755/8/3 745/8/3 744/8/3
f 755/4/3 744/4/3 754/4/3
f 756/3/3 746/3/3 745/3/3
f 756/8/3 745/8/3 755/8/3
f 756/3/3 747/3/3 746/3/3
f 756/3/3 748/3/3 747/3/3
f 757/2/3 749/2/3 748/2/3
f 757/3/3 748/3/3 756/3/3
f 758/4/3 750/4/3 749/4/3
f 758/2/3 749/2/3 757/2/3
f 759/4/3 750/4/3 758/4/3
f 769/4/3 761/4/3 760/4/3
f 770/4/3 761/4/3 769/4/3
f 771/4/3 763/4/3 762/4/3
f 772/8/3 764/8/3 763/8/3
f 772/4/3 763/4/3 771/4/3
f 773/8/3 764/8/3 772/8/3
f 774/8/3 764/8/3 773/8/3
f 775/5/3 765/5/3 764/5/3
f 775/8/3 764/8/3 774/8/3
f 776/2/3 766/2/3 765/2/3
f 776/5/3 765/5/3 775/5/3
f 777/2/3 766/2/3 776/2/3
f 778/4/3 767/4/3 766/4/3
f 778/2/3 766/2/3 777/2/3
f 779/4/3 767/4/3 778/4/3
f 781/4/3 769/4/3 768/4/3
f 782/4/3 769/4/3 781/4/3
f 783/4/3 771/4/3 770/4/3
f 784/4/3 771/4/3 783/4/3
f 785/4/3 780/4/3 779/4/3
f 786/4/3 780/4/3 785/4/3
f 790/4/3 787/4/3 786/4/3
f 796/4/3 789/4/3 788/4/3
f 797/4/3 789/4/3 796/4/3
f 799/4/3 789/4/3 797/4/3
f 800/4/3 799/4/3 798/4/3
f 801/4/3 789/4/3 799/4/3
f 801/4/3 799/4/3 800/4/3
f 802/4/3 790/4/3 786/4/3
f 802/4/3 791/4/3 790/4/3
f 803/4/3 791/4/3 802/4/3
f 804/4/3 793/4/3 792/4/3
f 805/4/3 793/4/3 804/4/3
f 806/4/3 795/4/3 794/4/3
f 807/4/3 795/4/3 806/4/3
f 813/4/3 802/4/3 786/4/3
f 814/4/3 802/4/3 813/4/3
f 815/4/3 809/4/3 808/4/3
f 816/4/3 809/4/3 815/4/3
f 817/4/3 811/4/3 810/4/3
f 818/4/3 811/4/3 817/4/3
f 825/4/3 813/4/3 812/4/3
f 826/4/3 813/4/3 825/4/3
f 827/4/3 817/4/3 816/4/3
f 828/4/3 817/4/3 827/4/3
f 829/4/3 819/4/3 818/4/3
f 830/8/3 820/8/3 819/8/3
f 830/4/3 819/4/3 829/4/3
f 830/8/3 821/8/3 820/8/3
f 831/3/3 822/3/3 821/3/3
f 831/8/3 821/8/3 830/8/3
f 832/2/3 824/2/3 823/2/3
f 832/3/3 822/3/3 831/3/3
f 832/2/3 823/2/3 822/2/3
f 833/4/3 825/4/3 824/4/3
f 833/2/3 824/2/3 832/2/3
f 834/4/3 825/4/3 833/4/3
f 841/4/3 836/4/3 835/4/3
f 842/4/3 836/4/3 841/4/3
f 843/4/3 838/4/3 837/4/3
f 844/4/3 838/4/3 843/4/3
f 845/4/3 840/4/3 839/4/3
f 846/4/3 840/4/3 845/4/3
f 849/4/3 843/4/3 842/4/3
f 850/4/3 843/4/3 849/4/3
f 851/4/3 845/4/3 844/4/3
f 852/4/3 845/4/3 851/4/3
f 853/4/3 847/4/3 846/4/3
f 854/4/3 847/4/3 853/4/3
f 855/4/3 849/4/3 848/4/3
f 856/4/3 849/4/3 855/4/3
f 857/4/3 851/4/3 850/4/3
f 858/4/3 851/4/3 857/4/3
f 859/4/3 853/4/3 852/4/3
f 860/4/3 853/4/3 859/4/3
f 869/4/3 862/4/3 861/4/3
f 870/4/3 862/4/3 869/4/3
f 871/4/3 864/4/3 863/4/3
f 872/4/3 864/4/3 871/4/3
f 873/4/3 866/4/3 865/4/3
f 874/4/3 866/4/3 873/4/3
f 875/4/3 868/4/3 867/4/3
f 876/4/3 868/4/3 875/4/3
f 880/4/3 873/4/3 872/4/3
f 881/4/3 873/4/3 880/4/3
f 882/4/3 875/4/3 874/4/3
f 883/4/3 875/4/3 882/4/3
f 884/4/3 877/4/3 876/4/3
f 885/4/3 877/4/3 884/4/3
f 886/4/3 879/4/3 878/4/3
f 887/4/3 879/4/3 886/4/3
f 890/4/3 888/4/3 887/4/3
f 891/4/3 888/4/3 890/4/3
f 892/4/3 890/4/3 889/4/3
f 893/4/3 890/4/3 892/4/3
f 903/4/3 895/4/3 894/4/3
f 904/4/3 895/4/3 903/4/3
f 905/4/3 897/4/3 896/4/3
f 906/4/3 897/4/3 905/4/3
f 907/4/3 899/4/3 898/4/3
f 908/4/3 899/4/3 907/4/3
f 909/4/3 901/4/3 900/4/3
f 910/4/3 901/4/3 909/4/3
f 911/4/3 903/4/3 902/4/3
f 912/4/3 903/4/3 911/4/3
f 913/4/3 905/4/3 904/4/3
f 914/4/3 905/4/3 913/4/3
f 915/4/3 907/4/3 906/4/3
f 916/4/3 907/4/3 915/4/3
f 919/4/3 918/4/3 917/4/3
f 920/4/3 918/4/3 919/4/3
f 922/4/3 921/4/3 920/4/3
f 923/4/3 921/4/3 922/4/3
f 927/4/3 925/4/3 924/4/3
f 928/4/3 925/4/3 927/4/3
f 929/4/3 927/4/3 926/4/3
f 930/4/3 927/4/3 929/4/3
f 933/4/3 932/4/3 931/4/3
f 934/4/3 932/4/3 933/4/3
f 936/4/3 935/4/3 934/4/3
f 937/4/3 935/4/3 936/4/3
f 941/4/3 939/4/3 938/4/3
f 942/4/3 939/4/3 941/4/3
f 943/4/3 941/4/3 940/4/3
f 944/4/3 941/4/3 943/4/3
f 948/4/3 946/4/3 945/4/3
f 949/4/3 946/4/3 948/4/3
f 950/4/3 946/4/3 949/4/3
f 951/4/3 948/4/3 947/4/3
f 951/4/3 949/4/3 948/4/3
f 952/4/3 949/4/3 951/4/3
f 957/4/3 954/4/3 953/4/3
f 958/4/3 954/4/3 957/4/3
f 961/4/3 959/4/3 958/4/3
f 962/4/3 959/4/3 961/4/3
f 963/4/3 961/4/3 960/4/3
f 964/4/3 961/4/3 963/4/3
f 965/4/3 956/4/3 955/4/3
f 966/4/3 956/4/3 965/4/3
f 969/4/3 968/4/3 967/4/3
f 970/4/3 968/4/3 969/4/3
f 971/4/3 968/4/3 970/4/3
f 973/4/3 972/4/3 971/4/3
f 973/4/3 971/4/3 970/4/3
f 974/4/3 972/4/3 973/4/3
f 979/4/3 978/4/3 977/4/3
f 980/4/3 978/4/3 979/4/3
f 983/4/3 982/4/3 981/4/3
f 984/4/3 982/4/3 983/4/3
f 985/4/3 976/4/3 975/4/3
f 986/4/3 976/4/3 985/4/3
f 989/4/3 988/4/3 987/4/3
f 990/4/3 988/4/3 989/4/3
f 991/4/3 988/4/3 990/4/3
f 992/4/3 988/4/3 991/4/3
f 994/4/3 991/4/3 990/4/3
f 995/4/3 994/4/3 993/4/3
f 996/1/3 992/1/3 991/1/3
f 996/4/3 994/4/3 995/4/3
f 996/4/3 991/4/3 994/4/3
f 997/4/3 988/4/3 992/4/3
f 997/1/3 992/1/3 996/1/3
f 998/4/3 988/4/3 997/4/3
f 999/4/4 1000/4/4 1008/4/4
f 1000/8/4 1001/8/4 1008/8/4
f 1001/3/4 1002/3/4 1009/3/4
f 1008/8/4 1001/8/4 1009/8/4
f 1002/4/4 1003/4/4 1010/4/4
f 1009/3/4 1002/3/4 1010/3/4
f 1003/3/4 1004/3/4 1011/3/4
f 1010/4/4 1003/4/4 1011/4/4
f 1006/4/4 1007/4/4 1012/4/4
f 1005/1/4 1006/1/4 1012/1/4
f 1012/4/4 1007/4/4 1013/4/4
f 999/4/4 1008/4/4 1014/4/4
f 1014/4/4 1008/4/4 1015/4/4
f 1008/1/4 1009/1/4 1016/1/4
f 1015/4/4 1008/4/4 1016/4/4
f 1009/3/4 1010/3/4 1017/3/4
f 1016/1/4 1009/1/4 1017/1/4
f 1010/1/4 1011/1/4 1018/1/4
f 1017/3/4 1010/3/4 1018/3/4
f 1011/3/4 1004/3/4 1019/3/4
f 1018/1/4 1011/1/4 1019/1/4
f 1004/8/4 1005/8/4 1020/8/4
f 1019/3/4 1004/3/4 1020/3/4
f 1005/1/4 1012/1/4 1021/1/4
f 1020/8/4 1005/8/4 1021/8/4
f 1012/1/4 1013/1/4 1021/1/4
f 1013/4/4 1007/4/4 1022/4/4
f 1021/1/4 1013/1/4 1022/1/4
f 1017/4/4 1018/4/4 1024/4/4
f 1021/4/4 1022/4/4 1024/4/4
f 1016/4/4 1017/4/4 1024/4/4
f 1019/4/4 1020/4/4 1024/4/4
f 1018/4/4 1019/4/4 1024/4/4
f 1015/4/4 1016/4/4 1024/4/4
f 1020/4/4 1021/4/4 1024/4/4
f 1024/4/4 1022/4/4 1025/4/4
f 1025/4/4 1022/4/4 1026/4/4
f 1022/4/4 1007/4/4 1027/4/4
f 1026/4/4 1022/4/4 1027/4/4
f 1023/4/4 1024/4/4 1028/4/4
f 1024/4/4 1025/4/4 1028/4/4
f 1025/8/4 1026/8/4 1029/8/4
f 1028/4/4 1025/4/4 1029/4/4
f 1026/1/4 1027/1/4 1030/1/4
f 1029/8/4 1026/8/4 1030/8/4
f 1027/4/4 1007/4/4 1031/4/4
f 1030/1/4 1027/1/4 1031/1/4
f 1031/4/4 1007/4/4 1032/4/4
f 1035/4/4 1036/4/4 1037/4/4
f 1037/4/4 1036/4/4 1038/4/4
f 1039/4/4 1040/4/4 1041/4/4
f 1041/4/4 1040/4/4 1042/4/4
f 1033/4/4 1034/4/4 1043/4/4
f 1043/4/4 1034/4/4 1044/4/4
f 1045/4/4 1046/4/4 1048/4/4
f 1048/4/4 1046/4/4 1049/4/4
f 1049/4/4 1046/4/4 1050/4/4
f 1047/4/4 1048/4/4 1051/4/4
f 1048/4/4 1049/4/4 1051/4/4
f 1051/4/4 1049/4/4 1052/4/4
f 1053/4/4 1054/4/4 1057/4/4
f 1057/4/4 1054/4/4 1058/4/4
f 1058/4/4 1059/4/4 1061/4/4
f 1061/4/4 1059/4/4 1062/4/4
f 1060/4/4 1061/4/4 1063/4/4
f 1063/4/4 1061/4/4 1064/4/4
f 1055/4/4 1056/4/4 1065/4/4
f 1065/4/4 1056/4/4 1066/4/4
f 1067/4/4 1068/4/4 1069/4/4
f 1069/4/4 1068/4/4 1070/4/4
f 1070/4/4 1068/4/4 1071/4/4
f 1071/4/4 1072/4/4 1073/4/4
f 1070/4/4 1071/4/4 1073/4/4
f 1073/4/4 1072/4/4 1074/4/4
f 1075/4/4 1076/4/4 1077/4/4
f 1077/4/4 1076/4/4 1078/4/4
f 1078/4/4 1079/4/4 1080/4/4
f 1080/4/4 1079/4/4 1081/4/4
f 1082/4/4 1083/4/4 1085/4/4
f 1085/4/4 1083/4/4 1086/4/4
f 1084/4/4 1085/4/4 1087/4/4
f 1087/4/4 1085/4/4 1088/4/4
f 1089/4/4 1090/4/4 1091/4/4
f 1091/4/4 1090/4/4 1092/4/4
f 1092/4/4 1093/4/4 1094/4/4
f 1094/4/4 1093/4/4 1095/4/4
f 1096/4/4 1097/4/4 1099/4/4
f 1099/4/4 1097/4/4 1100/4/4
f 1098/4/4 1099/4/4 1101/4/4
f 1101/4/4 1099/4/4 1102/4/4
f 1103/4/4 1104/4/4 1111/4/4
f 1111/4/4 1104/4/4 1112/4/4
f 1105/4/4 1106/4/4 1113/4/4
f 1113/4/4 1106/4/4 1114/4/4
f 1107/4/4 1108/4/4 1115/4/4
f 1115/4/4 1108/4/4 1116/4/4
f 1109/4/4 1110/4/4 1117/4/4
f 1117/4/4 1110/4/4 1118/4/4
f 1114/4/4 1115/4/4 1122/4/4
f 1122/4/4 1115/4/4 1123/4/4
f 1116/4/4 1117/4/4 1124/4/4
f 1124/4/4 1117/4/4 1125/4/4
f 1118/4/4 1119/4/4 1126/4/4
f 1126/4/4 1119/4/4 1127/4/4
f 1120/4/4 1121/4/4 1128/4/4
f 1128/4/4 1121/4/4 1129/4/4
f 1129/4/4 1130/4/4 1132/4/4
f 1132/4/4 1130/4/4 1133/4/4
f 1131/4/4 1132/4/4 1134/4/4
f 1134/4/4 1132/4/4 1135/4/4
f 1136/4/4 1137/4/4 1145/4/4
f 1145/4/4 1137/4/4 1146/4/4
f 1138/4/4 1139/4/4 1147/4/4
f 1147/4/4 1139/4/4 1148/4/4
f 1140/4/4 1141/4/4 1149/4/4
f 1149/4/4 1141/4/4 1150/4/4
f 1142/4/4 1143/4/4 1151/4/4
f 1151/4/4 1143/4/4 1152/4/4
f 1144/4/4 1145/4/4 1153/4/4
f 1153/4/4 1145/4/4 1154/4/4
f 1146/4/4 1147/4/4 1155/4/4
f 1155/4/4 1147/4/4 1156/4/4
f 1148/4/4 1149/4/4 1157/4/4
f 1157/4/4 1149/4/4 1158/4/4
f 1159/4/4 1160/4/4 1165/4/4
f 1165/4/4 1160/4/4 1166/4/4
f 1161/4/4 1162/4/4 1167/4/4
f 1167/4/4 1162/4/4 1168/4/4
f 1163/4/4 1164/4/4 1169/4/4
f 1169/4/4 1164/4/4 1170/4/4
f 1166/4/4 1167/4/4 1173/4/4
f 1173/4/4 1167/4/4 1174/4/4
f 1168/4/4 1169/4/4 1175/4/4
f 1175/4/4 1169/4/4 1176/4/4
f 1170/4/4 1171/4/4 1177/4/4
f 1177/4/4 1171/4/4 1178/4/4
f 1172/4/4 1173/4/4 1179/4/4
f 1179/4/4 1173/4/4 1180/4/4
f 1174/4/4 1175/4/4 1181/4/4
f 1181/4/4 1175/4/4 1182/4/4
f 1176/4/4 1177/4/4 1183/4/4
f 1183/4/4 1177/4/4 1184/4/4
f 1185/4/4 1186/4/4 1195/4/4
f 1195/4/4 1186/4/4 1196/4/4
f 1187/4/4 1188/4/4 1197/4/4
f 1188/8/4 1189/8/4 1198/8/4
f 1197/4/4 1188/4/4 1198/4/4
f 1189/6/4 1190/6/4 1199/6/4
f 1198/8/4 1189/8/4 1199/8/4
f 1199/6/4 1190/6/4 1200/6/4
f 1190/7/4 1191/7/4 1201/7/4
f 1200/6/4 1190/6/4 1201/6/4
f 1201/7/4 1191/7/4 1202/7/4
f 1202/7/4 1191/7/4 1203/7/4
f 1191/2/4 1192/2/4 1204/2/4
f 1203/7/4 1191/7/4 1204/7/4
f 1192/4/4 1193/4/4 1205/4/4
f 1204/2/4 1192/2/4 1205/2/4
f 1205/4/4 1193/4/4 1206/4/4
f 1194/4/4 1195/4/4 1208/4/4
f 1208/4/4 1195/4/4 1209/4/4
f 1196/4/4 1197/4/4 1210/4/4
f 1210/4/4 1197/4/4 1211/4/4
f 1206/4/4 1207/4/4 1212/4/4
f 1212/4/4 1207/4/4 1213/4/4
f 1213/4/4 1214/4/4 1217/4/4
f 1215/4/4 1216/4/4 1223/4/4
f 1223/4/4 1216/4/4 1224/4/4
f 1224/4/4 1216/4/4 1226/4/4
f 1225/4/4 1226/4/4 1227/4/4
f 1226/4/4 1216/4/4 1228/4/4
f 1227/4/4 1226/4/4 1228/4/4
f 1213/4/4 1217/4/4 1229/4/4
f 1217/4/4 1218/4/4 1229/4/4
f 1229/4/4 1218/4/4 1230/4/4
f 1219/4/4 1220/4/4 1231/4/4
f 1231/4/4 1220/4/4 1232/4/4
f 1221/4/4 1222/4/4 1233/4/4
f 1233/4/4 1222/4/4 1234/4/4
f 1213/4/4 1229/4/4 1240/4/4
f 1240/4/4 1229/4/4 1241/4/4
f 1235/4/4 1236/4/4 1242/4/4
f 1242/4/4 1236/4/4 1243/4/4
f 1237/4/4 1238/4/4 1244/4/4
f 1244/4/4 1238/4/4 1245/4/4
f 1239/4/4 1240/4/4 1252/4/4
f 1252/4/4 1240/4/4 1253/4/4
f 1243/4/4 1244/4/4 1254/4/4
f 1254/4/4 1244/4/4 1255/4/4
f 1245/4/4 1246/4/4 1256/4/4
f 1246/8/4 1247/8/4 1257/8/4
f 1256/4/4 1246/4/4 1257/4/4
f 1247/3/4 1248/3/4 1258/3/4
f 1257/8/4 1247/8/4 1258/8/4
f 1248/3/4 1249/3/4 1258/3/4
f 1249/3/4 1250/3/4 1258/3/4
f 1250/2/4 1251/2/4 1259/2/4
f 1258/3/4 1250/3/4 1259/3/4
f 1251/4/4 1252/4/4 1260/4/4
f 1259/2/4 1251/2/4 1260/2/4
f 1260/4/4 1252/4/4 1261/4/4
f 1262/4/4 1263/4/4 1272/4/4
f 1272/4/4 1263/4/4 1273/4/4
f 1264/4/4 1265/4/4 1274/4/4
f 1265/8/4 1266/8/4 1275/8/4
f 1274/4/4 1265/4/4 1275/4/4
f 1266/6/4 1267/6/4 1276/6/4
f 1275/8/4 1266/8/4 1276/8/4
f 1276/6/4 1267/6/4 1277/6/4
f 1267/7/4 1268/7/4 1278/7/4
f 1277/6/4 1267/6/4 1278/6/4
f 1268/2/4 1269/2/4 1279/2/4
f 1278/7/4 1268/7/4 1279/7/4
f 1269/4/4 1270/4/4 1280/4/4
f 1279/2/4 1269/2/4 1280/2/4
f 1280/4/4 1270/4/4 1281/4/4
f 1271/4/4 1272/4/4 1283/4/4
f 1283/4/4 1272/4/4 1284/4/4
f 1285/4/4 1286/4/4 1289/4/4
f 1289/4/4 1286/4/4 1290/4/4
f 1287/4/4 1288/4/4 1291/4/4
f 1291/4/4 1288/4/4 1292/4/4
f 1273/4/4 1274/4/4 1293/4/4
f 1293/4/4 1274/4/4 1294/4/4
f 1281/4/4 1282/4/4 1299/4/4
f 1299/4/4 1282/4/4 1300/4/4
f 1292/4/4 1293/4/4 1301/4/4
f 1301/4/4 1293/4/4 1302/4/4
f 1294/4/4 1295/4/4 1303/4/4
f 1295/8/4 1296/8/4 1304/8/4
f 1303/4/4 1295/4/4 1304/4/4
f 1296/3/4 1297/3/4 1305/3/4
f 1304/8/4 1296/8/4 1305/8/4
f 1297/2/4 1298/2/4 1306/2/4
f 1305/3/4 1297/3/4 1306/3/4
f 1298/4/4 1299/4/4 1307/4/4
f 1306/2/4 1298/2/4 1307/2/4
f 1307/4/4 1299/4/4 1308/4/4
f 1309/4/4 1310/4/4 1317/4/4
f 1317/4/4 1310/4/4 1318/4/4
f 1312/8/4 1313/8/4 1319/8/4
f 1319/8/4 1313/8/4 1320/8/4
f 1313/5/4 1314/5/4 1321/5/4
f 1314/2/4 1315/2/4 1321/2/4
f 1321/2/4 1315/2/4 1322/2/4
f 1320/8/4 1313/8/4 1323/8/4
f 1313/5/4 1321/5/4 1323/5/4
f 1321/3/4 1322/3/4 1324/3/4
f 1323/5/4 1321/5/4 1324/5/4
f 1322/2/4 1315/2/4 1325/2/4
f 1324/3/4 1322/3/4 1325/3/4
f 1325/2/4 1315/2/4 1326/2/4
f 1318/4/4 1310/4/4 1328/4/4
f 1319/3/4 1320/3/4 1329/3/4
f 1312/8/4 1319/8/4 1329/8/4
f 1320/8/4 1323/8/4 1330/8/4
f 1329/3/4 1320/3/4 1330/3/4
f 1323/3/4 1324/3/4 1331/3/4
f 1330/8/4 1323/8/4 1331/8/4
f 1324/2/4 1325/2/4 1332/2/4
f 1331/3/4 1324/3/4 1332/3/4
f 1325/3/4 1326/3/4 1333/3/4
f 1332/2/4 1325/2/4 1333/2/4
f 1326/2/4 1315/2/4 1334/2/4
f 1333/3/4 1326/3/4 1334/3/4
f 1332/3/4 1333/3/4 1335/3/4
f 1329/8/4 1330/8/4 1335/8/4
f 1330/3/4 1331/3/4 1335/3/4
f 1331/3/4 1332/3/4 1335/3/4
f 1335/3/4 1333/3/4 1336/3/4
f 1336/3/4 1333/3/4 1337/3/4
f 1333/2/4 1334/2/4 1338/2/4
f 1337/3/4 1333/3/4 1338/3/4
f 1327/4/4 1328/4/4 1339/4/4
f 1328/4/4 1310/4/4 1340/4/4
f 1339/4/4 1328/4/4 1340/4/4
f 1311/4/4 1312/4/4 1341/4/4
f 1312/8/4 1329/8/4 1342/8/4
f 1341/4/4 1312/4/4 1342/4/4
f 1329/8/4 1335/8/4 1342/8/4
f 1335/8/4 1336/8/4 1342/8/4
f 1336/5/4 1337/5/4 1343/5/4
f 1342/8/4 1336/8/4 1343/8/4
f 1337/2/4 1338/2/4 1344/2/4
f 1343/5/4 1337/5/4 1344/5/4
f 1315/4/4 1316/4/4 1345/4/4
f 1344/2/4 1338/2/4 1345/2/4
f 1334/2/4 1315/2/4 1345/2/4
f 1338/2/4 1334/2/4 1345/2/4
f 1345/4/4 1316/4/4 1346/4/4
f 1352/4/5 1348/4/5 1347/4/5
f 1353/4/5 1348/4/5 1352/4/5
f 1356/4/5 1350/4/5 1349/4/5
f 1357/4/5 1350/4/5 1356/4/5
f 1359/4/5 1354/4/5 1353/4/5
f 1359/4/5 1352/4/5 1351/4/5
f 1359/4/5 1353/4/5 1352/4/5
f 1360/4/5 1354/4/5 1359/4/5
f 1361/4/5 1354/4/5 1360/4/5
f 1362/4/5 1354/4/5 1361/4/5
f 1363/4/5 1358/4/5 1357/4/5
f 1363/4/5 1357/4/5 1356/4/5
f 1363/4/5 1356/4/5 1355/4/5
f 1364/4/5 1358/4/5 1363/4/5
f 1365/4/5 1358/4/5 1364/4/5
f 1366/4/5 1358/4/5 1365/4/5
f 1367/4/5 1361/4/5 1360/4/5
f 1368/4/5 1361/4/5 1367/4/5
f 1369/4/5 1365/4/5 1364/4/5
f 1370/4/5 1365/4/5 1369/4/5
f 1376/4/5 1372/4/5 1371/4/5
f 1377/4/5 1372/4/5 1376/4/5
f 1380/4/5 1374/4/5 1373/4/5
f 1381/4/5 1374/4/5 1380/4/5
f 1383/4/5 1378/4/5 1377/4/5
f 1383/4/5 1376/4/5 1375/4/5
f 1383/4/5 1377/4/5 1376/4/5
f 1384/4/5 1378/4/5 1383/4/5
f 1385/4/5 1378/4/5 1384/4/5
f 1386/4/5 1378/4/5 1385/4/5
f 1387/4/5 1381/4/5 1380/4/5
f 1387/4/5 1382/4/5 1381/4/5
f 1387/4/5 1380/4/5 1379/4/5
f 1388/4/5 1382/4/5 1387/4/5
f 1389/4/5 1382/4/5 1388/4/5
f 1390/4/5 1382/4/5 1389/4/5
f 1391/4/5 1385/4/5 1384/4/5
f 1392/4/5 1385/4/5 1391/4/5
f 1393/4/5 1389/4/5 1388/4/5
f 1394/4/5 1389/4/5 1393/4/5
f 1400/4/5 1396/4/5 1395/4/5
f 1401/4/5 1396/4/5 1400/4/5
f 1402/4/5 1398/4/5 1397/4/5
f 1403/4/5 1398/4/5 1402/4/5
f 1406/4/5 1400/4/5 1399/4/5
f 1407/4/5 1400/4/5 1406/4/5
f 1410/4/5 1404/4/5 1403/4/5
f 1411/4/5 1404/4/5 1410/4/5
f 1413/4/5 1406/4/5 1405/4/5
f 1414/4/5 1406/4/5 1413/4/5
f 1416/4/5 1409/4/5 1408/4/5
f 1417/4/5 1409/4/5 1416/4/5
f 1419/4/5 1412/4/5 1411/4/5
f 1420/4/5 1412/4/5 1419/4/5
f 1422/4/5 1416/4/5 1415/4/5
f 1423/4/5 1416/4/5 1422/4/5
f 1424/4/5 1418/4/5 1417/4/5
f 1425/4/5 1418/4/5 1424/4/5
f 1427/4/5 1422/4/5 1421/4/5
f 1428/4/5 1422/4/5 1427/4/5
f 1431/4/5 1426/4/5 1425/4/5
f 1432/4/5 1426/4/5 1431/4/5
f 1435/4/5 1429/4/5 1428/4/5
f 1436/4/5 1429/4/5 1435/4/5
f 1437/4/5 1431/4/5 1430/4/5
f 1438/4/5 1431/4/5 1437/4/5
f 1441/4/5 1434/4/5 1433/4/5
f 1442/4/5 1434/4/5 1441/4/5
f 1444/4/5 1437/4/5 1436/4/5
f 1445/4/5 1437/4/5 1444/4/5
f 1447/4/5 1440/4/5 1439/4/5
f 1448/4/5 1440/4/5 1447/4/5
f 1449/4/5 1443/4/5 1442/4/5
f 1450/4/5 1443/4/5 1449/4/5
f 1453/4/5 1447/4/5 1446/4/5
f 1454/4/5 1447/4/5 1453/4/5
f 1455/4/5 1451/4/5 1450/4/5
f 1456/4/5 1451/4/5 1455/4/5
f 1457/4/5 1453/4/5 1452/4/5
f 1458/4/5 1453/4/5 1457/4/5
f 1461/4/5 1460/4/5 1459/4/5
f 1462/4/5 1460/4/5 1461/4/5
f 1470/4/5 1466/4/5 1465/4/5
f 1471/4/5 1466/4/5 1470/4/5
f 1473/4/5 1470/4/5 1469/4/5
f 1473/4/5 1472/4/5 1471/4/5
f 1473/4/5 1471/4/5 1470/4/5
f 1474/4/5 1472/4/5 1473/4/5
f 1475/4/5 1472/4/5 1474/4/5
f 1476/4/5 1472/4/5 1475/4/5
f 1477/4/5 1464/4/5 1463/4/5
f 1478/4/5 1464/4/5 1477/4/5
f 1479/4/5 1475/4/5 1474/4/5
f 1480/4/5 1475/4/5 1479/4/5
f 1481/4/5 1468/4/5 1467/4/5
f 1482/4/5 1468/4/5 1481/4/5
f 1485/4/5 1484/4/5 1483/4/5
f 1486/4/5 1484/4/5 1485/4/5
f 1489/4/5 1488/4/5 1487/4/5
f 1490/4/5 1488/4/5 1489/4/5
f 1495/4/5 1492/4/5 1491/4/5
f 1496/4/5 1492/4/5 1495/4/5
f 1497/4/5 1494/4/5 1493/4/5
f 1498/4/5 1494/4/5 1497/4/5
f 1501/4/5 1500/4/5 1499/4/5
f 1502/4/5 1500/4/5 1501/4/5
f 1506/4/5 1504/4/5 1503/4/5
f 1507/4/5 1504/4/5 1506/4/5
f 1510/4/5 1506/4/5 1505/4/5
f 1511/4/5 1506/4/5 1510/4/5
f 1512/4/5 1508/4/5 1507/4/5
f 1513/4/5 1508/4/5 1512/4/5
f 1515/4/5 1510/4/5 1509/4/5
f 1516/4/5 1510/4/5 1515/4/5
f 1519/4/5 1514/4/5 1513/4/5
f 1520/4/5 1514/4/5 1519/4/5
f 1521/4/5 1517/4/5 1516/4/5
f 1522/4/5 1517/4/5 1521/4/5
f 1523/4/5 1519/4/5 1518/4/5
f 1524/4/5 1519/4/5 1523/4/5
f 1525/4/5 1523/4/5 1522/4/5
f 1526/4/5 1523/4/5 1525/4/5
f 1529/4/5 1528/4/5 1527/4/5
f 1530/4/5 1528/4/5 1529/4/5
f 1531/4/5 1529/4/5 1527/4/5
f 1532/4/5 1528/4/5 1530/4/5
f 1533/4/5 1531/4/5 1527/4/5
f 1533/4/5 1532/4/5 1531/4/5
f 1534/4/5 1528/4/5 1532/4/5
f 1534/4/5 1532/4/5 1533/4/5
f 1537/4/5 1536/4/5 1535/4/5
f 1538/4/5 1536/4/5 1537/4/5
f 1539/4/5 1537/4/5 1535/4/5
f 1540/4/5 1536/4/5 1538/4/5
f 1541/4/5 1539/4/5 1535/4/5
f 1541/4/5 1540/4/5 1539/4/5
f 1542/4/5 1536/4/5 1540/4/5
f 1542/4/5 1540/4/5 1541/4/5
f 1546/4/5 1544/4/5 1543/4/5
f 1547/4/5 1544/4/5 1546/4/5
f 1550/4/5 1546/4/5 1545/4/5
f 1551/4/5 1546/4/5 1550/4/5
f 1552/4/5 1548/4/5 1547/4/5
f 1553/4/5 1548/4/5 1552/4/5
f 1555/4/5 1550/4/5 1549/4/5
f 1556/4/5 1550/4/5 1555/4/5
f 1559/4/5 1554/4/5 1553/4/5
f 1560/4/5 1554/4/5 1559/4/5
f 1561/4/5 1557/4/5 1556/4/5
f 1562/4/5 1557/4/5 1561/4/5
f 1563/4/5 1559/4/5 1558/4/5
f 1564/4/5 1559/4/5 1563/4/5
f 1565/4/5 1563/4/5 1562/4/5
f 1566/4/5 1563/4/5 1565/4/5
f 1570/4/5 1568/4/5 1567/4/5
f 1571/4/5 1568/4/5 1570/4/5
f 1574/4/5 1570/4/5 1569/4/5
f 1575/4/5 1570/4/5 1574/4/5
f 1576/4/5 1572/4/5 1571/4/5
f 1577/4/5 1572/4/5 1576/4/5
f 1579/4/5 1574/4/5 1573/4/5
f 1580/4/5 1574/4/5 1579/4/5
f 1583/4/5 1578/4/5 1577/4/5
f 1584/4/5 1578/4/5 1583/4/5
f 1585/4/5 1581/4/5 1580/4/5
f 1586/4/5 1581/4/5 1585/4/5
f 1587/4/5 1583/4/5 1582/4/5
f 1588/4/5 1583/4/5 1587/4/5
f 1589/4/5 1587/4/5 1586/4/5
f 1590/4/5 1587/4/5 1589/4/5
f 1591/4/6 1592/4/6 1595/4/6
f 1593/4/6 1594/4/6 1598/4/6
f 1595/4/6 1596/4/6 1599/4/6
f 1591/4/6 1595/4/6 1599/4/6
f 1599/4/6 1596/4/6 1600/4/6
f 1600/4/6 1596/4/6 1601/4/6
f 1601/4/6 1596/4/6 1602/4/6
f 1597/4/6 1598/4/6 1603/4/6
f 1598/4/6 1594/4/6 1604/4/6
f 1603/4/6 1598/4/6 1604/4/6
f 1604/4/6 1594/4/6 1605/4/6
f 1605/4/6 1594/4/6 1606/4/6
f 1600/4/6 1601/4/6 1607/4/6
f 1607/4/6 1601/4/6 1608/4/6
f 1604/4/6 1605/4/6 1609/4/6
f 1609/4/6 1605/4/6 1610/4/6
f 1611/4/6 1612/4/6 1616/4/6
f 1616/4/6 1612/4/6 1617/4/6
f 1613/4/6 1614/4/6 1620/4/6
f 1620/4/6 1614/4/6 1621/4/6
f 1617/4/6 1618/4/6 1623/4/6
f 1615/4/6 1616/4/6 1623/4/6
f 1616/4/6 1617/4/6 1623/4/6
f 1623/4/6 1618/4/6 1624/4/6
f 1620/4/6 1621/4/6 1625/4/6
f 1621/4/6 1622/4/6 1625/4/6
f 1619/4/6 1620/4/6 1625/4/6
f 1625/4/6 1622/4/6 1626/4/6
f 1615/4/6 1623/4/6 1627/4/6
f 1627/4/6 1623/4/6 1628/4/6
f 1626/4/6 1622/4/6 1629/4/6
f 1629/4/6 1622/4/6 1630/4/6
f 1631/4/6 1632/4/6 1633/4/6
f 1633/4/6 1632/4/6 1634/4/6
f 1634/4/6 1632/4/6 1635/4/6
f 1635/4/6 1632/4/6 1636/4/6
f 1634/4/6 1635/4/6 1640/4/6
f 1640/4/6 1635/4/6 1641/4/6
f 1637/4/6 1638/4/6 1645/4/6
f 1639/4/6 1640/4/6 1646/4/6
f 1646/4/6 1640/4/6 1647/4/6
f 1641/4/6 1642/4/6 1648/4/6
f 1648/4/6 1642/4/6 1649/4/6
f 1643/4/6 1644/4/6 1650/4/6
f 1637/4/6 1645/4/6 1651/4/6
f 1645/4/6 1646/4/6 1651/4/6
f 1651/4/6 1646/4/6 1652/4/6
f 1649/4/6 1650/4/6 1655/4/6
f 1650/4/6 1644/4/6 1656/4/6
f 1655/4/6 1650/4/6 1656/4/6
f 1637/4/6 1651/4/6 1657/4/6
f 1657/4/6 1651/4/6 1658/4/6
f 1652/4/6 1653/4/6 1659/4/6
f 1659/4/6 1653/4/6 1660/4/6
f 1654/4/6 1655/4/6 1661/4/6
f 1661/4/6 1655/4/6 1662/4/6
f 1656/4/6 1644/4/6 1663/4/6
f 1663/4/6 1644/4/6 1664/4/6
f 1660/4/6 1661/4/6 1666/4/6
f 1666/4/6 1661/4/6 1667/4/6
f 1665/4/6 1666/4/6 1669/4/6
f 1667/4/6 1668/4/6 1669/4/6
f 1666/4/6 1667/4/6 1669/4/6
f 1669/4/6 1668/4/6 1670/4/6
f 1671/4/6 1672/4/6 1674/4/6
f 1674/4/6 1672/4/6 1675/4/6
f 1673/4/6 1674/4/6 1677/4/6
f 1675/4/6 1676/4/6 1677/4/6
f 1674/4/6 1675/4/6 1677/4/6
f 1677/4/6 1676/4/6 1678/4/6
f 1678/4/6 1676/4/6 1679/4/6
f 1679/4/6 1676/4/6 1680/4/6
f 1678/4/6 1679/4/6 1681/4/6
f 1681/4/6 1679/4/6 1682/4/6
f 1683/4/6 1684/4/6 1686/4/6
f 1686/4/6 1684/4/6 1687/4/6
f 1685/4/6 1686/4/6 1690/4/6
f 1690/4/6 1686/4/6 1691/4/6
f 1687/4/6 1688/4/6 1692/4/6
f 1692/4/6 1688/4/6 1693/4/6
f 1689/4/6 1690/4/6 1695/4/6
f 1695/4/6 1690/4/6 1696/4/6
f 1693/4/6 1694/4/6 1699/4/6
f 1699/4/6 1694/4/6 1700/4/6
f 1696/4/6 1697/4/6 1701/4/6
f 1701/4/6 1697/4/6 1702/4/6
f 1698/4/6 1699/4/6 1703/4/6
f 1703/4/6 1699/4/6 1704/4/6
f 1702/4/6 1703/4/6 1705/4/6
f 1705/4/6 1703/4/6 1706/4/6
f 1707/4/6 1708/4/6 1710/4/6
f 1710/4/6 1708/4/6 1711/4/6
f 1709/4/6 1710/4/6 1714/4/6
f 1714/4/6 1710/4/6 1715/4/6
f 1711/4/6 1712/4/6 1716/4/6
f 1716/4/6 1712/4/6 1717/4/6
f 1713/4/6 1714/4/6 1719/4/6
f 1719/4/6 1714/4/6 1720/4/6
f 1717/4/6 1718/4/6 1723/4/6
f 1723/4/6 1718/4/6 1724/4/6
f 1720/4/6 1721/4/6 1725/4/6
f 1725/4/6 1721/4/6 1726/4/6
f 1722/4/6 1723/4/6 1727/4/6
f 1727/4/6 1723/4/6 1728/4/6
f 1726/4/6 1727/4/6 1729/4/6
f 1729/4/6 1727/4/6 1730/4/6
f 1731/4/6 1732/4/6 1734/4/6
f 1734/4/6 1732/4/6 1735/4/6
f 1733/4/6 1734/4/6 1737/4/6
f 1737/4/6 1734/4/6 1738/4/6
f 1735/4/6 1736/4/6 1739/4/6
f 1739/4/6 1736/4/6 1740/4/6
f 1738/4/6 1739/4/6 1741/4/6
f 1741/4/6 1739/4/6 1742/4/6
f 1743/4/6 1744/4/6 1747/4/6
f 1747/4/6 1744/4/6 1748/4/6
f 1745/4/6 1746/4/6 1749/4/6
f 1749/4/6 1746/4/6 1750/4/6
f 1743/4/6 1747/4/6 1751/4/6
f 1751/4/6 1747/4/6 1752/4/6
f 1750/4/6 1746/4/6 1753/4/6
f 1753/4/6 1746/4/6 1754/4/6
f 1755/4/6 1756/4/6 1759/4/6
f 1757/4/6 1758/4/6 1762/4/6
f 1759/4/6 1760/4/6 1763/4/6
f 1755/4/6 1759/4/6 1763/4/6
f 1763/4/6 1760/4/6 1764/4/6
f 1761/4/6 1762/4/6 1765/4/6
f 1762/4/6 1758/4/6 1766/4/6
f 1765/4/6 1762/4/6 1766/4/6
f 1767/4/6 1768/4/6 1770/4/6
f 1770/4/6 1768/4/6 1771/4/6
f 1769/4/6 1770/4/6 1774/4/6
f 1774/4/6 1770/4/6 1775/4/6
f 1771/4/6 1772/4/6 1776/4/6
f 1776/4/6 1772/4/6 1777/4/6
f 1773/4/6 1774/4/6 1779/4/6
f 1779/4/6 1774/4/6 1780/4/6
f 1777/4/6 1778/4/6 1783/4/6
f 1783/4/6 1778/4/6 1784/4/6
f 1780/4/6 1781/4/6 1785/4/6
f 1785/4/6 1781/4/6 1786/4/6
f 1782/4/6 1783/4/6 1787/4/6
f 1787/4/6 1783/4/6 1788/4/6
f 1786/4/6 1787/4/6 1789/4/6
f 1789/4/6 1787/4/6 1790/4/6
f 1791/4/6 1792/4/6 1794/4/6
f 1794/4/6 1792/4/6 1795/4/6
f 1793/4/6 1794/4/6 1798/4/6
f 1798/4/6 1794/4/6 1799/4/6
f 1795/4/6 1796/4/6 1800/4/6
f 1800/4/6 1796/4/6 1801/4/6
f 1797/4/6 1798/4/6 1803/4/6
f 1803/4/6 1798/4/6 1804/4/6
f 1801/4/6 1802/4/6 1807/4/6
f 1807/4/6 1802/4/6 1808/4/6
f 1804/4/6 1805/4/6 1809/4/6
f 1809/4/6 1805/4/6 1810/4/6
f 1806/4/6 1807/4/6 1811/4/6
f 1811/4/6 1807/4/6 1812/4/6
f 1810/4/6 1811/4/6 1813/4/6
f 1813/4/6 1811/4/6 1814/4/6
f 1815/4/6 1816/4/6 1818/4/6
f 1818/4/6 1816/4/6 1819/4/6
f 1817/4/6 1818/4/6 1822/4/6
f 1822/4/6 1818/4/6 1823/4/6
f 1819/4/6 1820/4/6 1824/4/6
f 1824/4/6 1820/4/6 1825/4/6
f 1821/4/6 1822/4/6 1827/4/6
f 1827/4/6 1822/4/6 1828/4/6
f 1825/4/6 1826/4/6 1831/4/6
f 1831/4/6 1826/4/6 1832/4/6
f 1828/4/6 1829/4/6 1833/4/6
f 1833/4/6 1829/4/6 1834/4/6
f 1830/4/6 1831/4/6 1835/4/6
f 1835/4/6 1831/4/6 1836/4/6
f 1834/4/6 1835/4/6 1837/4/6
f 1837/4/6 1835/4/6 1838/4/6
f 1839/4/6 1840/4/6 1842/4/6
f 1842/4/6 1840/4/6 1843/4/6
f 1841/4/6 1842/4/6 1845/4/6
f 1845/4/6 1842/4/6 1846/4/6
f 1843/4/6 1844/4/6 1847/4/6
f 1847/4/6 1844/4/6 1848/4/6
f 1846/4/6 1847/4/6 1849/4/6
f 1849/4/6 1847/4/6 1850/4/6
