# MagicaVoxel @ ephtracy

# material
mtllib mountainDEWW3.mtl
usemtl palette

# normals
vn -1 0 0
vn 1 0 0
vn 0 0 1
vn 0 0 -1
vn 0 -1 0
vn 0 1 0

# texcoords
vt 0.908203 0.5
vt 0.912109 0.5
vt 0.916016 0.5
vt 0.919922 0.5
vt 0.923828 0.5
vt 0.927734 0.5
vt 0.943359 0.5
vt 0.958984 0.5
vt 0.962891 0.5
vt 0.966797 0.5
vt 0.970703 0.5
vt 0.974609 0.5
vt 0.978516 0.5
vt 0.982422 0.5
vt 0.986328 0.5
vt 0.994141 0.5

# verts
v -10 0 3
v -10 0 -3
v -10 39 3
v -10 39 -3
v -10 40 3
v -10 40 -3
v -9 0 5
v -9 0 3
v -9 0 -3
v -9 0 -5
v -9 23 5
v -9 23 4
v -9 25 5
v -9 25 4
v -9 26 5
v -9 26 4
v -9 28 5
v -9 28 4
v -9 29 5
v -9 29 4
v -9 31 5
v -9 31 4
v -9 33 5
v -9 33 4
v -9 34 5
v -9 34 4
v -9 35 5
v -9 35 4
v -9 39 5
v -9 39 3
v -9 39 -3
v -9 39 -5
v -9 40 5
v -9 40 3
v -9 40 -3
v -9 40 -5
v -8 0 7
v -8 0 5
v -8 0 -5
v -8 0 -7
v -8 1 7
v -8 1 6
v -8 5 7
v -8 5 6
v -8 23 6
v -8 23 5
v -8 24 7
v -8 24 6
v -8 24 5
v -8 25 6
v -8 25 5
v -8 26 5
v -8 28 6
v -8 28 5
v -8 29 6
v -8 29 5
v -8 31 5
v -8 32 6
v -8 32 5
v -8 33 6
v -8 33 5
v -8 34 5
v -8 35 7
v -8 35 5
v -8 39 7
v -8 39 5
v -8 39 -5
v -8 39 -7
v -8 40 7
v -8 40 5
v -8 40 -5
v -8 40 -7
v -7 0 8
v -7 0 7
v -7 0 -7
v -7 0 -8
v -7 1 7
v -7 3 8
v -7 3 7
v -7 4 8
v -7 4 7
v -7 5 7
v -7 17 8
v -7 17 7
v -7 19 8
v -7 19 7
v -7 20 8
v -7 20 7
v -7 21 8
v -7 21 7
v -7 22 8
v -7 22 7
v -7 23 8
v -7 23 7
v -7 24 7
v -7 25 8
v -7 25 7
v -7 27 8
v -7 27 7
v -7 28 8
v -7 28 7
v -7 29 8
v -7 29 7
v -7 33 8
v -7 33 7
v -7 35 8
v -7 35 7
v -7 39 8
v -7 39 7
v -7 39 -7
v -7 39 -8
v -7 40 8
v -7 40 7
v -7 40 -7
v -7 40 -8
v -5 0 9
v -5 0 8
v -5 0 -8
v -5 0 -9
v -5 1 9
v -5 1 8
v -5 5 9
v -5 5 8
v -5 12 9
v -5 12 8
v -5 13 8
v -5 14 9
v -5 14 8
v -5 15 9
v -5 15 8
v -5 16 9
v -5 16 8
v -5 17 9
v -5 17 8
v -5 18 9
v -5 18 8
v -5 19 9
v -5 19 8
v -5 22 8
v -5 24 9
v -5 24 8
v -5 25 9
v -5 25 8
v -5 26 9
v -5 26 8
v -5 27 9
v -5 27 8
v -5 28 9
v -5 28 8
v -5 29 9
v -5 29 8
v -5 30 9
v -5 30 8
v -5 33 9
v -5 33 8
v -5 34 8
v -5 35 9
v -5 35 8
v -5 39 9
v -5 39 8
v -5 39 -8
v -5 39 -9
v -5 40 9
v -5 40 8
v -5 40 -8
v -5 40 -9
v -3 0 10
v -3 0 9
v -3 0 -9
v -3 0 -10
v -3 1 9
v -3 2 10
v -3 2 9
v -3 4 10
v -3 4 9
v -3 5 9
v -3 11 10
v -3 11 9
v -3 12 10
v -3 12 9
v -3 13 9
v -3 14 10
v -3 14 9
v -3 15 10
v -3 15 9
v -3 16 10
v -3 16 9
v -3 18 10
v -3 18 9
v -3 19 9
v -3 20 10
v -3 20 9
v -3 21 10
v -3 21 9
v -3 22 9
v -3 23 10
v -3 23 9
v -3 24 9
v -3 25 10
v -3 25 9
v -3 26 10
v -3 26 9
v -3 27 10
v -3 27 9
v -3 28 10
v -3 28 9
v -3 29 10
v -3 29 9
v -3 30 10
v -3 30 9
v -3 31 9
v -3 32 10
v -3 32 9
v -3 33 9
v -3 34 10
v -3 34 9
v -3 35 10
v -3 35 9
v -3 39 10
v -3 39 9
v -3 39 -9
v -3 39 -10
v -3 40 10
v -3 40 9
v -3 40 -9
v -3 40 -10
v 3 0 10
v 3 0 9
v 3 0 -9
v 3 0 -10
v 3 6 10
v 3 6 9
v 3 7 10
v 3 7 9
v 3 8 10
v 3 8 9
v 3 9 10
v 3 9 9
v 3 10 10
v 3 10 9
v 3 11 10
v 3 11 9
v 3 13 10
v 3 13 9
v 3 14 10
v 3 14 9
v 3 16 9
v 3 17 10
v 3 17 9
v 3 18 10
v 3 18 9
v 3 19 10
v 3 19 9
v 3 20 10
v 3 20 9
v 3 21 10
v 3 21 9
v 3 22 10
v 3 22 9
v 3 23 10
v 3 23 9
v 3 24 10
v 3 24 9
v 3 27 10
v 3 27 9
v 3 28 10
v 3 28 9
v 3 29 9
v 3 30 10
v 3 30 9
v 3 31 10
v 3 31 9
v 3 39 10
v 3 39 9
v 3 39 -9
v 3 39 -10
v 3 40 10
v 3 40 9
v 3 40 -9
v 3 40 -10
v 5 0 9
v 5 0 8
v 5 0 -8
v 5 0 -9
v 5 1 9
v 5 1 8
v 5 2 9
v 5 2 8
v 5 6 9
v 5 6 8
v 5 7 9
v 5 7 8
v 5 8 9
v 5 8 8
v 5 9 8
v 5 10 9
v 5 10 8
v 5 11 9
v 5 11 8
v 5 12 9
v 5 12 8
v 5 13 8
v 5 14 9
v 5 14 8
v 5 15 8
v 5 16 8
v 5 17 9
v 5 17 8
v 5 18 9
v 5 18 8
v 5 19 9
v 5 19 8
v 5 20 9
v 5 20 8
v 5 21 9
v 5 21 8
v 5 22 9
v 5 22 8
v 5 23 8
v 5 25 8
v 5 27 9
v 5 27 8
v 5 29 9
v 5 29 8
v 5 30 9
v 5 30 8
v 5 31 9
v 5 31 8
v 5 39 9
v 5 39 8
v 5 39 -8
v 5 39 -9
v 5 40 9
v 5 40 8
v 5 40 -8
v 5 40 -9
v 7 0 8
v 7 0 7
v 7 0 -7
v 7 0 -8
v 7 1 8
v 7 1 7
v 7 2 8
v 7 2 7
v 7 6 7
v 7 7 8
v 7 7 7
v 7 8 8
v 7 8 7
v 7 9 8
v 7 9 7
v 7 10 8
v 7 10 7
v 7 11 8
v 7 11 7
v 7 12 8
v 7 12 7
v 7 13 8
v 7 13 7
v 7 14 8
v 7 14 7
v 7 15 7
v 7 16 8
v 7 16 7
v 7 17 8
v 7 17 7
v 7 18 8
v 7 18 7
v 7 19 8
v 7 19 7
v 7 20 7
v 7 21 8
v 7 21 7
v 7 22 8
v 7 22 7
v 7 23 8
v 7 23 7
v 7 24 8
v 7 24 7
v 7 25 7
v 7 26 8
v 7 26 7
v 7 27 7
v 7 28 8
v 7 28 7
v 7 29 8
v 7 29 7
v 7 30 8
v 7 30 7
v 7 39 8
v 7 39 7
v 7 39 -7
v 7 39 -8
v 7 40 8
v 7 40 7
v 7 40 -7
v 7 40 -8
v 8 0 7
v 8 0 5
v 8 0 -5
v 8 0 -7
v 8 1 7
v 8 1 6
v 8 2 7
v 8 2 6
v 8 6 7
v 8 6 6
v 8 6 5
v 8 7 7
v 8 7 6
v 8 7 5
v 8 8 7
v 8 8 6
v 8 8 5
v 8 9 5
v 8 11 7
v 8 11 6
v 8 12 7
v 8 12 6
v 8 13 7
v 8 13 6
v 8 15 7
v 8 15 6
v 8 16 6
v 8 16 5
v 8 17 7
v 8 17 6
v 8 17 5
v 8 18 7
v 8 18 6
v 8 19 7
v 8 19 6
v 8 19 5
v 8 20 7
v 8 20 5
v 8 21 7
v 8 21 6
v 8 21 5
v 8 22 7
v 8 22 6
v 8 22 5
v 8 23 6
v 8 23 5
v 8 24 7
v 8 24 6
v 8 25 7
v 8 25 6
v 8 26 7
v 8 26 6
v 8 27 7
v 8 27 6
v 8 27 5
v 8 28 7
v 8 28 6
v 8 28 5
v 8 29 7
v 8 29 6
v 8 39 7
v 8 39 5
v 8 39 -5
v 8 39 -7
v 8 40 7
v 8 40 5
v 8 40 -5
v 8 40 -7
v 9 0 5
v 9 0 3
v 9 0 -3
v 9 0 -5
v 9 1 3
v 9 2 3
v 9 6 5
v 9 6 4
v 9 6 3
v 9 7 5
v 9 7 4
v 9 7 3
v 9 8 5
v 9 8 4
v 9 9 5
v 9 9 4
v 9 9 3
v 9 10 3
v 9 13 3
v 9 14 3
v 9 17 5
v 9 17 4
v 9 18 4
v 9 18 3
v 9 20 3
v 9 21 5
v 9 21 4
v 9 27 5
v 9 27 4
v 9 39 5
v 9 39 3
v 9 39 -3
v 9 39 -5
v 9 40 5
v 9 40 3
v 9 40 -3
v 9 40 -5
v 10 0 3
v 10 0 -3
v 10 1 3
v 10 1 2
v 10 2 3
v 10 2 2
v 10 6 3
v 10 6 1
v 10 7 2
v 10 7 1
v 10 7 -0
v 10 7 -1
v 10 8 -0
v 10 8 -1
v 10 9 3
v 10 9 2
v 10 9 1
v 10 10 3
v 10 10 2
v 10 11 2
v 10 11 1
v 10 12 2
v 10 12 1
v 10 13 3
v 10 13 2
v 10 13 1
v 10 14 3
v 10 14 2
v 10 14 1
v 10 15 2
v 10 15 1
v 10 17 2
v 10 17 1
v 10 19 2
v 10 19 1
v 10 20 3
v 10 20 2
v 10 20 1
v 10 21 2
v 10 21 1
v 10 39 3
v 10 39 -3
v 10 40 3
v 10 40 -3
v -3 0 10
v -3 2 10
v -3 4 10
v -3 11 10
v -3 12 10
v -3 14 10
v -3 15 10
v -3 16 10
v -3 18 10
v -3 20 10
v -3 21 10
v -3 23 10
v -3 25 10
v -3 26 10
v -3 27 10
v -3 28 10
v -3 29 10
v -3 30 10
v -3 32 10
v -3 34 10
v -3 35 10
v -3 39 10
v -3 40 10
v -2 2 10
v -2 4 10
v -2 11 10
v -2 12 10
v -2 13 10
v -2 14 10
v -2 15 10
v -2 16 10
v -2 17 10
v -2 18 10
v -2 20 10
v -2 21 10
v -2 23 10
v -2 27 10
v -2 28 10
v -2 29 10
v -2 30 10
v -2 32 10
v -2 33 10
v -2 34 10
v -2 35 10
v -1 6 10
v -1 9 10
v -1 11 10
v -1 12 10
v -1 13 10
v -1 14 10
v -1 15 10
v -1 16 10
v -1 17 10
v -1 18 10
v -1 19 10
v -1 20 10
v -1 25 10
v -1 26 10
v -1 27 10
v -1 28 10
v -1 29 10
v -1 30 10
v -1 31 10
v -1 32 10
v -1 33 10
v -1 34 10
v -1 35 10
v 0 7 10
v 0 8 10
v 0 9 10
v 0 10 10
v 0 11 10
v 0 12 10
v 0 13 10
v 0 14 10
v 0 16 10
v 0 17 10
v 0 18 10
v 0 19 10
v 0 21 10
v 0 26 10
v 0 27 10
v 0 28 10
v 0 29 10
v 0 30 10
v 0 31 10
v 0 32 10
v 0 33 10
v 0 34 10
v 0 35 10
v 1 6 10
v 1 7 10
v 1 8 10
v 1 10 10
v 1 12 10
v 1 13 10
v 1 14 10
v 1 15 10
v 1 16 10
v 1 18 10
v 1 21 10
v 1 22 10
v 1 24 10
v 1 25 10
v 1 26 10
v 1 27 10
v 1 28 10
v 1 29 10
v 1 30 10
v 1 32 10
v 1 33 10
v 1 34 10
v 2 6 10
v 2 7 10
v 2 8 10
v 2 9 10
v 2 10 10
v 2 11 10
v 2 12 10
v 2 13 10
v 2 14 10
v 2 15 10
v 2 16 10
v 2 19 10
v 2 20 10
v 2 21 10
v 2 23 10
v 2 24 10
v 2 25 10
v 2 26 10
v 2 27 10
v 2 28 10
v 2 29 10
v 2 30 10
v 2 33 10
v 2 35 10
v 3 0 10
v 3 6 10
v 3 7 10
v 3 8 10
v 3 9 10
v 3 10 10
v 3 11 10
v 3 13 10
v 3 14 10
v 3 17 10
v 3 18 10
v 3 19 10
v 3 20 10
v 3 21 10
v 3 22 10
v 3 23 10
v 3 24 10
v 3 27 10
v 3 28 10
v 3 30 10
v 3 31 10
v 3 39 10
v 3 40 10
v -5 0 9
v -5 1 9
v -5 5 9
v -5 12 9
v -5 14 9
v -5 15 9
v -5 16 9
v -5 17 9
v -5 18 9
v -5 19 9
v -5 24 9
v -5 25 9
v -5 26 9
v -5 27 9
v -5 28 9
v -5 29 9
v -5 30 9
v -5 33 9
v -5 35 9
v -5 39 9
v -5 40 9
v -4 2 9
v -4 4 9
v -4 11 9
v -4 12 9
v -4 13 9
v -4 14 9
v -4 15 9
v -4 16 9
v -4 17 9
v -4 18 9
v -4 20 9
v -4 21 9
v -4 22 9
v -4 23 9
v -4 26 9
v -4 27 9
v -4 28 9
v -4 29 9
v -4 30 9
v -4 31 9
v -4 32 9
v -4 33 9
v -4 34 9
v -4 35 9
v -3 0 9
v -3 1 9
v -3 2 9
v -3 4 9
v -3 5 9
v -3 11 9
v -3 12 9
v -3 13 9
v -3 14 9
v -3 15 9
v -3 16 9
v -3 18 9
v -3 19 9
v -3 20 9
v -3 21 9
v -3 22 9
v -3 23 9
v -3 24 9
v -3 25 9
v -3 26 9
v -3 27 9
v -3 28 9
v -3 29 9
v -3 30 9
v -3 31 9
v -3 32 9
v -3 33 9
v -3 34 9
v -3 35 9
v -3 39 9
v -3 40 9
v 3 0 9
v 3 6 9
v 3 7 9
v 3 8 9
v 3 9 9
v 3 10 9
v 3 11 9
v 3 13 9
v 3 14 9
v 3 16 9
v 3 17 9
v 3 18 9
v 3 19 9
v 3 20 9
v 3 21 9
v 3 22 9
v 3 23 9
v 3 24 9
v 3 27 9
v 3 28 9
v 3 29 9
v 3 30 9
v 3 31 9
v 3 39 9
v 3 40 9
v 4 1 9
v 4 2 9
v 4 6 9
v 4 7 9
v 4 8 9
v 4 10 9
v 4 11 9
v 4 12 9
v 4 13 9
v 4 14 9
v 4 16 9
v 4 19 9
v 4 20 9
v 4 27 9
v 4 28 9
v 4 29 9
v 4 30 9
v 5 0 9
v 5 1 9
v 5 2 9
v 5 6 9
v 5 7 9
v 5 8 9
v 5 10 9
v 5 11 9
v 5 12 9
v 5 14 9
v 5 17 9
v 5 18 9
v 5 19 9
v 5 20 9
v 5 21 9
v 5 22 9
v 5 27 9
v 5 29 9
v 5 30 9
v 5 31 9
v 5 39 9
v 5 40 9
v -7 0 8
v -7 3 8
v -7 4 8
v -7 17 8
v -7 19 8
v -7 20 8
v -7 21 8
v -7 22 8
v -7 23 8
v -7 25 8
v -7 27 8
v -7 28 8
v -7 29 8
v -7 33 8
v -7 35 8
v -7 39 8
v -7 40 8
v -6 1 8
v -6 3 8
v -6 4 8
v -6 5 8
v -6 13 8
v -6 16 8
v -6 17 8
v -6 18 8
v -6 19 8
v -6 20 8
v -6 21 8
v -6 22 8
v -6 23 8
v -6 24 8
v -6 25 8
v -6 26 8
v -6 27 8
v -6 28 8
v -6 29 8
v -6 30 8
v -6 33 8
v -6 34 8
v -5 0 8
v -5 1 8
v -5 5 8
v -5 12 8
v -5 13 8
v -5 14 8
v -5 15 8
v -5 16 8
v -5 17 8
v -5 18 8
v -5 19 8
v -5 22 8
v -5 24 8
v -5 25 8
v -5 26 8
v -5 27 8
v -5 28 8
v -5 29 8
v -5 30 8
v -5 33 8
v -5 34 8
v -5 35 8
v -5 39 8
v -5 40 8
v 5 0 8
v 5 1 8
v 5 2 8
v 5 6 8
v 5 7 8
v 5 8 8
v 5 9 8
v 5 10 8
v 5 11 8
v 5 12 8
v 5 13 8
v 5 14 8
v 5 15 8
v 5 16 8
v 5 17 8
v 5 18 8
v 5 19 8
v 5 20 8
v 5 21 8
v 5 22 8
v 5 23 8
v 5 25 8
v 5 27 8
v 5 29 8
v 5 30 8
v 5 31 8
v 5 39 8
v 5 40 8
v 6 1 8
v 6 2 8
v 6 6 8
v 6 7 8
v 6 8 8
v 6 9 8
v 6 10 8
v 6 11 8
v 6 12 8
v 6 13 8
v 6 14 8
v 6 15 8
v 6 16 8
v 6 17 8
v 6 18 8
v 6 19 8
v 6 21 8
v 6 22 8
v 6 23 8
v 6 24 8
v 6 25 8
v 6 26 8
v 6 28 8
v 6 29 8
v 6 30 8
v 6 31 8
v 7 0 8
v 7 1 8
v 7 2 8
v 7 7 8
v 7 8 8
v 7 9 8
v 7 10 8
v 7 11 8
v 7 12 8
v 7 13 8
v 7 14 8
v 7 16 8
v 7 17 8
v 7 18 8
v 7 19 8
v 7 21 8
v 7 22 8
v 7 23 8
v 7 24 8
v 7 26 8
v 7 28 8
v 7 29 8
v 7 30 8
v 7 39 8
v 7 40 8
v -8 0 7
v -8 1 7
v -8 5 7
v -8 24 7
v -8 35 7
v -8 39 7
v -8 40 7
v -7 0 7
v -7 1 7
v -7 3 7
v -7 4 7
v -7 5 7
v -7 17 7
v -7 19 7
v -7 20 7
v -7 21 7
v -7 22 7
v -7 23 7
v -7 24 7
v -7 25 7
v -7 27 7
v -7 28 7
v -7 29 7
v -7 33 7
v -7 35 7
v -7 39 7
v -7 40 7
v 7 0 7
v 7 1 7
v 7 2 7
v 7 6 7
v 7 7 7
v 7 8 7
v 7 9 7
v 7 10 7
v 7 11 7
v 7 12 7
v 7 13 7
v 7 14 7
v 7 15 7
v 7 16 7
v 7 17 7
v 7 18 7
v 7 19 7
v 7 20 7
v 7 21 7
v 7 22 7
v 7 23 7
v 7 24 7
v 7 25 7
v 7 26 7
v 7 27 7
v 7 28 7
v 7 29 7
v 7 30 7
v 7 39 7
v 7 40 7
v 8 0 7
v 8 1 7
v 8 2 7
v 8 6 7
v 8 7 7
v 8 8 7
v 8 11 7
v 8 12 7
v 8 13 7
v 8 15 7
v 8 17 7
v 8 18 7
v 8 19 7
v 8 20 7
v 8 21 7
v 8 22 7
v 8 24 7
v 8 25 7
v 8 26 7
v 8 27 7
v 8 28 7
v 8 29 7
v 8 39 7
v 8 40 7
v -9 0 5
v -9 23 5
v -9 25 5
v -9 26 5
v -9 28 5
v -9 29 5
v -9 31 5
v -9 33 5
v -9 34 5
v -9 35 5
v -9 39 5
v -9 40 5
v -8 0 5
v -8 23 5
v -8 24 5
v -8 25 5
v -8 26 5
v -8 28 5
v -8 29 5
v -8 31 5
v -8 32 5
v -8 33 5
v -8 34 5
v -8 35 5
v -8 39 5
v -8 40 5
v 8 0 5
v 8 6 5
v 8 7 5
v 8 8 5
v 8 9 5
v 8 16 5
v 8 17 5
v 8 19 5
v 8 20 5
v 8 21 5
v 8 22 5
v 8 23 5
v 8 27 5
v 8 28 5
v 8 39 5
v 8 40 5
v 9 0 5
v 9 6 5
v 9 7 5
v 9 8 5
v 9 9 5
v 9 17 5
v 9 21 5
v 9 27 5
v 9 39 5
v 9 40 5
v -10 0 3
v -10 39 3
v -10 40 3
v -9 0 3
v -9 39 3
v -9 40 3
v 9 0 3
v 9 1 3
v 9 2 3
v 9 6 3
v 9 7 3
v 9 9 3
v 9 10 3
v 9 13 3
v 9 14 3
v 9 18 3
v 9 20 3
v 9 39 3
v 9 40 3
v 10 0 3
v 10 1 3
v 10 2 3
v 10 6 3
v 10 9 3
v 10 10 3
v 10 13 3
v 10 14 3
v 10 20 3
v 10 39 3
v 10 40 3
v -10 0 -3
v -10 39 -3
v -10 40 -3
v -9 0 -3
v -9 39 -3
v -9 40 -3
v 9 0 -3
v 9 39 -3
v 9 40 -3
v 10 0 -3
v 10 39 -3
v 10 40 -3
v -9 0 -5
v -9 39 -5
v -9 40 -5
v -8 0 -5
v -8 39 -5
v -8 40 -5
v 8 0 -5
v 8 39 -5
v 8 40 -5
v 9 0 -5
v 9 39 -5
v 9 40 -5
v -8 0 -7
v -8 39 -7
v -8 40 -7
v -7 0 -7
v -7 39 -7
v -7 40 -7
v 7 0 -7
v 7 39 -7
v 7 40 -7
v 8 0 -7
v 8 39 -7
v 8 40 -7
v -7 0 -8
v -7 39 -8
v -7 40 -8
v -5 0 -8
v -5 39 -8
v -5 40 -8
v 5 0 -8
v 5 39 -8
v 5 40 -8
v 7 0 -8
v 7 39 -8
v 7 40 -8
v -5 0 -9
v -5 39 -9
v -5 40 -9
v -3 0 -9
v -3 39 -9
v -3 40 -9
v 3 0 -9
v 3 39 -9
v 3 40 -9
v 5 0 -9
v 5 39 -9
v 5 40 -9
v -3 0 -10
v -3 39 -10
v -3 40 -10
v 3 0 -10
v 3 39 -10
v 3 40 -10
v -3 0 10
v 3 0 10
v -5 0 9
v -3 0 9
v 3 0 9
v 5 0 9
v -7 0 8
v -5 0 8
v 5 0 8
v 7 0 8
v -8 0 7
v -7 0 7
v 7 0 7
v 8 0 7
v -9 0 5
v -8 0 5
v 8 0 5
v 9 0 5
v -10 0 3
v -9 0 3
v 9 0 3
v 10 0 3
v -10 0 -3
v -9 0 -3
v 9 0 -3
v 10 0 -3
v -9 0 -5
v -8 0 -5
v 8 0 -5
v 9 0 -5
v -8 0 -7
v -7 0 -7
v 7 0 -7
v 8 0 -7
v -7 0 -8
v -5 0 -8
v 5 0 -8
v 7 0 -8
v -5 0 -9
v -3 0 -9
v 3 0 -9
v 5 0 -9
v -3 0 -10
v 3 0 -10
v -3 40 10
v 3 40 10
v -5 40 9
v -3 40 9
v -2 40 9
v 2 40 9
v 3 40 9
v 5 40 9
v -7 40 8
v -5 40 8
v -4 40 8
v -3 40 8
v -2 40 8
v 0 40 8
v 1 40 8
v 2 40 8
v 3 40 8
v 4 40 8
v 5 40 8
v 7 40 8
v -8 40 7
v -7 40 7
v -6 40 7
v -5 40 7
v -4 40 7
v -3 40 7
v -2 40 7
v 0 40 7
v 1 40 7
v 2 40 7
v 3 40 7
v 4 40 7
v 5 40 7
v 6 40 7
v 7 40 7
v 8 40 7
v -7 40 6
v -6 40 6
v -5 40 6
v -4 40 6
v -2 40 6
v 0 40 6
v 1 40 6
v 2 40 6
v 3 40 6
v 4 40 6
v 5 40 6
v 6 40 6
v 7 40 6
v -9 40 5
v -8 40 5
v -7 40 5
v -6 40 5
v -5 40 5
v -3 40 5
v -2 40 5
v 0 40 5
v 1 40 5
v 2 40 5
v 3 40 5
v 5 40 5
v 6 40 5
v 7 40 5
v 8 40 5
v 9 40 5
v -8 40 4
v -7 40 4
v -5 40 4
v -4 40 4
v -3 40 4
v -2 40 4
v 3 40 4
v 4 40 4
v 5 40 4
v 7 40 4
v 8 40 4
v -10 40 3
v -9 40 3
v -8 40 3
v -7 40 3
v -6 40 3
v 2 40 3
v 3 40 3
v 6 40 3
v 7 40 3
v 8 40 3
v 9 40 3
v 10 40 3
v -9 40 2
v -8 40 2
v -7 40 2
v -2 40 2
v 0 40 2
v 1 40 2
v 2 40 2
v 8 40 2
v 9 40 2
v -3 40 1
v -2 40 1
v 0 40 1
v 1 40 1
v 2 40 1
v 3 40 1
v 7 40 1
v 8 40 1
v -5 40 -0
v -4 40 -0
v -3 40 -0
v -2 40 -0
v -1 40 -0
v 1 40 -0
v 2 40 -0
v 3 40 -0
v 4 40 -0
v 5 40 -0
v 7 40 -0
v 8 40 -0
v -2 40 -1
v -1 40 -1
v 1 40 -1
v 2 40 -1
v 4 40 -1
v 5 40 -1
v -9 40 -2
v -8 40 -2
v -7 40 -2
v -5 40 -2
v -4 40 -2
v -3 40 -2
v -2 40 -2
v -1 40 -2
v 1 40 -2
v 2 40 -2
v 3 40 -2
v 4 40 -2
v 5 40 -2
v 8 40 -2
v 9 40 -2
v -10 40 -3
v -9 40 -3
v -8 40 -3
v -1 40 -3
v 1 40 -3
v 5 40 -3
v 7 40 -3
v 8 40 -3
v 9 40 -3
v 10 40 -3
v -7 40 -4
v -6 40 -4
v -2 40 -4
v -1 40 -4
v 1 40 -4
v 2 40 -4
v 7 40 -4
v 8 40 -4
v -9 40 -5
v -8 40 -5
v -7 40 -5
v -6 40 -5
v -5 40 -5
v -2 40 -5
v -1 40 -5
v 1 40 -5
v 2 40 -5
v 5 40 -5
v 6 40 -5
v 7 40 -5
v 8 40 -5
v 9 40 -5
v -7 40 -6
v -6 40 -6
v -5 40 -6
v -4 40 -6
v -3 40 -6
v -2 40 -6
v -1 40 -6
v 1 40 -6
v 2 40 -6
v 3 40 -6
v 4 40 -6
v 5 40 -6
v 6 40 -6
v 7 40 -6
v -8 40 -7
v -7 40 -7
v -6 40 -7
v -5 40 -7
v -4 40 -7
v -3 40 -7
v -2 40 -7
v -1 40 -7
v 1 40 -7
v 2 40 -7
v 3 40 -7
v 4 40 -7
v 5 40 -7
v 6 40 -7
v 7 40 -7
v 8 40 -7
v -7 40 -8
v -5 40 -8
v -4 40 -8
v -3 40 -8
v -2 40 -8
v 2 40 -8
v 3 40 -8
v 4 40 -8
v 5 40 -8
v 7 40 -8
v -5 40 -9
v -3 40 -9
v -2 40 -9
v 2 40 -9
v 3 40 -9
v 5 40 -9
v -3 40 -10
v 3 40 -10

# faces
f 3/14/1 2/14/1 1/14/1
f 4/14/1 2/14/1 3/14/1
f 5/12/1 4/12/1 3/12/1
f 6/12/1 4/12/1 5/12/1
f 11/14/1 8/14/1 7/14/1
f 12/14/1 8/14/1 11/14/1
f 13/2/1 12/2/1 11/2/1
f 14/14/1 8/14/1 12/14/1
f 14/2/1 12/2/1 13/2/1
f 15/14/1 14/14/1 13/14/1
f 16/14/1 8/14/1 14/14/1
f 16/14/1 14/14/1 15/14/1
f 17/2/1 16/2/1 15/2/1
f 18/14/1 8/14/1 16/14/1
f 18/2/1 16/2/1 17/2/1
f 19/14/1 18/14/1 17/14/1
f 20/14/1 8/14/1 18/14/1
f 20/14/1 18/14/1 19/14/1
f 21/2/1 20/2/1 19/2/1
f 22/14/1 8/14/1 20/14/1
f 22/2/1 20/2/1 21/2/1
f 23/14/1 22/14/1 21/14/1
f 24/14/1 8/14/1 22/14/1
f 24/14/1 22/14/1 23/14/1
f 25/2/1 24/2/1 23/2/1
f 26/14/1 8/14/1 24/14/1
f 26/2/1 24/2/1 25/2/1
f 27/4/1 26/4/1 25/4/1
f 28/14/1 8/14/1 26/14/1
f 28/4/1 26/4/1 27/4/1
f 29/14/1 28/14/1 27/14/1
f 30/14/1 8/14/1 28/14/1
f 30/14/1 28/14/1 29/14/1
f 31/14/1 10/14/1 9/14/1
f 32/14/1 10/14/1 31/14/1
f 33/12/1 30/12/1 29/12/1
f 34/12/1 30/12/1 33/12/1
f 35/12/1 32/12/1 31/12/1
f 36/12/1 32/12/1 35/12/1
f 41/14/1 38/14/1 37/14/1
f 42/14/1 38/14/1 41/14/1
f 43/6/1 42/6/1 41/6/1
f 44/14/1 38/14/1 42/14/1
f 44/6/1 42/6/1 43/6/1
f 45/14/1 44/14/1 43/14/1
f 45/14/1 38/14/1 44/14/1
f 46/14/1 38/14/1 45/14/1
f 47/14/1 45/14/1 43/14/1
f 48/2/1 46/2/1 45/2/1
f 48/14/1 45/14/1 47/14/1
f 49/2/1 46/2/1 48/2/1
f 50/2/1 48/2/1 47/2/1
f 50/4/1 49/4/1 48/4/1
f 51/4/1 49/4/1 50/4/1
f 52/2/1 51/2/1 50/2/1
f 53/2/1 50/2/1 47/2/1
f 53/2/1 52/2/1 50/2/1
f 54/2/1 52/2/1 53/2/1
f 55/2/1 53/2/1 47/2/1
f 55/14/1 54/14/1 53/14/1
f 56/14/1 54/14/1 55/14/1
f 57/2/1 56/2/1 55/2/1
f 58/2/1 55/2/1 47/2/1
f 58/2/1 57/2/1 55/2/1
f 59/2/1 57/2/1 58/2/1
f 60/2/1 58/2/1 47/2/1
f 60/14/1 59/14/1 58/14/1
f 61/14/1 59/14/1 60/14/1
f 62/2/1 61/2/1 60/2/1
f 63/2/1 60/2/1 47/2/1
f 63/2/1 62/2/1 60/2/1
f 64/2/1 62/2/1 63/2/1
f 65/14/1 64/14/1 63/14/1
f 66/14/1 64/14/1 65/14/1
f 67/14/1 40/14/1 39/14/1
f 68/14/1 40/14/1 67/14/1
f 69/12/1 66/12/1 65/12/1
f 70/12/1 66/12/1 69/12/1
f 71/12/1 68/12/1 67/12/1
f 72/12/1 68/12/1 71/12/1
f 77/14/1 74/14/1 73/14/1
f 78/14/1 77/14/1 73/14/1
f 79/14/1 77/14/1 78/14/1
f 80/6/1 79/6/1 78/6/1
f 81/6/1 79/6/1 80/6/1
f 82/14/1 81/14/1 80/14/1
f 83/14/1 82/14/1 80/14/1
f 84/14/1 82/14/1 83/14/1
f 85/2/1 84/2/1 83/2/1
f 86/2/1 84/2/1 85/2/1
f 87/4/1 86/4/1 85/4/1
f 88/4/1 86/4/1 87/4/1
f 89/3/1 88/3/1 87/3/1
f 90/3/1 88/3/1 89/3/1
f 91/4/1 90/4/1 89/4/1
f 92/4/1 90/4/1 91/4/1
f 93/15/1 92/15/1 91/15/1
f 94/15/1 92/15/1 93/15/1
f 95/14/1 94/14/1 93/14/1
f 96/14/1 95/14/1 93/14/1
f 97/14/1 95/14/1 96/14/1
f 98/4/1 97/4/1 96/4/1
f 99/4/1 97/4/1 98/4/1
f 100/2/1 99/2/1 98/2/1
f 101/2/1 99/2/1 100/2/1
f 102/4/1 101/4/1 100/4/1
f 103/4/1 101/4/1 102/4/1
f 104/2/1 103/2/1 102/2/1
f 105/2/1 103/2/1 104/2/1
f 106/4/1 105/4/1 104/4/1
f 107/4/1 105/4/1 106/4/1
f 108/14/1 107/14/1 106/14/1
f 109/14/1 107/14/1 108/14/1
f 110/14/1 76/14/1 75/14/1
f 111/14/1 76/14/1 110/14/1
f 112/12/1 109/12/1 108/12/1
f 113/12/1 109/12/1 112/12/1
f 114/12/1 111/12/1 110/12/1
f 115/12/1 111/12/1 114/12/1
f 120/14/1 117/14/1 116/14/1
f 121/14/1 117/14/1 120/14/1
f 122/7/1 121/7/1 120/7/1
f 123/7/1 121/7/1 122/7/1
f 124/14/1 123/14/1 122/14/1
f 125/14/1 123/14/1 124/14/1
f 126/2/1 125/2/1 124/2/1
f 127/2/1 126/2/1 124/2/1
f 128/2/1 126/2/1 127/2/1
f 129/14/1 128/14/1 127/14/1
f 130/14/1 128/14/1 129/14/1
f 131/4/1 130/4/1 129/4/1
f 132/4/1 130/4/1 131/4/1
f 133/2/1 132/2/1 131/2/1
f 134/2/1 132/2/1 133/2/1
f 135/4/1 134/4/1 133/4/1
f 136/4/1 134/4/1 135/4/1
f 137/2/1 136/2/1 135/2/1
f 138/2/1 136/2/1 137/2/1
f 139/6/1 138/6/1 137/6/1
f 140/6/1 139/6/1 137/6/1
f 141/6/1 139/6/1 140/6/1
f 142/3/1 141/3/1 140/3/1
f 143/3/1 141/3/1 142/3/1
f 144/15/1 143/15/1 142/15/1
f 145/15/1 143/15/1 144/15/1
f 146/14/1 145/14/1 144/14/1
f 147/14/1 145/14/1 146/14/1
f 148/2/1 147/2/1 146/2/1
f 149/2/1 147/2/1 148/2/1
f 150/4/1 149/4/1 148/4/1
f 151/4/1 149/4/1 150/4/1
f 152/5/1 151/5/1 150/5/1
f 153/5/1 151/5/1 152/5/1
f 154/2/1 153/2/1 152/2/1
f 155/2/1 153/2/1 154/2/1
f 156/4/1 155/4/1 154/4/1
f 157/4/1 156/4/1 154/4/1
f 158/4/1 156/4/1 157/4/1
f 159/14/1 158/14/1 157/14/1
f 160/14/1 158/14/1 159/14/1
f 161/14/1 119/14/1 118/14/1
f 162/14/1 119/14/1 161/14/1
f 163/12/1 160/12/1 159/12/1
f 164/12/1 160/12/1 163/12/1
f 165/12/1 162/12/1 161/12/1
f 166/12/1 162/12/1 165/12/1
f 171/14/1 168/14/1 167/14/1
f 172/14/1 171/14/1 167/14/1
f 173/14/1 171/14/1 172/14/1
f 174/7/1 173/7/1 172/7/1
f 175/7/1 173/7/1 174/7/1
f 176/14/1 175/14/1 174/14/1
f 177/14/1 176/14/1 174/14/1
f 178/14/1 176/14/1 177/14/1
f 179/15/1 178/15/1 177/15/1
f 180/15/1 178/15/1 179/15/1
f 181/4/1 180/4/1 179/4/1
f 182/4/1 181/4/1 179/4/1
f 183/4/1 181/4/1 182/4/1
f 184/2/1 183/2/1 182/2/1
f 185/2/1 183/2/1 184/2/1
f 186/5/1 185/5/1 184/5/1
f 187/5/1 185/5/1 186/5/1
f 188/2/1 187/2/1 186/2/1
f 189/2/1 187/2/1 188/2/1
f 190/5/1 189/5/1 188/5/1
f 191/5/1 190/5/1 188/5/1
f 192/5/1 190/5/1 191/5/1
f 193/6/1 192/6/1 191/6/1
f 194/6/1 192/6/1 193/6/1
f 195/2/1 194/2/1 193/2/1
f 196/2/1 195/2/1 193/2/1
f 197/2/1 195/2/1 196/2/1
f 198/6/1 197/6/1 196/6/1
f 199/6/1 198/6/1 196/6/1
f 200/6/1 198/6/1 199/6/1
f 201/4/1 200/4/1 199/4/1
f 202/4/1 200/4/1 201/4/1
f 203/3/1 202/3/1 201/3/1
f 204/3/1 202/3/1 203/3/1
f 205/15/1 204/15/1 203/15/1
f 206/15/1 204/15/1 205/15/1
f 207/14/1 206/14/1 205/14/1
f 208/14/1 206/14/1 207/14/1
f 209/3/1 208/3/1 207/3/1
f 210/3/1 208/3/1 209/3/1
f 211/4/1 210/4/1 209/4/1
f 212/4/1 211/4/1 209/4/1
f 213/4/1 211/4/1 212/4/1
f 214/2/1 213/2/1 212/2/1
f 215/2/1 214/2/1 212/2/1
f 216/2/1 214/2/1 215/2/1
f 217/3/1 216/3/1 215/3/1
f 218/3/1 216/3/1 217/3/1
f 219/14/1 218/14/1 217/14/1
f 220/14/1 218/14/1 219/14/1
f 221/14/1 170/14/1 169/14/1
f 222/14/1 170/14/1 221/14/1
f 223/12/1 220/12/1 219/12/1
f 224/12/1 220/12/1 223/12/1
f 225/12/1 222/12/1 221/12/1
f 226/12/1 222/12/1 225/12/1
f 227/14/2 228/14/2 231/14/2
f 231/14/2 228/14/2 232/14/2
f 231/4/2 232/4/2 233/4/2
f 233/4/2 232/4/2 234/4/2
f 233/3/2 234/3/2 235/3/2
f 235/3/2 234/3/2 236/3/2
f 235/4/2 236/4/2 237/4/2
f 237/4/2 236/4/2 238/4/2
f 237/3/2 238/3/2 239/3/2
f 239/3/2 238/3/2 240/3/2
f 239/15/2 240/15/2 241/15/2
f 241/15/2 240/15/2 242/15/2
f 241/14/2 242/14/2 243/14/2
f 243/14/2 242/14/2 244/14/2
f 243/15/2 244/15/2 245/15/2
f 245/15/2 244/15/2 246/15/2
f 245/7/2 246/7/2 247/7/2
f 245/7/2 247/7/2 248/7/2
f 248/7/2 247/7/2 249/7/2
f 248/2/2 249/2/2 250/2/2
f 250/2/2 249/2/2 251/2/2
f 250/7/2 251/7/2 252/7/2
f 252/7/2 251/7/2 253/7/2
f 252/4/2 253/4/2 254/4/2
f 254/4/2 253/4/2 255/4/2
f 254/2/2 255/2/2 256/2/2
f 256/2/2 255/2/2 257/2/2
f 256/7/2 257/7/2 258/7/2
f 258/7/2 257/7/2 259/7/2
f 258/2/2 259/2/2 260/2/2
f 260/2/2 259/2/2 261/2/2
f 260/4/2 261/4/2 262/4/2
f 262/4/2 261/4/2 263/4/2
f 262/2/2 263/2/2 264/2/2
f 264/2/2 263/2/2 265/2/2
f 264/4/2 265/4/2 266/4/2
f 266/4/2 265/4/2 267/4/2
f 266/3/2 267/3/2 268/3/2
f 266/3/2 268/3/2 269/3/2
f 269/3/2 268/3/2 270/3/2
f 269/15/2 270/15/2 271/15/2
f 271/15/2 270/15/2 272/15/2
f 271/14/2 272/14/2 273/14/2
f 273/14/2 272/14/2 274/14/2
f 229/14/2 230/14/2 275/14/2
f 275/14/2 230/14/2 276/14/2
f 273/12/2 274/12/2 277/12/2
f 277/12/2 274/12/2 278/12/2
f 275/12/2 276/12/2 279/12/2
f 279/12/2 276/12/2 280/12/2
f 281/14/2 282/14/2 285/14/2
f 285/14/2 282/14/2 286/14/2
f 285/16/2 286/16/2 287/16/2
f 287/16/2 286/16/2 288/16/2
f 287/14/2 288/14/2 289/14/2
f 289/14/2 288/14/2 290/14/2
f 289/3/2 290/3/2 291/3/2
f 291/3/2 290/3/2 292/3/2
f 291/4/2 292/4/2 293/4/2
f 293/4/2 292/4/2 294/4/2
f 293/2/2 294/2/2 295/2/2
f 293/2/2 295/2/2 296/2/2
f 296/2/2 295/2/2 297/2/2
f 296/4/2 297/4/2 298/4/2
f 298/4/2 297/4/2 299/4/2
f 298/15/2 299/15/2 300/15/2
f 300/15/2 299/15/2 301/15/2
f 300/14/2 301/14/2 302/14/2
f 300/14/2 302/14/2 303/14/2
f 303/14/2 302/14/2 304/14/2
f 303/7/2 304/7/2 305/7/2
f 303/7/2 305/7/2 306/7/2
f 303/7/2 306/7/2 307/7/2
f 307/7/2 306/7/2 308/7/2
f 307/4/2 308/4/2 309/4/2
f 309/4/2 308/4/2 310/4/2
f 309/7/2 310/7/2 311/7/2
f 311/7/2 310/7/2 312/7/2
f 311/4/2 312/4/2 313/4/2
f 313/4/2 312/4/2 314/4/2
f 313/2/2 314/2/2 315/2/2
f 315/2/2 314/2/2 316/2/2
f 315/7/2 316/7/2 317/7/2
f 317/7/2 316/7/2 318/7/2
f 317/2/2 318/2/2 319/2/2
f 317/2/2 319/2/2 320/2/2
f 317/2/2 320/2/2 321/2/2
f 321/2/2 320/2/2 322/2/2
f 321/4/2 322/4/2 323/4/2
f 323/4/2 322/4/2 324/4/2
f 323/3/2 324/3/2 325/3/2
f 325/3/2 324/3/2 326/3/2
f 325/15/2 326/15/2 327/15/2
f 327/15/2 326/15/2 328/15/2
f 327/14/2 328/14/2 329/14/2
f 329/14/2 328/14/2 330/14/2
f 283/14/2 284/14/2 331/14/2
f 331/14/2 284/14/2 332/14/2
f 329/12/2 330/12/2 333/12/2
f 333/12/2 330/12/2 334/12/2
f 331/12/2 332/12/2 335/12/2
f 335/12/2 332/12/2 336/12/2
f 337/14/2 338/14/2 341/14/2
f 341/14/2 338/14/2 342/14/2
f 341/16/2 342/16/2 343/16/2
f 343/16/2 342/16/2 344/16/2
f 343/14/2 344/14/2 345/14/2
f 343/14/2 345/14/2 346/14/2
f 346/14/2 345/14/2 347/14/2
f 346/4/2 347/4/2 348/4/2
f 348/4/2 347/4/2 349/4/2
f 348/5/2 349/5/2 350/5/2
f 350/5/2 349/5/2 351/5/2
f 350/2/2 351/2/2 352/2/2
f 352/2/2 351/2/2 353/2/2
f 352/4/2 353/4/2 354/4/2
f 354/4/2 353/4/2 355/4/2
f 354/2/2 355/2/2 356/2/2
f 356/2/2 355/2/2 357/2/2
f 356/4/2 357/4/2 358/4/2
f 358/4/2 357/4/2 359/4/2
f 358/2/2 359/2/2 360/2/2
f 360/2/2 359/2/2 361/2/2
f 360/14/2 361/14/2 362/14/2
f 360/14/2 362/14/2 363/14/2
f 363/14/2 362/14/2 364/14/2
f 363/15/2 364/15/2 365/15/2
f 365/15/2 364/15/2 366/15/2
f 365/3/2 366/3/2 367/3/2
f 367/3/2 366/3/2 368/3/2
f 367/4/2 368/4/2 369/4/2
f 369/4/2 368/4/2 370/4/2
f 369/5/2 370/5/2 371/5/2
f 369/5/2 371/5/2 372/5/2
f 372/5/2 371/5/2 373/5/2
f 372/2/2 373/2/2 374/2/2
f 374/2/2 373/2/2 375/2/2
f 374/5/2 375/5/2 376/5/2
f 376/5/2 375/5/2 377/5/2
f 376/2/2 377/2/2 378/2/2
f 378/2/2 377/2/2 379/2/2
f 378/5/2 379/5/2 380/5/2
f 378/5/2 380/5/2 381/5/2
f 381/5/2 380/5/2 382/5/2
f 381/4/2 382/4/2 383/4/2
f 381/4/2 383/4/2 384/4/2
f 384/4/2 383/4/2 385/4/2
f 384/3/2 385/3/2 386/3/2
f 386/3/2 385/3/2 387/3/2
f 386/15/2 387/15/2 388/15/2
f 388/15/2 387/15/2 389/15/2
f 388/14/2 389/14/2 390/14/2
f 390/14/2 389/14/2 391/14/2
f 339/14/2 340/14/2 392/14/2
f 392/14/2 340/14/2 393/14/2
f 390/12/2 391/12/2 394/12/2
f 394/12/2 391/12/2 395/12/2
f 392/12/2 393/12/2 396/12/2
f 396/12/2 393/12/2 397/12/2
f 398/14/2 399/14/2 402/14/2
f 402/14/2 399/14/2 403/14/2
f 402/16/2 403/16/2 404/16/2
f 403/14/2 399/14/2 405/14/2
f 404/16/2 403/16/2 405/16/2
f 404/14/2 405/14/2 406/14/2
f 405/14/2 399/14/2 407/14/2
f 406/14/2 405/14/2 407/14/2
f 407/14/2 399/14/2 408/14/2
f 406/4/2 407/4/2 409/4/2
f 407/2/2 408/2/2 410/2/2
f 409/4/2 407/4/2 410/4/2
f 410/2/2 408/2/2 411/2/2
f 409/2/2 410/2/2 412/2/2
f 410/2/2 411/2/2 412/2/2
f 412/2/2 411/2/2 413/2/2
f 413/2/2 411/2/2 414/2/2
f 413/2/2 414/2/2 415/2/2
f 412/5/2 413/5/2 416/5/2
f 413/2/2 415/2/2 417/2/2
f 416/5/2 413/5/2 417/5/2
f 416/4/2 417/4/2 418/4/2
f 417/2/2 415/2/2 419/2/2
f 418/4/2 417/4/2 419/4/2
f 418/2/2 419/2/2 420/2/2
f 419/2/2 415/2/2 421/2/2
f 420/2/2 419/2/2 421/2/2
f 420/4/2 421/4/2 422/4/2
f 421/2/2 415/2/2 423/2/2
f 422/4/2 421/4/2 423/4/2
f 422/14/2 423/14/2 424/14/2
f 423/2/2 415/2/2 424/2/2
f 424/2/2 415/2/2 425/2/2
f 422/14/2 424/14/2 426/14/2
f 424/14/2 425/14/2 426/14/2
f 426/14/2 425/14/2 427/14/2
f 427/14/2 425/14/2 428/14/2
f 426/15/2 427/15/2 429/15/2
f 427/14/2 428/14/2 430/14/2
f 429/15/2 427/15/2 430/15/2
f 429/3/2 430/3/2 431/3/2
f 430/14/2 428/14/2 432/14/2
f 431/3/2 430/3/2 432/3/2
f 432/14/2 428/14/2 433/14/2
f 431/4/2 432/4/2 434/4/2
f 432/4/2 433/4/2 434/4/2
f 434/4/2 433/4/2 435/4/2
f 434/2/2 435/2/2 436/2/2
f 436/2/2 435/2/2 437/2/2
f 437/2/2 435/2/2 438/2/2
f 436/4/2 437/4/2 439/4/2
f 437/2/2 438/2/2 440/2/2
f 439/4/2 437/4/2 440/4/2
f 440/2/2 438/2/2 441/2/2
f 439/2/2 440/2/2 442/2/2
f 440/14/2 441/14/2 442/14/2
f 442/14/2 441/14/2 443/14/2
f 439/2/2 442/2/2 444/2/2
f 442/2/2 443/2/2 444/2/2
f 444/2/2 443/2/2 445/2/2
f 444/4/2 445/4/2 446/4/2
f 445/2/2 443/2/2 447/2/2
f 446/4/2 445/4/2 447/4/2
f 446/2/2 447/2/2 448/2/2
f 447/2/2 443/2/2 449/2/2
f 448/2/2 447/2/2 449/2/2
f 448/4/2 449/4/2 450/4/2
f 449/2/2 443/2/2 451/2/2
f 450/4/2 449/4/2 451/4/2
f 451/2/2 443/2/2 452/2/2
f 450/3/2 451/3/2 453/3/2
f 451/2/2 452/2/2 454/2/2
f 453/3/2 451/3/2 454/3/2
f 454/2/2 452/2/2 455/2/2
f 453/2/2 454/2/2 456/2/2
f 454/14/2 455/14/2 457/14/2
f 456/2/2 454/2/2 457/2/2
f 456/14/2 457/14/2 458/14/2
f 457/14/2 455/14/2 459/14/2
f 458/14/2 457/14/2 459/14/2
f 400/14/2 401/14/2 460/14/2
f 460/14/2 401/14/2 461/14/2
f 458/12/2 459/12/2 462/12/2
f 462/12/2 459/12/2 463/12/2
f 460/12/2 461/12/2 464/12/2
f 464/12/2 461/12/2 465/12/2
f 466/14/2 467/14/2 470/14/2
f 466/14/2 470/14/2 471/14/2
f 466/14/2 471/14/2 472/14/2
f 472/14/2 471/14/2 473/14/2
f 473/14/2 471/14/2 474/14/2
f 472/4/2 473/4/2 475/4/2
f 473/14/2 474/14/2 476/14/2
f 475/4/2 473/4/2 476/4/2
f 476/14/2 474/14/2 477/14/2
f 475/2/2 476/2/2 478/2/2
f 476/2/2 477/2/2 478/2/2
f 478/2/2 477/2/2 479/2/2
f 478/4/2 479/4/2 480/4/2
f 479/2/2 477/2/2 481/2/2
f 480/4/2 479/4/2 481/4/2
f 481/2/2 477/2/2 482/2/2
f 480/2/2 481/2/2 483/2/2
f 481/2/2 482/2/2 483/2/2
f 480/2/2 483/2/2 484/2/2
f 480/2/2 484/2/2 485/2/2
f 480/2/2 485/2/2 486/2/2
f 486/2/2 485/2/2 487/2/2
f 486/14/2 487/14/2 488/14/2
f 487/2/2 485/2/2 488/2/2
f 488/2/2 485/2/2 489/2/2
f 488/14/2 489/14/2 490/14/2
f 486/14/2 488/14/2 491/14/2
f 488/14/2 490/14/2 491/14/2
f 491/14/2 490/14/2 492/14/2
f 491/2/2 492/2/2 493/2/2
f 492/14/2 490/14/2 494/14/2
f 493/2/2 492/2/2 494/2/2
f 493/14/2 494/14/2 495/14/2
f 494/14/2 490/14/2 496/14/2
f 495/14/2 494/14/2 496/14/2
f 468/14/2 469/14/2 497/14/2
f 497/14/2 469/14/2 498/14/2
f 495/12/2 496/12/2 499/12/2
f 499/12/2 496/12/2 500/12/2
f 497/12/2 498/12/2 501/12/2
f 501/12/2 498/12/2 502/12/2
f 503/14/2 504/14/2 505/14/2
f 505/14/2 504/14/2 506/14/2
f 505/16/2 506/16/2 507/16/2
f 506/14/2 504/14/2 508/14/2
f 507/16/2 506/16/2 508/16/2
f 507/14/2 508/14/2 509/14/2
f 508/14/2 504/14/2 510/14/2
f 509/14/2 508/14/2 510/14/2
f 509/2/2 510/2/2 511/2/2
f 510/14/2 504/14/2 512/14/2
f 511/2/2 510/2/2 512/2/2
f 512/14/2 504/14/2 513/14/2
f 513/14/2 504/14/2 514/14/2
f 511/14/2 512/14/2 515/14/2
f 512/14/2 513/14/2 515/14/2
f 513/2/2 514/2/2 515/2/2
f 514/14/2 504/14/2 516/14/2
f 515/2/2 514/2/2 516/2/2
f 509/2/2 511/2/2 517/2/2
f 511/14/2 515/14/2 518/14/2
f 517/2/2 511/2/2 518/2/2
f 515/14/2 516/14/2 518/14/2
f 518/14/2 516/14/2 519/14/2
f 517/5/2 518/5/2 520/5/2
f 518/2/2 519/2/2 521/2/2
f 520/5/2 518/5/2 521/5/2
f 520/2/2 521/2/2 522/2/2
f 521/2/2 519/2/2 522/2/2
f 519/14/2 516/14/2 523/14/2
f 522/2/2 519/2/2 523/2/2
f 520/2/2 522/2/2 524/2/2
f 522/14/2 523/14/2 524/14/2
f 523/14/2 516/14/2 525/14/2
f 524/14/2 523/14/2 525/14/2
f 520/2/2 524/2/2 526/2/2
f 524/2/2 525/2/2 526/2/2
f 526/2/2 525/2/2 527/2/2
f 525/14/2 516/14/2 528/14/2
f 527/2/2 525/2/2 528/2/2
f 526/5/2 527/5/2 529/5/2
f 527/14/2 528/14/2 530/14/2
f 529/5/2 527/5/2 530/5/2
f 528/14/2 516/14/2 531/14/2
f 530/14/2 528/14/2 531/14/2
f 529/2/2 530/2/2 532/2/2
f 530/2/2 531/2/2 532/2/2
f 531/14/2 516/14/2 533/14/2
f 532/2/2 531/2/2 533/2/2
f 529/2/2 532/2/2 534/2/2
f 532/14/2 533/14/2 534/14/2
f 533/14/2 516/14/2 535/14/2
f 534/14/2 533/14/2 535/14/2
f 529/2/2 534/2/2 536/2/2
f 534/2/2 535/2/2 536/2/2
f 535/14/2 516/14/2 537/14/2
f 536/2/2 535/2/2 537/2/2
f 529/2/2 536/2/2 538/2/2
f 536/14/2 537/14/2 539/14/2
f 538/2/2 536/2/2 539/2/2
f 537/14/2 516/14/2 540/14/2
f 539/14/2 537/14/2 540/14/2
f 538/14/2 539/14/2 541/14/2
f 539/2/2 540/2/2 541/2/2
f 540/14/2 516/14/2 542/14/2
f 541/2/2 540/2/2 542/2/2
f 538/14/2 541/14/2 543/14/2
f 541/14/2 542/14/2 543/14/2
f 516/14/2 504/14/2 544/14/2
f 543/14/2 542/14/2 544/14/2
f 542/14/2 516/14/2 544/14/2
f 543/12/2 544/12/2 545/12/2
f 545/12/2 544/12/2 546/12/2
f 570/14/3 548/14/3 547/14/3
f 570/7/3 549/7/3 548/7/3
f 571/14/3 550/14/3 549/14/3
f 571/7/3 549/7/3 570/7/3
f 572/15/3 551/15/3 550/15/3
f 572/14/3 550/14/3 571/14/3
f 573/4/3 552/4/3 551/4/3
f 573/15/3 551/15/3 572/15/3
f 574/4/3 552/4/3 573/4/3
f 575/2/3 553/2/3 552/2/3
f 575/4/3 552/4/3 574/4/3
f 576/5/3 554/5/3 553/5/3
f 576/2/3 553/2/3 575/2/3
f 577/2/3 555/2/3 554/2/3
f 577/5/3 554/5/3 576/5/3
f 578/2/3 555/2/3 577/2/3
f 579/5/3 556/5/3 555/5/3
f 579/2/3 555/2/3 578/2/3
f 580/6/3 557/6/3 556/6/3
f 580/5/3 556/5/3 579/5/3
f 581/2/3 558/2/3 557/2/3
f 581/6/3 557/6/3 580/6/3
f 582/6/3 559/6/3 558/6/3
f 582/2/3 558/2/3 581/2/3
f 583/3/3 561/3/3 560/3/3
f 583/15/3 562/15/3 561/15/3
f 584/14/3 563/14/3 562/14/3
f 584/15/3 562/15/3 583/15/3
f 585/3/3 564/3/3 563/3/3
f 585/14/3 563/14/3 584/14/3
f 586/4/3 565/4/3 564/4/3
f 586/3/3 564/3/3 585/3/3
f 587/2/3 566/2/3 565/2/3
f 587/4/3 565/4/3 586/4/3
f 588/2/3 566/2/3 587/2/3
f 589/3/3 567/3/3 566/3/3
f 589/2/3 566/2/3 588/2/3
f 590/14/3 568/14/3 567/14/3
f 590/3/3 567/3/3 589/3/3
f 591/14/3 571/14/3 570/14/3
f 591/14/3 572/14/3 571/14/3
f 592/14/3 572/14/3 591/14/3
f 593/4/3 573/4/3 572/4/3
f 593/14/3 572/14/3 592/14/3
f 594/14/3 574/14/3 573/14/3
f 594/4/3 573/4/3 593/4/3
f 595/5/3 575/5/3 574/5/3
f 595/14/3 574/14/3 594/14/3
f 596/2/3 576/2/3 575/2/3
f 596/5/3 575/5/3 595/5/3
f 596/2/3 578/2/3 577/2/3
f 596/2/3 577/2/3 576/2/3
f 597/2/3 578/2/3 596/2/3
f 598/2/3 578/2/3 597/2/3
f 599/5/3 579/5/3 578/5/3
f 599/2/3 578/2/3 598/2/3
f 600/2/3 580/2/3 579/2/3
f 600/5/3 579/5/3 599/5/3
f 601/2/3 580/2/3 600/2/3
f 602/6/3 581/6/3 580/6/3
f 602/2/3 580/2/3 601/2/3
f 602/6/3 582/6/3 581/6/3
f 603/4/3 560/4/3 559/4/3
f 603/6/3 582/6/3 602/6/3
f 603/6/3 559/6/3 582/6/3
f 604/3/3 583/3/3 560/3/3
f 604/4/3 560/4/3 603/4/3
f 605/5/3 584/5/3 583/5/3
f 605/3/3 583/3/3 604/3/3
f 606/2/3 585/2/3 584/2/3
f 606/5/3 584/5/3 605/5/3
f 607/14/3 586/14/3 585/14/3
f 607/2/3 585/2/3 606/2/3
f 608/3/3 587/3/3 586/3/3
f 608/14/3 586/14/3 607/14/3
f 609/3/3 587/3/3 608/3/3
f 610/15/3 588/15/3 587/15/3
f 610/3/3 587/3/3 609/3/3
f 611/4/3 589/4/3 588/4/3
f 611/15/3 588/15/3 610/15/3
f 612/15/3 590/15/3 589/15/3
f 612/4/3 589/4/3 611/4/3
f 613/14/3 568/14/3 590/14/3
f 613/15/3 590/15/3 612/15/3
f 614/15/3 592/15/3 591/15/3
f 615/15/3 592/15/3 614/15/3
f 616/14/3 593/14/3 592/14/3
f 616/15/3 592/15/3 615/15/3
f 617/14/3 593/14/3 616/14/3
f 618/15/3 594/15/3 593/15/3
f 618/14/3 593/14/3 617/14/3
f 619/3/3 595/3/3 594/3/3
f 619/15/3 594/15/3 618/15/3
f 620/2/3 596/2/3 595/2/3
f 620/3/3 595/3/3 619/3/3
f 621/4/3 597/4/3 596/4/3
f 621/2/3 596/2/3 620/2/3
f 622/2/3 598/2/3 597/2/3
f 622/4/3 599/4/3 598/4/3
f 623/2/3 600/2/3 599/2/3
f 623/4/3 599/4/3 622/4/3
f 624/4/3 601/4/3 600/4/3
f 624/2/3 600/2/3 623/2/3
f 625/2/3 602/2/3 601/2/3
f 625/4/3 601/4/3 624/4/3
f 625/2/3 603/2/3 602/2/3
f 625/2/3 604/2/3 603/2/3
f 626/2/3 604/2/3 625/2/3
f 627/4/3 605/4/3 604/4/3
f 627/2/3 604/2/3 626/2/3
f 628/3/3 606/3/3 605/3/3
f 628/4/3 605/4/3 627/4/3
f 629/14/3 607/14/3 606/14/3
f 629/3/3 606/3/3 628/3/3
f 630/15/3 608/15/3 607/15/3
f 630/14/3 607/14/3 629/14/3
f 631/14/3 609/14/3 608/14/3
f 631/15/3 608/15/3 630/15/3
f 632/3/3 610/3/3 609/3/3
f 632/14/3 609/14/3 631/14/3
f 632/3/3 612/3/3 611/3/3
f 632/3/3 611/3/3 610/3/3
f 632/3/3 613/3/3 612/3/3
f 633/3/3 613/3/3 632/3/3
f 634/3/3 613/3/3 633/3/3
f 635/3/3 613/3/3 634/3/3
f 636/14/3 568/14/3 613/14/3
f 636/3/3 613/3/3 635/3/3
f 637/14/3 591/14/3 570/14/3
f 637/15/3 614/15/3 591/15/3
f 638/3/3 615/3/3 614/3/3
f 638/15/3 614/15/3 637/15/3
f 639/15/3 617/15/3 616/15/3
f 639/3/3 615/3/3 638/3/3
f 639/15/3 616/15/3 615/15/3
f 640/14/3 618/14/3 617/14/3
f 640/15/3 617/15/3 639/15/3
f 640/14/3 619/14/3 618/14/3
f 641/3/3 620/3/3 619/3/3
f 641/14/3 619/14/3 640/14/3
f 642/15/3 621/15/3 620/15/3
f 642/3/3 620/3/3 641/3/3
f 643/4/3 597/4/3 621/4/3
f 643/15/3 621/15/3 642/15/3
f 644/2/3 622/2/3 597/2/3
f 644/4/3 597/4/3 643/4/3
f 645/7/3 623/7/3 622/7/3
f 645/2/3 622/2/3 644/2/3
f 646/2/3 625/2/3 624/2/3
f 646/2/3 624/2/3 623/2/3
f 646/2/3 626/2/3 625/2/3
f 647/6/3 627/6/3 626/6/3
f 647/2/3 626/2/3 646/2/3
f 647/6/3 628/6/3 627/6/3
f 648/6/3 628/6/3 647/6/3
f 649/6/3 628/6/3 648/6/3
f 650/6/3 628/6/3 649/6/3
f 651/6/3 628/6/3 650/6/3
f 652/3/3 629/3/3 628/3/3
f 652/6/3 628/6/3 651/6/3
f 653/15/3 630/15/3 629/15/3
f 653/3/3 629/3/3 652/3/3
f 654/14/3 631/14/3 630/14/3
f 654/15/3 630/15/3 653/15/3
f 655/15/3 632/15/3 631/15/3
f 655/14/3 631/14/3 654/14/3
f 656/15/3 634/15/3 633/15/3
f 656/14/3 633/14/3 632/14/3
f 657/3/3 635/3/3 634/3/3
f 657/15/3 634/15/3 656/15/3
f 658/15/3 636/15/3 635/15/3
f 658/3/3 635/3/3 657/3/3
f 659/14/3 637/14/3 570/14/3
f 659/3/3 638/3/3 637/3/3
f 659/3/3 639/3/3 638/3/3
f 659/3/3 640/3/3 639/3/3
f 660/3/3 640/3/3 659/3/3
f 661/3/3 640/3/3 660/3/3
f 662/3/3 640/3/3 661/3/3
f 663/14/3 641/14/3 640/14/3
f 663/3/3 640/3/3 662/3/3
f 664/14/3 641/14/3 663/14/3
f 665/15/3 642/15/3 641/15/3
f 665/14/3 641/14/3 664/14/3
f 666/3/3 643/3/3 642/3/3
f 666/15/3 642/15/3 665/15/3
f 667/4/3 644/4/3 643/4/3
f 667/3/3 643/3/3 666/3/3
f 668/5/3 645/5/3 644/5/3
f 668/4/3 644/4/3 667/4/3
f 669/7/3 623/7/3 645/7/3
f 669/5/3 645/5/3 668/5/3
f 670/7/3 647/7/3 646/7/3
f 670/7/3 648/7/3 647/7/3
f 671/7/3 648/7/3 670/7/3
f 672/7/3 648/7/3 671/7/3
f 673/2/3 649/2/3 648/2/3
f 674/6/3 650/6/3 649/6/3
f 674/2/3 649/2/3 673/2/3
f 675/2/3 651/2/3 650/2/3
f 675/6/3 650/6/3 674/6/3
f 676/4/3 652/4/3 651/4/3
f 676/2/3 651/2/3 675/2/3
f 677/3/3 653/3/3 652/3/3
f 677/4/3 652/4/3 676/4/3
f 677/3/3 654/3/3 653/3/3
f 678/3/3 654/3/3 677/3/3
f 679/15/3 655/15/3 654/15/3
f 679/3/3 654/3/3 678/3/3
f 680/15/3 632/15/3 655/15/3
f 680/15/3 655/15/3 679/15/3
f 681/15/3 658/15/3 657/15/3
f 681/14/3 657/14/3 656/14/3
f 682/15/3 636/15/3 658/15/3
f 682/15/3 658/15/3 681/15/3
f 682/14/3 568/14/3 636/14/3
f 683/14/3 570/14/3 547/14/3
f 683/14/3 659/14/3 570/14/3
f 684/4/3 660/4/3 659/4/3
f 684/14/3 659/14/3 683/14/3
f 685/3/3 661/3/3 660/3/3
f 685/4/3 660/4/3 684/4/3
f 686/4/3 662/4/3 661/4/3
f 686/3/3 661/3/3 685/3/3
f 687/3/3 663/3/3 662/3/3
f 687/4/3 662/4/3 686/4/3
f 688/15/3 664/15/3 663/15/3
f 688/3/3 663/3/3 687/3/3
f 689/14/3 666/14/3 665/14/3
f 689/15/3 664/15/3 688/15/3
f 689/14/3 665/14/3 664/14/3
f 690/15/3 667/15/3 666/15/3
f 690/14/3 666/14/3 689/14/3
f 691/7/3 668/7/3 667/7/3
f 691/15/3 667/15/3 690/15/3
f 691/7/3 669/7/3 668/7/3
f 692/2/3 646/2/3 623/2/3
f 692/7/3 669/7/3 691/7/3
f 692/7/3 623/7/3 669/7/3
f 693/7/3 670/7/3 646/7/3
f 693/2/3 646/2/3 692/2/3
f 694/4/3 671/4/3 670/4/3
f 694/7/3 670/7/3 693/7/3
f 695/2/3 672/2/3 671/2/3
f 695/4/3 671/4/3 694/4/3
f 696/7/3 648/7/3 672/7/3
f 696/2/3 672/2/3 695/2/3
f 697/2/3 673/2/3 648/2/3
f 697/7/3 648/7/3 696/7/3
f 698/4/3 674/4/3 673/4/3
f 698/2/3 673/2/3 697/2/3
f 699/2/3 676/2/3 675/2/3
f 699/4/3 674/4/3 698/4/3
f 699/2/3 677/2/3 676/2/3
f 699/2/3 675/2/3 674/2/3
f 700/4/3 678/4/3 677/4/3
f 700/2/3 677/2/3 699/2/3
f 701/3/3 679/3/3 678/3/3
f 701/4/3 678/4/3 700/4/3
f 701/3/3 680/3/3 679/3/3
f 702/15/3 632/15/3 680/15/3
f 702/3/3 680/3/3 701/3/3
f 703/14/3 681/14/3 656/14/3
f 703/15/3 632/15/3 702/15/3
f 703/14/3 682/14/3 681/14/3
f 703/14/3 656/14/3 632/14/3
f 704/12/3 569/12/3 568/12/3
f 704/14/3 682/14/3 703/14/3
f 704/14/3 568/14/3 682/14/3
f 705/12/3 569/12/3 704/12/3
f 727/7/3 708/7/3 707/7/3
f 728/7/3 708/7/3 727/7/3
f 729/14/3 709/14/3 708/14/3
f 730/2/3 710/2/3 709/2/3
f 730/14/3 709/14/3 729/14/3
f 731/2/3 710/2/3 730/2/3
f 732/14/3 711/14/3 710/14/3
f 732/2/3 710/2/3 731/2/3
f 733/4/3 712/4/3 711/4/3
f 733/14/3 711/14/3 732/14/3
f 734/2/3 713/2/3 712/2/3
f 734/4/3 712/4/3 733/4/3
f 735/4/3 714/4/3 713/4/3
f 735/2/3 713/2/3 734/2/3
f 736/2/3 715/2/3 714/2/3
f 736/4/3 714/4/3 735/4/3
f 737/6/3 716/6/3 715/6/3
f 738/6/3 716/6/3 737/6/3
f 739/6/3 716/6/3 738/6/3
f 740/6/3 716/6/3 739/6/3
f 741/15/3 718/15/3 717/15/3
f 741/14/3 719/14/3 718/14/3
f 742/2/3 720/2/3 719/2/3
f 742/14/3 719/14/3 741/14/3
f 743/4/3 721/4/3 720/4/3
f 743/2/3 720/2/3 742/2/3
f 744/5/3 722/5/3 721/5/3
f 744/4/3 721/4/3 743/4/3
f 745/2/3 723/2/3 722/2/3
f 745/5/3 722/5/3 744/5/3
f 746/2/3 723/2/3 745/2/3
f 747/2/3 723/2/3 746/2/3
f 748/4/3 724/4/3 723/4/3
f 748/2/3 723/2/3 747/2/3
f 749/4/3 724/4/3 748/4/3
f 750/14/3 725/14/3 724/14/3
f 750/4/3 724/4/3 749/4/3
f 751/14/3 707/14/3 706/14/3
f 752/7/3 727/7/3 707/7/3
f 752/14/3 707/14/3 751/14/3
f 753/14/3 728/14/3 727/14/3
f 753/7/3 727/7/3 752/7/3
f 754/7/3 708/7/3 728/7/3
f 754/14/3 728/14/3 753/14/3
f 755/14/3 729/14/3 708/14/3
f 755/7/3 708/7/3 754/7/3
f 756/4/3 730/4/3 729/4/3
f 756/14/3 729/14/3 755/14/3
f 757/15/3 731/15/3 730/15/3
f 757/4/3 730/4/3 756/4/3
f 758/2/3 732/2/3 731/2/3
f 758/15/3 731/15/3 757/15/3
f 758/2/3 733/2/3 732/2/3
f 758/2/3 734/2/3 733/2/3
f 758/2/3 735/2/3 734/2/3
f 758/2/3 736/2/3 735/2/3
f 759/2/3 736/2/3 758/2/3
f 760/2/3 736/2/3 759/2/3
f 761/2/3 736/2/3 760/2/3
f 762/2/3 715/2/3 736/2/3
f 762/2/3 736/2/3 761/2/3
f 763/6/3 737/6/3 715/6/3
f 763/2/3 715/2/3 762/2/3
f 764/5/3 738/5/3 737/5/3
f 764/6/3 737/6/3 763/6/3
f 765/2/3 739/2/3 738/2/3
f 765/5/3 738/5/3 764/5/3
f 766/4/3 740/4/3 739/4/3
f 766/2/3 739/2/3 765/2/3
f 767/6/3 716/6/3 740/6/3
f 767/4/3 740/4/3 766/4/3
f 768/3/3 717/3/3 716/3/3
f 768/6/3 716/6/3 767/6/3
f 769/15/3 741/15/3 717/15/3
f 769/3/3 717/3/3 768/3/3
f 770/2/3 742/2/3 741/2/3
f 770/15/3 741/15/3 769/15/3
f 771/14/3 743/14/3 742/14/3
f 771/2/3 742/2/3 770/2/3
f 772/2/3 744/2/3 743/2/3
f 772/14/3 743/14/3 771/14/3
f 772/2/3 745/2/3 744/2/3
f 773/2/3 745/2/3 772/2/3
f 774/4/3 746/4/3 745/4/3
f 774/2/3 745/2/3 773/2/3
f 775/2/3 747/2/3 746/2/3
f 775/4/3 746/4/3 774/4/3
f 776/4/3 748/4/3 747/4/3
f 776/2/3 747/2/3 775/2/3
f 777/5/3 749/5/3 748/5/3
f 777/4/3 748/4/3 776/4/3
f 778/15/3 750/15/3 749/15/3
f 778/5/3 749/5/3 777/5/3
f 779/14/3 725/14/3 750/14/3
f 779/15/3 750/15/3 778/15/3
f 780/12/3 726/12/3 725/12/3
f 780/14/3 725/14/3 779/14/3
f 781/12/3 726/12/3 780/12/3
f 807/14/3 783/14/3 782/14/3
f 808/14/3 783/14/3 807/14/3
f 809/15/3 784/15/3 783/15/3
f 809/14/3 783/14/3 808/14/3
f 810/3/3 785/3/3 784/3/3
f 810/15/3 784/15/3 809/15/3
f 811/4/3 786/4/3 785/4/3
f 811/3/3 785/3/3 810/3/3
f 811/4/3 787/4/3 786/4/3
f 811/4/3 788/4/3 787/4/3
f 812/4/3 788/4/3 811/4/3
f 813/14/3 789/14/3 788/14/3
f 813/4/3 788/4/3 812/4/3
f 814/14/3 789/14/3 813/14/3
f 815/15/3 790/15/3 789/15/3
f 815/14/3 789/14/3 814/14/3
f 816/3/3 791/3/3 790/3/3
f 816/15/3 790/15/3 815/15/3
f 817/7/3 792/7/3 791/7/3
f 817/3/3 791/3/3 816/3/3
f 818/7/3 794/7/3 793/7/3
f 818/2/3 795/2/3 794/2/3
f 818/2/3 796/2/3 795/2/3
f 819/2/3 796/2/3 818/2/3
f 820/2/3 798/2/3 797/2/3
f 820/2/3 799/2/3 798/2/3
f 820/2/3 800/2/3 799/2/3
f 820/2/3 801/2/3 800/2/3
f 821/3/3 802/3/3 801/3/3
f 821/2/3 801/2/3 820/2/3
f 822/15/3 803/15/3 802/15/3
f 822/3/3 802/3/3 821/3/3
f 822/15/3 804/15/3 803/15/3
f 823/15/3 804/15/3 822/15/3
f 824/14/3 807/14/3 782/14/3
f 825/16/3 808/16/3 807/16/3
f 825/14/3 807/14/3 824/14/3
f 826/14/3 809/14/3 808/14/3
f 826/16/3 808/16/3 825/16/3
f 827/3/3 810/3/3 809/3/3
f 827/14/3 809/14/3 826/14/3
f 828/4/3 811/4/3 810/4/3
f 828/3/3 810/3/3 827/3/3
f 829/2/3 812/2/3 811/2/3
f 829/4/3 811/4/3 828/4/3
f 830/4/3 813/4/3 812/4/3
f 830/2/3 812/2/3 829/2/3
f 831/15/3 814/15/3 813/15/3
f 831/4/3 813/4/3 830/4/3
f 832/14/3 815/14/3 814/14/3
f 832/15/3 814/15/3 831/15/3
f 832/14/3 816/14/3 815/14/3
f 833/7/3 817/7/3 816/7/3
f 833/14/3 816/14/3 832/14/3
f 834/4/3 793/4/3 792/4/3
f 834/7/3 817/7/3 833/7/3
f 834/7/3 792/7/3 817/7/3
f 835/7/3 818/7/3 793/7/3
f 835/4/3 793/4/3 834/4/3
f 836/4/3 819/4/3 818/4/3
f 836/7/3 818/7/3 835/7/3
f 837/2/3 796/2/3 819/2/3
f 837/4/3 819/4/3 836/4/3
f 838/7/3 797/7/3 796/7/3
f 838/2/3 796/2/3 837/2/3
f 839/2/3 820/2/3 797/2/3
f 839/7/3 797/7/3 838/7/3
f 840/4/3 822/4/3 821/4/3
f 840/2/3 820/2/3 839/2/3
f 840/4/3 821/4/3 820/4/3
f 841/3/3 823/3/3 822/3/3
f 841/4/3 822/4/3 840/4/3
f 842/15/3 804/15/3 823/15/3
f 842/3/3 823/3/3 841/3/3
f 843/14/3 805/14/3 804/14/3
f 843/15/3 804/15/3 842/15/3
f 844/12/3 806/12/3 805/12/3
f 844/14/3 805/14/3 843/14/3
f 845/12/3 806/12/3 844/12/3
f 863/14/3 847/14/3 846/14/3
f 864/6/3 848/6/3 847/6/3
f 864/14/3 847/14/3 863/14/3
f 865/14/3 849/14/3 848/14/3
f 865/6/3 848/6/3 864/6/3
f 866/14/3 849/14/3 865/14/3
f 867/14/3 849/14/3 866/14/3
f 868/14/3 849/14/3 867/14/3
f 869/2/3 850/2/3 849/2/3
f 869/14/3 849/14/3 868/14/3
f 870/2/3 850/2/3 869/2/3
f 871/4/3 851/4/3 850/4/3
f 871/2/3 850/2/3 870/2/3
f 872/3/3 852/3/3 851/3/3
f 872/4/3 851/4/3 871/4/3
f 873/4/3 853/4/3 852/4/3
f 873/3/3 852/3/3 872/3/3
f 874/15/3 854/15/3 853/15/3
f 874/4/3 853/4/3 873/4/3
f 875/14/3 855/14/3 854/14/3
f 875/15/3 854/15/3 874/15/3
f 876/14/3 855/14/3 875/14/3
f 877/4/3 856/4/3 855/4/3
f 877/14/3 855/14/3 876/14/3
f 878/4/3 856/4/3 877/4/3
f 879/2/3 857/2/3 856/2/3
f 879/4/3 856/4/3 878/4/3
f 880/4/3 858/4/3 857/4/3
f 880/2/3 857/2/3 879/2/3
f 881/2/3 859/2/3 858/2/3
f 881/4/3 858/4/3 880/4/3
f 882/2/3 859/2/3 881/2/3
f 883/4/3 860/4/3 859/4/3
f 883/2/3 859/2/3 882/2/3
f 884/4/3 860/4/3 883/4/3
f 885/14/3 863/14/3 846/14/3
f 886/6/3 864/6/3 863/6/3
f 886/14/3 863/14/3 885/14/3
f 886/6/3 865/6/3 864/6/3
f 886/6/3 866/6/3 865/6/3
f 887/14/3 867/14/3 866/14/3
f 887/6/3 866/6/3 886/6/3
f 888/14/3 867/14/3 887/14/3
f 889/2/3 868/2/3 867/2/3
f 889/14/3 867/14/3 888/14/3
f 890/2/3 868/2/3 889/2/3
f 891/2/3 868/2/3 890/2/3
f 892/4/3 869/4/3 868/4/3
f 892/2/3 868/2/3 891/2/3
f 893/2/3 870/2/3 869/2/3
f 893/4/3 869/4/3 892/4/3
f 894/4/3 871/4/3 870/4/3
f 894/2/3 870/2/3 893/2/3
f 895/2/3 872/2/3 871/2/3
f 895/4/3 871/4/3 894/4/3
f 895/2/3 873/2/3 872/2/3
f 895/2/3 874/2/3 873/2/3
f 896/3/3 876/3/3 875/3/3
f 896/2/3 874/2/3 895/2/3
f 896/3/3 875/3/3 874/3/3
f 897/14/3 878/14/3 877/14/3
f 897/3/3 876/3/3 896/3/3
f 897/14/3 877/14/3 876/14/3
f 898/14/3 878/14/3 897/14/3
f 899/2/3 879/2/3 878/2/3
f 899/14/3 878/14/3 898/14/3
f 899/2/3 880/2/3 879/2/3
f 899/2/3 882/2/3 881/2/3
f 899/2/3 881/2/3 880/2/3
f 900/2/3 882/2/3 899/2/3
f 901/2/3 882/2/3 900/2/3
f 902/2/3 882/2/3 901/2/3
f 903/5/3 884/5/3 883/5/3
f 903/2/3 882/2/3 902/2/3
f 903/5/3 883/5/3 882/5/3
f 904/5/3 884/5/3 903/5/3
f 905/4/3 860/4/3 884/4/3
f 905/5/3 884/5/3 904/5/3
f 906/14/3 861/14/3 860/14/3
f 906/4/3 860/4/3 905/4/3
f 907/12/3 862/12/3 861/12/3
f 907/14/3 861/14/3 906/14/3
f 908/12/3 862/12/3 907/12/3
f 937/14/3 910/14/3 909/14/3
f 937/14/3 911/14/3 910/14/3
f 937/14/3 912/14/3 911/14/3
f 938/14/3 912/14/3 937/14/3
f 939/4/3 913/4/3 912/4/3
f 939/14/3 912/14/3 938/14/3
f 940/2/3 914/2/3 913/2/3
f 940/4/3 913/4/3 939/4/3
f 941/4/3 915/4/3 914/4/3
f 941/2/3 914/2/3 940/2/3
f 942/2/3 916/2/3 915/2/3
f 942/4/3 915/4/3 941/4/3
f 943/5/3 917/5/3 916/5/3
f 943/2/3 916/2/3 942/2/3
f 944/4/3 918/4/3 917/4/3
f 944/5/3 917/5/3 943/5/3
f 945/2/3 919/2/3 918/2/3
f 945/4/3 918/4/3 944/4/3
f 946/14/3 920/14/3 919/14/3
f 946/2/3 919/2/3 945/2/3
f 946/14/3 921/14/3 920/14/3
f 947/14/3 921/14/3 946/14/3
f 948/15/3 922/15/3 921/15/3
f 948/14/3 921/14/3 947/14/3
f 949/7/3 923/7/3 922/7/3
f 949/15/3 922/15/3 948/15/3
f 950/2/3 924/2/3 923/2/3
f 950/7/3 923/7/3 949/7/3
f 950/2/3 925/2/3 924/2/3
f 950/2/3 926/2/3 925/2/3
f 950/2/3 927/2/3 926/2/3
f 950/2/3 928/2/3 927/2/3
f 951/2/3 928/2/3 950/2/3
f 952/2/3 928/2/3 951/2/3
f 953/2/3 928/2/3 952/2/3
f 954/4/3 929/4/3 928/4/3
f 954/2/3 928/2/3 953/2/3
f 955/2/3 930/2/3 929/2/3
f 955/4/3 929/4/3 954/4/3
f 956/2/3 930/2/3 955/2/3
f 957/4/3 932/4/3 931/4/3
f 957/2/3 930/2/3 956/2/3
f 957/4/3 931/4/3 930/4/3
f 958/4/3 932/4/3 957/4/3
f 959/4/3 932/4/3 958/4/3
f 960/3/3 933/3/3 932/3/3
f 960/4/3 932/4/3 959/4/3
f 961/15/3 934/15/3 933/15/3
f 961/3/3 933/3/3 960/3/3
f 962/14/3 935/14/3 934/14/3
f 962/15/3 934/15/3 961/15/3
f 963/14/3 937/14/3 909/14/3
f 964/16/3 938/16/3 937/16/3
f 964/14/3 937/14/3 963/14/3
f 965/14/3 939/14/3 938/14/3
f 965/16/3 938/16/3 964/16/3
f 965/14/3 940/14/3 939/14/3
f 966/4/3 941/4/3 940/4/3
f 966/14/3 940/14/3 965/14/3
f 967/5/3 942/5/3 941/5/3
f 967/4/3 941/4/3 966/4/3
f 968/2/3 943/2/3 942/2/3
f 968/5/3 942/5/3 967/5/3
f 969/4/3 944/4/3 943/4/3
f 969/2/3 943/2/3 968/2/3
f 970/2/3 945/2/3 944/2/3
f 970/4/3 944/4/3 969/4/3
f 971/4/3 946/4/3 945/4/3
f 971/2/3 945/2/3 970/2/3
f 972/2/3 947/2/3 946/2/3
f 972/4/3 946/4/3 971/4/3
f 973/14/3 948/14/3 947/14/3
f 973/2/3 947/2/3 972/2/3
f 973/14/3 949/14/3 948/14/3
f 974/15/3 950/15/3 949/15/3
f 974/14/3 949/14/3 973/14/3
f 975/3/3 951/3/3 950/3/3
f 975/15/3 950/15/3 974/15/3
f 976/4/3 952/4/3 951/4/3
f 976/3/3 951/3/3 975/3/3
f 977/5/3 953/5/3 952/5/3
f 977/4/3 952/4/3 976/4/3
f 978/2/3 954/2/3 953/2/3
f 978/5/3 953/5/3 977/5/3
f 979/5/3 955/5/3 954/5/3
f 979/2/3 954/2/3 978/2/3
f 980/2/3 956/2/3 955/2/3
f 980/5/3 955/5/3 979/5/3
f 981/5/3 958/5/3 957/5/3
f 981/2/3 956/2/3 980/2/3
f 981/5/3 957/5/3 956/5/3
f 982/4/3 959/4/3 958/4/3
f 982/5/3 958/5/3 981/5/3
f 983/3/3 960/3/3 959/3/3
f 983/4/3 959/4/3 982/4/3
f 984/15/3 961/15/3 960/15/3
f 984/3/3 960/3/3 983/3/3
f 985/14/3 962/14/3 961/14/3
f 985/15/3 961/15/3 984/15/3
f 986/12/3 936/12/3 935/12/3
f 986/14/3 962/14/3 985/14/3
f 986/14/3 935/14/3 962/14/3
f 987/12/3 936/12/3 986/12/3
f 995/14/3 989/14/3 988/14/3
f 996/6/3 990/6/3 989/6/3
f 996/14/3 989/14/3 995/14/3
f 997/6/3 990/6/3 996/6/3
f 998/6/3 990/6/3 997/6/3
f 999/14/3 991/14/3 990/14/3
f 999/6/3 990/6/3 998/6/3
f 1000/14/3 991/14/3 999/14/3
f 1001/14/3 991/14/3 1000/14/3
f 1002/14/3 991/14/3 1001/14/3
f 1003/14/3 991/14/3 1002/14/3
f 1004/14/3 991/14/3 1003/14/3
f 1005/14/3 991/14/3 1004/14/3
f 1006/2/3 992/2/3 991/2/3
f 1006/14/3 991/14/3 1005/14/3
f 1007/2/3 992/2/3 1006/2/3
f 1008/2/3 992/2/3 1007/2/3
f 1009/2/3 992/2/3 1008/2/3
f 1010/2/3 992/2/3 1009/2/3
f 1011/2/3 992/2/3 1010/2/3
f 1012/14/3 993/14/3 992/14/3
f 1012/2/3 992/2/3 1011/2/3
f 1013/12/3 994/12/3 993/12/3
f 1013/14/3 993/14/3 1012/14/3
f 1014/12/3 994/12/3 1013/12/3
f 1045/14/3 1016/14/3 1015/14/3
f 1046/16/3 1017/16/3 1016/16/3
f 1046/14/3 1016/14/3 1045/14/3
f 1047/14/3 1018/14/3 1017/14/3
f 1047/16/3 1017/16/3 1046/16/3
f 1048/4/3 1019/4/3 1018/4/3
f 1048/14/3 1018/14/3 1047/14/3
f 1049/2/3 1020/2/3 1019/2/3
f 1049/4/3 1019/4/3 1048/4/3
f 1050/5/3 1021/5/3 1020/5/3
f 1050/2/3 1020/2/3 1049/2/3
f 1050/5/3 1022/5/3 1021/5/3
f 1050/5/3 1023/5/3 1022/5/3
f 1051/4/3 1024/4/3 1023/4/3
f 1051/5/3 1023/5/3 1050/5/3
f 1052/2/3 1025/2/3 1024/2/3
f 1052/4/3 1024/4/3 1051/4/3
f 1053/4/3 1026/4/3 1025/4/3
f 1053/2/3 1025/2/3 1052/2/3
f 1053/4/3 1027/4/3 1026/4/3
f 1054/14/3 1028/14/3 1027/14/3
f 1054/4/3 1027/4/3 1053/4/3
f 1054/14/3 1029/14/3 1028/14/3
f 1055/15/3 1030/15/3 1029/15/3
f 1055/14/3 1029/14/3 1054/14/3
f 1056/3/3 1031/3/3 1030/3/3
f 1056/15/3 1030/15/3 1055/15/3
f 1057/4/3 1032/4/3 1031/4/3
f 1057/3/3 1031/3/3 1056/3/3
f 1058/2/3 1033/2/3 1032/2/3
f 1058/4/3 1032/4/3 1057/4/3
f 1059/4/3 1034/4/3 1033/4/3
f 1059/2/3 1033/2/3 1058/2/3
f 1060/2/3 1035/2/3 1034/2/3
f 1060/4/3 1034/4/3 1059/4/3
f 1060/2/3 1036/2/3 1035/2/3
f 1061/4/3 1037/4/3 1036/4/3
f 1061/2/3 1036/2/3 1060/2/3
f 1062/2/3 1038/2/3 1037/2/3
f 1062/4/3 1037/4/3 1061/4/3
f 1063/4/3 1039/4/3 1038/4/3
f 1063/2/3 1038/2/3 1062/2/3
f 1064/3/3 1040/3/3 1039/3/3
f 1064/4/3 1039/4/3 1063/4/3
f 1065/2/3 1041/2/3 1040/2/3
f 1065/3/3 1040/3/3 1064/3/3
f 1066/14/3 1043/14/3 1042/14/3
f 1066/2/3 1041/2/3 1065/2/3
f 1066/14/3 1042/14/3 1041/14/3
f 1067/12/3 1044/12/3 1043/12/3
f 1067/14/3 1043/14/3 1066/14/3
f 1068/12/3 1044/12/3 1067/12/3
f 1081/14/3 1070/14/3 1069/14/3
f 1082/2/3 1071/2/3 1070/2/3
f 1082/14/3 1070/14/3 1081/14/3
f 1083/2/3 1071/2/3 1082/2/3
f 1084/14/3 1072/14/3 1071/14/3
f 1084/2/3 1071/2/3 1083/2/3
f 1085/2/3 1073/2/3 1072/2/3
f 1085/14/3 1072/14/3 1084/14/3
f 1086/14/3 1074/14/3 1073/14/3
f 1086/2/3 1073/2/3 1085/2/3
f 1087/2/3 1075/2/3 1074/2/3
f 1087/14/3 1074/14/3 1086/14/3
f 1088/14/3 1076/14/3 1075/14/3
f 1088/2/3 1075/2/3 1087/2/3
f 1089/14/3 1076/14/3 1088/14/3
f 1090/2/3 1077/2/3 1076/2/3
f 1090/14/3 1076/14/3 1089/14/3
f 1091/4/3 1078/4/3 1077/4/3
f 1091/2/3 1077/2/3 1090/2/3
f 1092/14/3 1079/14/3 1078/14/3
f 1092/4/3 1078/4/3 1091/4/3
f 1093/12/3 1080/12/3 1079/12/3
f 1093/14/3 1079/14/3 1092/14/3
f 1094/12/3 1080/12/3 1093/12/3
f 1111/14/3 1096/14/3 1095/14/3
f 1112/4/3 1097/4/3 1096/4/3
f 1112/14/3 1096/14/3 1111/14/3
f 1113/2/3 1098/2/3 1097/2/3
f 1113/4/3 1097/4/3 1112/4/3
f 1114/4/3 1099/4/3 1098/4/3
f 1114/2/3 1098/2/3 1113/2/3
f 1115/2/3 1100/2/3 1099/2/3
f 1115/4/3 1099/4/3 1114/4/3
f 1115/2/3 1101/2/3 1100/2/3
f 1116/14/3 1102/14/3 1101/14/3
f 1116/2/3 1101/2/3 1115/2/3
f 1116/14/3 1103/14/3 1102/14/3
f 1116/14/3 1104/14/3 1103/14/3
f 1117/2/3 1107/2/3 1106/2/3
f 1117/14/3 1104/14/3 1116/14/3
f 1117/2/3 1105/2/3 1104/2/3
f 1117/2/3 1106/2/3 1105/2/3
f 1118/14/3 1109/14/3 1108/14/3
f 1118/2/3 1107/2/3 1117/2/3
f 1118/14/3 1108/14/3 1107/14/3
f 1119/12/3 1110/12/3 1109/12/3
f 1119/14/3 1109/14/3 1118/14/3
f 1120/12/3 1110/12/3 1119/12/3
f 1124/14/3 1122/14/3 1121/14/3
f 1125/12/3 1123/12/3 1122/12/3
f 1125/14/3 1122/14/3 1124/14/3
f 1126/12/3 1123/12/3 1125/12/3
f 1140/14/3 1128/14/3 1127/14/3
f 1141/16/3 1129/16/3 1128/16/3
f 1141/14/3 1128/14/3 1140/14/3
f 1142/14/3 1130/14/3 1129/14/3
f 1142/16/3 1129/16/3 1141/16/3
f 1143/2/3 1131/2/3 1130/2/3
f 1143/14/3 1130/14/3 1142/14/3
f 1143/2/3 1132/2/3 1131/2/3
f 1144/5/3 1133/5/3 1132/5/3
f 1144/2/3 1132/2/3 1143/2/3
f 1145/2/3 1134/2/3 1133/2/3
f 1145/5/3 1133/5/3 1144/5/3
f 1146/5/3 1135/5/3 1134/5/3
f 1146/2/3 1134/2/3 1145/2/3
f 1147/2/3 1136/2/3 1135/2/3
f 1147/5/3 1135/5/3 1146/5/3
f 1147/2/3 1137/2/3 1136/2/3
f 1148/14/3 1138/14/3 1137/14/3
f 1148/2/3 1137/2/3 1147/2/3
f 1149/12/3 1139/12/3 1138/12/3
f 1149/14/3 1138/14/3 1148/14/3
f 1150/12/3 1139/12/3 1149/12/3
f 1151/14/4 1152/14/4 1154/14/4
f 1152/12/4 1153/12/4 1155/12/4
f 1154/14/4 1152/14/4 1155/14/4
f 1155/12/4 1153/12/4 1156/12/4
f 1157/14/4 1158/14/4 1160/14/4
f 1158/12/4 1159/12/4 1161/12/4
f 1160/14/4 1158/14/4 1161/14/4
f 1161/12/4 1159/12/4 1162/12/4
f 1163/14/4 1164/14/4 1166/14/4
f 1164/12/4 1165/12/4 1167/12/4
f 1166/14/4 1164/14/4 1167/14/4
f 1167/12/4 1165/12/4 1168/12/4
f 1169/14/4 1170/14/4 1172/14/4
f 1170/12/4 1171/12/4 1173/12/4
f 1172/14/4 1170/14/4 1173/14/4
f 1173/12/4 1171/12/4 1174/12/4
f 1175/14/4 1176/14/4 1178/14/4
f 1176/12/4 1177/12/4 1179/12/4
f 1178/14/4 1176/14/4 1179/14/4
f 1179/12/4 1177/12/4 1180/12/4
f 1181/14/4 1182/14/4 1184/14/4
f 1182/12/4 1183/12/4 1185/12/4
f 1184/14/4 1182/14/4 1185/14/4
f 1185/12/4 1183/12/4 1186/12/4
f 1187/14/4 1188/14/4 1190/14/4
f 1188/12/4 1189/12/4 1191/12/4
f 1190/14/4 1188/14/4 1191/14/4
f 1191/12/4 1189/12/4 1192/12/4
f 1193/14/4 1194/14/4 1196/14/4
f 1194/12/4 1195/12/4 1197/12/4
f 1196/14/4 1194/14/4 1197/14/4
f 1197/12/4 1195/12/4 1198/12/4
f 1199/14/4 1200/14/4 1202/14/4
f 1200/12/4 1201/12/4 1203/12/4
f 1202/14/4 1200/14/4 1203/14/4
f 1203/12/4 1201/12/4 1204/12/4
f 1205/14/4 1206/14/4 1208/14/4
f 1206/12/4 1207/12/4 1209/12/4
f 1208/14/4 1206/14/4 1209/14/4
f 1209/12/4 1207/12/4 1210/12/4
f 1211/14/4 1212/14/4 1214/14/4
f 1212/12/4 1213/12/4 1215/12/4
f 1214/14/4 1212/14/4 1215/14/4
f 1215/12/4 1213/12/4 1216/12/4
f 1220/14/5 1218/14/5 1217/14/5
f 1221/14/5 1218/14/5 1220/14/5
f 1224/14/5 1220/14/5 1219/14/5
f 1224/14/5 1222/14/5 1221/14/5
f 1224/14/5 1221/14/5 1220/14/5
f 1225/14/5 1222/14/5 1224/14/5
f 1228/14/5 1224/14/5 1223/14/5
f 1228/14/5 1226/14/5 1225/14/5
f 1228/14/5 1225/14/5 1224/14/5
f 1229/14/5 1226/14/5 1228/14/5
f 1232/14/5 1228/14/5 1227/14/5
f 1232/14/5 1230/14/5 1229/14/5
f 1232/14/5 1229/14/5 1228/14/5
f 1233/14/5 1230/14/5 1232/14/5
f 1236/14/5 1232/14/5 1231/14/5
f 1236/14/5 1234/14/5 1233/14/5
f 1236/14/5 1233/14/5 1232/14/5
f 1237/14/5 1234/14/5 1236/14/5
f 1239/14/5 1236/14/5 1235/14/5
f 1239/14/5 1238/14/5 1237/14/5
f 1239/14/5 1237/14/5 1236/14/5
f 1240/14/5 1238/14/5 1239/14/5
f 1241/14/5 1238/14/5 1240/14/5
f 1242/14/5 1238/14/5 1241/14/5
f 1243/14/5 1241/14/5 1240/14/5
f 1244/14/5 1241/14/5 1243/14/5
f 1245/14/5 1241/14/5 1244/14/5
f 1246/14/5 1241/14/5 1245/14/5
f 1247/14/5 1245/14/5 1244/14/5
f 1248/14/5 1245/14/5 1247/14/5
f 1249/14/5 1245/14/5 1248/14/5
f 1250/14/5 1245/14/5 1249/14/5
f 1251/14/5 1249/14/5 1248/14/5
f 1252/14/5 1249/14/5 1251/14/5
f 1253/14/5 1249/14/5 1252/14/5
f 1254/14/5 1249/14/5 1253/14/5
f 1255/14/5 1253/14/5 1252/14/5
f 1256/14/5 1253/14/5 1255/14/5
f 1257/14/5 1253/14/5 1256/14/5
f 1258/14/5 1253/14/5 1257/14/5
f 1259/14/5 1257/14/5 1256/14/5
f 1260/14/5 1257/14/5 1259/14/5
f 1261/12/6 1262/12/6 1264/12/6
f 1264/12/6 1262/12/6 1265/12/6
f 1265/12/6 1262/12/6 1266/12/6
f 1266/12/6 1262/12/6 1267/12/6
f 1263/12/6 1264/12/6 1270/12/6
f 1270/12/6 1264/12/6 1271/12/6
f 1264/1/6 1265/1/6 1272/1/6
f 1271/12/6 1264/12/6 1272/12/6
f 1265/13/6 1266/13/6 1273/13/6
f 1272/1/6 1265/1/6 1273/1/6
f 1273/13/6 1266/13/6 1274/13/6
f 1274/13/6 1266/13/6 1275/13/6
f 1267/12/6 1268/12/6 1276/12/6
f 1275/13/6 1266/13/6 1276/13/6
f 1266/12/6 1267/12/6 1276/12/6
f 1276/12/6 1268/12/6 1277/12/6
f 1277/12/6 1268/12/6 1278/12/6
f 1278/12/6 1268/12/6 1279/12/6
f 1270/12/6 1271/12/6 1282/12/6
f 1269/12/6 1270/12/6 1282/12/6
f 1282/12/6 1271/12/6 1283/12/6
f 1283/12/6 1271/12/6 1284/12/6
f 1271/13/6 1272/13/6 1285/13/6
f 1284/12/6 1271/12/6 1285/12/6
f 1272/1/6 1273/1/6 1286/1/6
f 1285/13/6 1272/13/6 1286/13/6
f 1273/12/6 1274/12/6 1287/12/6
f 1286/1/6 1273/1/6 1287/1/6
f 1274/1/6 1275/1/6 1288/1/6
f 1287/12/6 1274/12/6 1288/12/6
f 1275/12/6 1276/12/6 1289/12/6
f 1288/1/6 1275/1/6 1289/1/6
f 1276/1/6 1277/1/6 1290/1/6
f 1289/12/6 1276/12/6 1290/12/6
f 1277/13/6 1278/13/6 1291/13/6
f 1290/1/6 1277/1/6 1291/1/6
f 1279/12/6 1280/12/6 1292/12/6
f 1291/13/6 1278/13/6 1292/13/6
f 1278/12/6 1279/12/6 1292/12/6
f 1292/12/6 1280/12/6 1293/12/6
f 1293/12/6 1280/12/6 1294/12/6
f 1294/12/6 1280/12/6 1295/12/6
f 1282/12/6 1283/12/6 1297/12/6
f 1281/12/6 1282/12/6 1297/12/6
f 1283/13/6 1284/13/6 1298/13/6
f 1297/12/6 1283/12/6 1298/12/6
f 1284/1/6 1285/1/6 1299/1/6
f 1298/13/6 1284/13/6 1299/13/6
f 1286/12/6 1287/12/6 1300/12/6
f 1299/1/6 1285/1/6 1300/1/6
f 1285/12/6 1286/12/6 1300/12/6
f 1287/13/6 1288/13/6 1301/13/6
f 1300/12/6 1287/12/6 1301/12/6
f 1288/13/6 1289/13/6 1301/13/6
f 1289/13/6 1290/13/6 1301/13/6
f 1301/13/6 1290/13/6 1302/13/6
f 1302/13/6 1290/13/6 1303/13/6
f 1290/1/6 1291/1/6 1304/1/6
f 1303/13/6 1290/13/6 1304/13/6
f 1291/12/6 1292/12/6 1305/12/6
f 1304/1/6 1291/1/6 1305/1/6
f 1292/1/6 1293/1/6 1306/1/6
f 1305/12/6 1292/12/6 1306/12/6
f 1293/13/6 1294/13/6 1307/13/6
f 1306/1/6 1293/1/6 1307/1/6
f 1295/12/6 1296/12/6 1308/12/6
f 1307/13/6 1294/13/6 1308/13/6
f 1294/12/6 1295/12/6 1308/12/6
f 1308/12/6 1296/12/6 1309/12/6
f 1281/12/6 1297/12/6 1311/12/6
f 1297/13/6 1298/13/6 1312/13/6
f 1311/12/6 1297/12/6 1312/12/6
f 1298/1/6 1299/1/6 1313/1/6
f 1312/13/6 1298/13/6 1313/13/6
f 1299/12/6 1300/12/6 1314/12/6
f 1313/1/6 1299/1/6 1314/1/6
f 1300/13/6 1301/13/6 1315/13/6
f 1301/1/6 1302/1/6 1316/1/6
f 1315/13/6 1301/13/6 1316/13/6
f 1302/12/6 1303/12/6 1317/12/6
f 1316/1/6 1302/1/6 1317/1/6
f 1303/1/6 1304/1/6 1318/1/6
f 1317/12/6 1303/12/6 1318/12/6
f 1305/13/6 1306/13/6 1319/13/6
f 1318/1/6 1304/1/6 1319/1/6
f 1304/13/6 1305/13/6 1319/13/6
f 1319/13/6 1306/13/6 1320/13/6
f 1306/12/6 1307/12/6 1321/12/6
f 1307/1/6 1308/1/6 1321/1/6
f 1308/13/6 1309/13/6 1322/13/6
f 1321/1/6 1308/1/6 1322/1/6
f 1309/12/6 1296/12/6 1323/12/6
f 1322/13/6 1309/13/6 1323/13/6
f 1323/12/6 1296/12/6 1324/12/6
f 1311/1/6 1312/1/6 1326/1/6
f 1310/12/6 1311/12/6 1326/12/6
f 1312/1/6 1313/1/6 1326/1/6
f 1326/1/6 1313/1/6 1327/1/6
f 1313/12/6 1314/12/6 1328/12/6
f 1314/12/6 1300/12/6 1328/12/6
f 1300/13/6 1315/13/6 1329/13/6
f 1328/12/6 1300/12/6 1329/12/6
f 1315/1/6 1316/1/6 1330/1/6
f 1329/13/6 1315/13/6 1330/13/6
f 1317/12/6 1318/12/6 1331/12/6
f 1330/1/6 1316/1/6 1331/1/6
f 1316/12/6 1317/12/6 1331/12/6
f 1318/12/6 1319/12/6 1331/12/6
f 1320/13/6 1306/13/6 1332/13/6
f 1319/1/6 1320/1/6 1332/1/6
f 1321/12/6 1322/12/6 1333/12/6
f 1332/13/6 1306/13/6 1333/13/6
f 1306/12/6 1321/12/6 1333/12/6
f 1333/12/6 1322/12/6 1334/12/6
f 1324/12/6 1325/12/6 1335/12/6
f 1323/12/6 1324/12/6 1335/12/6
f 1322/1/6 1323/1/6 1335/1/6
f 1335/12/6 1325/12/6 1336/12/6
f 1310/12/6 1326/12/6 1338/12/6
f 1326/13/6 1327/13/6 1339/13/6
f 1338/12/6 1326/12/6 1339/12/6
f 1327/1/6 1313/1/6 1340/1/6
f 1339/13/6 1327/13/6 1340/13/6
f 1313/12/6 1328/12/6 1341/12/6
f 1340/1/6 1313/1/6 1341/1/6
f 1319/1/6 1332/1/6 1342/1/6
f 1331/12/6 1319/12/6 1342/12/6
f 1332/1/6 1333/1/6 1342/1/6
f 1330/12/6 1331/12/6 1342/12/6
f 1342/1/6 1333/1/6 1343/1/6
f 1334/12/6 1322/12/6 1344/12/6
f 1322/1/6 1335/1/6 1344/1/6
f 1335/13/6 1336/13/6 1345/13/6
f 1344/1/6 1335/1/6 1345/1/6
f 1336/12/6 1325/12/6 1346/12/6
f 1345/13/6 1336/13/6 1346/13/6
f 1346/12/6 1325/12/6 1347/12/6
f 1338/12/6 1339/12/6 1349/12/6
f 1337/12/6 1338/12/6 1349/12/6
f 1339/1/6 1340/1/6 1350/1/6
f 1349/12/6 1339/12/6 1350/12/6
f 1340/12/6 1341/12/6 1351/12/6
f 1350/1/6 1340/1/6 1351/1/6
f 1342/12/6 1343/12/6 1352/12/6
f 1330/12/6 1342/12/6 1352/12/6
f 1352/12/6 1343/12/6 1353/12/6
f 1353/12/6 1343/12/6 1354/12/6
f 1354/12/6 1343/12/6 1355/12/6
f 1347/12/6 1348/12/6 1356/12/6
f 1346/12/6 1347/12/6 1356/12/6
f 1345/1/6 1346/1/6 1356/1/6
f 1356/12/6 1348/12/6 1357/12/6
f 1329/1/6 1330/1/6 1358/1/6
f 1330/12/6 1352/12/6 1358/12/6
f 1352/1/6 1353/1/6 1359/1/6
f 1358/12/6 1352/12/6 1359/12/6
f 1353/12/6 1354/12/6 1360/12/6
f 1359/1/6 1353/1/6 1360/1/6
f 1354/1/6 1355/1/6 1361/1/6
f 1360/12/6 1354/12/6 1361/12/6
f 1355/12/6 1343/12/6 1362/12/6
f 1361/1/6 1355/1/6 1362/1/6
f 1343/1/6 1333/1/6 1363/1/6
f 1362/12/6 1343/12/6 1363/12/6
f 1344/12/6 1345/12/6 1364/12/6
f 1345/1/6 1356/1/6 1364/1/6
f 1356/13/6 1357/13/6 1365/13/6
f 1364/1/6 1356/1/6 1365/1/6
f 1328/13/6 1329/13/6 1366/13/6
f 1341/12/6 1328/12/6 1366/12/6
f 1351/12/6 1341/12/6 1366/12/6
f 1350/12/6 1351/12/6 1366/12/6
f 1329/1/6 1358/1/6 1367/1/6
f 1366/13/6 1329/13/6 1367/13/6
f 1358/1/6 1359/1/6 1367/1/6
f 1367/1/6 1359/1/6 1368/1/6
f 1361/8/6 1362/8/6 1369/8/6
f 1368/1/6 1359/1/6 1369/1/6
f 1360/8/6 1361/8/6 1369/8/6
f 1359/8/6 1360/8/6 1369/8/6
f 1369/8/6 1362/8/6 1370/8/6
f 1370/8/6 1362/8/6 1371/8/6
f 1362/1/6 1363/1/6 1372/1/6
f 1371/8/6 1362/8/6 1372/8/6
f 1363/1/6 1333/1/6 1373/1/6
f 1372/1/6 1363/1/6 1373/1/6
f 1333/13/6 1334/13/6 1374/13/6
f 1373/1/6 1333/1/6 1374/1/6
f 1364/12/6 1365/12/6 1375/12/6
f 1374/13/6 1334/13/6 1375/13/6
f 1344/12/6 1364/12/6 1375/12/6
f 1334/12/6 1344/12/6 1375/12/6
f 1375/12/6 1365/12/6 1376/12/6
f 1365/13/6 1357/13/6 1377/13/6
f 1376/12/6 1365/12/6 1377/12/6
f 1369/10/6 1370/10/6 1378/10/6
f 1368/8/6 1369/8/6 1378/8/6
f 1370/12/6 1371/12/6 1379/12/6
f 1378/10/6 1370/10/6 1379/10/6
f 1371/10/6 1372/10/6 1380/10/6
f 1379/12/6 1371/12/6 1380/12/6
f 1372/8/6 1373/8/6 1381/8/6
f 1380/10/6 1372/10/6 1381/10/6
f 1373/13/6 1374/13/6 1382/13/6
f 1374/1/6 1375/1/6 1382/1/6
f 1375/12/6 1376/12/6 1383/12/6
f 1382/1/6 1375/1/6 1383/1/6
f 1349/13/6 1350/13/6 1384/13/6
f 1337/12/6 1349/12/6 1384/12/6
f 1366/12/6 1367/12/6 1385/12/6
f 1384/13/6 1350/13/6 1385/13/6
f 1350/12/6 1366/12/6 1385/12/6
f 1385/12/6 1367/12/6 1386/12/6
f 1386/12/6 1367/12/6 1387/12/6
f 1367/13/6 1368/13/6 1388/13/6
f 1387/12/6 1367/12/6 1388/12/6
f 1368/8/6 1378/8/6 1389/8/6
f 1388/13/6 1368/13/6 1389/13/6
f 1378/9/6 1379/9/6 1390/9/6
f 1389/8/6 1378/8/6 1390/8/6
f 1379/1/6 1380/1/6 1391/1/6
f 1390/9/6 1379/9/6 1391/9/6
f 1380/9/6 1381/9/6 1392/9/6
f 1391/1/6 1380/1/6 1392/1/6
f 1381/8/6 1373/8/6 1393/8/6
f 1392/9/6 1381/9/6 1393/9/6
f 1373/13/6 1382/13/6 1394/13/6
f 1393/8/6 1373/8/6 1394/8/6
f 1382/12/6 1383/12/6 1395/12/6
f 1394/13/6 1382/13/6 1395/13/6
f 1383/12/6 1376/12/6 1396/12/6
f 1395/12/6 1383/12/6 1396/12/6
f 1377/13/6 1357/13/6 1397/13/6
f 1376/1/6 1377/1/6 1397/1/6
f 1357/12/6 1348/12/6 1398/12/6
f 1397/13/6 1357/13/6 1398/13/6
f 1337/12/6 1384/12/6 1399/12/6
f 1384/1/6 1385/1/6 1400/1/6
f 1399/12/6 1384/12/6 1400/12/6
f 1385/1/6 1386/1/6 1400/1/6
f 1400/1/6 1386/1/6 1401/1/6
f 1391/9/6 1392/9/6 1402/9/6
f 1389/8/6 1390/8/6 1402/8/6
f 1388/8/6 1389/8/6 1402/8/6
f 1390/8/6 1391/8/6 1402/8/6
f 1392/8/6 1393/8/6 1403/8/6
f 1402/9/6 1392/9/6 1403/9/6
f 1394/8/6 1395/8/6 1403/8/6
f 1393/8/6 1394/8/6 1403/8/6
f 1396/12/6 1376/12/6 1404/12/6
f 1395/1/6 1396/1/6 1404/1/6
f 1376/1/6 1397/1/6 1405/1/6
f 1404/12/6 1376/12/6 1405/12/6
f 1397/12/6 1398/12/6 1406/12/6
f 1405/1/6 1397/1/6 1406/1/6
f 1398/12/6 1348/12/6 1407/12/6
f 1406/12/6 1398/12/6 1407/12/6
f 1407/12/6 1348/12/6 1408/12/6
f 1386/12/6 1387/12/6 1409/12/6
f 1401/1/6 1386/1/6 1409/1/6
f 1409/12/6 1387/12/6 1410/12/6
f 1388/8/6 1402/8/6 1411/8/6
f 1402/8/6 1403/8/6 1411/8/6
f 1411/8/6 1403/8/6 1412/8/6
f 1403/8/6 1395/8/6 1413/8/6
f 1412/8/6 1403/8/6 1413/8/6
f 1413/8/6 1395/8/6 1414/8/6
f 1405/13/6 1406/13/6 1415/13/6
f 1404/1/6 1405/1/6 1415/1/6
f 1406/12/6 1407/12/6 1416/12/6
f 1415/13/6 1406/13/6 1416/13/6
f 1400/12/6 1401/12/6 1417/12/6
f 1409/1/6 1410/1/6 1418/1/6
f 1417/12/6 1401/12/6 1418/12/6
f 1401/1/6 1409/1/6 1418/1/6
f 1418/1/6 1410/1/6 1419/1/6
f 1410/12/6 1387/12/6 1420/12/6
f 1419/1/6 1410/1/6 1420/1/6
f 1387/1/6 1388/1/6 1421/1/6
f 1420/12/6 1387/12/6 1421/12/6
f 1411/10/6 1412/10/6 1422/10/6
f 1388/8/6 1411/8/6 1422/8/6
f 1412/9/6 1413/9/6 1423/9/6
f 1422/10/6 1412/10/6 1423/10/6
f 1413/10/6 1414/10/6 1424/10/6
f 1423/9/6 1413/9/6 1424/9/6
f 1414/8/6 1395/8/6 1425/8/6
f 1424/10/6 1414/10/6 1425/10/6
f 1404/1/6 1415/1/6 1426/1/6
f 1395/1/6 1404/1/6 1426/1/6
f 1426/1/6 1415/1/6 1427/1/6
f 1415/12/6 1416/12/6 1428/12/6
f 1427/1/6 1415/1/6 1428/1/6
f 1416/12/6 1407/12/6 1429/12/6
f 1428/12/6 1416/12/6 1429/12/6
f 1429/12/6 1407/12/6 1430/12/6
f 1418/12/6 1419/12/6 1431/12/6
f 1419/13/6 1420/13/6 1431/13/6
f 1420/1/6 1421/1/6 1432/1/6
f 1431/13/6 1420/13/6 1432/13/6
f 1421/1/6 1388/1/6 1433/1/6
f 1432/1/6 1421/1/6 1433/1/6
f 1388/8/6 1422/8/6 1434/8/6
f 1433/1/6 1388/1/6 1434/1/6
f 1434/8/6 1422/8/6 1435/8/6
f 1422/9/6 1423/9/6 1436/9/6
f 1435/8/6 1422/8/6 1436/8/6
f 1423/10/6 1424/10/6 1437/10/6
f 1436/9/6 1423/9/6 1437/9/6
f 1424/9/6 1425/9/6 1438/9/6
f 1437/10/6 1424/10/6 1438/10/6
f 1425/8/6 1395/8/6 1439/8/6
f 1438/9/6 1425/9/6 1439/9/6
f 1439/8/6 1395/8/6 1440/8/6
f 1395/1/6 1426/1/6 1441/1/6
f 1440/8/6 1395/8/6 1441/8/6
f 1426/12/6 1427/12/6 1442/12/6
f 1441/1/6 1426/1/6 1442/1/6
f 1427/13/6 1428/13/6 1443/13/6
f 1442/12/6 1427/12/6 1443/12/6
f 1428/12/6 1429/12/6 1444/12/6
f 1443/13/6 1428/13/6 1444/13/6
f 1431/12/6 1432/12/6 1445/12/6
f 1418/12/6 1431/12/6 1445/12/6
f 1445/12/6 1432/12/6 1446/12/6
f 1432/13/6 1433/13/6 1447/13/6
f 1446/12/6 1432/12/6 1447/12/6
f 1434/1/6 1435/1/6 1448/1/6
f 1447/13/6 1433/13/6 1448/13/6
f 1433/1/6 1434/1/6 1448/1/6
f 1448/1/6 1435/1/6 1449/1/6
f 1436/8/6 1437/8/6 1450/8/6
f 1449/1/6 1435/1/6 1450/1/6
f 1435/8/6 1436/8/6 1450/8/6
f 1450/8/6 1437/8/6 1451/8/6
f 1437/9/6 1438/9/6 1452/9/6
f 1451/8/6 1437/8/6 1452/8/6
f 1439/8/6 1440/8/6 1453/8/6
f 1452/9/6 1438/9/6 1453/9/6
f 1438/8/6 1439/8/6 1453/8/6
f 1453/8/6 1440/8/6 1454/8/6
f 1440/1/6 1441/1/6 1455/1/6
f 1454/8/6 1440/8/6 1455/8/6
f 1441/12/6 1442/12/6 1456/12/6
f 1455/1/6 1441/1/6 1456/1/6
f 1442/13/6 1443/13/6 1457/13/6
f 1456/12/6 1442/12/6 1457/12/6
f 1443/12/6 1444/12/6 1458/12/6
f 1457/13/6 1443/13/6 1458/13/6
f 1444/12/6 1429/12/6 1459/12/6
f 1458/12/6 1444/12/6 1459/12/6
f 1459/12/6 1429/12/6 1460/12/6
f 1448/12/6 1449/12/6 1461/12/6
f 1447/12/6 1448/12/6 1461/12/6
f 1446/12/6 1447/12/6 1461/12/6
f 1461/12/6 1449/12/6 1462/12/6
f 1449/13/6 1450/13/6 1463/13/6
f 1462/12/6 1449/12/6 1463/12/6
f 1450/1/6 1451/1/6 1464/1/6
f 1463/13/6 1450/13/6 1464/13/6
f 1452/8/6 1453/8/6 1465/8/6
f 1464/1/6 1451/1/6 1465/1/6
f 1453/8/6 1454/8/6 1465/8/6
f 1451/8/6 1452/8/6 1465/8/6
f 1454/1/6 1455/1/6 1466/1/6
f 1465/8/6 1454/8/6 1466/8/6
f 1455/13/6 1456/13/6 1467/13/6
f 1466/1/6 1455/1/6 1467/1/6
f 1458/12/6 1459/12/6 1468/12/6
f 1467/13/6 1456/13/6 1468/13/6
f 1457/12/6 1458/12/6 1468/12/6
f 1456/12/6 1457/12/6 1468/12/6
f 1468/12/6 1459/12/6 1469/12/6
f 1469/12/6 1459/12/6 1470/12/6
f 1462/12/6 1463/12/6 1471/12/6
f 1464/12/6 1465/12/6 1471/12/6
f 1463/12/6 1464/12/6 1471/12/6
f 1471/12/6 1465/12/6 1472/12/6
f 1465/13/6 1466/13/6 1473/13/6
f 1472/12/6 1465/12/6 1473/12/6
f 1468/12/6 1469/12/6 1474/12/6
f 1473/13/6 1466/13/6 1474/13/6
f 1466/12/6 1467/12/6 1474/12/6
f 1467/12/6 1468/12/6 1474/12/6
f 1474/12/6 1469/12/6 1475/12/6
f 1475/12/6 1469/12/6 1476/12/6
f 1472/12/6 1473/12/6 1477/12/6
f 1474/12/6 1475/12/6 1477/12/6
f 1473/12/6 1474/12/6 1477/12/6
f 1477/12/6 1475/12/6 1478/12/6
